0.00029101 100000 901 0
0.00029101 2.36321e-05
0.000297435 2.31132e-05
0.000304002 2.32743e-05
0.000310715 2.38431e-05
0.000317575 2.45701e-05
0.000324587 2.53132e-05
0.000331753 2.60198e-05
0.000339078 2.6632e-05
0.000346565 2.71485e-05
0.000354217 2.76092e-05
0.000362037 2.79653e-05
0.000370031 2.83163e-05
0.000378201 2.86749e-05
0.000386551 2.90415e-05
0.000395086 2.94162e-05
0.000403809 2.97991e-05
0.000412725 3.01905e-05
0.000421838 3.05906e-05
0.000431151 3.09994e-05
0.000440671 3.14174e-05
0.0004504 3.18445e-05
0.000460345 3.22778e-05
0.000470509 3.26298e-05
0.000480897 3.29894e-05
0.000491515 3.33571e-05
0.000502368 3.36789e-05
0.000513459 3.39764e-05
0.000524796 3.42805e-05
0.000536383 3.45913e-05
0.000548226 3.49089e-05
0.000560331 3.52336e-05
0.000572702 3.55654e-05
0.000585347 3.58811e-05
0.000598271 3.6171e-05
0.00061148 3.64672e-05
0.000624981 3.677e-05
0.00063878 3.70795e-05
0.000652884 3.73958e-05
0.000667299 3.76815e-05
0.000682033 3.79282e-05
0.000697091 3.81803e-05
0.000712483 3.8438e-05
0.000728214 3.87014e-05
0.000744292 3.89706e-05
0.000760725 3.92379e-05
0.000777522 3.94578e-05
0.000794689 3.96825e-05
0.000812235 3.99123e-05
0.000830168 4.0147e-05
0.000848498 4.0387e-05
0.000867232 4.06322e-05
0.00088638 4.08829e-05
0.00090595 4.11222e-05
0.000925953 4.13066e-05
0.000946397 4.14951e-05
0.000967293 4.16878e-05
0.00098865 4.18847e-05
0.00101048 4.2086e-05
0.00103279 4.22917e-05
0.00105559 4.2502e-05
0.0010789 4.26666e-05
0.00110272 4.28253e-05
0.00112707 4.29875e-05
0.00115195 4.31533e-05
0.00117739 4.33228e-05
0.00120338 4.3496e-05
0.00122995 4.3673e-05
0.00125711 4.38226e-05
0.00128486 4.39383e-05
0.00131323 4.40566e-05
0.00134223 4.41775e-05
0.00137186 4.43011e-05
0.00140215 4.44274e-05
0.00143311 4.45565e-05
0.00146475 4.46885e-05
0.00149709 4.48233e-05
0.00153015 4.493e-05
0.00156393 4.50073e-05
0.00159846 4.50863e-05
0.00163376 4.5167e-05
0.00166983 4.52496e-05
0.0017067 4.53339e-05
0.00174438 4.54202e-05
0.00178289 4.55083e-05
0.00182226 4.55951e-05
0.00186249 4.56366e-05
0.00190361 4.5679e-05
0.00194564 4.57223e-05
0.0019886 4.57666e-05
0.00203251 4.58119e-05
0.00207739 4.58581e-05
0.00212325 4.59054e-05
0.00217013 4.59537e-05
0.00221805 4.59764e-05
0.00226702 4.59836e-05
0.00231707 4.5991e-05
0.00236823 4.59985e-05
0.00242052 4.60062e-05
0.00247396 4.60141e-05
0.00252859 4.60221e-05
0.00258442 4.60304e-05
0.00264148 4.60388e-05
0.0026998 4.60243e-05
0.00275941 4.59978e-05
0.00282034 4.59708e-05
0.00288261 4.59432e-05
0.00294625 4.5915e-05
0.0030113 4.58861e-05
0.00307779 4.58567e-05
0.00314575 4.58265e-05
0.0032152 4.57957e-05
0.00328619 4.57598e-05
0.00335875 4.57023e-05
0.0034329 4.56435e-05
0.0035087 4.55835e-05
0.00358617 4.55221e-05
0.00366535 4.54594e-05
0.00374628 4.53953e-05
0.00382899 4.53297e-05
0.00391353 4.52627e-05
0.00399994 4.51943e-05
0.00408826 4.51128e-05
0.00417852 4.50242e-05
0.00427078 4.49337e-05
0.00436508 4.48412e-05
0.00446145 4.47466e-05
0.00455996 4.465e-05
0.00466064 4.45512e-05
0.00476354 4.44502e-05
0.00486872 4.4347e-05
0.00497621 4.42416e-05
0.00508608 4.41977e-05
0.00519838 4.41664e-05
0.00531316 4.41105e-05
0.00543047 4.40328e-05
0.00555037 4.39361e-05
0.00567291 4.38227e-05
0.00579817 4.36948e-05
0.00592619 4.35544e-05
0.00605703 4.34032e-05
0.00619077 4.32428e-05
0.00632745 4.30747e-05
0.00646716 4.29001e-05
0.00660995 4.27202e-05
0.00675589 4.25359e-05
0.00690506 4.23483e-05
0.00705751 4.2158e-05
0.00721334 4.19658e-05
0.0073726 4.17722e-05
0.00753538 4.15778e-05
0.00770176 4.13831e-05
0.00787181 4.11884e-05
0.00804561 4.0994e-05
0.00822325 4.08003e-05
0.00840481 4.06073e-05
0.00859039 4.04154e-05
0.00878005 4.02245e-05
0.00897391 4.00349e-05
0.00917205 3.98465e-05
0.00937456 3.96594e-05
0.00958154 3.94736e-05
0.00979309 3.92891e-05
0.0100093 3.91057e-05
0.0102303 3.89236e-05
0.0104562 3.87425e-05
0.0106871 3.85624e-05
0.010923 3.83831e-05
0.0111642 3.82047e-05
0.0114107 3.80269e-05
0.0116626 3.78496e-05
0.0119201 3.76726e-05
0.0121833 3.74959e-05
0.0124523 3.73194e-05
0.0127272 3.71427e-05
0.0130083 3.69659e-05
0.0132955 3.67887e-05
0.013589 3.6611e-05
0.0138891 3.64327e-05
0.0141957 3.62536e-05
0.0145091 3.60736e-05
0.0148295 3.58926e-05
0.0151569 3.57104e-05
0.0154916 3.55269e-05
0.0158336 3.53419e-05
0.0161832 3.51554e-05
0.0165405 3.49673e-05
0.0169057 3.47774e-05
0.017279 3.45857e-05
0.0176605 3.4392e-05
0.0180504 3.41963e-05
0.018449 3.39986e-05
0.0188563 3.37986e-05
0.0192726 3.35965e-05
0.0196982 3.33922e-05
0.0201331 3.31856e-05
0.0205776 3.29767e-05
0.0210319 3.27655e-05
0.0214963 3.25519e-05
0.0219709 3.23361e-05
0.022456 3.2118e-05
0.0229518 3.18976e-05
0.0234586 3.16751e-05
0.0239765 3.14505e-05
0.0245059 3.12237e-05
0.025047 3.09951e-05
0.0256 3.07646e-05
0.0261652 3.05323e-05
0.0267429 3.02985e-05
0.0273334 3.00632e-05
0.0279369 2.98266e-05
0.0285537 2.9589e-05
0.0291842 2.93506e-05
0.0298285 2.91115e-05
0.0304871 2.8872e-05
0.0311602 2.86325e-05
0.0318482 2.83931e-05
0.0325514 2.81543e-05
0.0332701 2.79163e-05
0.0340047 2.76796e-05
0.0347555 2.74446e-05
0.0355229 2.72116e-05
0.0363072 2.69812e-05
0.0371088 2.67537e-05
0.0379282 2.65299e-05
0.0387656 2.63101e-05
0.0396215 2.60951e-05
0.0404963 2.58854e-05
0.0413904 2.56816e-05
0.0423043 2.54846e-05
0.0432384 2.52951e-05
0.044193 2.51138e-05
0.0451688 2.49416e-05
0.0461661 2.47795e-05
0.0471854 2.46283e-05
0.0482272 2.4489e-05
0.049292 2.43627e-05
0.0503803 2.42506e-05
0.0514927 2.41537e-05
0.0526296 2.40734e-05
0.0537916 2.40109e-05
0.0549793 2.3854e-05
0.0561932 2.36213e-05
0.0574339 2.34006e-05
0.058702 2.31906e-05
0.0599981 2.29903e-05
0.0613228 2.27985e-05
0.0626767 2.26144e-05
0.0640606 2.2437e-05
0.065475 2.22656e-05
0.0669206 2.20996e-05
0.0683982 2.19382e-05
0.0699084 2.1781e-05
0.0714519 2.16275e-05
0.0730295 2.14772e-05
0.0746419 2.13298e-05
0.07629 2.11848e-05
0.0779744 2.10421e-05
0.079696 2.09013e-05
0.0814556 2.07623e-05
0.0832541 2.06248e-05
0.0850923 2.04887e-05
0.086971 2.03539e-05
0.0888913 2.02201e-05
0.0908539 2.00875e-05
0.0928599 1.99558e-05
0.0949102 1.9825e-05
0.0970057 1.96951e-05
0.0991475 1.95661e-05
0.101337 1.94379e-05
0.103574 1.93105e-05
0.105861 1.9184e-05
0.108198 1.90584e-05
0.110587 1.89337e-05
0.113029 1.88099e-05
0.115524 1.86871e-05
0.118075 1.85653e-05
0.120682 1.84446e-05
0.123347 1.8325e-05
0.12607 1.82066e-05
0.128854 1.80894e-05
0.131699 1.79735e-05
0.134606 1.7859e-05
0.137578 1.77459e-05
0.140616 1.76343e-05
0.143721 1.75242e-05
0.146894 1.74158e-05
0.150137 1.73091e-05
0.153452 1.72041e-05
0.15684 1.7101e-05
0.160303 1.69998e-05
0.163842 1.69006e-05
0.16746 1.68034e-05
0.171157 1.67083e-05
0.174936 1.66155e-05
0.178799 1.65249e-05
0.182747 1.64366e-05
0.186781 1.63507e-05
0.190905 1.62673e-05
0.19512 1.61864e-05
0.199429 1.61082e-05
0.203832 1.60326e-05
0.208332 1.59598e-05
0.212932 1.58897e-05
0.217633 1.58226e-05
0.222439 1.57585e-05
0.22735 1.56973e-05
0.23237 1.56393e-05
0.2375 1.55844e-05
0.242744 1.55328e-05
0.248103 1.54845e-05
0.253581 1.54396e-05
0.25918 1.53981e-05
0.264903 1.53602e-05
0.270752 1.5326e-05
0.27673 1.52954e-05
0.28284 1.52686e-05
0.289084 1.52457e-05
0.295467 1.52267e-05
0.301991 1.52117e-05
0.308659 1.52009e-05
0.315474 1.51943e-05
0.322439 1.5192e-05
0.329558 1.51942e-05
0.336834 1.52008e-05
0.344271 1.52121e-05
0.351873 1.5228e-05
0.359642 1.52488e-05
0.367582 1.52746e-05
0.375698 1.53054e-05
0.383993 1.53414e-05
0.392472 1.53827e-05
0.401137 1.54295e-05
0.409994 1.54819e-05
0.419046 1.55399e-05
0.428298 1.56039e-05
0.437755 1.56739e-05
0.44742 1.57501e-05
0.457299 1.58326e-05
0.467396 1.59217e-05
0.477715 1.60174e-05
0.488263 1.61201e-05
0.499043 1.62299e-05
0.510062 1.6347e-05
0.521324 1.64716e-05
0.532834 1.66039e-05
0.544599 1.67442e-05
0.556623 1.68927e-05
0.568913 1.70496e-05
0.581474 1.72153e-05
0.594312 1.739e-05
0.607434 1.75739e-05
0.620846 1.77674e-05
0.634554 1.79708e-05
0.648564 1.81844e-05
0.662884 1.84085e-05
0.67752 1.86435e-05
0.692479 1.88898e-05
0.707768 1.91477e-05
0.723395 1.94177e-05
0.739367 1.97001e-05
0.755692 1.99953e-05
0.772377 2.0304e-05
0.78943 2.06264e-05
0.80686 2.09631e-05
0.824675 2.13146e-05
0.842883 2.16814e-05
0.861494 2.20642e-05
0.880515 2.24634e-05
0.899956 2.28797e-05
0.919826 2.33137e-05
0.940135 2.3766e-05
0.960892 2.42375e-05
0.982108 2.47287e-05
1.00379 2.52404e-05
1.02596 2.57734e-05
1.04861 2.63286e-05
1.07176 2.69067e-05
1.09542 2.75086e-05
1.11961 2.81353e-05
1.14433 2.87878e-05
1.1696 2.9467e-05
1.19542 3.01739e-05
1.22181 3.09098e-05
1.24879 3.16757e-05
1.27636 3.24727e-05
1.30454 3.33023e-05
1.33335 3.41655e-05
1.36279 3.50639e-05
1.39287 3.59987e-05
1.42363 3.69716e-05
1.45506 3.79839e-05
1.48719 3.90373e-05
1.52002 4.01335e-05
1.55358 4.12742e-05
1.58789 4.24612e-05
1.62295 4.36964e-05
1.65878 4.49819e-05
1.6954 4.63196e-05
1.73284 4.77117e-05
1.7711 4.91604e-05
1.8102 5.06682e-05
1.85017 5.22374e-05
1.89102 5.38705e-05
1.93277 5.55704e-05
1.97544 5.73396e-05
2.01906 5.91812e-05
2.06364 6.10981e-05
2.1092 6.30936e-05
2.15577 6.51708e-05
2.20337 6.73333e-05
2.25202 6.95845e-05
2.30174 7.19284e-05
2.35256 7.43687e-05
2.40451 7.69095e-05
2.45759 7.95552e-05
2.51186 8.231e-05
2.56732 8.51788e-05
2.624 8.81662e-05
2.68194 9.12774e-05
2.74115 9.45176e-05
2.80167 9.78923e-05
2.86353 0.000101407
2.92676 0.000105068
2.99138 0.000108882
3.05742 0.000112855
3.12493 0.000116993
3.19393 0.000121305
3.26445 0.000125797
3.33652 0.000130476
3.41019 0.000135353
3.48548 0.000140433
3.56244 0.000145727
3.6411 0.000151244
3.72149 0.000156993
3.80366 0.000162985
3.88764 0.000169229
3.97347 0.000175736
4.0612 0.000182519
4.15087 0.000189589
4.24252 0.000196958
4.33619 0.000204639
4.43193 0.000212647
4.52978 0.000220995
4.6298 0.000229697
4.73202 0.00023877
4.8365 0.000248229
4.94329 0.000258091
5.05243 0.000268374
5.16398 0.000279096
5.278 0.000290276
5.39453 0.000301935
5.51364 0.000314093
5.63538 0.000326771
5.7598 0.000339993
5.88697 0.000353782
6.01695 0.000368164
6.1498 0.000383163
6.28559 0.000398808
6.42437 0.000415126
6.56621 0.000432146
6.71119 0.000449901
6.85937 0.000468421
7.01082 0.00048774
7.16561 0.000507894
7.32382 0.000528919
7.48552 0.000550852
7.6508 0.000573736
7.81972 0.00059761
7.99237 0.000622518
8.16884 0.000648506
8.3492 0.000675622
8.53354 0.000703914
8.72196 0.000733435
8.91453 0.000764239
9.11136 0.000796382
9.31253 0.000829924
9.51814 0.000864925
9.72829 0.000901451
9.94309 0.000939568
10.1626 0.000979346
10.387 0.00102086
10.6163 0.00106418
10.8507 0.0011094
11.0903 0.00115659
11.3352 0.00120584
11.5855 0.00125725
11.8413 0.0013109
12.1027 0.0013669
12.3699 0.00142536
12.643 0.00148637
12.9222 0.00155005
13.2075 0.00161653
13.4991 0.00168592
13.7972 0.00175835
14.1018 0.00183396
14.4131 0.00191289
14.7314 0.00199528
15.0566 0.0020813
15.3891 0.00217109
15.7288 0.00226483
16.0761 0.00236269
16.4311 0.00246485
16.7939 0.00257151
17.1646 0.00268286
17.5436 0.00279911
17.931 0.00292049
18.3269 0.0030472
18.7315 0.0031795
19.1451 0.00331764
19.5678 0.00346186
19.9999 0.00361244
20.4414 0.00376966
20.8928 0.00393381
21.3541 0.00410521
21.8255 0.00428418
22.3074 0.00447105
22.8 0.00466617
23.3034 0.00486991
23.8179 0.00508265
24.3438 0.00530479
24.8813 0.00553675
25.4306 0.00577896
25.9921 0.00603189
26.566 0.006296
27.1525 0.00657179
27.752 0.00685979
28.3648 0.00716053
28.9911 0.00747459
29.6312 0.00780254
30.2854 0.00814502
30.9541 0.00850267
31.6375 0.00887615
32.336 0.00926619
33.05 0.0096735
33.7797 0.0100989
34.5255 0.0105431
35.2878 0.011007
36.067 0.0114915
36.8633 0.0119974
37.6772 0.0125258
38.5091 0.0130777
39.3593 0.013654
40.2284 0.0142559
41.1166 0.0148845
42.0244 0.015541
42.9522 0.0162266
43.9006 0.0169427
44.8699 0.0176905
45.8606 0.0184716
46.8731 0.0192873
47.9081 0.0201393
48.9658 0.0210291
50.047 0.0219585
51.152 0.0229291
52.2814 0.0239428
53.4357 0.0250017
54.6155 0.0261075
55.8214 0.0272625
57.0539 0.0284689
58.3136 0.0297288
59.6011 0.0310448
60.917 0.0324193
62.262 0.033855
63.6367 0.0353544
65.0418 0.0369206
66.4778 0.0385564
67.9456 0.0402649
69.4458 0.0420495
70.9791 0.0439135
72.5463 0.0458603
74.148 0.0478939
75.7852 0.0500178
77.4584 0.0522364
79.1686 0.0545536
80.9166 0.056974
82.7032 0.0595021
84.5292 0.0621427
86.3956 0.0649009
88.3031 0.0677819
90.2528 0.0707912
92.2455 0.0739344
94.2822 0.0772176
96.3638 0.080647
98.4915 0.0842291
100.666 0.0879707
102.889 0.091879
105.16 0.0959613
107.482 0.100225
109.855 0.10468
112.281 0.109332
114.76 0.114192
117.294 0.119268
119.884 0.124571
122.53 0.130109
125.236 0.135895
128.001 0.141938
130.827 0.14825
133.716 0.154844
136.668 0.161732
139.686 0.168926
142.77 0.176442
145.922 0.184292
149.144 0.192492
152.437 0.201058
155.802 0.210005
159.242 0.219351
162.758 0.229114
166.352 0.239312
170.025 0.249965
173.779 0.261092
177.616 0.272716
181.537 0.284858
185.546 0.297541
189.642 0.31079
193.829 0.324629
198.109 0.339085
202.483 0.354187
206.954 0.369961
211.523 0.386439
216.193 0.403652
220.967 0.421632
225.846 0.440414
230.832 0.460034
235.929 0.480529
241.138 0.501938
246.462 0.524301
251.903 0.547663
257.465 0.572066
263.15 0.597557
268.96 0.624186
274.899 0.652002
280.968 0.681059
287.172 0.711412
293.512 0.74312
299.993 0.776241
306.616 0.81084
313.386 0.846983
320.305 0.884738
327.377 0.924177
334.606 0.965376
341.993 1.00841
349.544 1.05337
357.262 1.10033
365.15 1.14939
373.212 1.20064
381.453 1.25417
389.875 1.31009
398.483 1.36851
407.281 1.42953
416.274 1.49327
425.464 1.55986
434.858 1.62942
444.46 1.70209
454.273 1.778
464.303 1.85729
474.554 1.94012
485.032 2.02665
495.741 2.11704
506.687 2.21146
517.874 2.3101
529.308 2.41314
540.995 2.52078
552.94 2.63322
565.148 2.75067
577.626 2.87337
590.38 3.00155
603.415 3.13544
616.738 3.27532
630.355 3.42143
644.273 3.57406
658.498 3.73351
673.037 3.90007
687.897 4.07406
703.085 4.25582
718.609 4.44569
734.475 4.64404
750.692 4.85124
767.266 5.06769
784.207 5.29379
801.521 5.52999
819.218 5.77673
837.306 6.03448
855.793 6.30374
874.688 6.58501
894.001 6.87884
913.74 7.18578
933.914 7.50643
954.534 7.84138
975.61 8.19129
997.15 8.55681
1019.17 8.93865
1041.67 9.33753
1064.67 9.75421
1088.18 10.1895
1112.2 10.6442
1136.76 11.1192
1161.86 11.6154
1187.51 12.1338
1213.73 12.6753
1240.53 13.241
1267.92 13.8319
1295.91 14.4492
1324.52 15.094
1353.77 15.7677
1383.66 16.4714
1414.21 17.2065
1445.43 17.9744
1477.35 18.7766
1509.97 19.6147
1543.3 20.4901
1577.38 21.4046
1612.21 22.3599
1647.8 23.3579
1684.18 24.4004
1721.37 25.4895
1759.38 26.6272
1798.22 27.8156
1837.93 29.0571
1878.51 30.3541
1919.98 31.7089
1962.37 33.1242
2005.7 34.6027
2049.99 36.1472
2095.25 37.7606
2141.51 39.4461
2188.79 41.2068
2237.12 43.0461
2286.51 44.9675
2337 46.9747
2388.59 49.0714
2441.33 51.2618
2495.24 53.55
2550.33 55.9403
2606.64 58.4373
2664.19 61.0458
2723.01 63.7708
2783.14 66.6174
2844.58 69.591
2907.39 72.6975
2971.58 75.9425
3037.19 79.3325
3104.25 82.8738
3172.79 86.5732
3242.84 90.4377
3314.44 94.4748
3387.62 98.6921
3462.42 103.098
3538.87 107.7
3617 112.508
3696.86 117.53
3778.49 122.776
3861.91 128.257
3947.18 133.983
4034.33 139.964
4123.41 146.212
4214.45 152.739
4307.5 159.557
4402.61 166.68
4499.81 174.12
4599.16 181.893
4700.71 190.013
4804.5 198.496
4910.58 207.357
5019 216.613
5129.81 226.283
5243.08 236.385
5358.84 246.938
5477.16 257.961
5598.09 269.477
5721.69 281.507
5848.02 294.074
5977.14 307.202
6109.11 320.917
6244 335.243
6381.86 350.209
6522.76 365.843
6666.78 382.176
6813.98 399.237
6964.43 417.06
7118.19 435.678
7275.36 455.128
7435.99 475.447
7600.17 496.672
7767.98 518.845
7939.49 542.008
8114.79 566.205
8293.95 591.482
8477.08 617.887
8664.25 645.472
8855.55 674.288
9051.07 704.39
9250.91 735.837
9455.16 768.687
9663.92 803.004
9877.3 838.853
10095.4 876.303
10318.3 915.424
10546.1 956.292
10778.9 998.984
11016.9 1043.58
11260.2 1090.17
11508.8 1138.84
11762.9 1189.68
12022.6 1242.8
12288.1 1298.28
12559.4 1356.24
12836.7 1416.79
13120.1 1480.04
13409.8 1546.12
13705.9 1615.14
14008.5 1687.25
14317.8 1762.57
14633.9 1841.26
14957 1923.46
15287.2 2009.34
15624.8 2099.04
15969.7 2192.75
16322.3 2290.65
16682.7 2392.91
17051.1 2499.74
17427.5 2611.34
17812.3 2727.93
18205.6 2849.71
18607.6 2976.94
19018.4 3109.84
19438.3 3248.68
19867.5 3393.72
20306.2 3545.23
20754.5 3703.5
21212.8 3868.85
21681.1 4041.57
22159.8 4222
22649.1 4410.5
23149.2 4607.4
23660.3 4813.1
24182.7 5027.98
24716.6 5252.45
25262.3 5486.95
25820.1 5731.91
26390.2 5987.82
26972.9 6255.14
27568.4 6534.4
28177.1 6826.13
28799.2 7130.89
29435.1 7449.24
30085 7781.82
30749.2 8129.24
31428.2 8492.17
32122.1 8871.3
32831.3 9267.36
33556.2 9681.11
34297.1 10113.3
35054.3 10564.8
35828.3 11036.5
36619.4 11529.2
37427.9 12044
38254.3 12581.7
39098.9 13143.4
39962.2 13730.2
40844.5 14343.2
41746.3 14983.5
42668 15652.5
43610.1 16351.3
44573 17081.3
45557.1 17843.9
46563 18640.5
47591.1 19472.7
48641.8 20342.1
49715.8 21250.3
50813.5 22199
51935.4 23190.1
53082.1 24225.4
54254.1 25307
55452 26436.8
56676.3 27617.1
57927.7 28850.1
59206.7 30138.1
60513.9 31483.6
61850 32889.2
63215.6 34357.6
64611.4 35891.5
66038 37493.9
67496 39167.8
68986.3 40916.5
70509.4 42743.3
72066.2 44651.6
73657.4 46645
75283.7 48727.5
76945.9 50903
78644.8 53175.6
80381.2 55549.7
82156 58029.7
83969.9 60620.5
85823.9 63326.9
87718.8 66154.2
89655.6 69107.7
91635.1 72193
93658.3 75416.1
95726.2 78783.2
97839.8 82300.5
100000 85974.8
1.756e-05 100000 1001 1
1.756e-05 4.74377e-09
1.79589e-05 5.38646e-09
1.83669e-05 6.07275e-09
1.87841e-05 6.80914e-09
1.92108e-05 7.59802e-09
1.96473e-05 8.43428e-09
2.00936e-05 9.32723e-09
2.055e-05 1.02768e-08
2.10169e-05 1.12851e-08
2.14943e-05 1.23473e-08
2.19826e-05 1.34761e-08
2.2482e-05 1.46736e-08
2.29927e-05 1.5917e-08
2.3515e-05 1.72597e-08
2.40492e-05 1.86415e-08
2.45956e-05 2.01296e-08
2.51543e-05 2.16571e-08
2.57257e-05 2.33039e-08
2.63101e-05 2.49894e-08
2.69078e-05 2.68124e-08
2.75191e-05 2.86769e-08
2.81442e-05 3.06634e-08
2.87836e-05 3.27281e-08
2.94375e-05 3.48904e-08
3.01062e-05 3.71788e-08
3.07901e-05 3.95191e-08
3.14896e-05 4.20302e-08
3.22049e-05 4.46215e-08
3.29365e-05 4.73161e-08
3.36847e-05 5.01908e-08
3.445e-05 5.31308e-08
3.52326e-05 5.61751e-08
3.60329e-05 5.94408e-08
3.68515e-05 6.27808e-08
3.76887e-05 6.62205e-08
3.85448e-05 6.99088e-08
3.94205e-05 7.36809e-08
4.0316e-05 7.75482e-08
4.12318e-05 8.16896e-08
4.21685e-05 8.59251e-08
4.31264e-05 9.02567e-08
4.41061e-05 9.48862e-08
4.51081e-05 9.96262e-08
4.61328e-05 1.04474e-07
4.71808e-05 1.09559e-07
4.82526e-05 1.1483e-07
4.93488e-05 1.2022e-07
5.04698e-05 1.25787e-07
5.16164e-05 1.31603e-07
5.27889e-05 1.37551e-07
5.39881e-05 1.43634e-07
5.52146e-05 1.49955e-07
5.64689e-05 1.56457e-07
5.77517e-05 1.63107e-07
5.90636e-05 1.69919e-07
6.04054e-05 1.76957e-07
6.17776e-05 1.84155e-07
6.3181e-05 1.91517e-07
6.46163e-05 1.99045e-07
6.60842e-05 2.06745e-07
6.75854e-05 2.1462e-07
6.91208e-05 2.22673e-07
7.0691e-05 2.30833e-07
7.22969e-05 2.39176e-07
7.39392e-05 2.47708e-07
7.56189e-05 2.56377e-07
7.73367e-05 2.65142e-07
7.90936e-05 2.74107e-07
8.08904e-05 2.83275e-07
8.2728e-05 2.92461e-07
8.46073e-05 3.01802e-07
8.65293e-05 3.11356e-07
8.8495e-05 3.21065e-07
9.05053e-05 3.30745e-07
9.25614e-05 3.40645e-07
9.46641e-05 3.50769e-07
9.68146e-05 3.61086e-07
9.90139e-05 3.71281e-07
0.000101263 3.81707e-07
0.000103564 3.92371e-07
0.000105916 4.03276e-07
0.000108322 4.14001e-07
0.000110783 4.24968e-07
0.0001133 4.36184e-07
0.000115874 4.47654e-07
0.000118506 4.59184e-07
0.000121198 4.70649e-07
0.000123951 4.82373e-07
0.000126767 4.94364e-07
0.000129647 5.06628e-07
0.000132592 5.19013e-07
0.000135604 5.31224e-07
0.000138685 5.43713e-07
0.000141835 5.56485e-07
0.000145057 5.69547e-07
0.000148352 5.82807e-07
0.000151723 5.95705e-07
0.000155169 6.08896e-07
0.000158694 6.22388e-07
0.000162299 6.36185e-07
0.000165986 6.50289e-07
0.000169757 6.63712e-07
0.000173613 6.77439e-07
0.000177557 6.91479e-07
0.000181591 7.05838e-07
0.000185716 7.20522e-07
0.000189935 7.34443e-07
0.00019425 7.48532e-07
0.000198662 7.62941e-07
0.000203175 7.77677e-07
0.000207791 7.92748e-07
0.000212511 8.07053e-07
0.000217339 8.21322e-07
0.000222276 8.35916e-07
0.000227326 8.50841e-07
0.00023249 8.66105e-07
0.000237771 8.81716e-07
0.000243173 8.96722e-07
0.000248697 9.1138e-07
0.000254347 9.26371e-07
0.000260125 9.41703e-07
0.000266034 9.57383e-07
0.000272077 9.73419e-07
0.000278258 9.89819e-07
0.000284579 1.00659e-06
0.000291044 1.02375e-06
0.000297656 1.03971e-06
0.000304418 1.05585e-06
0.000311333 1.07235e-06
0.000318406 1.08923e-06
0.000325639 1.1065e-06
0.000333036 1.12415e-06
0.000340602 1.14221e-06
0.00034834 1.16067e-06
0.000356253 1.17795e-06
0.000364346 1.1949e-06
0.000372623 1.21223e-06
0.000381087 1.22996e-06
0.000389745 1.24809e-06
0.000398598 1.26663e-06
0.000407653 1.28342e-06
0.000416914 1.30017e-06
0.000426385 1.31731e-06
0.000436071 1.33484e-06
0.000445978 1.35276e-06
0.000456109 1.36998e-06
0.00046647 1.38601e-06
0.000477067 1.4024e-06
0.000487905 1.41917e-06
0.000498988 1.43632e-06
0.000510324 1.45386e-06
0.000521917 1.47103e-06
0.000533773 1.48648e-06
0.000545899 1.50227e-06
0.0005583 1.51843e-06
0.000570983 1.53495e-06
0.000583954 1.55185e-06
0.00059722 1.56913e-06
0.000610787 1.58651e-06
0.000624662 1.60126e-06
0.000638852 1.61635e-06
0.000653365 1.63178e-06
0.000668208 1.64756e-06
0.000683387 1.6637e-06
0.000698912 1.6802e-06
0.000714789 1.69708e-06
0.000731027 1.71435e-06
0.000747634 1.72916e-06
0.000764618 1.74395e-06
0.000781988 1.75908e-06
0.000799752 1.77455e-06
0.00081792 1.79038e-06
0.000836501 1.80656e-06
0.000855503 1.82311e-06
0.000874938 1.84004e-06
0.000894814 1.85735e-06
0.000915141 1.8723e-06
0.000935931 1.88618e-06
0.000957192 1.90037e-06
0.000978937 1.91489e-06
0.00100118 1.92974e-06
0.00102392 1.94483e-06
0.00104718 1.95691e-06
0.00107097 1.96926e-06
0.0010953 1.9819e-06
0.00112018 1.99483e-06
0.00114563 2.00804e-06
0.00117165 2.02156e-06
0.00119827 2.03539e-06
0.00122549 2.04646e-06
0.00125333 2.05725e-06
0.0012818 2.06828e-06
0.00131092 2.07956e-06
0.0013407 2.0911e-06
0.00137116 2.1029e-06
0.0014023 2.11429e-06
0.00143416 2.12301e-06
0.00146674 2.13193e-06
0.00150006 2.14105e-06
0.00153414 2.15038e-06
0.00156899 2.15992e-06
0.00160463 2.16968e-06
0.00164108 2.17961e-06
0.00167836 2.1864e-06
0.00171649 2.19335e-06
0.00175548 2.20045e-06
0.00179536 2.20772e-06
0.00183615 2.21515e-06
0.00187786 2.22275e-06
0.00192052 2.23052e-06
0.00196415 2.23585e-06
0.00200877 2.2408e-06
0.0020544 2.24585e-06
0.00210107 2.25102e-06
0.0021488 2.2563e-06
0.00219762 2.26171e-06
0.00224754 2.26724e-06
0.0022986 2.27096e-06
0.00235081 2.27378e-06
0.00240422 2.27667e-06
0.00245883 2.27962e-06
0.00251469 2.28263e-06
0.00257182 2.28572e-06
0.00263024 2.28887e-06
0.00268999 2.2921e-06
0.0027511 2.29294e-06
0.0028136 2.29374e-06
0.00287751 2.29455e-06
0.00294288 2.29539e-06
0.00300974 2.29624e-06
0.00307811 2.29711e-06
0.00314803 2.29801e-06
0.00321955 2.29892e-06
0.00329269 2.29826e-06
0.00336749 2.29711e-06
0.00344399 2.29593e-06
0.00352222 2.29473e-06
0.00360224 2.2935e-06
0.00368407 2.29224e-06
0.00376776 2.29095e-06
0.00385335 2.28963e-06
0.00394089 2.28821e-06
0.00403041 2.28554e-06
0.00412197 2.2828e-06
0.00421561 2.28001e-06
0.00431138 2.27715e-06
0.00440932 2.27422e-06
0.00450949 2.27123e-06
0.00461193 2.26817e-06
0.0047167 2.26504e-06
0.00482385 2.26184e-06
0.00493343 2.25772e-06
0.0050455 2.14477e-06
0.00516012 2.16475e-06
0.00527734 2.18077e-06
0.00539723 2.19329e-06
0.00551984 2.20268e-06
0.00564523 2.20931e-06
0.00577347 2.2135e-06
0.00590463 2.21555e-06
0.00603877 2.21571e-06
0.00617595 2.21424e-06
0.00631625 2.21135e-06
0.00645973 2.20723e-06
0.00660648 2.20205e-06
0.00675656 2.19597e-06
0.00691005 2.18914e-06
0.00706702 2.18166e-06
0.00722756 2.17366e-06
0.00739175 2.16522e-06
0.00755967 2.15644e-06
0.0077314 2.14739e-06
0.00790704 2.13813e-06
0.00808666 2.12871e-06
0.00827037 2.11919e-06
0.00845825 2.1096e-06
0.00865039 2.09998e-06
0.0088469 2.09036e-06
0.00904788 2.08075e-06
0.00925342 2.07118e-06
0.00946363 2.06166e-06
0.00967861 2.0522e-06
0.00989848 2.0428e-06
0.0101233 2.03347e-06
0.0103533 2.0242e-06
0.0105885 2.015e-06
0.0108291 2.00587e-06
0.0110751 1.99678e-06
0.0113266 1.98775e-06
0.011584 1.97876e-06
0.0118471 1.9698e-06
0.0121162 1.96086e-06
0.0123915 1.95193e-06
0.012673 1.943e-06
0.0129609 1.93405e-06
0.0132553 1.92508e-06
0.0135564 1.91608e-06
0.0138644 1.90702e-06
0.0141793 1.8979e-06
0.0145015 1.88871e-06
0.0148309 1.87944e-06
0.0151678 1.87007e-06
0.0155124 1.8606e-06
0.0158648 1.85102e-06
0.0162252 1.84132e-06
0.0165938 1.83148e-06
0.0169707 1.82151e-06
0.0173562 1.8114e-06
0.0177505 1.80113e-06
0.0181538 1.79072e-06
0.0185662 1.78015e-06
0.0189879 1.76943e-06
0.0194193 1.75854e-06
0.0198604 1.7475e-06
0.0203116 1.73631e-06
0.020773 1.72496e-06
0.0212449 1.71347e-06
0.0217275 1.70183e-06
0.0222211 1.69007e-06
0.0227259 1.67818e-06
0.0232422 1.66618e-06
0.0237702 1.65408e-06
0.0243101 1.64189e-06
0.0248624 1.62964e-06
0.0254272 1.61734e-06
0.0260048 1.60502e-06
0.0265956 1.59268e-06
0.0271998 1.58037e-06
0.0278177 1.56811e-06
0.0284496 1.55593e-06
0.0290959 1.54385e-06
0.0297568 1.53192e-06
0.0304328 1.52018e-06
0.0311242 1.50866e-06
0.0318312 1.49741e-06
0.0325543 1.48647e-06
0.0332939 1.4759e-06
0.0340502 1.46575e-06
0.0348237 1.45608e-06
0.0356148 1.44695e-06
0.0364239 1.43842e-06
0.0372513 1.43056e-06
0.0380976 1.42344e-06
0.038963 1.41715e-06
0.0398481 1.41177e-06
0.0407534 1.40738e-06
0.0416792 1.40408e-06
0.042626 1.40196e-06
0.0435943 1.40113e-06
0.0445847 1.4017e-06
0.0455975 1.40379e-06
0.0466333 1.40751e-06
0.0476927 1.413e-06
0.0487761 1.42039e-06
0.0498842 1.42982e-06
0.0510174 1.44145e-06
0.0521764 1.45545e-06
0.0533617 1.47196e-06
0.0545739 1.22008e-06
0.0558136 1.21214e-06
0.0570815 1.20449e-06
0.0583783 1.19707e-06
0.0597044 1.18985e-06
0.0610607 1.1828e-06
0.0624479 1.17588e-06
0.0638665 1.16907e-06
0.0653173 1.16234e-06
0.0668012 1.15567e-06
0.0683187 1.14906e-06
0.0698707 1.14247e-06
0.0714579 1.13591e-06
0.0730812 1.12936e-06
0.0747414 1.12281e-06
0.0764393 1.11625e-06
0.0781758 1.10968e-06
0.0799517 1.10311e-06
0.081768 1.09651e-06
0.0836255 1.0899e-06
0.0855252 1.08327e-06
0.0874681 1.07662e-06
0.0894551 1.06996e-06
0.0914873 1.06328e-06
0.0935656 1.05659e-06
0.0956911 1.0499e-06
0.0978649 1.0432e-06
0.100088 1.03649e-06
0.102362 1.02979e-06
0.104687 1.0231e-06
0.107065 1.01642e-06
0.109498 1.00976e-06
0.111985 1.00312e-06
0.114529 9.96507e-07
0.117131 9.89926e-07
0.119792 9.83383e-07
0.122513 9.76883e-07
0.125296 9.70431e-07
0.128142 9.64033e-07
0.131053 9.57693e-07
0.134031 9.51418e-07
0.137075 9.45212e-07
0.140189 9.39081e-07
0.143374 9.33029e-07
0.146631 9.27062e-07
0.149962 9.21185e-07
0.153369 9.15402e-07
0.156853 9.09719e-07
0.160416 9.0414e-07
0.16406 8.98671e-07
0.167787 8.93316e-07
0.171599 8.88079e-07
0.175497 8.82965e-07
0.179484 8.77978e-07
0.183561 8.73123e-07
0.187731 8.68405e-07
0.191996 8.63827e-07
0.196357 8.59394e-07
0.200818 8.5511e-07
0.20538 8.5098e-07
0.210045 8.47007e-07
0.214817 8.43196e-07
0.219697 8.39551e-07
0.224688 8.36076e-07
0.229792 8.32776e-07
0.235012 8.29654e-07
0.240351 8.26715e-07
0.245811 8.23963e-07
0.251395 8.21403e-07
0.257106 8.19038e-07
0.262947 8.16874e-07
0.26892 8.14914e-07
0.275029 8.13163e-07
0.281277 8.11626e-07
0.287667 8.10308e-07
0.294202 8.09213e-07
0.300885 8.08346e-07
0.30772 8.07714e-07
0.314711 8.0732e-07
0.32186 8.0717e-07
0.329172 8.0727e-07
0.33665 8.07626e-07
0.344297 8.08243e-07
0.352119 8.09128e-07
0.360118 8.10287e-07
0.368299 8.11726e-07
0.376665 8.13453e-07
0.385222 8.15475e-07
0.393973 8.17798e-07
0.402923 8.20431e-07
0.412076 8.23382e-07
0.421437 8.26658e-07
0.431011 8.3027e-07
0.440802 8.34224e-07
0.450816 8.38532e-07
0.461057 8.43202e-07
0.471531 8.48244e-07
0.482243 8.5367e-07
0.493198 8.59491e-07
0.504402 8.65717e-07
0.515861 8.72362e-07
0.527579 8.79437e-07
0.539564 8.86955e-07
0.551822 8.94931e-07
0.564357 9.03378e-07
0.577178 9.12312e-07
0.59029 9.21747e-07
0.603699 9.31701e-07
0.617413 9.4219e-07
0.631439 9.53231e-07
0.645784 9.64844e-07
0.660454 9.77047e-07
0.675457 9.89861e-07
0.690802 1.00331e-06
0.706495 1.01741e-06
0.722544 1.03218e-06
0.738958 1.04766e-06
0.755745 1.06386e-06
0.772913 1.08081e-06
0.790472 1.09854e-06
0.808429 1.11708e-06
0.826794 1.13646e-06
0.845576 1.1567e-06
0.864785 1.17784e-06
0.88443 1.19992e-06
0.904522 1.22297e-06
0.92507 1.24702e-06
0.946085 1.27212e-06
0.967577 1.29831e-06
0.989558 1.32562e-06
1.01204 1.3541e-06
1.03503 1.3838e-06
1.05854 1.41476e-06
1.08259 1.44704e-06
1.10718 1.48069e-06
1.13233 1.51576e-06
1.15806 1.55231e-06
1.18436 1.59039e-06
1.21127 1.63008e-06
1.23878 1.67143e-06
1.26693 1.71451e-06
1.29571 1.7594e-06
1.32514 1.80617e-06
1.35524 1.85489e-06
1.38603 1.90564e-06
1.41752 1.95852e-06
1.44972 2.0136e-06
1.48265 2.07098e-06
1.51633 2.13076e-06
1.55078 2.19304e-06
1.58601 2.25791e-06
1.62204 2.3255e-06
1.65889 2.39591e-06
1.69657 2.46926e-06
1.73511 2.54568e-06
1.77453 2.6253e-06
1.81484 2.70826e-06
1.85607 2.79469e-06
1.89823 2.88475e-06
1.94136 2.97859e-06
1.98546 3.07637e-06
2.03056 3.17827e-06
2.07669 3.28445e-06
2.12387 3.39511e-06
2.17211 3.51044e-06
2.22146 3.63063e-06
2.27192 3.75591e-06
2.32353 3.88648e-06
2.37632 4.02259e-06
2.4303 4.16447e-06
2.48551 4.31237e-06
2.54197 4.46656e-06
2.59972 4.6273e-06
2.65878 4.79489e-06
2.71918 4.96963e-06
2.78095 5.15183e-06
2.84412 5.34182e-06
2.90873 5.53993e-06
2.97481 5.74654e-06
3.04239 5.962e-06
3.1115 6.18671e-06
3.18219 6.42108e-06
3.25448 6.66554e-06
3.32841 6.92053e-06
3.40402 7.18651e-06
3.48135 7.46398e-06
3.56044 7.75344e-06
3.64132 8.05542e-06
3.72404 8.37049e-06
3.80864 8.69921e-06
3.89516 9.04221e-06
3.98364 9.4001e-06
4.07414 9.77357e-06
4.16669 1.01633e-05
4.26135 1.057e-05
4.35815 1.09945e-05
4.45716 1.14374e-05
4.55841 1.18998e-05
4.66196 1.23824e-05
4.76787 1.28861e-05
4.87618 1.34119e-05
4.98695 1.39608e-05
5.10024 1.45337e-05
5.2161 1.51319e-05
5.3346 1.57564e-05
5.45578 1.64083e-05
5.57972 1.7089e-05
5.70648 1.77997e-05
5.83611 1.85418e-05
5.96869 1.93167e-05
6.10428 2.01258e-05
6.24295 2.09707e-05
6.38477 2.1853e-05
6.52982 2.27744e-05
6.67815 2.37367e-05
6.82986 2.47417e-05
6.98502 2.57913e-05
7.1437 2.68876e-05
7.30598 2.80326e-05
7.47195 2.92285e-05
7.64169 3.04777e-05
7.81529 3.17826e-05
7.99282 3.31457e-05
8.1744 3.45695e-05
8.3601 3.60569e-05
8.55001 3.76108e-05
8.74424 3.92341e-05
8.94289 4.093e-05
9.14604 4.27018e-05
9.35381 4.45529e-05
9.5663 4.6487e-05
9.78362 4.85077e-05
10.0059 5.0619e-05
10.2332 5.2825e-05
10.4656 5.51301e-05
10.7034 5.75387e-05
10.9465 6.00555e-05
11.1952 6.26855e-05
11.4495 6.54338e-05
11.7096 6.83057e-05
11.9756 7.13068e-05
12.2477 7.44432e-05
12.5259 7.77208e-05
12.8105 8.11462e-05
13.1015 8.4726e-05
13.3991 8.84674e-05
13.7035 9.23775e-05
14.0148 9.64642e-05
14.3332 0.000100735
14.6588 0.0001052
14.9918 0.000109866
15.3324 0.000114743
15.6807 0.00011984
16.0369 0.000125168
16.4012 0.000130738
16.7738 0.000136559
17.1548 0.000142644
17.5445 0.000149005
17.9431 0.000155654
18.3507 0.000162604
18.7676 0.00016987
19.1939 0.000177465
19.63 0.000185404
20.0759 0.000193704
20.532 0.000202381
20.9984 0.000211452
21.4754 0.000220934
21.9633 0.000230848
22.4622 0.000241212
22.9725 0.000252047
23.4943 0.000263374
24.0281 0.000275217
24.5739 0.000287598
25.1321 0.000300543
25.7031 0.000314076
26.287 0.000328226
26.8841 0.000343019
27.4949 0.000358487
28.1195 0.000374658
28.7582 0.000391566
29.4115 0.000409245
30.0797 0.000427729
30.763 0.000447055
31.4619 0.000467263
32.1766 0.000488392
32.9075 0.000510484
33.6551 0.000533584
34.4196 0.000557737
35.2015 0.000582992
36.0012 0.0006094
36.8191 0.000637013
37.6555 0.000665886
38.5109 0.000696078
39.3857 0.000727647
40.2805 0.000760659
41.1955 0.000795177
42.1314 0.000831273
43.0885 0.000869017
44.0673 0.000908486
45.0684 0.000949758
46.0922 0.000992917
47.1393 0.00103805
48.2101 0.00108524
49.3053 0.00113459
50.4254 0.0011862
51.5709 0.00124017
52.7424 0.0012966
53.9406 0.00135562
55.166 0.00141733
56.4192 0.00148187
57.7008 0.00154936
59.0116 0.00161994
60.3522 0.00169375
61.7232 0.00177094
63.1254 0.00185166
64.5594 0.00193607
66.026 0.00202435
67.5259 0.00211667
69.0599 0.00221321
70.6287 0.00231418
72.2332 0.00241977
73.8741 0.00253019
75.5523 0.00264567
77.2686 0.00276644
79.024 0.00289274
80.8191 0.00302483
82.6551 0.00316296
84.5328 0.00330743
86.4531 0.00345851
88.4171 0.00361652
90.4257 0.00378177
92.4799 0.00395458
94.5807 0.00413532
96.7293 0.00432434
98.9267 0.00452203
101.174 0.00472877
103.472 0.004945
105.823 0.00517113
108.227 0.00540763
110.686 0.00565497
113.2 0.00591366
115.772 0.0061842
118.402 0.00646715
121.091 0.00676307
123.842 0.00707256
126.655 0.00739625
129.533 0.00773477
132.475 0.00808883
135.485 0.00845912
138.562 0.0088464
141.71 0.00925144
144.929 0.00967506
148.222 0.0101181
151.589 0.0105815
155.033 0.0110661
158.554 0.011573
162.156 0.0121031
165.84 0.0126575
169.607 0.0132374
173.46 0.0138439
177.401 0.0144782
181.431 0.0151416
185.553 0.0158355
189.768 0.0165612
194.079 0.0173202
198.488 0.018114
202.997 0.0189443
207.608 0.0198127
212.324 0.0207209
217.148 0.0216708
222.081 0.0226643
227.126 0.0237034
232.285 0.0247902
237.562 0.0259269
242.959 0.0271158
248.478 0.0283592
254.123 0.0296597
259.896 0.0310199
265.8 0.0324426
271.838 0.0339305
278.013 0.0354868
284.329 0.0371145
290.788 0.038817
297.394 0.0405976
304.15 0.04246
311.059 0.0444078
318.125 0.0464451
325.352 0.048576
332.743 0.0508047
340.302 0.0531357
348.033 0.0555737
355.939 0.0581237
364.025 0.0607908
372.294 0.0635803
380.752 0.066498
389.401 0.0695496
398.247 0.0727413
407.294 0.0760796
416.547 0.0795713
426.01 0.0832232
435.687 0.0870429
445.585 0.091038
455.707 0.0952166
466.059 0.099587
476.647 0.104158
487.475 0.108939
498.549 0.11394
509.874 0.11917
521.457 0.124641
533.303 0.130363
545.418 0.136347
557.809 0.142607
570.48 0.149154
583.44 0.156002
596.694 0.163164
610.249 0.170655
624.112 0.17849
638.29 0.186685
652.79 0.195257
667.619 0.204222
682.786 0.213599
698.297 0.223407
714.16 0.233666
730.383 0.244395
746.975 0.255617
763.945 0.267355
781.299 0.279632
799.048 0.292473
817.2 0.305904
835.764 0.319952
854.75 0.334645
874.168 0.350013
894.026 0.366087
914.336 0.3829
935.107 0.400485
956.349 0.418877
978.075 0.438115
1000.29 0.458236
1023.02 0.479281
1046.26 0.501294
1070.03 0.524317
1094.33 0.548399
1119.19 0.573586
1144.62 0.599931
1170.62 0.627486
1197.21 0.656307
1224.41 0.686452
1252.22 0.717981
1280.67 0.75096
1309.76 0.785453
1339.52 0.821531
1369.95 0.859267
1401.07 0.898736
1432.9 0.940018
1465.45 0.983197
1498.74 1.02836
1532.79 1.0756
1567.61 1.12501
1603.22 1.17668
1639.64 1.23074
1676.89 1.28727
1714.98 1.3464
1753.94 1.40825
1793.78 1.47294
1834.53 1.54061
1876.21 1.61138
1918.83 1.6854
1962.42 1.76283
2007 1.84381
2052.59 1.92851
2099.22 2.0171
2146.91 2.10977
2195.68 2.20669
2245.56 2.30807
2296.57 2.4141
2348.74 2.525
2402.1 2.641
2456.67 2.76233
2512.48 2.88923
2569.55 3.02197
2627.93 3.1608
2687.62 3.30601
2748.68 3.4579
2811.12 3.61676
2874.98 3.78292
2940.29 3.95672
3007.09 4.1385
3075.4 4.32863
3145.26 4.5275
3216.71 4.73551
3289.79 4.95307
3364.52 5.18063
3440.95 5.41864
3519.12 5.6676
3599.06 5.92799
3680.82 6.20034
3764.44 6.48521
3849.96 6.78316
3937.42 7.09481
4026.86 7.42078
4118.34 7.76172
4211.9 8.11833
4307.58 8.49132
4405.44 8.88145
4505.51 9.28951
4607.87 9.71632
4712.54 10.1627
4819.6 10.6297
4929.08 11.1181
5041.06 11.6289
5155.58 12.1632
5272.7 12.722
5392.48 13.3065
5514.98 13.9179
5640.26 14.5574
5768.39 15.2262
5899.43 15.9258
6033.45 16.6576
6170.51 17.4229
6310.69 18.2234
6454.05 19.0607
6600.66 19.9365
6750.61 20.8525
6903.96 21.8106
7060.8 22.8128
7221.2 23.8609
7385.24 24.9573
7553.01 26.104
7724.6 27.3034
7900.08 28.5579
8079.54 29.8701
8263.08 31.2425
8450.8 32.678
8642.77 34.1795
8839.11 35.7499
9039.91 37.3926
9245.27 39.1107
9455.29 40.9077
9670.09 42.7873
9889.77 44.7533
10114.4 46.8096
10344.2 48.9604
10579.2 51.21
10819.5 53.563
11065.3 56.0241
11316.7 58.5983
11573.8 61.2908
11836.7 64.107
12105.6 67.0526
12380.6 70.1336
12661.8 73.3561
12949.5 76.7267
13243.6 80.2521
13544.5 83.9396
13852.2 87.7965
14166.9 91.8306
14488.7 96.05
14817.8 100.463
15154.4 105.08
15498.7 109.908
15850.8 114.958
16210.9 120.24
16579.1 125.765
16955.8 131.544
17341 137.588
17734.9 143.91
18137.8 150.522
18549.8 157.439
18971.2 164.673
19402.2 172.239
19842.9 180.154
20293.7 188.431
20754.7 197.09
21226.2 206.146
21708.4 215.618
22201.5 225.525
22705.9 235.888
23221.7 246.727
23749.2 258.064
24288.7 269.922
24840.5 282.324
25404.8 295.297
25981.9 308.865
26572.2 323.058
27175.8 337.902
27793.2 353.428
28424.5 369.668
29070.3 386.654
29730.6 404.42
30406 423.003
31096.8 442.44
31803.2 462.77
32525.7 484.034
33264.6 506.275
34020.2 529.538
34793.1 553.87
35583.5 579.32
36391.8 605.939
37218.5 633.782
38064 662.904
38928.7 693.364
39813.1 725.223
40717.5 758.547
41642.5 793.402
42588.5 829.858
43555.9 867.99
44545.4 907.874
45557.3 949.59
46592.3 993.223
47650.7 1038.86
48733.2 1086.6
49840.3 1136.53
50972.5 1188.75
52130.4 1243.37
53314.7 1300.5
54525.8 1360.26
55764.5 1422.76
57031.3 1488.14
58326.9 1556.52
59651.9 1628.04
61007 1702.85
62392.9 1781.09
63810.3 1862.93
65259.8 1948.54
66742.3 2038.07
68258.5 2131.72
69809.2 2229.67
71395 2332.12
73016.9 2439.29
74675.6 2551.37
76372 2668.6
78107 2791.23
79881.3 2919.48
81696 3053.63
83551.9 3193.95
85449.9 3340.71
87391.1 3494.21
89376.4 3654.77
91406.7 3822.71
93483.2 3998.36
95606.9 4182.08
97778.8 4374.25
100000 4575.24
8.99e-06 100000 1001 2
8.99e-06 3.1922e-09
9.20038e-06 3.40727e-09
9.41569e-06 3.63442e-09
9.63604e-06 3.86716e-09
9.86154e-06 4.1102e-09
1.00923e-05 4.36089e-09
1.03285e-05 4.62283e-09
1.05702e-05 4.89551e-09
1.08176e-05 5.17456e-09
1.10707e-05 5.46981e-09
1.13298e-05 5.77289e-09
1.15949e-05 6.08306e-09
1.18663e-05 6.41386e-09
1.2144e-05 6.75345e-09
1.24282e-05 7.101e-09
1.2719e-05 7.46891e-09
1.30167e-05 7.84622e-09
1.33213e-05 8.23235e-09
1.3633e-05 8.64254e-09
1.39521e-05 9.06305e-09
1.42786e-05 9.4934e-09
1.46127e-05 9.94245e-09
1.49547e-05 1.04118e-08
1.53046e-05 1.08922e-08
1.56628e-05 1.13837e-08
1.60293e-05 1.19006e-08
1.64045e-05 1.24311e-08
1.67884e-05 1.29741e-08
1.71812e-05 1.35373e-08
1.75833e-05 1.41212e-08
1.79948e-05 1.47188e-08
1.84159e-05 1.53304e-08
1.88469e-05 1.59619e-08
1.92879e-05 1.66133e-08
1.97393e-05 1.728e-08
2.02012e-05 1.79623e-08
2.0674e-05 1.86611e-08
2.11578e-05 1.93761e-08
2.16529e-05 2.01079e-08
2.21597e-05 2.0854e-08
2.26782e-05 2.16153e-08
2.3209e-05 2.23944e-08
2.37521e-05 2.31904e-08
2.43079e-05 2.39879e-08
2.48768e-05 2.4804e-08
2.5459e-05 2.56367e-08
2.60547e-05 2.6461e-08
2.66645e-05 2.73046e-08
2.72885e-05 2.8168e-08
2.79271e-05 2.90069e-08
2.85806e-05 2.98647e-08
2.92495e-05 3.07425e-08
2.9934e-05 3.16029e-08
3.06345e-05 3.24611e-08
3.13514e-05 3.33394e-08
3.20851e-05 3.41926e-08
3.28359e-05 3.50383e-08
3.36043e-05 3.59038e-08
3.43907e-05 3.67458e-08
3.51956e-05 3.7562e-08
3.60192e-05 3.83974e-08
3.68621e-05 3.92123e-08
3.77248e-05 3.99863e-08
3.86076e-05 4.07785e-08
3.95111e-05 4.15707e-08
4.04357e-05 4.22912e-08
4.1382e-05 4.30285e-08
4.23504e-05 4.37618e-08
4.33415e-05 4.44173e-08
4.43558e-05 4.50881e-08
4.53938e-05 4.57746e-08
4.64561e-05 4.63911e-08
4.75433e-05 4.69849e-08
4.86559e-05 4.75926e-08
4.97945e-05 4.81885e-08
5.09598e-05 4.87033e-08
5.21524e-05 4.92302e-08
5.33728e-05 4.97693e-08
5.46219e-05 5.0238e-08
5.59001e-05 5.06871e-08
5.72083e-05 5.11467e-08
5.85471e-05 5.16171e-08
5.99172e-05 5.20069e-08
6.13194e-05 5.23752e-08
6.27544e-05 5.27521e-08
6.42229e-05 5.31378e-08
6.57259e-05 5.35326e-08
6.7264e-05 5.38499e-08
6.88381e-05 5.41491e-08
7.0449e-05 5.44553e-08
7.20977e-05 5.47687e-08
7.37849e-05 5.50894e-08
7.55116e-05 5.53426e-08
7.72787e-05 5.55826e-08
7.90872e-05 5.58281e-08
8.0938e-05 5.60794e-08
8.28321e-05 5.63365e-08
8.47706e-05 5.65716e-08
8.67543e-05 5.67526e-08
8.87846e-05 5.69379e-08
9.08623e-05 5.71275e-08
9.29887e-05 5.73216e-08
9.51648e-05 5.75202e-08
9.73918e-05 5.76505e-08
9.9671e-05 5.77708e-08
0.000102003 5.78938e-08
0.000104391 5.80197e-08
0.000106833 5.81486e-08
0.000109334 5.82487e-08
0.000111892 5.82971e-08
0.000114511 5.83467e-08
0.00011719 5.83975e-08
0.000119933 5.84494e-08
0.00012274 5.84808e-08
0.000125612 5.84508e-08
0.000128552 5.842e-08
0.00013156 5.83886e-08
0.000134639 5.83564e-08
0.000137789 5.83235e-08
0.000141014 5.82255e-08
0.000144314 5.81197e-08
0.000147691 5.80114e-08
0.000151148 5.79006e-08
0.000154685 5.77872e-08
0.000158305 5.76551e-08
0.000162009 5.74998e-08
0.000165801 5.73408e-08
0.000169681 5.71781e-08
0.000173651 5.70116e-08
0.000177715 5.68412e-08
0.000181874 5.66669e-08
0.00018613 5.64884e-08
0.000190486 5.63058e-08
0.000194944 5.61189e-08
0.000199506 5.59735e-08
0.000204175 5.58252e-08
0.000208953 5.56734e-08
0.000213843 5.5518e-08
0.000218847 5.5359e-08
0.000223969 5.51963e-08
0.00022921 5.50298e-08
0.000234574 5.48594e-08
0.000240063 5.46849e-08
0.000245681 5.45065e-08
0.000251431 5.43238e-08
0.000257315 5.41368e-08
0.000263336 5.39455e-08
0.000269499 5.37497e-08
0.000275806 5.35494e-08
0.00028226 5.33443e-08
0.000288866 5.3134e-08
0.000295626 5.29188e-08
0.000302544 5.26986e-08
0.000309624 5.24732e-08
0.00031687 5.22396e-08
0.000324285 5.19689e-08
0.000331874 5.16919e-08
0.00033964 5.14085e-08
0.000347589 5.11184e-08
0.000355723 5.08215e-08
0.000364048 5.05046e-08
0.000372567 5.01721e-08
0.000381286 4.98317e-08
0.000390209 4.94835e-08
0.00039934 4.9127e-08
0.000408686 4.87528e-08
0.00041825 4.83644e-08
0.000428037 4.79668e-08
0.000438054 4.756e-08
0.000448306 4.71437e-08
0.000458797 4.67201e-08
0.000469534 4.62998e-08
0.000480522 4.58696e-08
0.000491767 4.54293e-08
0.000503275 4.49788e-08
0.000515053 4.45177e-08
0.000527106 4.4117e-08
0.000539441 4.37399e-08
0.000552065 4.33539e-08
0.000564985 4.29589e-08
0.000578206 4.25547e-08
0.000591738 4.21409e-08
0.000605585 4.17176e-08
0.000619757 4.12842e-08
0.000634261 4.08408e-08
0.000649104 4.0387e-08
0.000664294 3.99225e-08
0.00067984 3.94472e-08
0.000695749 3.89608e-08
0.000712031 3.8463e-08
0.000728694 3.79535e-08
0.000745747 3.74631e-08
0.000763199 3.70511e-08
0.000781059 3.66295e-08
0.000799338 3.61981e-08
0.000818044 3.57566e-08
0.000837188 3.53092e-08
0.000856779 3.48629e-08
0.00087683 3.44063e-08
0.000897349 3.39389e-08
0.000918349 3.34665e-08
0.00093984 3.29967e-08
0.000961834 3.25159e-08
0.000984343 3.20239e-08
0.00100738 3.15204e-08
0.00103095 3.10251e-08
0.00105508 3.05607e-08
0.00107977 3.00855e-08
0.00110504 2.95991e-08
0.0011309 2.91013e-08
0.00115736 2.85919e-08
0.00118445 2.81336e-08
0.00121217 2.7676e-08
0.00124053 2.72076e-08
0.00126957 2.67284e-08
0.00129928 2.62379e-08
0.00132968 2.57359e-08
0.0013608 2.529e-08
0.00139264 2.48435e-08
0.00142523 2.43865e-08
0.00145859 2.39188e-08
0.00149272 2.34402e-08
0.00152765 2.29854e-08
0.0015634 2.25728e-08
0.00159999 2.21506e-08
0.00163743 2.17185e-08
0.00167575 2.12763e-08
0.00171497 2.08238e-08
0.0017551 2.03606e-08
0.00179618 2.00217e-08
0.00183821 1.9685e-08
0.00188123 1.93405e-08
0.00192525 1.89879e-08
0.00197031 1.8627e-08
0.00201642 1.82577e-08
0.0020636 1.78798e-08
0.0021119 1.7493e-08
0.00216132 1.70971e-08
0.0022119 1.6692e-08
0.00226366 1.62774e-08
0.00231663 1.58531e-08
0.00237085 1.54959e-08
0.00242633 1.5212e-08
0.00248311 1.49214e-08
0.00254122 1.46241e-08
0.00260069 1.43198e-08
0.00266155 1.40083e-08
0.00272384 1.36896e-08
0.00278758 1.33635e-08
0.00285281 1.30296e-08
0.00291958 1.26917e-08
0.0029879 1.24586e-08
0.00305782 1.22201e-08
0.00312938 1.19759e-08
0.00320261 1.17261e-08
0.00327756 1.14704e-08
0.00335426 1.12087e-08
0.00343276 1.0941e-08
0.00351309 1.06669e-08
0.00359531 1.03864e-08
0.00367944 1.0108e-08
0.00376555 9.92576e-09
0.00385367 9.73927e-09
0.00394385 9.54842e-09
0.00403615 9.3531e-09
0.0041306 9.15321e-09
0.00422727 8.94865e-09
0.00432619 8.73929e-09
0.00442743 8.52504e-09
0.00453104 8.30577e-09
0.00463708 8.08137e-09
0.0047456 7.85172e-09
0.00485665 7.62879e-09
0.00497031 7.4803e-09
0.00508662 7.10629e-09
0.00520566 6.96929e-09
0.00532748 6.8304e-09
0.00545216 6.69019e-09
0.00557975 6.54914e-09
0.00571032 6.40773e-09
0.00584396 6.26634e-09
0.00598072 6.12534e-09
0.00612068 5.98506e-09
0.00626391 5.84577e-09
0.0064105 5.70773e-09
0.00656052 5.57116e-09
0.00671405 5.43626e-09
0.00687117 5.30317e-09
0.00703197 5.17206e-09
0.00719653 5.04305e-09
0.00736494 4.91623e-09
0.0075373 4.7917e-09
0.00771368 4.66952e-09
0.0078942 4.54975e-09
0.00807894 4.43243e-09
0.008268 4.31759e-09
0.00846149 4.20526e-09
0.0086595 4.09544e-09
0.00886215 3.98814e-09
0.00906955 3.88335e-09
0.00928179 3.78106e-09
0.009499 3.68125e-09
0.0097213 3.5839e-09
0.0099488 3.48898e-09
0.0101816 3.39646e-09
0.0104199 3.30631e-09
0.0106637 3.21848e-09
0.0109133 3.13294e-09
0.0111687 3.04964e-09
0.01143 2.96853e-09
0.0116975 2.88958e-09
0.0119713 2.81273e-09
0.0122514 2.73793e-09
0.0125381 2.66514e-09
0.0128316 2.5943e-09
0.0131318 2.52537e-09
0.0134391 2.45829e-09
0.0137536 2.39302e-09
0.0140755 2.3295e-09
0.0144049 2.26769e-09
0.014742 2.20754e-09
0.015087 2.149e-09
0.0154401 2.09202e-09
0.0158014 2.03655e-09
0.0161712 1.98255e-09
0.0165496 1.92998e-09
0.0169369 1.8788e-09
0.0173333 1.82895e-09
0.0177389 1.78039e-09
0.018154 1.7331e-09
0.0185789 1.68702e-09
0.0190136 1.64212e-09
0.0194586 1.59837e-09
0.019914 1.55572e-09
0.02038 1.51415e-09
0.0208569 1.47362e-09
0.021345 1.4341e-09
0.0218445 1.39556e-09
0.0223557 1.35797e-09
0.0228789 1.3213e-09
0.0234143 1.28553e-09
0.0239623 1.25064e-09
0.024523 1.21659e-09
0.0250969 1.18338e-09
0.0256842 1.15097e-09
0.0262853 1.11936e-09
0.0269004 1.08851e-09
0.0275299 1.05843e-09
0.0281742 1.02909e-09
0.0288335 1.00049e-09
0.0295083 9.726e-10
0.0301988 9.45427e-10
0.0309055 9.18957e-10
0.0316288 8.93187e-10
0.032369 8.6811e-10
0.0331265 8.43726e-10
0.0339017 8.20033e-10
0.034695 7.97032e-10
0.035507 7.74727e-10
0.0363379 7.53122e-10
0.0371883 7.32225e-10
0.0380586 7.12044e-10
0.0389492 6.9259e-10
0.0398607 6.73876e-10
0.0407935 6.55918e-10
0.0417482 6.38733e-10
0.0427252 6.22341e-10
0.043725 6.06763e-10
0.0447483 5.92026e-10
0.0457955 5.78156e-10
0.0468672 5.65184e-10
0.0479639 5.53142e-10
0.0490864 5.42066e-10
0.0502351 5.31994e-10
0.0514107 5.22969e-10
0.0526138 5.15036e-10
0.0538451 5.08243e-10
0.0551052 4.55831e-10
0.0563947 4.43515e-10
0.0577145 4.31693e-10
0.0590651 4.20337e-10
0.0604473 4.09421e-10
0.0618619 3.98921e-10
0.0633096 3.88814e-10
0.0647912 3.7908e-10
0.0663074 3.697e-10
0.0678592 3.60654e-10
0.0694472 3.51925e-10
0.0710724 3.43499e-10
0.0727356 3.35358e-10
0.0744378 3.27491e-10
0.0761798 3.19883e-10
0.0779625 3.12522e-10
0.079787 3.05397e-10
0.0816542 2.98497e-10
0.083565 2.91812e-10
0.0855206 2.85332e-10
0.087522 2.79049e-10
0.0895702 2.72953e-10
0.0916663 2.67038e-10
0.0938114 2.61296e-10
0.0960068 2.5572e-10
0.0982536 2.50303e-10
0.100553 2.4504e-10
0.102906 2.39924e-10
0.105314 2.34951e-10
0.107779 2.30114e-10
0.110301 2.2541e-10
0.112882 2.20833e-10
0.115524 2.16379e-10
0.118227 2.12045e-10
0.120994 2.07826e-10
0.123826 2.03718e-10
0.126723 1.99719e-10
0.129689 1.95825e-10
0.132724 1.92033e-10
0.13583 1.88339e-10
0.139009 1.84742e-10
0.142262 1.81239e-10
0.145591 1.77826e-10
0.148998 1.74502e-10
0.152485 1.71264e-10
0.156053 1.68111e-10
0.159705 1.65039e-10
0.163443 1.62048e-10
0.167268 1.59135e-10
0.171182 1.56299e-10
0.175188 1.53537e-10
0.179288 1.50849e-10
0.183483 1.48232e-10
0.187777 1.45686e-10
0.192172 1.43208e-10
0.196669 1.40798e-10
0.201271 1.38454e-10
0.205981 1.36175e-10
0.210802 1.33959e-10
0.215735 1.31807e-10
0.220784 1.29716e-10
0.22595 1.27686e-10
0.231238 1.25716e-10
0.236649 1.23805e-10
0.242187 1.21951e-10
0.247855 1.20155e-10
0.253655 1.18416e-10
0.259591 1.16732e-10
0.265666 1.15104e-10
0.271884 1.1353e-10
0.278246 1.1201e-10
0.284758 1.10543e-10
0.291421 1.09129e-10
0.298241 1.07768e-10
0.305221 1.06459e-10
0.312364 1.05202e-10
0.319673 1.03996e-10
0.327154 1.02841e-10
0.33481 1.01737e-10
0.342646 1.00683e-10
0.350664 9.96802e-11
0.35887 9.87276e-11
0.367269 9.78254e-11
0.375864 9.69733e-11
0.38466 9.61716e-11
0.393661 9.54202e-11
0.402874 9.47192e-11
0.412302 9.40688e-11
0.42195 9.34692e-11
0.431825 9.29206e-11
0.44193 9.24233e-11
0.452272 9.19777e-11
0.462857 9.15842e-11
0.473688 9.12432e-11
0.484774 9.09552e-11
0.496118 9.07207e-11
0.507728 9.05405e-11
0.51961 9.04152e-11
0.53177 9.03456e-11
0.544214 9.03323e-11
0.55695 9.03764e-11
0.569984 9.04788e-11
0.583323 9.06404e-11
0.596973 9.08624e-11
0.610944 9.11459e-11
0.625241 9.14922e-11
0.639873 9.19026e-11
0.654847 9.23786e-11
0.670172 9.29215e-11
0.685855 9.3533e-11
0.701906 9.42149e-11
0.718332 9.49688e-11
0.735142 9.57966e-11
0.752346 9.67004e-11
0.769952 9.76823e-11
0.78797 9.87445e-11
0.80641 9.98893e-11
0.825282 1.01119e-10
0.844595 1.02437e-10
0.86436 1.03845e-10
0.884588 1.05346e-10
0.905289 1.06944e-10
0.926475 1.08641e-10
0.948156 1.10441e-10
0.970345 1.12348e-10
0.993053 1.14364e-10
1.01629 1.16495e-10
1.04008 1.18743e-10
1.06442 1.21114e-10
1.08932 1.23612e-10
1.11482 1.26241e-10
1.14091 1.29006e-10
1.16761 1.31913e-10
1.19493 1.34967e-10
1.22289 1.38173e-10
1.25151 1.41538e-10
1.2808 1.45068e-10
1.31077 1.48769e-10
1.34145 1.52648e-10
1.37284 1.56712e-10
1.40497 1.60969e-10
1.43785 1.65427e-10
1.47149 1.70093e-10
1.50593 1.74977e-10
1.54117 1.80087e-10
1.57724 1.85433e-10
1.61415 1.91025e-10
1.65192 1.96873e-10
1.69058 2.02987e-10
1.73014 2.0938e-10
1.77063 2.16063e-10
1.81207 2.23048e-10
1.85447 2.30348e-10
1.89787 2.37978e-10
1.94229 2.4595e-10
1.98774 2.54281e-10
2.03426 2.62986e-10
2.08186 2.7208e-10
2.13058 2.81581e-10
2.18044 2.91508e-10
2.23147 3.01878e-10
2.28369 3.12711e-10
2.33713 3.24027e-10
2.39183 3.35849e-10
2.4478 3.48198e-10
2.50508 3.61099e-10
2.56371 3.74574e-10
2.6237 3.88651e-10
2.6851 4.03356e-10
2.74794 4.18717e-10
2.81224 4.34765e-10
2.87806 4.51528e-10
2.94541 4.69041e-10
3.01434 4.87336e-10
3.08488 5.06449e-10
3.15707 5.26417e-10
3.23095 5.47279e-10
3.30656 5.69076e-10
3.38394 5.91848e-10
3.46313 6.15643e-10
3.54418 6.40504e-10
3.62712 6.66482e-10
3.712 6.93627e-10
3.79887 7.21993e-10
3.88777 7.51634e-10
3.97875 7.82611e-10
4.07186 8.14983e-10
4.16715 8.48815e-10
4.26467 8.84173e-10
4.36447 9.21128e-10
4.46661 9.59754e-10
4.57114 1.00013e-09
4.67811 1.04233e-09
4.78759 1.08644e-09
4.89963 1.13255e-09
5.01429 1.18075e-09
5.13163 1.23114e-09
5.25172 1.28382e-09
5.37462 1.3389e-09
5.5004 1.39648e-09
5.62912 1.45668e-09
5.76085 1.51963e-09
5.89567 1.58545e-09
6.03364 1.65427e-09
6.17483 1.72623e-09
6.31934 1.80148e-09
6.46722 1.88017e-09
6.61857 1.96246e-09
6.77346 2.04853e-09
6.93197 2.13853e-09
7.09419 2.23266e-09
7.26021 2.33111e-09
7.43011 2.43408e-09
7.60399 2.54178e-09
7.78194 2.65443e-09
7.96405 2.77226e-09
8.15042 2.89551e-09
8.34116 3.02443e-09
8.53636 3.1593e-09
8.73613 3.30039e-09
8.94057 3.44798e-09
9.1498 3.60238e-09
9.36392 3.76391e-09
9.58305 3.93291e-09
9.80731 4.10972e-09
10.0368 4.2947e-09
10.2717 4.48824e-09
10.5121 4.69074e-09
10.7581 4.90263e-09
11.0098 5.12432e-09
11.2675 5.3563e-09
11.5312 5.59903e-09
11.801 5.85303e-09
12.0772 6.11882e-09
12.3598 6.39695e-09
12.6491 6.688e-09
12.9451 6.99258e-09
13.248 7.31133e-09
13.5581 7.6449e-09
13.8753 7.99399e-09
14.2001 8.35933e-09
14.5324 8.74168e-09
14.8724 9.14185e-09
15.2205 9.56067e-09
15.5767 9.99901e-09
15.9412 1.04578e-08
16.3143 1.0938e-08
16.696 1.14406e-08
17.0868 1.19666e-08
17.4866 1.25172e-08
17.8959 1.30936e-08
18.3146 1.36969e-08
18.7432 1.43283e-08
19.1819 1.49893e-08
19.6308 1.56812e-08
20.0902 1.64055e-08
20.5603 1.71636e-08
21.0415 1.79572e-08
21.5339 1.8788e-08
22.0378 1.96577e-08
22.5535 2.05681e-08
23.0813 2.15212e-08
23.6215 2.25189e-08
24.1743 2.35634e-08
24.74 2.46569e-08
25.319 2.58017e-08
25.9115 2.70001e-08
26.5179 2.82548e-08
27.1384 2.95683e-08
27.7735 3.09435e-08
28.4235 3.23832e-08
29.0886 3.38906e-08
29.7694 3.54687e-08
30.466 3.71209e-08
31.179 3.88508e-08
31.9086 4.06619e-08
32.6554 4.25581e-08
33.4196 4.45435e-08
34.2017 4.66222e-08
35.002 4.87987e-08
35.8212 5.10775e-08
36.6594 5.34634e-08
37.5173 5.59616e-08
38.3953 5.85774e-08
39.2938 6.13162e-08
40.2134 6.41839e-08
41.1545 6.71866e-08
42.1176 7.03306e-08
43.1032 7.36226e-08
44.1119 7.70697e-08
45.1442 8.0679e-08
46.2007 8.44584e-08
47.2818 8.84158e-08
48.3883 9.25596e-08
49.5207 9.68987e-08
50.6796 1.01442e-07
51.8656 1.062e-07
53.0794 1.11182e-07
54.3215 1.16398e-07
55.5927 1.21861e-07
56.8937 1.27581e-07
58.2252 1.33571e-07
59.5877 1.39843e-07
60.9822 1.46411e-07
62.4093 1.53289e-07
63.8698 1.60491e-07
65.3645 1.68033e-07
66.8941 1.75931e-07
68.4596 1.84201e-07
70.0617 1.92862e-07
71.7013 2.01931e-07
73.3792 2.11428e-07
75.0964 2.21373e-07
76.8538 2.31788e-07
78.6524 2.42695e-07
80.493 2.54116e-07
82.3767 2.66077e-07
84.3044 2.78602e-07
86.2773 2.91718e-07
88.2964 3.05454e-07
90.3627 3.19838e-07
92.4774 3.34902e-07
94.6415 3.50677e-07
96.8563 3.67197e-07
99.1229 3.84498e-07
101.443 4.02616e-07
103.817 4.21589e-07
106.246 4.41459e-07
108.732 4.62267e-07
111.277 4.84059e-07
113.881 5.0688e-07
116.546 5.3078e-07
119.274 5.55809e-07
122.065 5.8202e-07
124.921 6.09471e-07
127.845 6.38218e-07
130.837 6.68324e-07
133.898 6.99853e-07
137.032 7.32873e-07
140.239 7.67453e-07
143.521 8.03667e-07
146.879 8.41594e-07
150.316 8.81313e-07
153.834 9.2291e-07
157.434 9.66474e-07
161.118 1.0121e-06
164.889 1.05988e-06
168.748 1.10992e-06
172.697 1.16232e-06
176.738 1.21721e-06
180.874 1.27469e-06
185.107 1.33488e-06
189.439 1.39792e-06
193.872 1.46395e-06
198.409 1.5331e-06
203.052 1.60551e-06
207.804 1.68136e-06
212.667 1.76079e-06
217.644 1.84397e-06
222.737 1.93109e-06
227.95 2.02233e-06
233.284 2.11789e-06
238.743 2.21797e-06
244.33 2.32278e-06
250.048 2.43255e-06
255.9 2.54751e-06
261.888 2.66791e-06
268.017 2.79401e-06
274.289 2.92607e-06
280.708 3.06438e-06
287.277 3.20923e-06
294 3.36094e-06
300.88 3.51982e-06
307.921 3.68622e-06
315.127 3.86049e-06
322.502 4.04301e-06
330.049 4.23417e-06
337.773 4.43437e-06
345.678 4.64404e-06
353.767 4.86364e-06
362.046 5.09362e-06
370.518 5.33449e-06
379.189 5.58675e-06
388.063 5.85096e-06
397.145 6.12766e-06
406.438 6.41746e-06
415.95 6.72098e-06
425.684 7.03886e-06
435.646 7.37178e-06
445.841 7.72046e-06
456.274 8.08563e-06
466.952 8.46809e-06
477.88 8.86866e-06
489.063 9.28817e-06
500.508 9.72755e-06
512.221 1.01877e-05
524.208 1.06697e-05
536.475 1.11744e-05
549.03 1.17031e-05
561.878 1.22567e-05
575.027 1.28366e-05
588.484 1.34439e-05
602.256 1.408e-05
616.35 1.47462e-05
630.773 1.54439e-05
645.535 1.61746e-05
660.641 1.69399e-05
676.102 1.77415e-05
691.924 1.8581e-05
708.116 1.94602e-05
724.688 2.0381e-05
741.647 2.13455e-05
759.003 2.23555e-05
776.765 2.34134e-05
794.943 2.45214e-05
813.546 2.56818e-05
832.584 2.68972e-05
852.068 2.817e-05
872.009 2.95032e-05
892.415 3.08994e-05
913.299 3.23618e-05
934.672 3.38933e-05
956.546 3.54974e-05
978.931 3.71774e-05
1001.84 3.89369e-05
1025.28 4.07798e-05
1049.28 4.27098e-05
1073.83 4.47313e-05
1098.96 4.68484e-05
1124.68 4.90658e-05
1151 5.13881e-05
1177.94 5.38204e-05
1205.5 5.63679e-05
1233.71 5.90359e-05
1262.58 6.18302e-05
1292.13 6.47569e-05
1322.37 6.78221e-05
1353.32 7.10324e-05
1384.99 7.43946e-05
1417.4 7.79161e-05
1450.57 8.16043e-05
1484.51 8.54671e-05
1519.25 8.95128e-05
1554.81 9.375e-05
1591.19 9.81878e-05
1628.43 0.000102836
1666.54 0.000107704
1705.54 0.000112802
1745.45 0.000118142
1786.3 0.000123735
1828.1 0.000129592
1870.88 0.000135727
1914.67 0.000142152
1959.47 0.000148882
2005.33 0.00015593
2052.26 0.000163311
2100.28 0.000171042
2149.43 0.00017914
2199.73 0.00018762
2251.21 0.000196503
2303.9 0.000205805
2357.81 0.000215548
2412.99 0.000225753
2469.46 0.00023644
2527.25 0.000247634
2586.39 0.000259358
2646.92 0.000271636
2708.86 0.000284496
2772.25 0.000297965
2837.13 0.000312072
2903.52 0.000326847
2971.47 0.000342321
3041.01 0.000358527
3112.17 0.000375502
3185.01 0.000393279
3259.54 0.000411899
3335.82 0.0004314
3413.89 0.000451825
3493.78 0.000473216
3575.54 0.000495621
3659.21 0.000519086
3744.85 0.000543662
3832.48 0.000569402
3922.17 0.000596361
4013.96 0.000624596
4107.89 0.000654168
4204.02 0.00068514
4302.41 0.000717579
4403.09 0.000751553
4506.13 0.000787137
4611.58 0.000824405
4719.5 0.000863437
4829.95 0.000904318
4942.98 0.000947135
5058.65 0.000991979
5177.04 0.00103895
5298.19 0.00108814
5422.18 0.00113966
5549.07 0.00119362
5678.93 0.00125013
5811.82 0.00130932
5947.83 0.00137132
6087.02 0.00143624
6229.47 0.00150425
6375.25 0.00157547
6524.45 0.00165007
6677.13 0.00172819
6833.39 0.00181002
6993.3 0.00189572
7156.96 0.00198548
7324.45 0.00207949
7495.85 0.00217795
7671.27 0.00228107
7850.79 0.00238908
8034.52 0.0025022
8222.54 0.00262067
8414.96 0.00274476
8611.89 0.00287472
8813.43 0.00301083
9019.68 0.00315339
9230.76 0.0033027
9446.77 0.00345908
9667.85 0.00362287
9894.09 0.00379441
10125.6 0.00397407
10362.6 0.00416224
10605.1 0.00435932
10853.3 0.00456573
11107.3 0.00478192
11367.2 0.00500834
11633.2 0.00524548
11905.5 0.00549385
12184.1 0.00575398
12469.2 0.00602643
12761 0.00631178
13059.6 0.00661064
13365.2 0.00692366
13678 0.00725149
13998.1 0.00759485
14325.7 0.00795446
14660.9 0.00833111
15004 0.00872558
15355.2 0.00913874
15714.5 0.00957146
16082.3 0.0100247
16458.6 0.0104993
16843.8 0.0109965
17238 0.0115172
17641.4 0.0120625
18054.2 0.0126337
18476.7 0.0132319
18909.1 0.0138584
19351.6 0.0145146
19804.5 0.0152019
20267.9 0.0159217
20742.2 0.0166756
21227.6 0.0174652
21724.4 0.0182922
22232.8 0.0191583
22753.1 0.0200655
23285.6 0.0210156
23830.5 0.0220107
24388.2 0.0230529
24958.9 0.0241445
25543 0.0252877
26140.8 0.0264851
26752.5 0.0277392
27378.6 0.0290527
28019.3 0.0304284
28675 0.0318692
29346 0.0333782
30032.8 0.0349587
30735.6 0.036614
31454.9 0.0383477
32191 0.0401635
32944.3 0.0420653
33715.3 0.0440571
34504.3 0.0461432
35311.7 0.0483282
36138.1 0.0506165
36983.8 0.0530133
37849.3 0.0555235
38735.1 0.0581526
39641.5 0.0609062
40569.2 0.0637902
41518.6 0.0668107
42490.2 0.0699742
43484.6 0.0732876
44502.2 0.0767578
45543.7 0.0803924
46609.5 0.0841991
47700.2 0.088186
48816.5 0.0923617
49958.9 0.0967351
51128 0.101316
52324.5 0.106113
53549 0.111138
54802.2 0.1164
56084.6 0.121912
57397.1 0.127684
58740.3 0.13373
60115 0.140063
61521.8 0.146695
62961.5 0.153641
64434.9 0.160916
65942.8 0.168536
67486 0.176516
69065.3 0.184874
70681.6 0.193628
72335.7 0.202797
74028.5 0.2124
75760.9 0.222457
77533.9 0.232991
79348.3 0.244023
81205.2 0.255578
83105.6 0.26768
85050.4 0.280355
87040.7 0.29363
89077.7 0.307533
91162.3 0.322096
93295.6 0.337347
95478.9 0.353321
97713.3 0.370051
100000 0.387574
8.98e-06 100000 1001 3
8.98e-06 6.37326e-09
9.19016e-06 6.81427e-09
9.40524e-06 7.26344e-09
9.62535e-06 7.72313e-09
9.85061e-06 8.20679e-09
1.00811e-05 8.70848e-09
1.03171e-05 9.22831e-09
1.05585e-05 9.77213e-09
1.08056e-05 1.03287e-08
1.10585e-05 1.09162e-08
1.13173e-05 1.15203e-08
1.15822e-05 1.21459e-08
1.18532e-05 1.28028e-08
1.21306e-05 1.3475e-08
1.24145e-05 1.41739e-08
1.27051e-05 1.49063e-08
1.30024e-05 1.56558e-08
1.33067e-05 1.64353e-08
1.36181e-05 1.72515e-08
1.39368e-05 1.80868e-08
1.4263e-05 1.89416e-08
1.45968e-05 1.98478e-08
1.49384e-05 2.07779e-08
1.5288e-05 2.17298e-08
1.56458e-05 2.27189e-08
1.6012e-05 2.37506e-08
1.63867e-05 2.48065e-08
1.67702e-05 2.58871e-08
1.71627e-05 2.70139e-08
1.75643e-05 2.81777e-08
1.79754e-05 2.93687e-08
1.83961e-05 3.05875e-08
1.88266e-05 3.18498e-08
1.92672e-05 3.31465e-08
1.97181e-05 3.44735e-08
2.01796e-05 3.58315e-08
2.06518e-05 3.72288e-08
2.11351e-05 3.86589e-08
2.16298e-05 4.01224e-08
2.2136e-05 4.16119e-08
2.2654e-05 4.3128e-08
2.31842e-05 4.46797e-08
2.37268e-05 4.62667e-08
2.42821e-05 4.78507e-08
2.48503e-05 4.94718e-08
2.54319e-05 5.11308e-08
2.60271e-05 5.27944e-08
2.66362e-05 5.44675e-08
2.72596e-05 5.61796e-08
2.78975e-05 5.7885e-08
2.85504e-05 5.9592e-08
2.92186e-05 6.13389e-08
2.99024e-05 6.306e-08
3.06022e-05 6.47699e-08
3.13184e-05 6.65198e-08
3.20513e-05 6.82253e-08
3.28014e-05 6.99087e-08
3.35691e-05 7.16315e-08
3.43547e-05 7.33179e-08
3.51587e-05 7.49485e-08
3.59815e-05 7.66173e-08
3.68236e-05 7.82564e-08
3.76854e-05 7.98092e-08
3.85674e-05 8.13984e-08
3.947e-05 8.29148e-08
4.03937e-05 8.43629e-08
4.1339e-05 8.58449e-08
4.23065e-05 8.73305e-08
4.32966e-05 8.86571e-08
4.43098e-05 9.00149e-08
4.53468e-05 9.13681e-08
4.64081e-05 9.25516e-08
4.74942e-05 9.37628e-08
4.86057e-05 9.50023e-08
4.97432e-05 9.612e-08
5.09074e-05 9.7182e-08
5.20988e-05 9.82688e-08
5.3318e-05 9.93365e-08
5.45658e-05 1.00233e-07
5.58428e-05 1.0115e-07
5.71497e-05 1.02088e-07
5.84872e-05 1.03003e-07
5.9856e-05 1.03757e-07
6.12568e-05 1.04528e-07
6.26904e-05 1.05318e-07
6.41576e-05 1.06126e-07
6.5659e-05 1.06787e-07
6.71957e-05 1.074e-07
6.87683e-05 1.08027e-07
7.03776e-05 1.08669e-07
7.20247e-05 1.09325e-07
7.37103e-05 1.09942e-07
7.54354e-05 1.10408e-07
7.72008e-05 1.10884e-07
7.90075e-05 1.11372e-07
8.08565e-05 1.1187e-07
8.27488e-05 1.12381e-07
8.46854e-05 1.12903e-07
8.66673e-05 1.13277e-07
8.86956e-05 1.13614e-07
9.07713e-05 1.13959e-07
9.28957e-05 1.14311e-07
9.50697e-05 1.14672e-07
9.72946e-05 1.15042e-07
9.95716e-05 1.15359e-07
0.000101902 1.15547e-07
0.000104287 1.15739e-07
0.000106727 1.15936e-07
0.000109225 1.16137e-07
0.000111781 1.16343e-07
0.000114397 1.16491e-07
0.000117075 1.16519e-07
0.000119814 1.16548e-07
0.000122619 1.16577e-07
0.000125488 1.16607e-07
0.000128425 1.16638e-07
0.000131431 1.16528e-07
0.000134506 1.16393e-07
0.000137654 1.16255e-07
0.000140876 1.16114e-07
0.000144173 1.1597e-07
0.000147547 1.15776e-07
0.000151 1.15507e-07
0.000154534 1.15231e-07
0.00015815 1.14949e-07
0.000161852 1.1466e-07
0.000165639 1.14365e-07
0.000169516 1.14077e-07
0.000173483 1.13803e-07
0.000177543 1.13523e-07
0.000181698 1.13236e-07
0.00018595 1.12942e-07
0.000190302 1.12642e-07
0.000194756 1.12334e-07
0.000199314 1.12019e-07
0.000203978 1.11697e-07
0.000208752 1.11368e-07
0.000213638 1.1103e-07
0.000218637 1.10685e-07
0.000223754 1.10332e-07
0.000228991 1.0997e-07
0.00023435 1.096e-07
0.000239834 1.09221e-07
0.000245447 1.08834e-07
0.000251191 1.08437e-07
0.00025707 1.08031e-07
0.000263086 1.07616e-07
0.000269243 1.07191e-07
0.000275544 1.06756e-07
0.000281993 1.06311e-07
0.000288592 1.05885e-07
0.000295346 1.05449e-07
0.000302258 1.05002e-07
0.000309332 1.04546e-07
0.000316571 1.04078e-07
0.00032398 1.03564e-07
0.000331562 1.03009e-07
0.000339322 1.02441e-07
0.000347263 1.01859e-07
0.00035539 1.01264e-07
0.000363707 1.00652e-07
0.000372219 9.9984e-08
0.00038093 9.93007e-08
0.000389845 9.86014e-08
0.000398969 9.78858e-08
0.000408306 9.71509e-08
0.000417862 9.63757e-08
0.000427641 9.55825e-08
0.000437649 9.47706e-08
0.000447891 9.39398e-08
0.000458373 9.30895e-08
0.000469101 9.22393e-08
0.000480079 9.13813e-08
0.000491314 9.05033e-08
0.000502813 8.96047e-08
0.00051458 8.86851e-08
0.000526623 8.77773e-08
0.000538947 8.70404e-08
0.00055156 8.62864e-08
0.000564469 8.55146e-08
0.000577679 8.47248e-08
0.000591198 8.39165e-08
0.000605034 8.30893e-08
0.000619194 8.22428e-08
0.000633685 8.13764e-08
0.000648515 8.04898e-08
0.000663693 7.95824e-08
0.000679225 7.86537e-08
0.000695121 7.77034e-08
0.000711389 7.67308e-08
0.000728038 7.57354e-08
0.000745076 7.47167e-08
0.000762513 7.37252e-08
0.000780358 7.28896e-08
0.000798621 7.20343e-08
0.000817311 7.11591e-08
0.000836439 7.02634e-08
0.000856014 6.93665e-08
0.000876047 6.84554e-08
0.00089655 6.7523e-08
0.000917532 6.65688e-08
0.000939005 6.56338e-08
0.00096098 6.46899e-08
0.00098347 6.37239e-08
0.00100649 6.27354e-08
0.00103004 6.17237e-08
0.00105415 6.0727e-08
0.00107882 5.98033e-08
0.00110407 5.8858e-08
0.0011299 5.78906e-08
0.00115635 5.69006e-08
0.00118341 5.58874e-08
0.0012111 5.49738e-08
0.00123945 5.40672e-08
0.00126846 5.31394e-08
0.00129814 5.21899e-08
0.00132852 5.12181e-08
0.00135961 5.02237e-08
0.00139143 4.93402e-08
0.001424 4.84615e-08
0.00145732 4.75623e-08
0.00149143 4.6642e-08
0.00152633 4.57001e-08
0.00156205 4.48017e-08
0.00159861 4.39961e-08
0.00163602 4.31717e-08
0.00167431 4.2328e-08
0.00171349 4.14646e-08
0.0017536 4.05809e-08
0.00179463 3.96765e-08
0.00183663 3.88615e-08
0.00187962 3.81948e-08
0.00192361 3.75124e-08
0.00196862 3.68141e-08
0.0020147 3.60995e-08
0.00206185 3.53681e-08
0.0021101 3.46196e-08
0.00215948 3.38536e-08
0.00221002 3.30696e-08
0.00226174 3.22673e-08
0.00231467 3.14463e-08
0.00236885 3.07336e-08
0.00242428 3.0161e-08
0.00248102 2.95751e-08
0.00253908 2.89755e-08
0.00259851 2.83618e-08
0.00265932 2.77337e-08
0.00272155 2.7091e-08
0.00278525 2.64332e-08
0.00285043 2.576e-08
0.00291714 2.51829e-08
0.00298541 2.47085e-08
0.00305528 2.4223e-08
0.00312678 2.37261e-08
0.00319996 2.32176e-08
0.00327485 2.26973e-08
0.00335149 2.21647e-08
0.00342992 2.16196e-08
0.00351019 2.10618e-08
0.00359234 2.0491e-08
0.00367641 2.00299e-08
0.00376245 1.96641e-08
0.00385051 1.92898e-08
0.00394062 1.89067e-08
0.00403284 1.85147e-08
0.00412722 1.81134e-08
0.00422381 1.77028e-08
0.00432266 1.72826e-08
0.00442383 1.68525e-08
0.00452736 1.64124e-08
0.00463331 1.5962e-08
0.00474175 1.5501e-08
0.00485272 1.50475e-08
0.00496629 1.47533e-08
0.00508251 1.42375e-08
0.00520146 1.39187e-08
0.00532319 1.36027e-08
0.00544777 1.329e-08
0.00557527 1.29809e-08
0.00570574 1.26757e-08
0.00583928 1.23748e-08
0.00597593 1.20783e-08
0.00611579 1.17864e-08
0.00625892 1.14994e-08
0.00640539 1.12172e-08
0.0065553 1.09402e-08
0.00670871 1.06683e-08
0.00686572 1.04016e-08
0.0070264 1.01402e-08
0.00719084 9.8841e-09
0.00735913 9.63328e-09
0.00753135 9.38776e-09
0.00770761 9.14754e-09
0.00788799 8.91257e-09
0.00807259 8.68283e-09
0.00826152 8.45827e-09
0.00845486 8.23884e-09
0.00865273 8.02447e-09
0.00885523 7.81511e-09
0.00906247 7.61067e-09
0.00927456 7.41109e-09
0.00949162 7.21628e-09
0.00971375 7.02617e-09
0.00994108 6.84065e-09
0.0101737 6.65965e-09
0.0104118 6.48308e-09
0.0106555 6.31084e-09
0.0109049 6.14285e-09
0.0111601 5.97901e-09
0.0114213 5.81922e-09
0.0116886 5.66341e-09
0.0119621 5.51147e-09
0.012242 5.36331e-09
0.0125286 5.21884e-09
0.0128218 5.07797e-09
0.0131218 4.94062e-09
0.0134289 4.8067e-09
0.0137432 4.67612e-09
0.0140648 4.5488e-09
0.014394 4.42465e-09
0.0147309 4.30359e-09
0.0150756 4.18556e-09
0.0154284 4.07046e-09
0.0157895 3.95823e-09
0.016159 3.84879e-09
0.0165372 3.74207e-09
0.0169242 3.63801e-09
0.0173203 3.53654e-09
0.0177256 3.43759e-09
0.0181405 3.34111e-09
0.018565 3.24703e-09
0.0189995 3.15531e-09
0.0194441 3.06587e-09
0.0198992 2.97869e-09
0.0203649 2.8937e-09
0.0208415 2.81086e-09
0.0213292 2.73012e-09
0.0218284 2.65145e-09
0.0223393 2.57481e-09
0.0228621 2.50016e-09
0.0233971 2.42747e-09
0.0239447 2.35671e-09
0.0245051 2.28785e-09
0.0250786 2.22087e-09
0.0256655 2.15574e-09
0.0262661 2.09245e-09
0.0268808 2.03098e-09
0.0275099 1.97132e-09
0.0281537 1.91346e-09
0.0288126 1.85739e-09
0.0294869 1.80312e-09
0.030177 1.75063e-09
0.0308833 1.69994e-09
0.031606 1.65105e-09
0.0323457 1.60398e-09
0.0331027 1.55873e-09
0.0338774 1.51534e-09
0.0346702 1.4738e-09
0.0354816 1.43417e-09
0.036312 1.39646e-09
0.0371618 1.36071e-09
0.0380315 1.32696e-09
0.0389216 1.29526e-09
0.0398325 1.26565e-09
0.0407647 1.23819e-09
0.0417187 1.21293e-09
0.042695 1.18994e-09
0.0436942 1.16929e-09
0.0447168 1.15106e-09
0.0457633 1.13533e-09
0.0468343 1.12218e-09
0.0479304 1.11171e-09
0.0490521 1.10402e-09
0.0502001 1.09922e-09
0.0513749 1.09742e-09
0.0525772 1.09875e-09
0.0538077 1.10334e-09
0.055067 8.82349e-10
0.0563557 8.58795e-10
0.0576746 8.35872e-10
0.0590244 8.13571e-10
0.0604057 7.91881e-10
0.0618194 7.70793e-10
0.0632662 7.50294e-10
0.0647468 7.30375e-10
0.0662621 7.11023e-10
0.0678128 6.92226e-10
0.0693998 6.73973e-10
0.071024 6.56251e-10
0.0726862 6.3905e-10
0.0743873 6.22355e-10
0.0761282 6.06156e-10
0.0779098 5.9044e-10
0.0797331 5.75196e-10
0.0815991 5.60411e-10
0.0835088 5.46074e-10
0.0854632 5.32173e-10
0.0874633 5.18697e-10
0.0895102 5.05634e-10
0.091605 4.92973e-10
0.0937488 4.80704e-10
0.0959428 4.68816e-10
0.0981882 4.57297e-10
0.100486 4.46139e-10
0.102838 4.35331e-10
0.105245 4.24863e-10
0.107708 4.14725e-10
0.110228 4.04908e-10
0.112808 3.95404e-10
0.115448 3.86203e-10
0.11815 3.77296e-10
0.120915 3.68676e-10
0.123745 3.60334e-10
0.126641 3.52261e-10
0.129604 3.44451e-10
0.132638 3.36896e-10
0.135742 3.29589e-10
0.138919 3.22522e-10
0.14217 3.1569e-10
0.145497 3.09084e-10
0.148902 3.02699e-10
0.152387 2.9653e-10
0.155953 2.90568e-10
0.159603 2.8481e-10
0.163338 2.7925e-10
0.167161 2.73881e-10
0.171073 2.68699e-10
0.175076 2.637e-10
0.179174 2.58877e-10
0.183367 2.54227e-10
0.187658 2.49746e-10
0.19205 2.45428e-10
0.196545 2.4127e-10
0.201144 2.37268e-10
0.205852 2.33418e-10
0.210669 2.29716e-10
0.2156 2.26159e-10
0.220645 2.22745e-10
0.225809 2.19468e-10
0.231094 2.16328e-10
0.236502 2.1332e-10
0.242037 2.10443e-10
0.247701 2.07693e-10
0.253498 2.05068e-10
0.259431 2.02566e-10
0.265502 2.00185e-10
0.271716 1.97922e-10
0.278075 1.95776e-10
0.284583 1.93746e-10
0.291243 1.91828e-10
0.298059 1.90023e-10
0.305034 1.88328e-10
0.312173 1.86743e-10
0.319479 1.85265e-10
0.326956 1.83895e-10
0.334607 1.82632e-10
0.342438 1.81473e-10
0.350452 1.8042e-10
0.358654 1.79471e-10
0.367048 1.78626e-10
0.375638 1.77885e-10
0.384429 1.77248e-10
0.393426 1.76714e-10
0.402633 1.76285e-10
0.412056 1.75959e-10
0.421699 1.75737e-10
0.431568 1.75621e-10
0.441668 1.7561e-10
0.452005 1.75705e-10
0.462583 1.75907e-10
0.473409 1.76218e-10
0.484488 1.76639e-10
0.495827 1.7717e-10
0.507431 1.77813e-10
0.519306 1.7857e-10
0.531459 1.79443e-10
0.543897 1.80434e-10
0.556626 1.81544e-10
0.569653 1.82777e-10
0.582984 1.84134e-10
0.596628 1.85618e-10
0.610591 1.87233e-10
0.624881 1.8898e-10
0.639505 1.90864e-10
0.654471 1.92887e-10
0.669788 1.95053e-10
0.685463 1.97367e-10
0.701505 1.99832e-10
0.717922 2.02452e-10
0.734724 2.05233e-10
0.751919 2.08178e-10
0.769516 2.11293e-10
0.787525 2.14584e-10
0.805956 2.18055e-10
0.824817 2.21713e-10
0.844121 2.25565e-10
0.863876 2.29615e-10
0.884093 2.33873e-10
0.904784 2.38343e-10
0.925958 2.43035e-10
0.947629 2.47957e-10
0.969806 2.53116e-10
0.992503 2.58521e-10
1.01573 2.64181e-10
1.0395 2.70107e-10
1.06383 2.76307e-10
1.08873 2.82794e-10
1.11421 2.89577e-10
1.14028 2.96668e-10
1.16697 3.04081e-10
1.19428 3.11826e-10
1.22223 3.19918e-10
1.25083 3.2837e-10
1.2801 3.37198e-10
1.31006 3.46416e-10
1.34072 3.56041e-10
1.3721 3.66088e-10
1.40421 3.76577e-10
1.43707 3.87524e-10
1.47071 3.9895e-10
1.50513 4.10874e-10
1.54035 4.23317e-10
1.5764 4.36302e-10
1.61329 4.49851e-10
1.65105 4.63989e-10
1.68969 4.7874e-10
1.72923 4.94132e-10
1.7697 5.10191e-10
1.81112 5.26946e-10
1.8535 5.44429e-10
1.89688 5.6267e-10
1.94127 5.81702e-10
1.9867 6.0156e-10
2.0332 6.22281e-10
2.08078 6.43901e-10
2.12948 6.66462e-10
2.17932 6.90003e-10
2.23032 7.14569e-10
2.28252 7.40206e-10
2.33593 7.66959e-10
2.3906 7.9488e-10
2.44655 8.2402e-10
2.50381 8.54433e-10
2.5624 8.86177e-10
2.62237 9.19311e-10
2.68374 9.53897e-10
2.74655 9.90001e-10
2.81083 1.02769e-09
2.87661 1.06704e-09
2.94393 1.10812e-09
3.01283 1.151e-09
3.08334 1.19578e-09
3.1555 1.24254e-09
3.22935 1.29137e-09
3.30492 1.34235e-09
3.38227 1.3956e-09
3.46142 1.4512e-09
3.54243 1.50928e-09
3.62534 1.56994e-09
3.71018 1.63329e-09
3.79701 1.69947e-09
3.88587 1.7686e-09
3.97681 1.84082e-09
4.06988 1.91626e-09
4.16513 1.99508e-09
4.26261 2.07743e-09
4.36236 2.16347e-09
4.46446 2.25338e-09
4.56894 2.34732e-09
4.67587 2.44548e-09
4.7853 2.54807e-09
4.89729 2.65527e-09
5.0119 2.76732e-09
5.12919 2.88442e-09
5.24923 3.00681e-09
5.37208 3.13473e-09
5.4978 3.26845e-09
5.62647 3.40823e-09
5.75815 3.55434e-09
5.8929 3.70709e-09
6.03082 3.86677e-09
6.17196 4.03372e-09
6.3164 4.20826e-09
6.46422 4.39076e-09
6.6155 4.58157e-09
6.77033 4.78108e-09
6.92877 4.9897e-09
7.09093 5.20785e-09
7.25688 5.43598e-09
7.42671 5.67454e-09
7.60052 5.92403e-09
7.7784 6.18494e-09
7.96043 6.45782e-09
8.14673 6.74322e-09
8.33739 7.04172e-09
8.53251 7.35394e-09
8.7322 7.6805e-09
8.93656 8.0221e-09
9.1457 8.37941e-09
9.35974 8.75318e-09
9.57879 9.14417e-09
9.80296 9.5532e-09
10.0324 9.98109e-09
10.2672 1.04287e-08
10.5075 1.08971e-08
10.7534 1.1387e-08
11.005 1.18997e-08
11.2626 1.2436e-08
11.5262 1.29972e-08
11.7959 1.35843e-08
12.072 1.41987e-08
12.3545 1.48415e-08
12.6436 1.55142e-08
12.9395 1.6218e-08
13.2423 1.69545e-08
13.5523 1.77253e-08
13.8694 1.85318e-08
14.194 1.93758e-08
14.5262 2.02591e-08
14.8661 2.11834e-08
15.2141 2.21508e-08
15.5701 2.31632e-08
15.9345 2.42227e-08
16.3074 2.53316e-08
16.6891 2.64922e-08
17.0796 2.77069e-08
17.4794 2.89782e-08
17.8884 3.03089e-08
18.3071 3.17016e-08
18.7355 3.31593e-08
19.174 3.46852e-08
19.6227 3.62823e-08
20.0819 3.7954e-08
20.5519 3.97039e-08
21.0329 4.15356e-08
21.5251 4.34529e-08
22.0289 4.54599e-08
22.5444 4.75609e-08
23.072 4.97602e-08
23.612 5.20624e-08
24.1646 5.44725e-08
24.7301 5.69955e-08
25.3089 5.96366e-08
25.9012 6.24016e-08
26.5074 6.52961e-08
27.1277 6.83264e-08
27.7626 7.14987e-08
28.4123 7.48199e-08
29.0772 7.82969e-08
29.7577 8.1937e-08
30.4542 8.5748e-08
31.1669 8.97379e-08
31.8963 9.39152e-08
32.6428 9.82886e-08
33.4067 1.02867e-07
34.1885 1.07661e-07
34.9886 1.12681e-07
35.8075 1.17936e-07
36.6455 1.23438e-07
37.5031 1.29199e-07
38.3808 1.3523e-07
39.279 1.41546e-07
40.1983 1.48158e-07
41.139 1.55082e-07
42.1018 1.62331e-07
43.0871 1.69921e-07
44.0955 1.77869e-07
45.1275 1.86191e-07
46.1836 1.94904e-07
47.2644 2.04028e-07
48.3706 2.13581e-07
49.5026 2.23584e-07
50.6611 2.34058e-07
51.8467 2.45026e-07
53.0601 2.56511e-07
54.3019 2.68536e-07
55.5727 2.81129e-07
56.8733 2.94314e-07
58.2043 3.08121e-07
59.5664 3.22579e-07
60.9605 3.37719e-07
62.3872 3.53573e-07
63.8472 3.70174e-07
65.3414 3.87557e-07
66.8706 4.05761e-07
68.4356 4.24823e-07
70.0372 4.44785e-07
71.6763 4.65688e-07
73.3537 4.87577e-07
75.0704 5.10499e-07
76.8273 5.34503e-07
78.6253 5.59639e-07
80.4654 5.85962e-07
82.3485 6.13527e-07
84.2757 6.42393e-07
86.2481 6.72622e-07
88.2665 7.04277e-07
90.3322 7.37428e-07
92.4463 7.72143e-07
94.6098 8.08498e-07
96.824 8.46569e-07
99.09 8.86438e-07
101.409 9.2819e-07
103.782 9.71914e-07
106.211 1.0177e-06
108.697 1.06566e-06
111.241 1.11587e-06
113.844 1.16846e-06
116.508 1.22354e-06
119.235 1.28121e-06
122.025 1.34161e-06
124.881 1.40487e-06
127.804 1.47111e-06
130.795 1.54049e-06
133.856 1.61314e-06
136.988 1.68923e-06
140.194 1.76891e-06
143.475 1.85236e-06
146.833 1.93975e-06
150.269 2.03127e-06
153.786 2.12712e-06
157.385 2.2275e-06
161.069 2.33263e-06
164.838 2.44273e-06
168.696 2.55803e-06
172.644 2.67878e-06
176.684 2.80524e-06
180.819 2.93768e-06
185.051 3.07638e-06
189.382 3.22165e-06
193.814 3.37378e-06
198.35 3.5331e-06
202.992 3.69996e-06
207.742 3.87471e-06
212.604 4.05773e-06
217.58 4.2494e-06
222.672 4.45014e-06
227.883 4.66037e-06
233.216 4.88054e-06
238.674 5.11113e-06
244.26 5.35262e-06
249.976 5.60554e-06
255.826 5.87042e-06
261.813 6.14784e-06
267.941 6.43837e-06
274.211 6.74265e-06
280.629 7.06132e-06
287.196 7.39508e-06
293.918 7.74462e-06
300.796 8.11069e-06
307.836 8.49409e-06
315.04 8.89563e-06
322.413 9.31616e-06
329.958 9.75659e-06
337.68 1.02179e-05
345.583 1.0701e-05
353.671 1.12069e-05
361.948 1.17368e-05
370.419 1.22918e-05
379.088 1.2873e-05
387.959 1.34818e-05
397.039 1.41193e-05
406.331 1.4787e-05
415.84 1.54863e-05
425.572 1.62187e-05
435.532 1.69858e-05
445.725 1.77892e-05
456.156 1.86305e-05
466.831 1.95117e-05
477.757 2.04346e-05
488.938 2.14012e-05
500.38 2.24136e-05
512.091 2.34738e-05
524.075 2.45842e-05
536.34 2.57472e-05
548.892 2.69653e-05
561.738 2.82409e-05
574.885 2.9577e-05
588.339 3.09763e-05
602.108 3.24418e-05
616.199 3.39767e-05
630.62 3.55843e-05
645.378 3.72679e-05
660.482 3.90312e-05
675.939 4.0878e-05
691.758 4.28122e-05
707.948 4.4838e-05
724.516 4.69597e-05
741.472 4.91818e-05
758.824 5.15091e-05
776.583 5.39465e-05
794.758 5.64994e-05
813.357 5.9173e-05
832.393 6.19733e-05
851.873 6.49061e-05
871.81 6.79778e-05
892.213 7.11948e-05
913.093 7.45642e-05
934.462 7.8093e-05
956.332 8.17889e-05
978.713 8.56598e-05
1001.62 8.97139e-05
1025.06 9.396e-05
1049.05 9.84071e-05
1073.6 0.000103065
1098.72 0.000107943
1124.44 0.000113052
1150.75 0.000118403
1177.68 0.000124007
1205.25 0.000129877
1233.45 0.000136024
1262.32 0.000142463
1291.86 0.000149206
1322.1 0.000156268
1353.04 0.000163665
1384.7 0.000171413
1417.11 0.000179527
1450.27 0.000188025
1484.21 0.000196925
1518.95 0.000206247
1554.5 0.00021601
1590.88 0.000226236
1628.11 0.000236945
1666.21 0.000248162
1705.21 0.000259909
1745.11 0.000272213
1785.95 0.0002851
1827.75 0.000298596
1870.53 0.000312732
1914.3 0.000327537
1959.1 0.000343043
2004.95 0.000359283
2051.87 0.000376292
2099.89 0.000394106
2149.04 0.000412764
2199.33 0.000432305
2250.8 0.000452771
2303.48 0.000474207
2357.39 0.000496657
2412.56 0.00052017
2469.02 0.000544797
2526.8 0.00057059
2585.94 0.000597604
2646.45 0.000625897
2708.39 0.000655529
2771.77 0.000686565
2836.64 0.000719071
2903.03 0.000753115
2970.97 0.000788771
3040.5 0.000826116
3111.66 0.000865229
3184.48 0.000906194
3259 0.000949099
3335.27 0.000994035
3413.33 0.0010411
3493.21 0.00109039
3574.97 0.00114202
3658.63 0.00119609
3744.25 0.00125272
3831.88 0.00131203
3921.56 0.00137415
4013.34 0.00143922
4107.26 0.00150736
4203.38 0.00157873
4301.75 0.00165348
4402.43 0.00173177
4505.46 0.00181377
4610.9 0.00189964
4718.81 0.00198959
4829.24 0.00208379
4942.26 0.00218246
5057.93 0.0022858
5176.3 0.00239403
5297.44 0.00250738
5421.42 0.0026261
5548.3 0.00275045
5678.14 0.00288068
5811.03 0.00301708
5947.02 0.00315993
6086.2 0.00330956
6228.64 0.00346626
6374.41 0.00363039
6523.59 0.00380229
6676.26 0.00398233
6832.51 0.00417089
6992.41 0.00436838
7156.05 0.00457523
7323.53 0.00479187
7494.92 0.00501876
7670.32 0.0052564
7849.83 0.0055053
8033.54 0.00576598
8221.55 0.006039
8413.96 0.00632495
8610.88 0.00662445
8812.4 0.00693812
9018.63 0.00726665
9229.7 0.00761073
9445.7 0.00797111
9666.76 0.00834855
9892.99 0.00874386
10124.5 0.0091579
10361.5 0.00959154
10604 0.0100457
10852.1 0.0105214
11106.1 0.0110196
11366 0.0115414
11632 0.0120879
11904.2 0.0126603
12182.8 0.0132598
12467.9 0.0138876
12759.7 0.0145452
13058.4 0.015234
13364 0.0159553
13676.7 0.0167109
13996.8 0.0175022
14324.4 0.0183309
14659.6 0.0191989
15002.7 0.020108
15353.8 0.0210602
15713.1 0.0220574
16080.8 0.0231019
16457.2 0.0241959
16842.3 0.0253416
17236.5 0.0265416
17639.9 0.0277984
18052.7 0.0291147
18475.2 0.0304934
18907.6 0.0319373
19350.1 0.0334496
19802.9 0.0350335
20266.4 0.0366925
20740.7 0.0384299
21226.1 0.0402497
21722.8 0.0421556
22231.2 0.0441518
22751.5 0.0462425
23283.9 0.0484322
23828.9 0.0507256
24386.5 0.0531276
24957.2 0.0556434
25541.3 0.0582783
26139.1 0.0610379
26750.8 0.0639282
27376.8 0.0669554
28017.6 0.070126
28673.2 0.0734466
29344.3 0.0769246
30031 0.0805672
30733.9 0.0843823
31453.1 0.088378
32189.2 0.092563
32942.6 0.0969461
33713.5 0.101537
34502.5 0.106345
35310 0.111381
36136.3 0.116655
36982 0.122179
37847.5 0.127964
38733.3 0.134024
39639.8 0.14037
40567.5 0.147017
41516.9 0.153979
42488.5 0.161271
43482.8 0.168907
44500.5 0.176906
45541.9 0.185283
46607.7 0.194056
47698.5 0.203246
48814.8 0.21287
49957.2 0.22295
51126.4 0.233508
52322.9 0.244565
53547.4 0.256146
54800.6 0.268275
56083.1 0.280979
57395.6 0.294284
58738.8 0.30822
60113.5 0.322815
61520.4 0.338102
62960.1 0.354112
64433.6 0.37088
65941.5 0.388443
67484.8 0.406837
69064.1 0.426102
70680.4 0.446279
72334.6 0.467412
74027.4 0.489546
75759.9 0.512728
77532.9 0.537007
79347.4 0.562436
81204.4 0.58907
83104.8 0.616964
85049.7 0.64618
87040.2 0.676779
89077.2 0.708827
91161.8 0.742392
93295.3 0.777547
95478.7 0.814367
97713.2 0.85293
100000 0.893319
