5.985e-05 100000 901 0
5.985e-05 6.92812e-07
6.1279e-05 7.52225e-07
6.27422e-05 8.09811e-07
6.42403e-05 8.66041e-07
6.57741e-05 9.20719e-07
6.73446e-05 9.74042e-07
6.89526e-05 1.02496e-06
7.05989e-05 1.07372e-06
7.22846e-05 1.1214e-06
7.40105e-05 1.16763e-06
7.57777e-05 1.21087e-06
7.7587e-05 1.25346e-06
7.94395e-05 1.29375e-06
8.13363e-05 1.33251e-06
8.32783e-05 1.36984e-06
8.52668e-05 1.40542e-06
8.73027e-05 1.43977e-06
8.93872e-05 1.47199e-06
9.15214e-05 1.50311e-06
9.37067e-05 1.53414e-06
9.59441e-05 1.56193e-06
9.82349e-05 1.59037e-06
0.00010058 1.6165e-06
0.000102982 1.64177e-06
0.000105441 1.66764e-06
0.000107958 1.6907e-06
0.000110536 1.71331e-06
0.000113175 1.73646e-06
0.000115878 1.75881e-06
0.000118645 1.77881e-06
0.000121477 1.7993e-06
0.000124378 1.82027e-06
0.000127348 1.84174e-06
0.000130388 1.85965e-06
0.000133502 1.87797e-06
0.000136689 1.89674e-06
0.000139953 1.91595e-06
0.000143294 1.93562e-06
0.000146716 1.9552e-06
0.000150219 1.97184e-06
0.000153806 1.98888e-06
0.000157478 2.00633e-06
0.000161238 2.02419e-06
0.000165088 2.04248e-06
0.00016903 2.06121e-06
0.000173066 2.08038e-06
0.000177198 2.10002e-06
0.000181429 2.11666e-06
0.000185761 2.13309e-06
0.000190196 2.1499e-06
0.000194737 2.16712e-06
0.000199387 2.18475e-06
0.000204148 2.2028e-06
0.000209022 2.22129e-06
0.000214013 2.24021e-06
0.000219123 2.25599e-06
0.000224355 2.27127e-06
0.000229712 2.28692e-06
0.000235197 2.30293e-06
0.000240812 2.31934e-06
0.000246562 2.33613e-06
0.000252449 2.35236e-06
0.000258477 2.36539e-06
0.000264649 2.37872e-06
0.000270968 2.39237e-06
0.000277437 2.40635e-06
0.000284062 2.42066e-06
0.000290844 2.43376e-06
0.000297789 2.44435e-06
0.000304899 2.45518e-06
0.000312179 2.46628e-06
0.000319633 2.47764e-06
0.000327265 2.48928e-06
0.000335079 2.49909e-06
0.000343079 2.50703e-06
0.000351271 2.51515e-06
0.000359658 2.52348e-06
0.000368246 2.532e-06
0.000377038 2.54072e-06
0.000386041 2.54966e-06
0.000395258 2.5588e-06
0.000404696 2.56568e-06
0.000414358 2.57162e-06
0.000424252 2.5777e-06
0.000434382 2.58392e-06
0.000444753 2.5903e-06
0.000455373 2.59683e-06
0.000466245 2.60351e-06
0.000477378 2.61035e-06
0.000488776 2.61736e-06
0.000500447 2.62453e-06
0.000512396 2.63047e-06
0.00052463 2.63481e-06
0.000537157 2.63926e-06
0.000549982 2.64381e-06
0.000563114 2.64847e-06
0.000576559 2.65324e-06
0.000590326 2.65813e-06
0.000604421 2.66313e-06
0.000618852 2.66615e-06
0.000633629 2.66805e-06
0.000648758 2.67e-06
0.000664248 2.672e-06
0.000680108 2.67404e-06
0.000696347 2.67613e-06
0.000712973 2.67827e-06
0.000729997 2.6781e-06
0.000747427 2.67737e-06
0.000765273 2.67662e-06
0.000783545 2.67586e-06
0.000802254 2.67508e-06
0.000821409 2.67427e-06
0.000841022 2.67345e-06
0.000861103 2.67165e-06
0.000881663 2.66879e-06
0.000902714 2.66587e-06
0.000924268 2.66287e-06
0.000946337 2.65981e-06
0.000968932 2.65667e-06
0.000992068 2.65345e-06
0.00101575 2.65016e-06
0.00104001 2.64648e-06
0.00106484 2.64141e-06
0.00109026 2.63623e-06
0.0011163 2.63092e-06
0.00114295 2.62548e-06
0.00117024 2.61992e-06
0.00119818 2.61422e-06
0.00122679 2.60838e-06
0.00125608 2.60241e-06
0.00128607 2.59553e-06
0.00131678 2.5884e-06
0.00134822 2.5811e-06
0.00138041 2.57363e-06
0.00141337 2.56597e-06
0.00144712 2.55814e-06
0.00148167 2.55012e-06
0.00151705 2.54191e-06
0.00155327 2.53349e-06
0.00159036 2.52478e-06
0.00162833 2.51587e-06
0.00166721 2.50675e-06
0.00170702 2.49741e-06
0.00174778 2.48785e-06
0.00178951 2.47805e-06
0.00183224 2.46803e-06
0.00187598 2.45776e-06
0.00192078 2.44725e-06
0.00196664 2.43712e-06
0.0020136 2.42685e-06
0.00206167 2.41634e-06
0.0021109 2.40558e-06
0.0021613 2.39456e-06
0.00221291 2.38328e-06
0.00226574 2.37173e-06
0.00231984 2.3599e-06
0.00237523 2.34779e-06
0.00243195 2.33554e-06
0.00249001 2.32442e-06
0.00254947 2.31303e-06
0.00261034 2.30137e-06
0.00267267 2.28943e-06
0.00273648 2.27721e-06
0.00280182 2.26469e-06
0.00286872 2.25188e-06
0.00293721 2.23876e-06
0.00300735 2.22533e-06
0.00307915 2.21157e-06
0.00315267 2.19952e-06
0.00322795 2.18756e-06
0.00330502 2.17531e-06
0.00338393 2.16277e-06
0.00346473 2.14993e-06
0.00354746 2.13678e-06
0.00363216 2.12331e-06
0.00371889 2.10953e-06
0.00380768 2.09542e-06
0.0038986 2.08097e-06
0.00399168 2.06617e-06
0.00408699 2.05405e-06
0.00418457 2.04193e-06
0.00428449 2.02953e-06
0.00438679 2.01682e-06
0.00449153 2.00382e-06
0.00459877 1.9905e-06
0.00470858 1.97687e-06
0.004821 1.96291e-06
0.00493611 1.94862e-06
0.00505397 1.93399e-06
0.00517465 1.919e-06
0.0052982 1.90366e-06
0.0054247 1.8841e-06
0.00555423 1.86548e-06
0.00568685 1.84819e-06
0.00582263 1.83206e-06
0.00596166 1.81693e-06
0.006104 1.80265e-06
0.00624975 1.78912e-06
0.00639897 1.7762e-06
0.00655176 1.76379e-06
0.00670819 1.75181e-06
0.00686836 1.74017e-06
0.00703236 1.72879e-06
0.00720027 1.7176e-06
0.00737219 1.70655e-06
0.00754821 1.69557e-06
0.00772844 1.68464e-06
0.00791297 1.67369e-06
0.0081019 1.6627e-06
0.00829535 1.65164e-06
0.00849342 1.64047e-06
0.00869621 1.62918e-06
0.00890385 1.61774e-06
0.00911645 1.60614e-06
0.00933412 1.59437e-06
0.00955699 1.58242e-06
0.00978518 1.57029e-06
0.0100188 1.55796e-06
0.010258 1.54544e-06
0.010503 1.53273e-06
0.0107537 1.51983e-06
0.0110105 1.50674e-06
0.0112734 1.49348e-06
0.0115426 1.48006e-06
0.0118182 1.46648e-06
0.0121004 1.45276e-06
0.0123893 1.43891e-06
0.0126851 1.42495e-06
0.012988 1.4109e-06
0.0132981 1.39677e-06
0.0136156 1.38259e-06
0.0139407 1.36838e-06
0.0142736 1.35417e-06
0.0146144 1.33997e-06
0.0149633 1.32583e-06
0.0153206 1.31177e-06
0.0156864 1.29782e-06
0.0160609 1.28401e-06
0.0164444 1.27038e-06
0.016837 1.25697e-06
0.0172391 1.24382e-06
0.0176507 1.23097e-06
0.0180721 1.21846e-06
0.0185036 1.20634e-06
0.0189454 1.19467e-06
0.0193978 1.18348e-06
0.0198609 1.17285e-06
0.0203352 1.16281e-06
0.0208207 1.15345e-06
0.0213178 1.14481e-06
0.0218268 1.13697e-06
0.022348 1.13e-06
0.0228816 1.12398e-06
0.0234279 1.11898e-06
0.0239873 1.11508e-06
0.0245601 1.09846e-06
0.0251465 1.08308e-06
0.0257469 1.06879e-06
0.0263616 1.05547e-06
0.0269911 1.04301e-06
0.0276355 1.03131e-06
0.0282954 1.02027e-06
0.028971 1.00982e-06
0.0296627 9.99891e-07
0.030371 9.9041e-07
0.0310961 9.8132e-07
0.0318386 9.72571e-07
0.0325988 9.64114e-07
0.0333772 9.5591e-07
0.0341741 9.47921e-07
0.0349901 9.40116e-07
0.0358255 9.32464e-07
0.0366809 9.24943e-07
0.0375568 9.17529e-07
0.0384535 9.10203e-07
0.0393716 9.02951e-07
0.0403117 8.95756e-07
0.0412742 8.88608e-07
0.0422597 8.81497e-07
0.0432687 8.74414e-07
0.0443019 8.67353e-07
0.0453596 8.60308e-07
0.0464427 8.53275e-07
0.0475516 8.46251e-07
0.048687 8.39234e-07
0.0498495 8.32223e-07
0.0510397 8.25217e-07
0.0522584 8.18216e-07
0.0535061 8.11222e-07
0.0547837 8.04234e-07
0.0560918 7.97256e-07
0.057431 7.90288e-07
0.0588023 7.83333e-07
0.0602063 7.76394e-07
0.0616439 7.69473e-07
0.0631157 7.62574e-07
0.0646227 7.55699e-07
0.0661657 7.48851e-07
0.0677455 7.42034e-07
0.0693631 7.3525e-07
0.0710193 7.28504e-07
0.072715 7.21798e-07
0.0744512 7.15136e-07
0.0762288 7.08521e-07
0.0780489 7.01956e-07
0.0799125 6.95444e-07
0.0818205 6.88988e-07
0.0837742 6.82591e-07
0.0857744 6.76257e-07
0.0878224 6.69988e-07
0.0899194 6.63786e-07
0.0920663 6.57655e-07
0.0942646 6.51596e-07
0.0965153 6.45613e-07
0.0988198 6.39708e-07
0.101179 6.33883e-07
0.103595 6.28141e-07
0.106069 6.22483e-07
0.108601 6.16911e-07
0.111194 6.11427e-07
0.113849 6.06034e-07
0.116568 6.00733e-07
0.119351 5.95526e-07
0.122201 5.90414e-07
0.125118 5.85399e-07
0.128106 5.80482e-07
0.131165 5.75665e-07
0.134296 5.70949e-07
0.137503 5.66336e-07
0.140786 5.61827e-07
0.144148 5.57422e-07
0.147589 5.53124e-07
0.151113 5.48933e-07
0.154721 5.44851e-07
0.158416 5.40878e-07
0.162198 5.37015e-07
0.166071 5.33265e-07
0.170036 5.29627e-07
0.174096 5.26103e-07
0.178253 5.22693e-07
0.182509 5.194e-07
0.186867 5.16223e-07
0.191329 5.13164e-07
0.195897 5.10224e-07
0.200574 5.07405e-07
0.205363 5.04706e-07
0.210267 5.0213e-07
0.215287 4.99678e-07
0.220428 4.9735e-07
0.225691 4.95149e-07
0.231079 4.93075e-07
0.236597 4.9113e-07
0.242246 4.89315e-07
0.24803 4.87632e-07
0.253952 4.86083e-07
0.260016 4.84669e-07
0.266224 4.83392e-07
0.272581 4.82253e-07
0.279089 4.81256e-07
0.285753 4.80402e-07
0.292576 4.79693e-07
0.299562 4.79131e-07
0.306714 4.7872e-07
0.314038 4.78461e-07
0.321536 4.78357e-07
0.329213 4.78411e-07
0.337074 4.78627e-07
0.345122 4.79007e-07
0.353362 4.79554e-07
0.361799 4.80273e-07
0.370438 4.81167e-07
0.379283 4.8224e-07
0.388339 4.83496e-07
0.397611 4.84939e-07
0.407105 4.86574e-07
0.416825 4.88407e-07
0.426778 4.90441e-07
0.436968 4.92682e-07
0.447401 4.95137e-07
0.458084 4.9781e-07
0.469021 5.00709e-07
0.48022 5.03839e-07
0.491686 5.07207e-07
0.503426 5.10821e-07
0.515446 5.14689e-07
0.527754 5.18817e-07
0.540355 5.23215e-07
0.553257 5.27891e-07
0.566467 5.32855e-07
0.579992 5.38115e-07
0.59384 5.43683e-07
0.608019 5.49568e-07
0.622537 5.55783e-07
0.637401 5.62337e-07
0.65262 5.69245e-07
0.668203 5.76518e-07
0.684157 5.84169e-07
0.700493 5.92214e-07
0.717218 6.00666e-07
0.734343 6.09542e-07
0.751877 6.18857e-07
0.769829 6.28628e-07
0.78821 6.38873e-07
0.80703 6.4961e-07
0.8263 6.6086e-07
0.846029 6.72642e-07
0.86623 6.84978e-07
0.886912 6.9789e-07
0.908089 7.11402e-07
0.929771 7.25538e-07
0.951971 7.40324e-07
0.974701 7.55786e-07
0.997974 7.71954e-07
1.0218 7.88857e-07
1.0462 8.06525e-07
1.07118 8.24991e-07
1.09676 8.44288e-07
1.12294 8.64453e-07
1.14976 8.85523e-07
1.17721 9.07536e-07
1.20532 9.30533e-07
1.23409 9.54556e-07
1.26356 9.79651e-07
1.29373 1.00587e-06
1.32462 1.03325e-06
1.35625 1.06185e-06
1.38863 1.09172e-06
1.42179 1.12292e-06
1.45574 1.1555e-06
1.49049 1.18954e-06
1.52608 1.22509e-06
1.56252 1.26222e-06
1.59983 1.30101e-06
1.63803 1.34152e-06
1.67714 1.38383e-06
1.71718 1.42803e-06
1.75818 1.4742e-06
1.80016 1.52243e-06
1.84315 1.57281e-06
1.88715 1.62544e-06
1.93221 1.68042e-06
1.97835 1.73787e-06
2.02558 1.79789e-06
2.07395 1.86059e-06
2.12347 1.92612e-06
2.17417 1.99458e-06
2.22608 2.06612e-06
2.27923 2.14088e-06
2.33366 2.21901e-06
2.38938 2.30065e-06
2.44643 2.38599e-06
2.50484 2.47518e-06
2.56465 2.5684e-06
2.62588 2.66584e-06
2.68858 2.7677e-06
2.75277 2.87418e-06
2.8185 2.9855e-06
2.8858 3.10188e-06
2.9547 3.22356e-06
3.02525 3.35077e-06
3.09748 3.48379e-06
3.17144 3.62289e-06
3.24717 3.76834e-06
3.3247 3.92044e-06
3.40408 4.07951e-06
3.48536 4.24588e-06
3.56858 4.41987e-06
3.65379 4.60186e-06
3.74103 4.79222e-06
3.83035 4.99133e-06
3.92181 5.19962e-06
4.01545 5.41751e-06
4.11132 5.64546e-06
4.20949 5.88393e-06
4.31 6.13343e-06
4.41291 6.39448e-06
4.51827 6.66762e-06
4.62615 6.95342e-06
4.73661 7.25248e-06
4.84971 7.56543e-06
4.9655 7.89292e-06
5.08406 8.23564e-06
5.20545 8.59431e-06
5.32974 8.9697e-06
5.457 9.36258e-06
5.5873 9.77379e-06
5.7207 1.02042e-05
5.8573 1.06547e-05
5.99715 1.11263e-05
6.14034 1.162e-05
6.28695 1.21367e-05
6.43707 1.26777e-05
6.59076 1.3244e-05
6.74813 1.38369e-05
6.90925 1.44577e-05
7.07423 1.51076e-05
7.24313 1.5788e-05
7.41608 1.65005e-05
7.59315 1.72465e-05
7.77445 1.80276e-05
7.96008 1.88455e-05
8.15014 1.9702e-05
8.34474 2.05988e-05
8.54399 2.1538e-05
8.74799 2.25215e-05
8.95686 2.35515e-05
9.17072 2.46302e-05
9.38969 2.57599e-05
9.61389 2.6943e-05
9.84344 2.81821e-05
10.0785 2.94799e-05
10.3191 3.08392e-05
10.5655 3.22629e-05
10.8178 3.37542e-05
11.0761 3.53161e-05
11.3405 3.69522e-05
11.6113 3.8666e-05
11.8885 4.04611e-05
12.1724 4.23416e-05
12.463 4.43114e-05
12.7606 4.63749e-05
13.0653 4.85366e-05
13.3773 5.08011e-05
13.6967 5.31734e-05
14.0237 5.56587e-05
14.3585 5.82623e-05
14.7014 6.099e-05
15.0524 6.38477e-05
15.4118 6.68417e-05
15.7798 6.99785e-05
16.1565 7.32649e-05
16.5423 7.67081e-05
16.9373 8.03157e-05
17.3417 8.40956e-05
17.7558 8.80559e-05
18.1797 9.22055e-05
18.6138 9.65534e-05
19.0582 0.000101109
19.5133 0.000105883
19.9792 0.000110884
20.4562 0.000116125
20.9447 0.000121617
21.4448 0.000127372
21.9568 0.000133402
22.481 0.000139721
23.0178 0.000146342
23.5674 0.000153281
24.1301 0.000160552
24.7063 0.000168171
25.2962 0.000176155
25.9002 0.000184523
26.5186 0.000193291
27.1518 0.00020248
27.8001 0.000212109
28.4638 0.000222201
29.1435 0.000232776
29.8393 0.000243859
30.5518 0.000255474
31.2813 0.000267647
32.0282 0.000280404
32.7929 0.000293773
33.5759 0.000307785
34.3776 0.000322469
35.1984 0.000337859
36.0388 0.000353988
36.8993 0.000370892
37.7804 0.000388609
38.6824 0.000407177
39.606 0.000426637
40.5517 0.000447033
41.52 0.00046841
42.5113 0.000490815
43.5264 0.000514297
44.5656 0.000538908
45.6297 0.000564703
46.7192 0.00059174
47.8347 0.000620077
48.9768 0.000649777
50.1463 0.000680907
51.3436 0.000713534
52.5695 0.000747733
53.8247 0.000783577
55.1099 0.000821147
56.4257 0.000860525
57.773 0.0009018
59.1524 0.000945062
60.5648 0.000990407
62.0109 0.00103794
63.4915 0.00108775
65.0075 0.00113997
66.5596 0.00119471
68.1489 0.00125208
69.7761 0.00131221
71.4421 0.00137524
73.1479 0.00144131
74.8944 0.00151056
76.6827 0.00158315
78.5136 0.00165924
80.3883 0.00173899
82.3077 0.00182259
84.2729 0.00191022
86.2851 0.00200207
88.3453 0.00209836
90.4547 0.00219928
92.6145 0.00230507
94.8258 0.00241596
97.09 0.00253219
99.4082 0.00265403
101.782 0.00278175
104.212 0.00291563
106.7 0.00305596
109.248 0.00320306
111.856 0.00335726
114.527 0.00351889
117.262 0.00368832
120.061 0.00386593
122.928 0.0040521
125.863 0.00424725
128.869 0.00445182
131.945 0.00466626
135.096 0.00489104
138.322 0.00512667
141.624 0.00537367
145.006 0.00563259
148.468 0.005904
152.013 0.00618851
155.643 0.00648675
159.359 0.00679938
163.164 0.0071271
167.06 0.00747063
171.048 0.00783075
175.133 0.00820825
179.314 0.00860397
183.596 0.00901879
187.979 0.00945363
192.468 0.00990946
197.063 0.0103873
201.768 0.0108882
206.586 0.0114133
211.519 0.0119637
216.569 0.0125407
221.74 0.0131456
227.034 0.0137796
232.455 0.0144443
238.006 0.0151411
243.688 0.0158715
249.507 0.0166372
255.464 0.0174398
261.564 0.0182812
267.809 0.0191632
274.204 0.0200878
280.751 0.0210571
287.454 0.0220732
294.318 0.0231383
301.345 0.0242549
308.54 0.0254254
315.907 0.0266524
323.45 0.0279386
331.173 0.029287
339.08 0.0307005
347.177 0.0321823
355.466 0.0337356
363.953 0.035364
372.644 0.0370709
381.541 0.0388604
390.651 0.0407362
399.979 0.0427027
409.529 0.0447641
419.307 0.0469251
429.319 0.0491905
439.569 0.0515653
450.065 0.0540548
460.811 0.0566645
471.814 0.0594003
483.079 0.0622683
494.614 0.0652748
506.423 0.0684265
518.515 0.0717304
530.896 0.0751939
543.572 0.0788248
556.55 0.082631
569.839 0.0866211
583.445 0.0908039
597.376 0.0951888
611.639 0.0997855
626.243 0.104604
641.196 0.109656
656.506 0.114951
672.181 0.120503
688.231 0.126322
704.663 0.132423
721.488 0.138819
738.715 0.145523
756.353 0.152551
774.413 0.159919
792.903 0.167643
811.835 0.17574
831.219 0.184228
851.066 0.193126
871.387 0.202454
892.193 0.212233
913.495 0.222484
935.307 0.233231
957.639 0.244496
980.504 0.256306
1003.92 0.268687
1027.89 0.281666
1052.43 0.295271
1077.56 0.309534
1103.29 0.324486
1129.63 0.340161
1156.6 0.356593
1184.22 0.373819
1212.49 0.391877
1241.44 0.410807
1271.08 0.430652
1301.43 0.451456
1332.51 0.473266
1364.32 0.496129
1396.9 0.520096
1430.25 0.545222
1464.4 0.571561
1499.37 0.599173
1535.17 0.62812
1571.82 0.658465
1609.35 0.690276
1647.78 0.723624
1687.12 0.758584
1727.41 0.795232
1768.65 0.833652
1810.88 0.873928
1854.12 0.91615
1898.39 0.960412
1943.72 1.00681
1990.13 1.05545
2037.64 1.10645
2086.3 1.1599
2136.11 1.21594
2187.11 1.27469
2239.34 1.33628
2292.8 1.40084
2347.55 1.46852
2403.6 1.53947
2460.99 1.61386
2519.75 1.69183
2579.92 1.77357
2641.52 1.85926
2704.59 1.9491
2769.16 2.04327
2835.28 2.14199
2902.98 2.24549
2972.29 2.35398
3043.26 2.46772
3115.93 2.58695
3190.32 2.71195
3266.5 2.84298
3344.49 2.98035
3424.35 3.12435
3506.11 3.27532
3589.83 3.43357
3675.54 3.59948
3763.3 3.7734
3853.16 3.95572
3945.16 4.14686
4039.35 4.34723
4135.8 4.55728
4234.55 4.77748
4335.66 5.00833
4439.18 5.25033
4545.17 5.50402
4653.7 5.76997
4764.81 6.04877
4878.58 6.34104
4995.07 6.64744
5114.33 6.96864
5236.45 7.30537
5361.48 7.65836
5489.49 8.02842
5620.56 8.41635
5754.76 8.82303
5892.17 9.24936
6032.86 9.69629
6176.9 10.1648
6324.39 10.656
6475.39 11.1709
6630 11.7107
6788.31 12.2765
6950.39 12.8698
7116.34 13.4916
7286.26 14.1436
7460.23 14.827
7638.36 15.5435
7820.74 16.2945
8007.47 17.0819
8198.66 17.9073
8394.42 18.7726
8594.85 19.6797
8800.07 20.6307
9010.19 21.6276
9225.32 22.6727
9445.6 23.7683
9671.13 24.9168
9902.04 26.1208
10138.5 27.383
10380.5 28.7062
10628.4 30.0933
10882.2 31.5475
11142 33.0719
11408 34.67
11680.4 36.3454
11959.3 38.1017
12244.9 39.9428
12537.2 41.8729
12836.6 43.8963
13143.1 46.0175
13456.9 48.2412
13778.2 50.5723
14107.2 53.016
14444 55.5779
14788.9 58.2636
15142 61.079
15503.6 64.0305
15873.7 67.1246
16252.7 70.3682
16640.8 73.7686
17038.1 77.3332
17445 81.0702
17861.5 84.9877
18288 89.0945
18724.6 93.3998
19171.7 97.9132
19629.5 102.645
20098.1 107.605
20578 112.804
21069.4 118.255
21572.4 123.97
22087.5 129.96
22614.9 136.24
23154.9 142.824
23707.7 149.726
24273.8 156.961
24853.4 164.546
25446.8 172.497
26054.4 180.833
26676.5 189.571
27313.4 198.732
27965.6 208.335
28633.3 218.402
29317 228.956
30017 240.02
30733.7 251.618
31467.5 263.777
32218.9 276.524
32988.1 289.886
33775.8 303.895
34582.2 318.58
35408 333.975
36253.4 350.113
37119 367.032
38005.3 384.768
38912.7 403.361
39841.8 422.853
40793.1 443.287
41767.2 464.708
42764.4 487.164
43785.5 510.705
44831 535.384
45901.4 561.256
46997.4 588.377
48119.5 616.81
49268.4 646.616
50444.8 677.862
51649.3 710.619
52882.5 744.959
54145.2 780.957
55438 818.696
56761.7 858.258
58116.9 899.732
59504.6 943.21
60925.4 988.789
62380.1 1036.57
63869.5 1086.66
65394.5 1139.17
66955.9 1194.22
68554.6 1251.93
70191.5 1312.43
71867.4 1375.85
73583.4 1442.33
75340.3 1512.03
77139.2 1585.1
78981.1 1661.7
80866.9 1742
82797.7 1826.18
84774.7 1914.42
86798.8 2006.93
88871.3 2103.92
90993.2 2205.59
93165.9 2312.17
95390.4 2423.9
97668 2541.03
100000 2663.82
5.5e-06 100000 1001 1
5.5e-06 2.00888e-10
5.63148e-06 2.23546e-10
5.7661e-06 2.46941e-10
5.90394e-06 2.72061e-10
6.04507e-06 2.98527e-10
6.18958e-06 3.26266e-10
6.33754e-06 3.55758e-10
6.48904e-06 3.86565e-10
6.64416e-06 4.18854e-10
6.80298e-06 4.52899e-10
6.96561e-06 4.88458e-10
7.13212e-06 5.25793e-10
7.30261e-06 5.64773e-10
7.47718e-06 6.05195e-10
7.65592e-06 6.47843e-10
7.83894e-06 6.91699e-10
8.02633e-06 7.37999e-10
8.2182e-06 7.85516e-10
8.41465e-06 8.35737e-10
8.6158e-06 8.87195e-10
8.82176e-06 9.40875e-10
9.03265e-06 9.96539e-10
9.24857e-06 1.0537e-09
9.46966e-06 1.11367e-09
9.69603e-06 1.17506e-09
9.92781e-06 1.23896e-09
1.01651e-05 1.30491e-09
1.04081e-05 1.37278e-09
1.06569e-05 1.44346e-09
1.09117e-05 1.51583e-09
1.11725e-05 1.59035e-09
1.14396e-05 1.66758e-09
1.17131e-05 1.74666e-09
1.19931e-05 1.82808e-09
1.22798e-05 1.91219e-09
1.25733e-05 1.99832e-09
1.28739e-05 2.08699e-09
1.31816e-05 2.17837e-09
1.34967e-05 2.27194e-09
1.38194e-05 2.36777e-09
1.41497e-05 2.4664e-09
1.4488e-05 2.56739e-09
1.48343e-05 2.67079e-09
1.51889e-05 2.77675e-09
1.5552e-05 2.88531e-09
1.59238e-05 2.99646e-09
1.63044e-05 3.11014e-09
1.66942e-05 3.22607e-09
1.70933e-05 3.34478e-09
1.75019e-05 3.46631e-09
1.79203e-05 3.59028e-09
1.83487e-05 3.71622e-09
1.87873e-05 3.84516e-09
1.92364e-05 3.97718e-09
1.96962e-05 4.1113e-09
2.01671e-05 4.24715e-09
2.06492e-05 4.38625e-09
2.11428e-05 4.52868e-09
2.16482e-05 4.67345e-09
2.21657e-05 4.81909e-09
2.26956e-05 4.9682e-09
2.32381e-05 5.12088e-09
2.37936e-05 5.27643e-09
2.43624e-05 5.43094e-09
2.49448e-05 5.58914e-09
2.55411e-05 5.75112e-09
2.61516e-05 5.91698e-09
2.67768e-05 6.08154e-09
2.74169e-05 6.24832e-09
2.80723e-05 6.41908e-09
2.87433e-05 6.59393e-09
2.94305e-05 6.76964e-09
3.0134e-05 6.94384e-09
3.08543e-05 7.12221e-09
3.15919e-05 7.30484e-09
3.23471e-05 7.49184e-09
3.31204e-05 7.67748e-09
3.39121e-05 7.86159e-09
3.47228e-05 8.0501e-09
3.55528e-05 8.24312e-09
3.64027e-05 8.44075e-09
3.72729e-05 8.63487e-09
3.81639e-05 8.8286e-09
3.90762e-05 9.02696e-09
4.00103e-05 9.23006e-09
4.09668e-05 9.43802e-09
4.19461e-05 9.6393e-09
4.29488e-05 9.84144e-09
4.39755e-05 1.00484e-08
4.50267e-05 1.02604e-08
4.61031e-05 1.04773e-08
4.72052e-05 1.06922e-08
4.83336e-05 1.09006e-08
4.9489e-05 1.11139e-08
5.06721e-05 1.13323e-08
5.18834e-05 1.1556e-08
5.31236e-05 1.1785e-08
5.43936e-05 1.2008e-08
5.56938e-05 1.22265e-08
5.70252e-05 1.24503e-08
5.83884e-05 1.26794e-08
5.97841e-05 1.29139e-08
6.12133e-05 1.31541e-08
6.26766e-05 1.33949e-08
6.41749e-05 1.36214e-08
6.5709e-05 1.38533e-08
6.72797e-05 1.40907e-08
6.8888e-05 1.43338e-08
7.05348e-05 1.45827e-08
7.22209e-05 1.48375e-08
7.39474e-05 1.50985e-08
7.57151e-05 1.53534e-08
7.75251e-05 1.55959e-08
7.93783e-05 1.58443e-08
8.12758e-05 1.60985e-08
8.32187e-05 1.63589e-08
8.5208e-05 1.66254e-08
8.72449e-05 1.68983e-08
8.93305e-05 1.71778e-08
9.1466e-05 1.74639e-08
9.36525e-05 1.77569e-08
9.58912e-05 1.80326e-08
9.81835e-05 1.83022e-08
0.000100531 1.85782e-08
0.000102934 1.88609e-08
0.000105394 1.91503e-08
0.000107914 1.94466e-08
0.000110493 1.975e-08
0.000113135 2.00607e-08
0.000115839 2.03788e-08
0.000118608 2.07045e-08
0.000121444 2.1038e-08
0.000124347 2.13448e-08
0.000127319 2.16506e-08
0.000130363 2.19637e-08
0.000133479 2.22843e-08
0.00013667 2.26125e-08
0.000139937 2.29486e-08
0.000143282 2.32927e-08
0.000146707 2.36451e-08
0.000150215 2.4003e-08
0.000153805 2.43245e-08
0.000157482 2.46538e-08
0.000161247 2.49909e-08
0.000165101 2.5336e-08
0.000169048 2.56894e-08
0.000173089 2.60513e-08
0.000177227 2.64028e-08
0.000181463 2.67263e-08
0.000185801 2.70575e-08
0.000190243 2.73965e-08
0.000194791 2.77437e-08
0.000199447 2.80992e-08
0.000204215 2.84309e-08
0.000209097 2.87371e-08
0.000214095 2.90507e-08
0.000219213 2.93718e-08
0.000224453 2.97006e-08
0.000229819 3.00287e-08
0.000235313 3.03094e-08
0.000240938 3.05968e-08
0.000246697 3.08911e-08
0.000252595 3.11924e-08
0.000258633 3.14841e-08
0.000264815 3.1735e-08
0.000271146 3.19918e-08
0.000277628 3.22548e-08
0.000284264 3.25241e-08
0.000291059 3.27734e-08
0.000298017 3.29865e-08
0.000305141 3.32048e-08
0.000312436 3.34282e-08
0.000319904 3.36569e-08
0.000327552 3.38278e-08
0.000335382 3.40027e-08
0.000343399 3.41818e-08
0.000351608 3.43652e-08
0.000360013 3.45529e-08
0.000368619 3.4702e-08
0.000377431 3.48302e-08
0.000386454 3.49615e-08
0.000395692 3.5096e-08
0.000405151 3.52336e-08
0.000414836 3.53745e-08
0.000424753 3.54729e-08
0.000434906 3.55614e-08
0.000445303 3.56521e-08
0.000455948 3.57449e-08
0.000466847 3.584e-08
0.000478007 3.59373e-08
0.000489434 3.60108e-08
0.000501133 3.60546e-08
0.000513113 3.60994e-08
0.000525379 3.61453e-08
0.000537938 3.61923e-08
0.000550798 3.62404e-08
0.000563964 3.62897e-08
0.000577446 3.63401e-08
0.00059125 3.63918e-08
0.000605383 3.64447e-08
0.000619855 3.64988e-08
0.000634673 3.65542e-08
0.000649844 3.6611e-08
0.000665379 3.66691e-08
0.000681285 3.67287e-08
0.000697571 3.67896e-08
0.000714246 3.6852e-08
0.00073132 3.69159e-08
0.000748802 3.69813e-08
0.000766703 3.70483e-08
0.00078503 3.70937e-08
0.000803797 3.71143e-08
0.000823011 3.71354e-08
0.000842685 3.7157e-08
0.00086283 3.71792e-08
0.000883456 3.72019e-08
0.000904575 3.72251e-08
0.000926198 3.72489e-08
0.000948339 3.72661e-08
0.000971009 3.72534e-08
0.000994221 3.72404e-08
0.00101799 3.72271e-08
0.00104232 3.72134e-08
0.00106724 3.71995e-08
0.00109275 3.71852e-08
0.00111887 3.71706e-08
0.00114562 3.71134e-08
0.00117301 3.70491e-08
0.00120105 3.69833e-08
0.00122976 3.69158e-08
0.00125916 3.68468e-08
0.00128926 3.67755e-08
0.00132007 3.66822e-08
0.00135163 3.65868e-08
0.00138394 3.6489e-08
0.00141702 3.63889e-08
0.0014509 3.62865e-08
0.00148558 3.61815e-08
0.0015211 3.60741e-08
0.00155746 3.59641e-08
0.00159469 3.5848e-08
0.00163281 3.5728e-08
0.00167184 3.56051e-08
0.00171181 3.54793e-08
0.00175273 3.53504e-08
0.00179463 3.52185e-08
0.00183753 3.50834e-08
0.00188145 3.49451e-08
0.00192643 3.48035e-08
0.00197248 3.46681e-08
0.00201963 3.45396e-08
0.00206791 3.44081e-08
0.00211734 3.42734e-08
0.00216796 3.41354e-08
0.00221978 3.39942e-08
0.00227285 3.38496e-08
0.00232718 3.37016e-08
0.00238281 3.355e-08
0.00243977 3.33948e-08
0.00249809 3.32358e-08
0.00255781 3.3079e-08
0.00261895 3.2934e-08
0.00268156 3.27855e-08
0.00274566 3.26334e-08
0.0028113 3.24777e-08
0.0028785 3.23183e-08
0.00294731 3.2155e-08
0.00301777 3.19879e-08
0.00308991 3.18167e-08
0.00316377 3.16415e-08
0.0032394 3.14631e-08
0.00331684 3.13014e-08
0.00339613 3.11358e-08
0.00347731 3.09662e-08
0.00356044 3.07926e-08
0.00364555 3.06149e-08
0.0037327 3.04329e-08
0.00382193 3.02466e-08
0.00391329 3.00558e-08
0.00400684 2.98689e-08
0.00410262 2.97004e-08
0.00420069 2.95278e-08
0.00430111 2.93511e-08
0.00440393 2.91703e-08
0.0045092 2.8985e-08
0.00461699 2.87954e-08
0.00472736 2.86012e-08
0.00484037 2.84024e-08
0.00495608 2.81988e-08
0.00507455 2.79904e-08
0.00519586 2.78024e-08
0.00532007 3.01739e-08
0.00544724 2.95034e-08
0.00557746 2.88971e-08
0.00571079 2.83486e-08
0.0058473 2.78517e-08
0.00598708 2.74012e-08
0.0061302 2.69919e-08
0.00627675 2.66192e-08
0.00642679 2.6279e-08
0.00658042 2.59675e-08
0.00673773 2.56812e-08
0.00689879 2.54169e-08
0.00706371 2.51717e-08
0.00723257 2.4943e-08
0.00740546 2.47284e-08
0.00758249 2.45258e-08
0.00776375 2.43333e-08
0.00794934 2.4149e-08
0.00813937 2.39715e-08
0.00833394 2.37993e-08
0.00853316 2.36312e-08
0.00873714 2.34661e-08
0.00894601 2.33029e-08
0.00915986 2.31409e-08
0.00937883 2.29792e-08
0.00960303 2.28173e-08
0.00983259 2.26546e-08
0.0100676 2.24905e-08
0.0103083 2.23248e-08
0.0105547 2.21572e-08
0.010807 2.19873e-08
0.0110654 2.18152e-08
0.0113299 2.16405e-08
0.0116007 2.14634e-08
0.011878 2.12839e-08
0.012162 2.11019e-08
0.0124527 2.09178e-08
0.0127504 2.07315e-08
0.0130552 2.05435e-08
0.0133673 2.03538e-08
0.0136868 2.0163e-08
0.014014 1.99713e-08
0.014349 1.97792e-08
0.014692 1.9587e-08
0.0150432 1.93954e-08
0.0154028 1.92049e-08
0.015771 1.9016e-08
0.0161481 1.88294e-08
0.0165341 1.86457e-08
0.0169293 1.84658e-08
0.017334 1.82904e-08
0.0177484 1.81203e-08
0.0181727 1.79564e-08
0.0186071 1.77996e-08
0.0190519 1.76509e-08
0.0195073 1.75115e-08
0.0199736 1.73823e-08
0.0204511 1.72645e-08
0.02094 1.71595e-08
0.0214405 1.70684e-08
0.0219531 1.69927e-08
0.0224779 1.69338e-08
0.0230152 1.68933e-08
0.0235654 1.68727e-08
0.0241287 1.58946e-08
0.0247055 1.57242e-08
0.0252961 1.55643e-08
0.0259008 1.54134e-08
0.0265199 1.52705e-08
0.0271539 1.51344e-08
0.027803 1.50042e-08
0.0284676 1.4879e-08
0.0291482 1.4758e-08
0.0298449 1.46407e-08
0.0305584 1.45263e-08
0.0312889 1.44144e-08
0.0320368 1.43044e-08
0.0328027 1.41961e-08
0.0335868 1.40891e-08
0.0343897 1.39829e-08
0.0352118 1.38775e-08
0.0360535 1.37725e-08
0.0369154 1.36679e-08
0.0377978 1.35633e-08
0.0387014 1.34588e-08
0.0396266 1.33541e-08
0.0405738 1.32493e-08
0.0415437 1.31443e-08
0.0425368 1.3039e-08
0.0435537 1.29334e-08
0.0445948 1.28275e-08
0.0456609 1.27213e-08
0.0467524 1.26148e-08
0.04787 1.25081e-08
0.0490143 1.24011e-08
0.050186 1.2294e-08
0.0513857 1.21866e-08
0.0526141 1.20792e-08
0.0538718 1.19717e-08
0.0551596 1.18642e-08
0.0564782 1.17568e-08
0.0578283 1.16494e-08
0.0592107 1.15423e-08
0.0606261 1.14353e-08
0.0620754 1.13287e-08
0.0635593 1.12224e-08
0.0650787 1.11165e-08
0.0666344 1.1011e-08
0.0682273 1.09061e-08
0.0698582 1.08018e-08
0.0715282 1.06982e-08
0.0732381 1.05952e-08
0.0749888 1.0493e-08
0.0767814 1.03916e-08
0.0786169 1.0291e-08
0.0804962 1.01914e-08
0.0824205 1.00927e-08
0.0843907 9.99504e-09
0.0864081 9.8984e-09
0.0884737 9.80284e-09
0.0905886 9.70842e-09
0.0927541 9.61516e-09
0.0949714 9.5231e-09
0.0972417 9.43229e-09
0.0995663 9.34274e-09
0.101946 9.2545e-09
0.104383 9.16759e-09
0.106879 9.08205e-09
0.109434 8.9979e-09
0.11205 8.91517e-09
0.114728 8.83388e-09
0.117471 8.75405e-09
0.120279 8.67572e-09
0.123154 8.59889e-09
0.126098 8.52359e-09
0.129112 8.44984e-09
0.132199 8.37766e-09
0.135359 8.30706e-09
0.138595 8.23807e-09
0.141908 8.17069e-09
0.1453 8.10494e-09
0.148774 8.04084e-09
0.15233 7.97841e-09
0.155972 7.91764e-09
0.1597 7.85857e-09
0.163518 7.8012e-09
0.167427 7.74555e-09
0.171429 7.69163e-09
0.175527 7.63945e-09
0.179723 7.58902e-09
0.184019 7.54037e-09
0.188418 7.4935e-09
0.192922 7.44842e-09
0.197534 7.40515e-09
0.202256 7.36371e-09
0.207091 7.32411e-09
0.212041 7.28637e-09
0.21711 7.2505e-09
0.2223 7.21651e-09
0.227614 7.18444e-09
0.233055 7.15429e-09
0.238627 7.12609e-09
0.244331 7.09985e-09
0.250172 7.0756e-09
0.256152 7.05336e-09
0.262275 7.03316e-09
0.268545 7.01502e-09
0.274964 6.99898e-09
0.281537 6.98504e-09
0.288268 6.97326e-09
0.295159 6.96366e-09
0.302214 6.95627e-09
0.309439 6.95114e-09
0.316836 6.94829e-09
0.32441 6.94778e-09
0.332165 6.94963e-09
0.340105 6.95391e-09
0.348235 6.96064e-09
0.35656 6.9699e-09
0.365084 6.98172e-09
0.373811 6.99616e-09
0.382747 7.01329e-09
0.391896 7.03316e-09
0.401265 7.05584e-09
0.410857 7.0814e-09
0.420678 7.10991e-09
0.430735 7.14145e-09
0.441031 7.1761e-09
0.451574 7.21394e-09
0.462369 7.25506e-09
0.473422 7.29956e-09
0.484739 7.34753e-09
0.496327 7.39907e-09
0.508191 7.4543e-09
0.520339 7.51333e-09
0.532778 7.57627e-09
0.545514 7.64326e-09
0.558555 7.71443e-09
0.571907 7.7899e-09
0.585578 7.86984e-09
0.599577 7.95438e-09
0.613909 8.0437e-09
0.628585 8.13795e-09
0.643611 8.23732e-09
0.658997 8.34198e-09
0.67475 8.45214e-09
0.69088 8.56798e-09
0.707395 8.68973e-09
0.724305 8.81761e-09
0.74162 8.95184e-09
0.759348 9.09268e-09
0.7775 9.24038e-09
0.796087 9.3952e-09
0.815117 9.55743e-09
0.834602 9.72736e-09
0.854553 9.9053e-09
0.874981 1.00916e-08
0.895898 1.02865e-08
0.917314 1.04905e-08
0.939242 1.07038e-08
0.961695 1.0927e-08
0.984684 1.11603e-08
1.00822 1.14042e-08
1.03232 1.16592e-08
1.057 1.19258e-08
1.08227 1.22043e-08
1.10814 1.24954e-08
1.13463 1.27995e-08
1.16175 1.31172e-08
1.18953 1.34492e-08
1.21796 1.3796e-08
1.24708 1.41582e-08
1.27689 1.45366e-08
1.30741 1.49318e-08
1.33867 1.53447e-08
1.37067 1.57759e-08
1.40343 1.62262e-08
1.43698 1.66966e-08
1.47133 1.71879e-08
1.5065 1.77011e-08
1.54252 1.82371e-08
1.57939 1.87969e-08
1.61715 1.93816e-08
1.6558 1.99924e-08
1.69539 2.06303e-08
1.73591 2.12967e-08
1.77741 2.19928e-08
1.8199 2.272e-08
1.8634 2.34796e-08
1.90795 2.42732e-08
1.95356 2.51023e-08
2.00026 2.59685e-08
2.04807 2.68735e-08
2.09703 2.78192e-08
2.14716 2.88072e-08
2.19849 2.98397e-08
2.25105 3.09186e-08
2.30486 3.20461e-08
2.35995 3.32244e-08
2.41637 3.44559e-08
2.47413 3.57431e-08
2.53328 3.70884e-08
2.59383 3.84946e-08
2.65584 3.99646e-08
2.71933 4.15012e-08
2.78433 4.31076e-08
2.85089 4.47871e-08
2.91904 4.65429e-08
2.98882 4.83788e-08
3.06027 5.02984e-08
3.13342 5.23057e-08
3.20833 5.44047e-08
3.28502 5.65997e-08
3.36355 5.88952e-08
3.44396 6.1296e-08
3.52629 6.3807e-08
3.61058 6.64333e-08
3.69689 6.91803e-08
3.78527 7.20538e-08
3.87575 7.50597e-08
3.9684 7.82043e-08
4.06327 8.14939e-08
4.1604 8.49356e-08
4.25985 8.85364e-08
4.36168 9.23039e-08
4.46595 9.6246e-08
4.57271 1.00371e-07
4.68202 1.04687e-07
4.79394 1.09204e-07
4.90854 1.13931e-07
5.02588 1.18877e-07
5.14602 1.24054e-07
5.26904 1.29473e-07
5.39499 1.35144e-07
5.52396 1.41079e-07
5.65601 1.47292e-07
5.79122 1.53796e-07
5.92966 1.60603e-07
6.0714 1.67729e-07
6.21654 1.7519e-07
6.36515 1.82999e-07
6.5173 1.91176e-07
6.6731 1.99735e-07
6.83262 2.08698e-07
6.99595 2.18081e-07
7.16319 2.27905e-07
7.33443 2.38192e-07
7.50976 2.48964e-07
7.68928 2.60243e-07
7.87309 2.72053e-07
8.06129 2.84421e-07
8.254 2.97372e-07
8.45131 3.10936e-07
8.65334 3.2514e-07
8.86019 3.40015e-07
9.072 3.55594e-07
9.28886 3.7191e-07
9.51091 3.88999e-07
9.73827 4.06897e-07
9.97106 4.25643e-07
10.2094 4.45278e-07
10.4535 4.65845e-07
10.7034 4.87387e-07
10.9592 5.09953e-07
11.2212 5.3359e-07
11.4895 5.5835e-07
11.7641 5.84287e-07
12.0453 6.11457e-07
12.3333 6.3992e-07
12.6281 6.69737e-07
12.93 7.00975e-07
13.2391 7.33699e-07
13.5555 7.67983e-07
13.8796 8.03901e-07
14.2114 8.41531e-07
14.5511 8.80956e-07
14.8989 9.22261e-07
15.2551 9.65538e-07
15.6198 1.01088e-06
15.9932 1.05839e-06
16.3755 1.10817e-06
16.7669 1.16032e-06
17.1677 1.21497e-06
17.5781 1.27223e-06
17.9983 1.33223e-06
18.4286 1.3951e-06
18.8691 1.46097e-06
19.3202 1.53e-06
19.782 1.60233e-06
20.2549 1.67813e-06
20.7391 1.75756e-06
21.2349 1.84079e-06
21.7425 1.92801e-06
22.2623 2.01941e-06
22.7944 2.11519e-06
23.3393 2.21556e-06
23.8973 2.32075e-06
24.4685 2.43098e-06
25.0534 2.5465e-06
25.6523 2.66756e-06
26.2656 2.79444e-06
26.8934 2.9274e-06
27.5363 3.06675e-06
28.1946 3.21279e-06
28.8686 3.36584e-06
29.5587 3.52624e-06
30.2653 3.69436e-06
30.9887 3.87054e-06
31.7295 4.0552e-06
32.488 4.24873e-06
33.2646 4.45157e-06
34.0598 4.66416e-06
34.874 4.88697e-06
35.7077 5.1205e-06
36.5613 5.36526e-06
37.4353 5.62179e-06
38.3302 5.89067e-06
39.2465 6.17248e-06
40.1846 6.46786e-06
41.1452 6.77746e-06
42.1288 7.10196e-06
43.1359 7.44208e-06
44.1671 7.79858e-06
45.2229 8.17224e-06
46.3039 8.5639e-06
47.4108 8.97443e-06
48.5442 9.40473e-06
49.7046 9.85576e-06
50.8928 1.03285e-05
52.1094 1.08241e-05
53.3551 1.13435e-05
54.6305 1.18879e-05
55.9365 1.24586e-05
57.2736 1.30568e-05
58.6427 1.36838e-05
60.0446 1.43411e-05
61.48 1.50301e-05
62.9496 1.57522e-05
64.4544 1.65092e-05
65.9952 1.73027e-05
67.5728 1.81345e-05
69.1881 1.90064e-05
70.8421 1.99204e-05
72.5356 2.08784e-05
74.2695 2.18827e-05
76.0449 2.29354e-05
77.8628 2.40389e-05
79.7241 2.51956e-05
81.6299 2.64082e-05
83.5812 2.76793e-05
85.5792 2.90117e-05
87.625 3.04084e-05
89.7197 3.18725e-05
91.8644 3.34074e-05
94.0604 3.50163e-05
96.3089 3.67028e-05
98.6112 3.84708e-05
100.969 4.03242e-05
103.382 4.2267e-05
105.853 4.43037e-05
108.384 4.64387e-05
110.975 4.86767e-05
113.628 5.10229e-05
116.344 5.34824e-05
119.125 5.60606e-05
121.973 5.87633e-05
124.889 6.15967e-05
127.874 6.45668e-05
130.931 6.76804e-05
134.061 7.09444e-05
137.265 7.43661e-05
140.547 7.79531e-05
143.907 8.17133e-05
147.347 8.56553e-05
150.869 8.97876e-05
154.475 9.41197e-05
158.168 9.8661e-05
161.949 0.000103422
165.821 0.000108413
169.784 0.000113644
173.843 0.000119129
177.999 0.000124879
182.254 0.000130907
186.611 0.000137226
191.072 0.00014385
195.639 0.000150794
200.316 0.000158075
205.104 0.000165706
210.007 0.000173707
215.028 0.000182095
220.168 0.000190888
225.431 0.000200106
230.82 0.000209769
236.338 0.0002199
241.987 0.00023052
247.772 0.000241654
253.695 0.000253326
259.759 0.000265562
265.969 0.000278389
272.327 0.000291837
278.837 0.000305935
285.503 0.000320715
292.327 0.000336209
299.316 0.000352452
306.471 0.00036948
313.797 0.000387332
321.298 0.000406047
328.979 0.000425666
336.843 0.000446235
344.895 0.000467797
353.14 0.000490403
361.582 0.000514101
370.225 0.000538945
379.075 0.000564991
388.137 0.000592296
397.416 0.000620922
406.916 0.000650931
416.643 0.000682392
426.603 0.000715374
436.801 0.000749951
447.242 0.0007862
457.934 0.000824202
468.881 0.000864042
480.089 0.000905809
491.566 0.000949595
503.317 0.000995499
515.348 0.00104362
527.668 0.00109407
540.282 0.00114697
553.197 0.00120241
566.421 0.00126055
579.961 0.00132149
593.825 0.00138538
608.021 0.00145236
622.555 0.00152258
637.438 0.00159619
652.675 0.00167337
668.278 0.00175427
684.253 0.0018391
700.61 0.00192802
717.358 0.00202124
734.506 0.00211898
752.064 0.00222144
770.043 0.00232886
788.45 0.00244147
807.298 0.00255953
826.597 0.0026833
846.356 0.00281305
866.588 0.00294909
887.304 0.0030917
908.515 0.00324121
930.233 0.00339795
952.47 0.00356228
975.239 0.00373455
998.552 0.00391516
1022.42 0.0041045
1046.86 0.004303
1071.89 0.0045111
1097.51 0.00472927
1123.75 0.00495799
1150.61 0.00519778
1178.12 0.00544916
1206.28 0.00571271
1235.12 0.005989
1264.64 0.00627866
1294.87 0.00658233
1325.83 0.00690069
1357.52 0.00723445
1389.97 0.00758435
1423.2 0.00795119
1457.22 0.00833576
1492.05 0.00873894
1527.72 0.00916163
1564.24 0.00960476
1601.63 0.0100693
1639.92 0.0105564
1679.12 0.011067
1719.26 0.0116023
1760.36 0.0121635
1802.44 0.0127518
1845.53 0.0133686
1889.65 0.0140153
1934.82 0.0146932
1981.07 0.0154039
2028.43 0.016149
2076.92 0.0169302
2126.57 0.0177491
2177.4 0.0186077
2229.45 0.0195078
2282.75 0.0204514
2337.32 0.0214407
2393.19 0.0224778
2450.4 0.0235652
2508.98 0.0247051
2568.95 0.0259001
2630.36 0.027153
2693.24 0.0284665
2757.62 0.0298436
2823.55 0.0312872
2891.04 0.0328007
2960.15 0.0343874
3030.91 0.0360509
3103.37 0.0377949
3177.55 0.0396232
3253.51 0.0415399
3331.29 0.0435494
3410.92 0.0456562
3492.46 0.0478648
3575.95 0.0501803
3661.43 0.0526078
3748.96 0.0551527
3838.58 0.0578208
3930.34 0.060618
4024.29 0.0635504
4120.49 0.0666248
4218.99 0.0698478
4319.85 0.0732268
4423.11 0.0767693
4528.85 0.0804832
4637.11 0.0843767
4747.96 0.0884586
4861.46 0.0927379
4977.67 0.0972243
5096.66 0.101928
5218.5 0.106859
5343.24 0.112028
5470.97 0.117448
5601.76 0.12313
5735.67 0.129087
5872.78 0.135332
6013.17 0.141879
6156.91 0.148742
6304.09 0.155938
6454.79 0.163482
6609.09 0.171391
6767.08 0.179683
6928.85 0.188376
7094.48 0.197489
7264.07 0.207043
7437.72 0.21706
7615.52 0.227561
7797.57 0.23857
7983.97 0.250111
8174.82 0.262212
8370.24 0.274897
8570.33 0.288196
8775.21 0.302139
8984.98 0.316756
9199.76 0.332081
9419.68 0.348146
9644.86 0.364989
9875.42 0.382647
10111.5 0.401159
10353.2 0.420567
10600.7 0.440914
10854.1 0.462245
11113.6 0.484608
11379.2 0.508054
11651.3 0.532633
11929.8 0.558402
12215 0.585417
12507 0.613739
12805.9 0.643432
13112.1 0.674561
13425.5 0.707196
13746.4 0.74141
14075.1 0.777279
14411.5 0.814884
14756 0.854308
15108.8 0.895639
15469.9 0.93897
15839.7 0.984398
16218.4 1.03202
16606.1 1.08195
17003.1 1.1343
17409.5 1.18917
17825.7 1.24671
18251.8 1.30702
18688.1 1.37026
19134.9 1.43655
19592.3 1.50605
20060.6 1.57891
20540.2 1.6553
21031.2 1.73539
21533.9 1.81935
22048.7 1.90737
22575.8 1.99965
23115.5 2.09639
23668 2.19781
24233.8 2.30414
24813.1 2.41562
25406.3 2.53249
26013.6 2.65501
26635.5 2.78346
27272.2 2.91813
27924.1 3.05931
28591.7 3.20732
29275.1 3.36249
29975 3.52517
30691.5 3.69572
31425.2 3.87452
32176.4 4.06198
32945.6 4.2585
33733.1 4.46453
34539.5 4.68052
35365.2 4.90697
36210.6 5.14437
37076.2 5.39326
37962.5 5.65419
38870 5.92775
39799.2 6.21454
40750.6 6.5152
41724.7 6.83041
42722.1 7.16087
43743.4 7.50732
44789.1 7.87053
45859.8 8.25132
46956.1 8.65052
48078.5 9.06904
49227.9 9.50781
50404.6 9.96781
51609.6 10.4501
52843.3 10.9556
54106.5 11.4857
55399.9 12.0414
56724.2 12.6239
58080.2 13.2347
59468.6 13.875
60890.2 14.5463
62345.8 15.2501
63836.2 15.9879
65362.2 16.7614
66924.7 17.5723
68524.5 18.4225
70162.6 19.3138
71839.8 20.2482
73557.1 21.2278
75315.5 22.2549
77115.9 23.3316
78959.4 24.4604
80846.9 25.6438
82779.5 26.8845
84758.4 28.1852
86784.5 29.5488
88859.1 30.9784
90983.3 32.4772
93158.2 34.0485
95385.1 35.6958
97665.3 37.4228
100000 39.2333
