17 17 0.0831764
0.027921 0.13618 0.266146 0.0948176 0.0361468 -0.00394727 0.000139741
0.0042138 0.014498 0.0278709 0.0112838 0.00311711 -0.000345765 1.13138e-05
0.0039425 0.00083145 0.00163548 0.000290691 0.000545722 -4.52859e-05 1.39849e-06
0.0037284 0.00095678 0.00194691 0.000259051 0.000616303 -4.33628e-05 1.51597e-06
0.00081124 0.0027798 0.00534582 0.00216171 0.000603236 -6.94109e-05 2.36359e-06
0.00069962 0.0001721 0.00034587 4.4039e-05 0.000123318 -1.20318e-05 4.31544e-07
0.00066067 0.00019893 0.000404955 5.50141e-05 0.000126523 -8.99509e-06 2.92235e-07
0.00046104 1.0893e-06 2.53525e-06 -1.2762e-06 2.05708e-06 -1.13885e-07 6.37041e-09
0.000453 1.5854e-06 3.38507e-06 -4.08055e-07 1.6763e-06 -2.59547e-08 3.60581e-09
0.0001279 0.00055447 0.00107505 0.000412031 0.000132844 -1.61482e-05 5.89922e-07
9.077e-05 3.14e-05 6.32785e-05 7.65018e-06 2.29106e-05 -2.28924e-06 8.34125e-08
8.387e-05 3.6025e-05 7.35369e-05 9.57976e-06 2.30937e-05 -1.68175e-06 5.53944e-08
2.549e-05 1.5099e-07 3.52395e-07 -1.87184e-07 2.95202e-07 -1.77284e-08 9.86985e-10
2.458e-05 2.2045e-07 4.72609e-07 -6.03441e-08 2.35409e-07 -4.50283e-09 5.39521e-10
1.083e-05 5.5177e-05 0.000106984 4.13311e-05 1.27536e-05 -1.50737e-06 5.31355e-08
4.91e-06 2.661e-07 5.40318e-07 5.55493e-08 1.99997e-07 -2.1249e-08 8.61188e-10
4.58e-06 2.8526e-07 5.81932e-07 8.60203e-08 1.71001e-07 -1.19014e-08 4.01651e-10
