5 5 0.0512861
0.0012945 0.00024398 0.000283205 0.000163138 6.21674e-05 -3.73634e-06 8.77113e-08
8.946e-05 1.6126e-05 1.84867e-05 1.12652e-05 3.8607e-06 -2.13006e-07 4.46542e-09
5.655e-05 2.7692e-08 3.21223e-08 8.76362e-09 1.78523e-08 -5.41264e-10 1.9358e-11
5.624e-05 5.4677e-08 6.64065e-08 2.55374e-08 2.10439e-08 3.77625e-10 -5.32888e-12
6.89e-06 8.1247e-07 9.261e-07 5.84712e-07 1.80103e-07 -8.62523e-09 1.51065e-10
