14 14 0.02447
0.024321 32.979 -4.89355 0.404272 -0.0019127 -0.000154267 2.30912e-06
0.00358 3.37809 -0.480646 0.0387613 -0.000211392 -1.70735e-05 2.73331e-07
0.0033326 0.704338 -0.104384 0.00601235 5.60425e-05 -3.66747e-06 4.90396e-08
0.0031706 0.917067 -0.139613 0.00806656 8.75381e-05 -4.17905e-06 5.19164e-08
0.00065494 0.659471 -0.0943558 0.00737433 -2.87981e-05 -4.08296e-06 6.66567e-08
0.00055525 0.0958717 -0.0152847 0.00102304 6.16835e-06 -4.53148e-07 5.64127e-09
0.0005268 0.225777 -0.0325611 0.0017758 1.51275e-05 -9.46972e-07 1.17847e-08
0.00034824 0.0192278 -0.000317177 -1.55513e-06 -2.64726e-07 8.61456e-09 8.03265e-10
0.00034251 0.0157848 -0.00117633 1.50825e-05 9.91759e-07 3.86968e-08 -5.62434e-10
9.101e-05 0.109178 -0.0158298 0.00132163 -8.15833e-06 -5.58481e-07 9.16039e-09
5.968e-05 0.0202561 -0.00308698 0.000189337 1.28613e-06 -1.05689e-07 1.39789e-09
5.509e-05 0.0254643 -0.0040634 0.000253894 2.10311e-06 -1.2459e-07 1.55538e-09
8.14e-06 0.00127251 -9.3201e-05 1.23401e-06 7.83671e-08 2.8268e-09 -4.3902e-11
7.67e-06 0.00233912 -0.000159844 1.9293e-06 1.07282e-07 3.41819e-09 -5.01911e-11
