5 5 0.0053
0.001064 0.0946583 -0.0132353 0.000931831 -5.52524e-06 3.65754e-08 -8.79667e-11
6.448e-05 0.0116689 -0.00130751 7.21384e-05 -5.55709e-07 3.48706e-09 -8.33564e-12
3.642e-05 3.49419e-05 -4.51873e-06 1.90906e-07 4.45777e-09 2.8542e-11 -1.00579e-13
3.622e-05 8.73416e-05 -8.50188e-06 2.26839e-07 1.24175e-08 2.06991e-11 -9.05734e-14
5.15e-06 0.000156914 -1.84095e-05 1.06722e-06 -8.25186e-09 5.3291e-11 -1.3111e-13
