10 10 0.0102329
0.0096224 6.18418 -1.03868 0.0935119 -0.00157521 1.56049e-05 -6.04222e-08
0.0011844 0.808881 -0.120427 0.00964825 -0.000179086 1.80179e-06 -7.08787e-09
0.0010505 0.0986492 -0.0127003 0.000662777 -5.66922e-06 8.29205e-08 -3.73949e-10
0.001026 0.0730147 -0.0115265 0.00071105 -1.79228e-06 8.59999e-08 -4.99122e-10
0.00013743 0.107051 -0.0167238 0.00140905 -2.70225e-05 2.80382e-07 -1.13108e-09
9.374e-05 0.00918408 -0.00131223 7.63011e-05 -4.94146e-07 8.2932e-09 -4.0557e-11
9.059e-05 0.00861558 -0.00143817 9.39338e-05 -1.33969e-07 9.68333e-09 -6.13151e-11
1.685e-05 3.00975e-05 -4.55451e-06 2.03265e-07 3.67918e-09 3.26838e-10 -1.31022e-12
1.646e-05 7.85523e-05 -8.34299e-06 2.03461e-07 9.68051e-09 3.83848e-10 -1.43299e-12
8.61e-06 0.00636021 -0.000975534 8.10731e-05 -1.52463e-06 1.54783e-08 -6.10622e-11
