24 24 0.25
0.093424 14.4952 -12.3883 6.63258 0.00707718 -0.286436 0.0368121
0.016918 1.7712 -0.747404 0.20944 0.0586631 0.00654427 -0.00349065
0.016297 0.589541 -0.279386 0.0605301 0.0224382 0.00376306 -0.00141511
0.013817 0.361063 -0.186676 0.0433177 0.0148571 0.00246647 -0.000837692
0.0041276 0.473232 -0.185758 0.036669 0.0145831 0.00222238 -0.00091236
0.0038402 0.143756 -0.0670281 0.0150058 0.00525461 0.000824615 -0.000319602
0.0032815 0.0944343 -0.0903314 0.042026 0.00179749 -0.00197352 0.000243677
0.0028035 0.00334263 -0.00362054 0.00162177 0.000103642 -7.32598e-05 1.01569e-05
0.0026851 0.00360916 -0.00363052 0.0015203 0.000106763 -6.82968e-05 9.42195e-06
0.00097164 0.117457 -0.0477096 0.00964265 0.00406182 0.000652951 -0.000277985
0.0008443 0.0336158 -0.0163069 0.00388507 0.00143339 0.000235605 -9.8005e-05
0.00070496 0.0230496 -0.0218601 0.010239 0.000478214 -0.00046562 5.41759e-05
0.00049556 0.000958482 -0.000584672 0.00012182 4.87116e-05 1.06969e-05 -2.85321e-06
0.00046954 0.000997225 -0.000996429 0.000415802 2.96701e-05 -1.84469e-05 2.50346e-06
0.0001955 5.34882e-06 -3.51202e-06 6.79067e-07 2.19364e-07 6.61862e-08 -8.83396e-09
0.0001893 5.59768e-06 -6.29109e-06 2.58223e-06 1.94224e-07 -1.2893e-07 2.29175e-08
0.00018134 0.0278857 -0.0109403 0.00216006 0.000858906 0.000130839 -5.37435e-05
0.00013573 0.00708227 -0.00340812 0.00080192 0.000292793 4.76845e-05 -1.95554e-05
0.00010752 0.00463061 -0.00450398 0.0021504 9.17531e-05 -0.000105754 1.33474e-05
4.216e-05 0.000142861 -8.69236e-05 1.78298e-05 7.33695e-06 1.63589e-06 -4.38816e-07
3.851e-05 0.000122612 -0.000126587 5.74231e-05 3.58523e-06 -2.43604e-06 3.48119e-07
2.033e-05 0.00415046 -0.0016279 0.00032142 0.000127798 1.94677e-05 -7.99611e-06
1.025e-05 0.000516036 -0.000246006 5.71967e-05 2.06585e-05 3.32866e-06 -1.34848e-06
7.44e-06 0.000283234 -0.000275073 0.000131356 5.5906e-06 -6.45814e-06 8.15446e-07
