20 20 0.053861
0.053861 12.4575 -7.49204 2.72576 -0.228368 0.0108542 -0.000204306
0.0090125 1.51792 -0.575961 0.161166 -0.00303053 -0.000335737 1.42187e-05
0.0085907 0.312897 -0.165814 0.043488 -0.00077435 -9.6378e-05 5.67439e-06
0.007781 0.239381 -0.167271 0.0570382 -0.00470809 0.000340871 -8.427e-06
0.0020182 0.34641 -0.19579 0.0677279 -0.00611736 0.00029643 -5.67214e-06
0.0018309 0.055716 -0.039809 0.0146995 -0.00139618 8.84244e-05 -2.05308e-06
0.0016621 0.0577045 -0.0371067 0.0118507 -0.000762867 4.72912e-05 -1.02476e-06
0.0013366 0.00176836 -0.00093477 0.000175126 1.52573e-05 -1.16344e-06 7.91476e-08
0.0012995 0.00145372 -0.000773745 0.000147863 1.73962e-05 -1.0511e-06 8.59478e-08
0.0004042 0.0827661 -0.0455741 0.0155608 -0.00135198 6.27699e-05 -1.14745e-06
0.00032938 0.0161181 -0.0105438 0.00352146 -0.000314175 1.88974e-05 -4.30786e-07
0.00029156 0.0131631 -0.00882682 0.0029225 -0.000218992 1.44271e-05 -3.39501e-07
0.00016707 0.000340115 -0.000194413 4.03681e-05 3.3487e-06 -3.15522e-07 2.29797e-08
0.00016024 0.000375878 -0.000266748 8.21906e-05 -6.75025e-06 8.12312e-07 -1.88093e-08
1.062e-05 4.81744e-07 -3.83469e-07 1.25122e-07 -1.5121e-08 2.24484e-09 -2.89345e-11
9.66e-06 5.7818e-07 -4.54325e-07 1.49048e-07 -1.91115e-08 2.64425e-09 -3.29431e-11
5.367e-05 0.0134454 -0.00512927 0.00140334 -2.86381e-05 -2.91985e-06 1.28318e-07
3.306e-05 0.00228275 -0.00106037 0.000258842 -7.5505e-07 -6.40949e-07 2.61228e-08
2.809e-05 0.0015849 -0.00104058 0.000342398 -2.21789e-05 1.3753e-06 -2.98888e-08
5.35e-06 0.0011119 -0.000599798 0.000201598 -1.70943e-05 7.73618e-07 -1.37838e-08
