10 10 0.0076807
0.0076807 4.48753 -0.671049 0.0547976 -0.000715338 5.56133e-06 -1.68534e-08
0.00092295 0.413065 -0.061576 0.00509769 -7.71977e-05 6.42448e-07 -2.06098e-09
0.00080754 0.0518778 -0.00597874 0.000272904 -5.44899e-07 1.39418e-08 -5.5968e-11
0.00079229 0.0943539 -0.0109872 0.000493613 -1.29099e-06 3.28493e-08 -1.38041e-10
0.00010969 0.088414 -0.0114837 0.000817192 -1.22025e-05 9.82845e-08 -3.05783e-10
7.417e-05 0.00744132 -0.000881483 4.15892e-05 -1.73474e-07 2.7143e-09 -1.10357e-11
7.226e-05 0.00488911 -0.000720128 4.02594e-05 2.87665e-07 2.75733e-10 -5.85758e-12
1.393e-05 2.01276e-05 -1.09352e-06 -3.9007e-08 4.34634e-09 3.92975e-11 -9.97495e-14
1.372e-05 2.1039e-05 -1.85616e-06 1.81387e-08 3.30744e-09 9.17226e-11 -2.80936e-13
7.81e-06 0.00493587 -0.000680219 5.13656e-05 -7.92583e-07 6.64898e-09 -2.15421e-11
