0.000012 0.000000
0.000012 38461600.000000
0.000013 37798777.000000
0.000013 36767218.000000
0.000013 35411018.000000
0.000014 33849058.000000
0.000014 32104859.000000
0.000014 30257629.000000
0.000014 28339047.000000
0.000015 26418492.000000
0.000015 24533419.000000
0.000016 22677108.000000
0.000016 20918099.000000
0.000016 19250299.000000
0.000017 17669316.000000
0.000017 16199954.000000
0.000017 14837281.000000
0.000018 13574507.000000
0.000018 12407814.000000
0.000019 11330361.000000
0.000019 10378125.000000
0.000019 9497923.200000
0.000020 8684588.400000
0.000020 7933311.300000
0.000021 7239618.500000
0.000021 6599348.900000
0.000022 6026593.700000
0.000022 5519260.600000
0.000023 5050335.900000
0.000023 4617062.700000
0.000024 4225688.000000
0.000024 3876284.400000
0.000025 3553111.200000
0.000026 3254294.300000
0.000026 2987911.200000
0.000027 2745242.600000
0.000027 2520635.100000
0.000028 2312804.200000
0.000029 2128168.700000
0.000029 1958577.500000
0.000030 1801490.300000
0.000031 1656022.500000
0.000031 1526352.700000
0.000032 1407353.400000
0.000033 1297030.400000
0.000034 1194773.800000
0.000034 1101007.800000
0.000035 1016817.400000
0.000036 938702.960000
0.000037 866239.990000
0.000038 799033.040000
0.000039 738374.220000
0.000040 682701.420000
0.000040 631016.100000
0.000041 583040.890000
0.000042 538787.950000
0.000043 498935.830000
0.000044 461907.850000
0.000045 427508.790000
0.000046 395556.750000
0.000047 366521.220000
0.000049 339886.400000
0.000050 315120.110000
0.000051 292168.960000
0.000052 271472.900000
0.000053 252207.000000
0.000054 234318.220000
0.000056 218209.770000
0.000057 203194.050000
0.000058 189307.690000
0.000060 176769.610000
0.000061 165061.630000
0.000062 154425.440000
0.000064 144641.880000
0.000065 135572.240000
0.000067 127389.430000
0.000068 119712.890000
0.000070 112839.190000
0.000072 106380.230000
0.000073 100593.530000
0.000075 95145.099000
0.000077 90262.836000
0.000078 85657.390000
0.000080 81526.692000
0.000082 77618.831000
0.000084 74119.136000
0.000086 70799.441000
0.000088 67788.396000
0.000090 64971.934000
0.000092 62348.977000
0.000094 59959.845000
0.000096 57651.353000
0.000098 55589.585000
0.000101 53616.230000
0.000103 51757.272000
0.000105 50067.704000
0.000108 48412.547000
0.000110 46940.344000
0.000113 45524.495000
0.000116 44126.954000
0.000118 42891.462000
0.000121 41703.421000
0.000124 40520.404000
0.000127 39484.520000
0.000129 38490.403000
0.000132 37489.883000
0.000136 36519.445000
0.000139 35694.790000
0.000142 34853.712000
0.000145 34000.464000
0.000148 33270.112000
0.000152 32580.388000
0.000155 31868.884000
0.000159 31140.048000
0.000163 30430.157000
0.000166 29907.237000
0.000170 29352.443000
0.000174 28770.847000
0.000178 28167.056000
0.000182 27545.244000
0.000187 26909.189000
0.000191 26433.076000
0.000195 26051.034000
0.000200 25633.308000
0.000204 25184.979000
0.000209 24710.668000
0.000214 24214.576000
0.000219 23700.515000
0.000224 23171.939000
0.000229 22631.972000
0.000234 22083.437000
0.000240 21528.875000
0.000245 21124.091000
0.000251 20707.690000
0.000257 20275.076000
0.000263 19829.275000
0.000269 19373.022000
0.000275 18942.824000
0.000281 18546.791000
0.000288 18138.725000
0.000294 17721.129000
0.000301 17296.262000
0.000308 16890.995000
0.000315 16518.228000
0.000323 16136.908000
0.000330 15749.080000
0.000338 15356.591000
0.000345 14961.102000
0.000353 14608.796000
0.000361 14260.211000
0.000370 13907.127000
0.000378 13551.072000
0.000387 13193.416000
0.000396 12847.954000
0.000405 12532.978000
0.000415 12214.976000
0.000424 11895.214000
0.000434 11574.825000
0.000444 11254.822000
0.000454 10944.037000
0.000465 10660.963000
0.000475 10376.948000
0.000486 10092.933000
0.000498 9809.754900
0.000509 9528.159300
0.000521 9252.634600
0.000533 8997.827200
0.000545 8743.939500
0.000558 8491.621600
0.000571 8241.448700
0.000584 7995.170600
0.000597 7760.572800
0.000611 7528.366900
0.000625 7298.980100
0.000639 7072.785400
0.000654 6854.148900
0.000669 6641.657600
0.000685 6432.476500
0.000701 6226.866100
0.000717 6025.048100
0.000733 5830.260600
0.000750 5641.817600
0.000767 5457.042500
0.000785 5276.085200
0.000803 5099.068000
0.000822 4926.088500
0.000841 4761.401000
0.000860 4600.499500
0.000880 4443.369600
0.000900 4290.068100
0.000921 4140.634700
0.000942 3995.093400
0.000964 3855.320900
0.000986 3719.385100
0.001009 3587.129300
0.001032 3458.546900
0.001056 3333.621300
0.001081 3212.285100
0.001106 3094.545600
0.001131 2980.368100
0.001157 2869.705500
0.001184 2762.505300
0.001211 2658.317200
0.001239 2557.442100
0.001268 2459.895800
0.001297 2365.607100
0.001327 2274.503200
0.001358 2186.287000
0.001389 2100.592500
0.001421 2017.938300
0.001454 1938.240300
0.001487 1861.415100
0.001522 1787.379700
0.001557 1715.860200
0.001593 1646.366000
0.001629 1579.505800
0.001667 1515.193000
0.001706 1453.342500
0.001745 1393.871600
0.001785 1336.011900
0.001826 1280.134500
0.001869 1226.503800
0.001912 1175.035700
0.001956 1125.649100
0.002001 1078.244900
0.002047 1031.814600
0.002094 987.345220
0.002143 944.756560
0.002192 903.971540
0.002243 864.916060
0.002294 827.452080
0.002347 790.721820
0.002402 755.618140
0.002457 722.069250
0.002514 690.006550
0.002572 659.364410
0.002631 629.646470
0.002692 600.892170
0.002754 573.464710
0.002817 547.301990
0.002882 522.344860
0.002949 498.536980
0.003017 475.135890
0.003087 452.832950
0.003158 431.598250
0.003231 411.379270
0.003305 392.126170
0.003382 373.534800
0.003460 355.504330
0.003539 338.368670
0.003621 322.081930
0.003705 306.600630
0.003790 291.883640
0.003878 277.466160
0.003967 263.721300
0.004059 250.680070
0.004152 238.305080
0.004248 226.561040
0.004346 215.285890
0.004446 204.325180
0.004549 193.943200
0.004654 184.108210
0.004761 174.790240
0.004871 165.961060
0.004984 157.352180
0.005099 149.136080
0.005216 141.365670
0.005337 134.015840
0.005460 127.062930
0.005586 120.446580
0.005715 114.054370
0.005847 108.014750
0.005982 102.307520
0.006120 96.913691
0.006261 91.815388
0.006405 86.995798
0.006553 82.439093
0.006705 78.130378
0.006859 73.939165
0.007018 69.917928
0.007179 66.123902
0.007345 62.458931
0.007515 58.952567
0.007688 55.650261
0.007865 52.539760
0.008047 49.548222
0.008233 46.689029
0.008423 44.000311
0.008617 41.471623
0.008816 39.090760
0.009019 36.768819
0.009227 34.588706
0.009440 32.541563
0.009658 30.619096
0.009881 28.813536
0.010109 27.117607
0.010342 25.524496
0.010581 24.027817
0.010825 22.621592
0.011075 21.264085
0.011331 19.988140
0.011592 18.790772
0.011860 17.667042
0.012133 16.612328
0.012413 15.622302
0.012700 14.668901
0.012993 13.772138
0.013293 12.931415
0.013600 12.143172
0.013913 11.404075
0.014234 10.711008
0.014563 10.045970
0.014899 9.420123
0.015243 8.833951
0.015595 8.284906
0.015955 7.770605
0.016323 7.285483
0.016699 6.823123
0.017085 6.390477
0.017479 5.985616
0.017882 5.606740
0.018295 5.252166
0.018717 4.918664
0.019149 4.601250
0.019591 4.304479
0.020043 4.027000
0.020506 3.767553
0.020979 3.524960
0.021463 3.297362
0.021958 3.081102
0.022465 2.879065
0.022984 2.690314
0.023514 2.513973
0.024057 2.349225
0.024612 2.195306
0.025180 2.050076
0.025761 1.913593
0.026355 1.786178
0.026963 1.667229
0.027586 1.556184
0.028222 1.452518
0.028874 1.355681
0.029540 1.264190
0.030222 1.178832
0.030919 1.099198
0.031633 1.024906
0.032362 0.955598
0.033109 0.890943
0.033873 0.830629
0.034655 0.773819
0.035455 0.713221
0.036273 0.671919
0.037110 0.631368
0.037966 0.591912
0.038843 0.553812
0.039739 0.517256
0.040656 0.482372
0.041594 0.449241
0.042554 0.417906
0.043536 0.388378
0.044541 0.360644
0.045569 0.334669
0.046620 0.310407
0.047696 0.287798
0.048797 0.266775
0.049923 0.247266
0.051075 0.229194
0.052254 0.212482
0.053460 0.197050
0.054693 0.182821
0.055955 0.169719
0.057247 0.157669
0.058568 0.146599
0.059919 0.136440
0.061302 0.127126
0.062717 0.118595
0.064164 0.110787
0.065645 0.103647
0.067160 0.097121
0.068710 0.091161
0.070295 0.085720
0.071917 0.080756
0.073577 0.076228
0.075275 0.072100
0.077012 0.068337
0.078789 0.064907
0.080607 0.061780
0.082468 0.044528
0.084371 0.041535
0.086318 0.038749
0.088310 0.036154
0.090348 0.033734
0.092433 0.031477
0.094566 0.029370
0.096748 0.027403
0.098981 0.025565
0.101265 0.023849
0.103602 0.022245
0.105993 0.020746
0.108438 0.019346
0.110941 0.018038
0.113501 0.016815
0.116120 0.015673
0.118800 0.014606
0.121542 0.013609
0.124346 0.012678
0.127216 0.011809
0.130152 0.010998
0.133155 0.010241
0.136228 0.009535
0.139372 0.008876
0.142588 0.008262
0.145879 0.007689
0.149245 0.007155
0.152689 0.006658
0.156213 0.006194
0.159818 0.005762
0.163506 0.005360
0.167279 0.004986
0.171139 0.004637
0.175089 0.004313
0.179129 0.004011
0.183263 0.003730
0.187492 0.003469
0.191819 0.003226
0.196246 0.003000
0.200774 0.002790
0.205408 0.002595
0.210148 0.002413
0.214998 0.002245
0.219959 0.002088
0.225035 0.001942
0.230228 0.001807
0.235541 0.001681
0.240977 0.001564
0.246538 0.001456
0.252227 0.001355
0.258048 0.001262
0.264003 0.001175
0.270095 0.001094
0.276328 0.001019
0.282705 0.000949
0.289229 0.000885
0.295904 0.000824
0.302732 0.000769
0.309718 0.000717
0.316866 0.000669
0.324178 0.000624
0.331659 0.000582
0.339313 0.000543
0.347143 0.000507
0.355154 0.000474
0.363350 0.000443
0.371735 0.000414
0.380314 0.000387
0.389090 0.000362
0.398069 0.000339
0.407255 0.000317
0.416654 0.000297
0.426269 0.000278
0.436106 0.000261
0.446170 0.000244
0.456466 0.000229
0.467000 0.000215
0.477777 0.000202
0.488803 0.000190
0.500083 0.000178
0.511623 0.000167
0.523430 0.000157
0.535509 0.000148
0.547867 0.000139
0.560510 0.000131
0.573445 0.000124
0.586678 0.000116
0.600217 0.000110
0.614069 0.000104
0.628239 0.000098
0.642737 0.000092
0.657570 0.000087
0.672744 0.000082
0.688269 0.000078
0.704153 0.000074
0.720402 0.000070
0.737027 0.000066
0.754036 0.000063
0.771436 0.000059
0.789239 0.000056
0.807452 0.000053
0.826086 0.000051
0.845149 0.000048
0.864653 0.000046
0.884607 0.000043
0.905021 0.000041
0.925906 0.000039
0.947273 0.000037
0.969133 0.000036
0.991498 0.000034
1.014379 0.000032
1.037788 0.000031
1.061737 0.000029
1.086238 0.000028
1.111306 0.000027
1.136951 0.000025
1.163189 0.000024
1.190032 0.000023
1.217494 0.000022
1.245590 0.000021
1.274335 0.000020
1.303743 0.000019
1.333829 0.000019
1.364610 0.000018
1.396101 0.000017
1.428319 0.000016
1.461280 0.000016
1.495002 0.000015
1.529502 0.000014
1.564799 0.000014
1.600910 0.000013
1.637854 0.000013
1.675651 0.000012
1.714320 0.000012
1.753881 0.000011
1.794355 0.000011
1.835764 0.000010
1.878128 0.000010
1.921469 0.000010
1.965811 0.000009
2.011176 0.000009
2.057588 0.000009
2.105071 0.000008
2.153650 0.000008
2.203350 0.000008
2.254197 0.000007
2.306217 0.000007
2.359437 0.000007
2.413886 0.000007
2.469592 0.000006
2.526582 0.000006
2.584888 0.000006
2.644540 0.000006
2.705568 0.000006
2.768005 0.000005
2.831882 0.000005
2.897233 0.000005
2.964093 0.000005
3.032495 0.000005
3.102476 0.000005
3.174072 0.000004
3.247320 0.000004
3.322259 0.000004
3.398927 0.000004
3.477364 0.000004
3.557611 0.000004
3.639710 0.000004
3.723704 0.000003
3.809636 0.000003
3.897551 0.000003
3.987495 0.000003
4.079514 0.000003
4.173657 0.000003
4.269973 0.000003
4.368511 0.000003
4.469323 0.000003
4.572462 0.000003
4.677981 0.000003
4.785935 0.000002
4.896380 0.000002
5.009374 0.000002
5.124975 0.000002
5.243245 0.000002
5.364243 0.000002
5.488034 0.000002
5.614681 0.000002
5.744252 0.000002
5.876812 0.000002
6.012431 0.000002
6.151180 0.000002
6.293131 0.000002
6.438358 0.000002
6.586936 0.000002
6.738943 0.000002
6.894458 0.000002
7.053561 0.000001
7.216337 0.000001
7.382868 0.000001
7.553243 0.000001
7.727549 0.000001
7.905878 0.000001
8.088322 0.000001
8.274977 0.000001
8.465939 0.000001
8.661307 0.000001
8.861185 0.000001
9.065674 0.000001
9.274883 0.000001
9.488920 0.000001
9.707896 0.000001
9.931925 0.000001
10.161125 0.000001
10.395613 0.000001
10.635513 0.000001
10.880949 0.000001
11.132049 0.000001
11.388944 0.000001
11.651767 0.000001
11.920655 0.000001
12.195748 0.000001
12.477190 0.000001
12.765126 0.000001
13.059707 0.000001
13.361087 0.000001
13.669421 0.000001
13.984870 0.000001
14.307600 0.000001
14.637777 0.000001
14.975573 0.000001
15.321165 0.000001
15.674732 0.000001
16.036458 0.000001
16.406532 0.000001
16.785146 0.000001
17.172497 0.000001
17.568787 0.000001
17.974222 0.000000
18.389014 0.000000
18.813378 0.000000
19.247535 0.000000
19.691710 0.000000
20.146137 0.000000
20.611050 0.000000
21.086691 0.000000
21.573310 0.000000
22.071157 0.000000
22.580494 0.000000
23.101585 0.000000
23.634701 0.000000
24.180119 0.000000
24.738125 0.000000
25.309007 0.000000
25.893064 0.000000
26.490599 0.000000
27.101923 0.000000
27.727355 0.000000
28.367220 0.000000
29.021851 0.000000
29.691589 0.000000
30.376782 0.000000
31.077788 0.000000
31.794971 0.000000
32.528705 0.000000
33.279370 0.000000
34.047359 0.000000
34.833071 0.000000
35.636915 0.000000
36.459309 0.000000
37.300682 0.000000
38.161470 0.000000
39.042124 0.000000
39.943100 0.000000
40.864868 0.000000
41.807908 0.000000
42.772710 0.000000
43.759777 0.000000
44.769622 0.000000
45.802772 0.000000
46.859764 0.000000
47.941148 0.000000
49.047487 0.000000
50.179358 0.000000
51.337348 0.000000
52.522061 0.000000
53.734114 0.000000
54.974138 0.000000
56.242778 0.000000
57.540694 0.000000
58.868562 0.000000
60.227074 0.000000
61.616935 0.000000
63.038871 0.000000
64.493621 0.000000
65.981942 0.000000
67.504609 0.000000
69.062415 0.000000
70.656170 0.000000
72.286704 0.000000
73.954867 0.000000
75.661525 0.000000
77.407568 0.000000
79.193905 0.000000
81.021465 0.000000
82.891199 0.000000
84.804082 0.000000
86.761108 0.000000
88.763297 0.000000
90.811690 0.000000
92.907353 0.000000
95.051379 0.000000
97.244882 0.000000
99.489005 0.000000
101.784920 0.000000
104.133810 0.000000
106.536910 0.000000
108.995460 0.000000
111.510750 0.000000
114.084090 0.000000
116.716810 0.000000
119.410290 0.000000
122.165920 0.000000
124.985150 0.000000
127.869440 0.000000
130.820280 0.000000
133.839230 0.000000
136.927840 0.000000
140.087730 0.000000
143.320530 0.000000
146.627950 0.000000
150.011680 0.000000
153.473510 0.000000
157.015220 0.000000
160.638660 0.000000
164.345730 0.000000
168.138340 0.000000
172.018470 0.000000
175.988150 0.000000
180.049430 0.000000
184.204430 0.000000
188.455320 0.000000
192.804310 0.000000
197.253660 0.000000
201.805690 0.000000
206.462770 0.000000
211.227310 0.000000
216.101810 0.000000
221.088800 0.000000
226.190870 0.000000
231.410690 0.000000
236.750960 0.000000
242.214470 0.000000
247.804060 0.000000
253.522640 0.000000
259.373190 0.000000
265.358750 0.000000
271.482440 0.000000
277.747450 0.000000
284.157030 0.000000
290.714530 0.000000
297.423360 0.000000
304.287010 0.000000
311.309050 0.000000
318.493130 0.000000
325.843010 0.000000
333.362500 0.000000
341.055510 0.000000
348.926060 0.000000
356.978240 0.000000
365.216230 0.000000
373.644340 0.000000
382.266940 0.000000
391.088520 0.000000
400.113680 0.000000
409.347120 0.000000
418.793630 0.000000
428.458140 0.000000
438.345690 0.000000
448.461400 0.000000
458.810560 0.000000
469.398540 0.000000
480.230860 0.000000
491.313160 0.000000
502.651210 0.000000
514.250910 0.000000
526.118290 0.000000
538.259540 0.000000
550.680970 0.000000
563.389050 0.000000
576.390390 0.000000
589.691770 0.000000
603.300100 0.000000
617.222470 0.000000
631.466130 0.000000
646.038500 0.000000
660.947140 0.000000
676.199840 0.000000
691.804520 0.000000
707.769310 0.000000
724.102530 0.000000
740.812660 0.000000
757.908410 0.000000
775.398690 0.000000
793.292590 0.000000
811.599420 0.000000
830.328720 0.000000
849.490240 0.000000
869.093950 0.000000
889.150060 0.000000
909.669000 0.000000
930.661450 0.000000
952.138350 0.000000
974.110880 0.000000
996.590460 0.000000
1019.588800 0.000000
1043.117900 0.000000
1067.189900 0.000000
1091.817500 0.000000
1117.013400 0.000000
1142.790800 0.000000
1169.163000 0.000000
1196.143800 0.000000
1223.747200 0.000000
1251.987700 0.000000
1280.879800 0.000000
1310.438700 0.000000
1340.679800 0.000000
1371.618700 0.000000
1403.271600 0.000000
1435.654900 0.000000
1468.785500 0.000000
1502.680700 0.000000
1537.358100 0.000000
1572.835800 0.000000
1609.132200 0.000000
1646.266200 0.000000
1684.257100 0.000000
1723.124700 0.000000
1762.889300 0.000000
1803.571600 0.000000
1845.192700 0.000000
1887.774200 0.000000
1931.338400 0.000000
1975.908000 0.000000
2021.506100 0.000000
2068.156400 0.000000
2115.883300 0.000000
2164.711600 0.000000
2214.666700 0.000000
2265.774700 0.000000
2318.062000 0.000000
2371.556000 0.000000
2426.284400 0.000000
2482.275900 0.000000
2539.559400 0.000000
2598.164900 0.000000
2658.122800 0.000000
2719.464400 0.000000
2782.221600 0.000000
2846.427000 0.000000
2912.114000 0.000000
2979.317000 0.000000
3048.070800 0.000000
3118.411200 0.000000
3190.374800 0.000000
3263.999200 0.000000
3339.322600 0.000000
3416.384200 0.000000
3495.224200 0.000000
3575.883600 0.000000
3658.404400 0.000000
3742.829500 0.000000
3829.202900 0.000000
3917.569500 0.000000
4007.975300 0.000000
4100.467500 0.000000
4195.094100 0.000000
4291.904400 0.000000
4390.948800 0.000000
4492.278800 0.000000
4595.947300 0.000000
4702.008100 0.000000
4810.516500 0.000000
4921.528900 0.000000
5035.103100 0.000000
5151.298400 0.000000
5270.175000 0.000000
5391.795000 0.000000
5516.221600 0.000000
5643.519600 0.000000
5773.755200 0.000000
5906.996400 0.000000
6043.312300 0.000000
6182.774000 0.000000
6325.454000 0.000000
6471.426700 0.000000
6620.768000 0.000000
6773.555600 0.000000
6929.869100 0.000000
7089.789900 0.000000
7253.401200 0.000000
7420.788100 0.000000
7592.037900 0.000000
7767.239500 0.000000
7946.484300 0.000000
8129.865600 0.000000
8317.478700 0.000000
8509.421400 0.000000
8705.793600 0.000000
8906.697400 0.000000
9112.237500 0.000000
9322.520900 0.000000
9537.656900 0.000000
9757.757700 0.000000
9982.937700 0.000000
10213.314000 0.000000
10449.007000 0.000000
10690.139000 0.000000
10936.836000 0.000000
11189.226000 0.000000
11447.440000 0.000000
11711.612000 0.000000
11981.882000 0.000000
12258.388000 0.000000
12541.275000 0.000000
12830.690000 0.000000
13126.785000 0.000000
13429.712000 0.000000
13739.630000 0.000000
14056.699000 0.000000
14381.086000 0.000000
14712.959000 0.000000
15052.490000 0.000000
15399.857000 0.000000
15755.240000 0.000000
16118.824000 0.000000
16490.799000 0.000000
16871.357000 0.000000
17260.698000 0.000000
17659.024000 0.000000
18066.541000 0.000000
18483.464000 0.000000
18910.007000 0.000000
19346.394000 0.000000
19792.851000 0.000000
20249.611000 0.000000
20716.912000 0.000000
21194.997000 0.000000
21684.114000 0.000000
22184.519000 0.000000
22696.472000 0.000000
23220.239000 0.000000
23756.093000 0.000000
24304.313000 0.000000
24865.184000 0.000000
25438.999000 0.000000
26026.055000 0.000000
26626.659000 0.000000
27241.124000 0.000000
27869.768000 0.000000
28512.919000 0.000000
29170.913000 0.000000
29844.091000 0.000000
30532.803000 0.000000
31237.410000 0.000000
31958.276000 0.000000
32695.778000 0.000000
33450.300000 0.000000
34222.233000 0.000000
35011.981000 0.000000
35819.953000 0.000000
36646.571000 0.000000
37492.265000 0.000000
38357.475000 0.000000
39242.652000 0.000000
40148.255000 0.000000
41074.758000 0.000000
42022.641000 0.000000
42992.399000 0.000000
43984.536000 0.000000
44999.568000 0.000000
46038.024000 0.000000
47100.445000 0.000000
48187.383000 0.000000
49299.405000 0.000000
50437.088000 0.000000
51601.027000 0.000000
52791.825000 0.000000
54010.103000 0.000000
55256.496000 0.000000
56531.652000 0.000000
57836.234000 0.000000
59170.922000 0.000000
60536.411000 0.000000
61933.412000 0.000000
63362.651000 0.000000
64824.873000 0.000000
66320.838000 0.000000
67851.326000 0.000000
69417.133000 0.000000
71019.074000 0.000000
72657.983000 0.000000
74334.713000 0.000000
76050.137000 0.000000
77805.149000 0.000000
79600.660000 0.000000
81437.607000 0.000000
83316.945000 0.000000
85239.652000 0.000000
87206.730000 0.000000
89219.202000 0.000000
91278.116000 0.000000
93384.544000 0.000000
95539.581000 0.000000
97744.351000 0.000000
100000.000000 0.000000
