5.39e-06 100000 1611
1611
5.39e-06 1.83221e-10
5.5e-06 2.00888e-10
5.6e-06 2.18076e-10
5.77e-06 2.47619e-10
5.95662e-06 2.81676e-10
6.16595e-06 3.21557e-10
6.42e-06 3.72194e-10
6.68344e-06 4.27032e-10
6.91831e-06 4.77853e-10
7.2e-06 5.41012e-10
7.5e-06 6.10478e-10
7.85236e-06 6.94915e-10
8.22243e-06 7.86564e-10
8.7e-06 9.08734e-10
9.22571e-06 1.0475e-09
9.77237e-06 1.19577e-09
1.03514e-05 1.35666e-09
1.07152e-05 1.45803e-09
1.10917e-05 1.56697e-09
1.14815e-05 1.67775e-09
1.1885e-05 1.79637e-09
1.23027e-05 1.91701e-09
1.2735e-05 2.04575e-09
1.32587e-05 2.19871e-09
1.38038e-05 2.36312e-09
1.43895e-05 2.53541e-09
1.5e-05 2.72026e-09
1.55972e-05 2.89664e-09
1.62181e-05 3.08446e-09
1.69824e-05 3.30899e-09
1.77828e-05 3.54987e-09
1.81974e-05 3.66985e-09
1.88374e-05 3.85747e-09
1.95e-05 4.05468e-09
1.99818e-05 4.19182e-09
2.0727e-05 4.4063e-09
2.15e-05 4.63175e-09
2.20333e-05 4.78021e-09
2.28581e-05 5.01185e-09
2.37137e-05 5.25472e-09
2.4336e-05 5.42236e-09
2.53003e-05 5.68388e-09
2.63027e-05 5.95802e-09
2.69929e-05 6.13686e-09
2.75225e-05 6.2745e-09
2.83363e-05 6.48677e-09
2.91743e-05 6.70621e-09
3.00262e-05 6.91648e-09
3.06814e-05 7.0785e-09
3.16911e-05 7.32865e-09
3.27341e-05 7.58766e-09
3.36899e-05 7.8099e-09
3.44251e-05 7.98084e-09
3.5558e-05 8.2443e-09
3.67282e-05 8.51644e-09
3.78007e-05 8.75024e-09
3.86256e-05 8.92979e-09
3.98967e-05 9.20605e-09
4.12098e-05 9.49086e-09
4.25354e-05 9.75963e-09
4.35575e-05 9.96618e-09
4.43401e-05 1.0124e-08
4.55406e-05 1.03653e-08
4.67735e-05 1.06125e-08
4.75883e-05 1.07646e-08
4.90484e-05 1.1036e-08
5.01728e-05 1.1244e-08
5.1908e-05 1.15635e-08
5.37032e-05 1.1892e-08
5.47173e-05 1.20651e-08
5.65384e-05 1.2374e-08
5.79439e-05 1.26109e-08
5.8e-05 1.26211e-08
5.8e-05 6.31673e-07
5.90209e-05 6.71787e-07
5.985e-05 7.05751e-07
6.0674e-05 7.40691e-07
6.07e-05 7.41813e-07
6.18e-05 7.86616e-07
6.23735e-05 8.08493e-07
6.35e-05 8.52663e-07
6.38275e-05 8.64402e-07
6.51275e-05 9.11933e-07
6.53131e-05 9.18839e-07
6.62867e-05 9.51854e-07
6.73e-05 9.86747e-07
6.83652e-05 1.02054e-06
6.91831e-05 1.04666e-06
6.99667e-05 1.06977e-06
7.11925e-05 1.10583e-06
7.16143e-05 1.11821e-06
7.30714e-05 1.15773e-06
7.4131e-05 1.186e-06
7.5e-05 1.20776e-06
7.7051e-05 1.25735e-06
7.71887e-05 1.26053e-06
7.91561e-05 1.30446e-06
8.03526e-05 1.3296e-06
8.09187e-05 1.3409e-06
8.22243e-05 1.36576e-06
8.24931e-05 1.37119e-06
8.38959e-05 1.39838e-06
8.41395e-05 1.40291e-06
8.60994e-05 1.43623e-06
8.64083e-05 1.44177e-06
8.81049e-05 1.47034e-06
8.83419e-05 1.47416e-06
8.98204e-05 1.49653e-06
9.06776e-05 1.50825e-06
9.20847e-05 1.52995e-06
9.33254e-05 1.54714e-06
9.44061e-05 1.56191e-06
9.59312e-05 1.58025e-06
9.61208e-05 1.58231e-06
9.88576e-05 1.61675e-06
9.9e-05 1.61829e-06
0.000100705 1.6366e-06
0.000101491 1.64587e-06
0.000103319 1.66446e-06
0.000103853 1.67079e-06
0.000105965 1.69247e-06
0.000106 1.69278e-06
0.000107848 1.70982e-06
0.000108182 1.71244e-06
0.000111224 1.74013e-06
0.000111539 1.74234e-06
0.000113825 1.76402e-06
0.000115 1.77277e-06
0.000115816 1.77991e-06
0.000117971 1.79503e-06
0.000118868 1.80237e-06
0.000120249 1.8119e-06
0.000122 1.82639e-06
0.000123749 1.8375e-06
0.000125192 1.84952e-06
0.00012735 1.86344e-06
0.000128053 1.86836e-06
0.000129569 1.87721e-06
0.000130611 1.8841e-06
0.000131541 1.88933e-06
0.00013289 1.89898e-06
0.000135066 1.91075e-06
0.000136975 1.92291e-06
0.000137772 1.92696e-06
0.000139836 1.93921e-06
0.000140121 1.94125e-06
0.000142528 1.95559e-06
0.000142991 1.95774e-06
0.000146216 1.97643e-06
0.000146218 1.97644e-06
0.000149839 1.99497e-06
0.00015 1.99599e-06
0.000153005 2.01102e-06
0.000153081 2.01131e-06
0.000155683 2.02457e-06
0.000155976 2.02572e-06
0.000158553 2.03842e-06
0.000160484 2.04974e-06
0.000163166 2.06081e-06
0.000164181 2.06658e-06
0.000166714 2.07776e-06
0.00016701 2.07941e-06
0.000169426 2.09059e-06
0.000171345 2.10099e-06
0.000173576 2.10995e-06
0.000175792 2.12161e-06
0.000177828 2.12947e-06
0.000178855 2.13473e-06
0.000182098 2.14694e-06
0.000184342 2.15707e-06
0.000185918 2.16232e-06
0.000188568 2.17346e-06
0.000189326 2.17587e-06
0.000191801 2.18601e-06
0.00019236 2.18781e-06
0.000196755 2.20615e-06
0.000197786 2.20885e-06
0.000201837 2.22443e-06
0.000201956 2.22475e-06
0.000205057 2.23649e-06
0.000205141 2.23674e-06
0.000210012 2.25484e-06
0.000210817 2.25859e-06
0.000215 2.27307e-06
0.000215243 2.27406e-06
0.000218624 2.28494e-06
0.000219222 2.28629e-06
0.000222984 2.29791e-06
0.000223794 2.30085e-06
0.000226328 2.30814e-06
0.000229087 2.3184e-06
0.000232303 2.32612e-06
0.000235776 2.33719e-06
0.000236887 2.33965e-06
0.000240384 2.34986e-06
0.000240921 2.35192e-06
0.000244854 2.36354e-06
0.000245727 2.36527e-06
0.000250873 2.38019e-06
0.000251189 2.38077e-06
0.000255564 2.39091e-06
0.00025704 2.39493e-06
0.000259455 2.39977e-06
0.000260765 2.40403e-06
0.000266408 2.41537e-06
0.000267416 2.41833e-06
0.000271744 2.42712e-06
0.000272515 2.42922e-06
0.000275816 2.436e-06
0.000280347 2.44695e-06
0.00028204 2.44934e-06
0.000288403 2.46273e-06
0.000293427 2.47097e-06
0.000295972 2.47579e-06
0.000297895 2.47816e-06
0.000301778 2.48662e-06
0.000305877 2.4908e-06
0.000306207 2.49158e-06
0.000312004 2.50034e-06
0.000312974 2.50231e-06
0.00031668 2.50753e-06
0.00031989 2.51401e-06
0.000323825 2.51829e-06
0.000324994 2.52091e-06
0.000329527 2.52788e-06
0.000331131 2.5291e-06
0.000337612 2.53714e-06
0.000338844 2.53748e-06
0.000343806 2.54392e-06
0.00034574 2.54486e-06
0.000351889 2.55131e-06
0.000353311 2.5534e-06
0.00035736 2.55699e-06
0.000362216 2.56194e-06
0.000363078 2.56349e-06
0.000369403 2.57025e-06
0.000370873 2.5706e-06
0.000375027 2.57572e-06
0.000377502 2.57714e-06
0.000385076 2.58634e-06
0.000387668 2.58694e-06
0.00039279 2.59427e-06
0.000398107 2.59677e-06
0.000398676 2.59745e-06
0.000404169 2.60101e-06
0.000407671 2.60409e-06
0.000409935 2.60497e-06
0.000416869 2.61204e-06
0.000420969 2.61239e-06
0.000424742 2.6167e-06
0.000430868 2.61886e-06
0.000431752 2.61997e-06
0.000437981 2.6244e-06
0.00043972 2.62456e-06
0.000447614 2.62955e-06
0.000449098 2.63105e-06
0.000454638 2.63392e-06
0.000457621 2.63643e-06
0.000460875 2.63775e-06
0.000464119 2.64143e-06
0.000471995 2.64447e-06
0.00047404 2.64653e-06
0.000480511 2.64953e-06
0.000484172 2.65231e-06
0.000486998 2.65331e-06
0.000491367 2.65728e-06
0.000496894 2.65897e-06
0.000498439 2.66061e-06
0.000505387 2.66455e-06
0.000506991 2.66465e-06
0.000512211 2.66865e-06
0.0005188 2.66925e-06
0.000525694 2.67324e-06
0.000529359 2.67325e-06
0.000538657 2.67675e-06
0.000538774 2.67674e-06
0.000547149 2.67984e-06
0.0005511 2.68195e-06
0.000554584 2.68254e-06
0.000563026 2.68751e-06
0.000567839 2.68726e-06
0.000574441 2.69065e-06
0.000577988 2.69081e-06
0.000585353 2.69345e-06
0.000585719 2.69346e-06
0.00059577 2.69764e-06
0.000597509 2.69747e-06
0.000605705 2.70152e-06
0.000609537 2.70148e-06
0.00061517 2.70385e-06
0.000621942 2.70323e-06
0.000624177 2.70432e-06
0.000632741 2.70484e-06
0.000633004 2.70477e-06
0.000642844 2.70615e-06
0.000649117 2.70754e-06
0.000651579 2.70731e-06
0.000663793 2.71042e-06
0.000667153 2.70938e-06
0.000676906 2.71137e-06
0.000679077 2.71092e-06
0.00068816 2.71208e-06
0.000688593 2.71232e-06
0.000698984 2.71452e-06
0.000702012 2.71384e-06
0.000716143 2.71558e-06
0.000717547 2.71612e-06
0.000731771 2.71492e-06
0.000731792 2.71492e-06
0.000742661 2.71546e-06
0.000745724 2.71436e-06
0.000758151 2.71385e-06
0.000759268 2.7141e-06
0.000769195 2.71343e-06
0.000776247 2.71549e-06
0.00078891 2.71264e-06
0.000795472 2.71378e-06
0.000804027 2.71203e-06
0.000812684 2.71228e-06
0.000815554 2.71157e-06
0.00082805 2.7126e-06
0.000833156 2.71089e-06
0.000841733 2.71239e-06
0.000851138 2.71021e-06
0.000853892 2.71089e-06
0.000872218 2.70703e-06
0.000875593 2.70761e-06
0.000891091 2.70424e-06
0.000892229 2.70443e-06
0.000904914 2.70309e-06
0.000907939 2.70181e-06
0.000922942 2.69968e-06
0.00092428 2.69979e-06
0.000936273 2.69783e-06
0.000944061 2.699e-06
0.000960068 2.69455e-06
0.000964662 2.695e-06
0.00097831 2.69209e-06
0.000983056 2.69217e-06
0.000992219 2.69024e-06
0.000999438 2.69091e-06
0.00101345 2.68745e-06
0.001014 2.68756e-06
0.00103514 2.68471e-06
0.00103998 2.6851e-06
0.00105991 2.67945e-06
0.00106078 2.67893e-06
0.00107511 2.67757e-06
0.00108373 2.67392e-06
0.00109831 2.67196e-06
0.00110422 2.66951e-06
0.00112202 2.66586e-06
0.00112247 2.66566e-06
0.00113868 2.66228e-06
0.00114156 2.6626e-06
0.00115894 2.66031e-06
0.00116762 2.65636e-06
0.00117437 2.65623e-06
0.00118981 2.65196e-06
0.00120186 2.65023e-06
0.00120672 2.64862e-06
0.0012229 2.64722e-06
0.00123255 2.64364e-06
0.00123892 2.64377e-06
0.00125892 2.63869e-06
0.00126334 2.63806e-06
0.00127534 2.63441e-06
0.00128825 2.63343e-06
0.00130669 2.62636e-06
0.00132016 2.62481e-06
0.00133475 2.61931e-06
0.00134872 2.61726e-06
0.0013598 2.61316e-06
0.00137422 2.61067e-06
0.00138211 2.60779e-06
0.00139693 2.60489e-06
0.00140192 2.60309e-06
0.00141711 2.59985e-06
0.00141949 2.59899e-06
0.001435 2.59738e-06
0.00145077 2.59187e-06
0.00146686 2.5892e-06
0.00147469 2.58651e-06
0.00149122 2.58529e-06
0.0015113 2.57853e-06
0.00152852 2.57725e-06
0.00154882 2.57055e-06
0.00156675 2.56613e-06
0.00157014 2.56481e-06
0.00158832 2.56025e-06
0.00159039 2.55945e-06
0.00160881 2.55704e-06
0.00162908 2.54948e-06
0.00164794 2.54647e-06
0.00166369 2.54074e-06
0.00168296 2.53726e-06
0.00169459 2.53312e-06
0.00171421 2.52923e-06
0.00172209 2.52647e-06
0.00174203 2.52221e-06
0.00174652 2.52067e-06
0.00176675 2.51609e-06
0.00176818 2.51561e-06
0.00180674 2.50679e-06
0.00181084 2.50635e-06
0.00183621 2.50018e-06
0.00184464 2.49974e-06
0.00187039 2.49443e-06
0.00188131 2.49032e-06
0.00190971 2.48648e-06
0.00192753 2.48049e-06
0.00194984 2.47537e-06
0.00195546 2.47342e-06
0.00198203 2.46682e-06
0.00198238 2.46677e-06
0.00200725 2.46066e-06
0.00201338 2.46017e-06
0.00204288 2.45387e-06
0.00205543 2.44914e-06
0.00207093 2.44709e-06
0.00209757 2.43946e-06
0.00209853 2.43909e-06
0.00213698 2.43036e-06
0.00214846 2.42866e-06
0.0021712 2.42273e-06
0.002194 2.41828e-06
0.0022016 2.41606e-06
0.00223464 2.41119e-06
0.00225581 2.40445e-06
0.00227081 2.4025e-06
0.00229735 2.39578e-06
0.00230295 2.39505e-06
0.00232901 2.38929e-06
0.00233144 2.38911e-06
0.00237731 2.37961e-06
0.00238214 2.37922e-06
0.00242089 2.37174e-06
0.00242661 2.36996e-06
0.00246356 2.36173e-06
0.00248021 2.35883e-06
0.0024987 2.35403e-06
0.00253211 2.34682e-06
0.00254097 2.3454e-06
0.00256383 2.34007e-06
0.00257966 2.33838e-06
0.00261647 2.33009e-06
0.00262439 2.32748e-06
0.00265145 2.3236e-06
0.00267855 2.31651e-06
0.00268467 2.31584e-06
0.00272686 2.30699e-06
0.00274808 2.30378e-06
0.00276984 2.29866e-06
0.00280479 2.29221e-06
0.00280801 2.29139e-06
0.00285537 2.28442e-06
0.00287606 2.27875e-06
0.00290038 2.27554e-06
0.00292819 2.26931e-06
0.00294034 2.26771e-06
0.0029679 2.26227e-06
0.00301161 2.25587e-06
0.00302848 2.25172e-06
0.00306619 2.24675e-06
0.00309029 2.24122e-06
0.00310777 2.23881e-06
0.00314053 2.2318e-06
0.00317121 2.22692e-06
0.00318838 2.22299e-06
0.00323389 2.21475e-06
0.00323594 2.2145e-06
0.00327715 2.20705e-06
0.00327812 2.20693e-06
0.00331817 2.19987e-06
0.00331823 2.19985e-06
0.00339458 2.18699e-06
0.00339665 2.18643e-06
0.00346288 2.17573e-06
0.00346678 2.17475e-06
0.00352377 2.16587e-06
0.00352934 2.16459e-06
0.00357793 2.15725e-06
0.003585 2.15573e-06
0.003626 2.14971e-06
0.00363442 2.14802e-06
0.00371169 2.13712e-06
0.00372256 2.13457e-06
0.00377727 2.12714e-06
0.00379006 2.12454e-06
0.00382722 2.11964e-06
0.00384149 2.11705e-06
0.00390339 2.10919e-06
0.00391994 2.10587e-06
0.00398107 2.0984e-06
0.004 2.09474e-06
0.00404459 2.08908e-06
0.0040714 2.08404e-06
0.00410507 2.08006e-06
0.00413949 2.07406e-06
0.00416258 2.07151e-06
0.00420437 2.06474e-06
0.00421723 2.06341e-06
0.00426611 2.05605e-06
0.00426912 2.05576e-06
0.00432481 2.04796e-06
0.00436814 2.04244e-06
0.00438058 2.04036e-06
0.00443352 2.03329e-06
0.00445666 2.03147e-06
0.00453451 2.02006e-06
0.00453558 2.01999e-06
0.00460579 2.01188e-06
0.00462476 2.00858e-06
0.00466811 2.00419e-06
0.00470519 1.9986e-06
0.00477673 1.98987e-06
0.0047792 1.98966e-06
0.00484021 1.9823e-06
0.00486426 1.98066e-06
0.00492904 1.97313e-06
0.00495334 1.96909e-06
0.00502784 1.96108e-06
0.00503992 1.95924e-06
0.00510585 1.95189e-06
0.00512861 1.95026e-06
0.00520636 1.94089e-06
0.00521795 1.94014e-06
0.00530312 1.93082e-06
0.00530884 1.92995e-06
0.00538422 1.92226e-06
0.0054091 1.91857e-06
0.00546139 1.91377e-06
0.00550481 1.90797e-06
0.00553473 1.90549e-06
0.00559607 1.89807e-06
0.00560438 1.89744e-06
0.005683 1.88886e-06
0.00573736 1.88379e-06
0.00576573 1.88024e-06
0.00584438 1.87219e-06
0.0058563 1.87127e-06
0.00591909 1.8647e-06
0.00596239 1.86084e-06
0.00598999 1.85769e-06
0.00605679 1.8528e-06
0.00612524 1.84462e-06
0.00614062 1.84369e-06
0.00621492 1.83711e-06
0.00624608 1.83327e-06
0.00634712 1.82419e-06
0.00635377 1.82337e-06
0.00644811 1.81493e-06
0.00644953 1.81477e-06
0.00653449 1.8073e-06
0.00660262 1.803e-06
0.00668588 1.79426e-06
0.00676083 1.78877e-06
0.00680173 1.78453e-06
0.00688992 1.77726e-06
0.00691831 1.77571e-06
0.00702437 1.76643e-06
0.00706928 1.76387e-06
0.00716143 1.75565e-06
0.0072138 1.75258e-06
0.00731771 1.7428e-06
0.00735197 1.74091e-06
0.00746731 1.73083e-06
0.00748391 1.72996e-06
0.00760975 1.71974e-06
0.00761034 1.71968e-06
0.00772965 1.71103e-06
0.00774691 1.7093e-06
0.00784377 1.70273e-06
0.00787718 1.69963e-06
0.00795229 1.69485e-06
0.00800129 1.69061e-06
0.00805538 1.68737e-06
0.00811942 1.6822e-06
0.00815325 1.68029e-06
0.00823175 1.67436e-06
0.00833847 1.66702e-06
0.00833997 1.66694e-06
0.00843978 1.6602e-06
0.00850685 1.65708e-06
0.00863305 1.64744e-06
0.00865561 1.64649e-06
0.00878791 1.63793e-06
0.0088058 1.63636e-06
0.00890533 1.63092e-06
0.00895979 1.62675e-06
0.00909673 1.61836e-06
0.0091146 1.61753e-06
0.00921828 1.61107e-06
0.00927477 1.6089e-06
0.00939674 1.60149e-06
0.0094349 1.59838e-06
0.00958272 1.59028e-06
0.0096007 1.58893e-06
0.00972696 1.58189e-06
0.00977237 1.58014e-06
0.00991947 1.57137e-06
0.00999281 1.56841e-06
0.0101158 1.56091e-06
0.010204 1.55631e-06
0.0102366 1.5542e-06
0.010406 1.5462e-06
0.0104748 1.54131e-06
0.010599 1.53601e-06
0.0107032 1.52931e-06
0.0107832 1.52622e-06
0.0109218 1.51815e-06
0.0109589 1.51685e-06
0.0111261 1.50807e-06
0.0111308 1.50776e-06
0.0112852 1.50085e-06
0.0113303 1.49809e-06
0.0114364 1.49378e-06
0.0115206 1.48908e-06
0.01158 1.48688e-06
0.011702 1.48069e-06
0.0118541 1.474e-06
0.0118746 1.47284e-06
0.0120387 1.46554e-06
0.0120993 1.46329e-06
0.0121946 1.45873e-06
0.012318 1.45362e-06
0.0123426 1.45236e-06
0.0125126 1.44647e-06
0.012625 1.44051e-06
0.0126854 1.43875e-06
0.0128386 1.43231e-06
0.0128774 1.43022e-06
0.0131024 1.42127e-06
0.0131111 1.42103e-06
0.0133024 1.41349e-06
0.0133192 1.413e-06
0.0134775 1.40684e-06
0.01348 1.40672e-06
0.0137184 1.39883e-06
0.0137964 1.39495e-06
0.0139637 1.38952e-06
0.0140386 1.38618e-06
0.0141457 1.38278e-06
0.0142231 1.37964e-06
0.0143243 1.37696e-06
0.0144995 1.3701e-06
0.0145043 1.36987e-06
0.0146713 1.36513e-06
0.0147911 1.3602e-06
0.0150098 1.35266e-06
0.0150163 1.35238e-06
0.0152377 1.34487e-06
0.0153343 1.34211e-06
0.0154553 1.33762e-06
0.0156449 1.3316e-06
0.0156691 1.33063e-06
0.0158791 1.32391e-06
0.0159418 1.32225e-06
0.0160851 1.31743e-06
0.0162252 1.31339e-06
0.0162873 1.31117e-06
0.0164855 1.30513e-06
0.0164955 1.30489e-06
0.0166799 1.29932e-06
0.016753 1.2979e-06
0.0169981 1.29069e-06
0.017063 1.28813e-06
0.0172311 1.28438e-06
0.0174302 1.27772e-06
0.0174524 1.27731e-06
0.0176625 1.27212e-06
0.0177816 1.26805e-06
0.0180632 1.26091e-06
0.0181175 1.25904e-06
0.0184213 1.25122e-06
0.0184381 1.25065e-06
0.0187405 1.24295e-06
0.0187439 1.24283e-06
0.0190243 1.2359e-06
0.0190351 1.23556e-06
0.0192761 1.22986e-06
0.0193123 1.22878e-06
0.0195758 1.22246e-06
0.0197249 1.21926e-06
0.0198261 1.21655e-06
0.0200636 1.21103e-06
0.0200683 1.21097e-06
0.0203298 1.20603e-06
0.0205167 1.20079e-06
0.0207284 1.19692e-06
0.0209216 1.19188e-06
0.0211349 1.18789e-06
0.0212824 1.18414e-06
0.021534 1.17916e-06
0.0216032 1.1774e-06
0.0218879 1.17154e-06
0.0219278 1.17104e-06
0.0223162 1.1635e-06
0.0223951 1.16135e-06
0.0226991 1.15582e-06
0.0227832 1.15377e-06
0.0230762 1.14817e-06
0.0230787 1.14811e-06
0.0234475 1.14166e-06
0.0235291 1.13969e-06
0.0238129 1.13522e-06
0.0239883 1.13132e-06
0.0241723 1.12878e-06
0.0245136 1.12167e-06
0.0245256 1.12153e-06
0.0248729 1.11601e-06
0.0250334 1.11241e-06
0.025214 1.11001e-06
0.0255475 1.10349e-06
0.0255488 1.10348e-06
0.0258775 1.09863e-06
0.0260556 1.09494e-06
0.0261999 1.09314e-06
0.026516 1.0876e-06
0.0265575 1.08671e-06
0.026826 1.08307e-06
0.0270528 1.07881e-06
0.0274368 1.07323e-06
0.0275416 1.07119e-06
0.028022 1.06389e-06
0.0280234 1.06387e-06
0.0284982 1.05683e-06
0.0285821 1.05589e-06
0.0289659 1.05005e-06
0.0291172 1.0483e-06
0.0294263 1.04352e-06
0.0296281 1.04114e-06
0.0298793 1.03724e-06
0.0301151 1.03443e-06
0.0303247 1.03119e-06
0.030579 1.02816e-06
0.0307626 1.02536e-06
0.0310203 1.02232e-06
0.0311928 1.01974e-06
0.0314399 1.01689e-06
0.0316153 1.01433e-06
0.0318384 1.01182e-06
0.03203 1.00912e-06
0.0322165 1.00709e-06
0.032437 1.0041e-06
0.0328362 9.9925e-07
0.0329378 9.98221e-07
0.0332276 9.94582e-07
0.0335821 9.91362e-07
0.0339993 9.85592e-07
0.0341562 9.84347e-07
0.0346665 9.7834e-07
0.034739 9.77236e-07
0.0351194 9.7376e-07
0.0354471 9.69481e-07
0.0359261 9.64865e-07
0.036124 9.6225e-07
0.0365433 9.5837e-07
0.0367704 9.55523e-07
0.0370131 9.53498e-07
0.0373869 9.49268e-07
0.0377292 9.46256e-07
0.0379742 9.43435e-07
0.0384592 9.38875e-07
0.0385332 9.37994e-07
0.0390647 9.32929e-07
0.0392137 9.31754e-07
0.0395697 9.28205e-07
0.0399587 9.24764e-07
0.040049 9.23791e-07
0.0406939 9.1869e-07
0.0409634 9.15583e-07
0.0414191 9.12226e-07
0.0417807 9.08458e-07
0.0421339 9.05928e-07
0.0425092 9.02269e-07
0.0428382 8.99894e-07
0.043157 8.96888e-07
0.0435316 8.94083e-07
0.0437319 8.92205e-07
0.0442141 8.88384e-07
0.0442412 8.88125e-07
0.0448855 8.83612e-07
0.0451469 8.81039e-07
0.0455456 8.78341e-07
0.0458383 8.7576e-07
0.0461943 8.73821e-07
0.0468316 8.68553e-07
0.0468953 8.67897e-07
0.0474574 8.6464e-07
0.0479767 8.60108e-07
0.0480715 8.59577e-07
0.0486335 8.55494e-07
0.0486741 8.55274e-07
0.049265 8.51161e-07
0.0492783 8.51048e-07
0.0498443 8.4731e-07
0.0499112 8.46766e-07
0.0505321 8.42646e-07
0.0509861 8.39827e-07
0.0511409 8.38658e-07
0.0517376 8.34823e-07
0.0520803 8.33271e-07
0.0529138 8.27432e-07
0.0531274 8.26518e-07
0.0540406 8.20561e-07
0.0541283 8.20207e-07
0.0550836 8.14454e-07
0.0551189 8.14174e-07
0.0559946 8.09376e-07
0.0561493 8.08234e-07
0.0568623 8.04565e-07
0.0571328 8.02704e-07
0.057688 8.00013e-07
0.0580704 7.97553e-07
0.058473 7.9571e-07
0.0589634 7.92753e-07
0.0592186 7.91647e-07
0.0598131 7.88279e-07
0.0599262 7.87813e-07
0.0606208 7.84117e-07
0.0612759 7.80895e-07
0.0613879 7.8022e-07
0.0621159 7.76595e-07
0.0624818 7.75322e-07
0.0635042 7.6983e-07
0.0635564 7.69663e-07
0.0645118 7.65375e-07
0.0647444 7.63966e-07
0.0653596 7.61507e-07
0.0658494 7.58876e-07
0.0668317 7.54438e-07
0.0668701 7.54304e-07
0.0677033 7.50585e-07
0.0680259 7.49632e-07
0.0689058 7.4587e-07
0.069256 7.43886e-07
0.070247 7.39931e-07
0.0704438 7.38897e-07
0.0713481 7.35181e-07
0.0716143 7.34399e-07
0.0724957 7.3083e-07
0.0727262 7.29639e-07
0.0733599 7.27623e-07
0.074131 7.2415e-07
0.0750638 7.21289e-07
0.0757487 7.18201e-07
0.076697 7.15297e-07
0.0772973 7.12669e-07
0.0782604 7.09724e-07
0.0787778 7.07521e-07
0.0797551 7.04539e-07
0.0801916 7.02728e-07
0.0811822 6.99713e-07
0.08154 6.98265e-07
0.0825434 6.9522e-07
0.0828247 6.94106e-07
0.0838402 6.91033e-07
0.0840475 6.9023e-07
0.0850744 6.87131e-07
0.0852103 6.86615e-07
0.086248 6.83494e-07
0.086315 6.83243e-07
0.0873629 6.80102e-07
0.0873637 6.80099e-07
0.0884213 6.77612e-07
0.0893644 6.7425e-07
0.0904403 6.71628e-07
0.0911526 6.69163e-07
0.0922448 6.66436e-07
0.0927466 6.64744e-07
0.0938532 6.61926e-07
0.0941642 6.60902e-07
0.0952836 6.58005e-07
0.0954223 6.57556e-07
0.096553 6.55248e-07
0.0976647 6.51756e-07
0.0988153 6.49156e-07
0.099381 6.47428e-07
0.100547 6.44623e-07
0.100688 6.44201e-07
0.101865 6.41781e-07
0.102681 6.39401e-07
0.103875 6.37009e-07
0.104713 6.34631e-07
0.105925 6.32212e-07
0.106231 6.31424e-07
0.107461 6.28978e-07
0.107674 6.28439e-07
0.108921 6.2596e-07
0.109044 6.25651e-07
0.110307 6.23143e-07
0.110345 6.2305e-07
0.111623 6.21085e-07
0.112826 6.1821e-07
0.114132 6.16113e-07
0.115042 6.13999e-07
0.116374 6.11794e-07
0.117017 6.10335e-07
0.118372 6.0804e-07
0.118773 6.07148e-07
0.120149 6.04771e-07
0.120331 6.04374e-07
0.121725 6.02496e-07
0.123107 5.99559e-07
0.124533 5.97407e-07
0.125231 5.95962e-07
0.126682 5.93619e-07
0.126848 5.93278e-07
0.128317 5.91264e-07
0.129313 5.89286e-07
0.13081 5.87279e-07
0.131826 5.85317e-07
0.133352 5.83229e-07
0.133448 5.83063e-07
0.134993 5.81497e-07
0.136544 5.78887e-07
0.138125 5.77191e-07
0.139312 5.75247e-07
0.140925 5.73449e-07
0.14178 5.7208e-07
0.143422 5.70193e-07
0.143976 5.69325e-07
0.145643 5.67358e-07
0.145924 5.66923e-07
0.147614 5.65427e-07
0.149398 5.62755e-07
0.151128 5.60999e-07
0.152058 5.59643e-07
0.153819 5.57699e-07
0.154084 5.5732e-07
0.155868 5.55684e-07
0.157173 5.53861e-07
0.158993 5.52229e-07
0.160325 5.50418e-07
0.162181 5.48696e-07
0.162298 5.48556e-07
0.165959 5.45242e-07
0.166063 5.45096e-07
0.169336 5.42215e-07
0.16943 5.4209e-07
0.172348 5.39574e-07
0.172431 5.39468e-07
0.175027 5.37276e-07
0.175101 5.37188e-07
0.177406 5.35272e-07
0.177471 5.352e-07
0.181646 5.31804e-07
0.181696 5.31738e-07
0.184892 5.292e-07
0.184931 5.29157e-07
0.187365 5.27259e-07
0.187395 5.27229e-07
0.191137 5.24368e-07
0.191152 5.24351e-07
0.194985 5.21488e-07
0.198381 5.1944e-07
0.201401 5.17654e-07
0.204082 5.16097e-07
0.208859 5.13384e-07
0.212515 5.11359e-07
0.215299 5.09844e-07
0.219544 5.07583e-07
0.223872 5.05329e-07
0.227772 5.03806e-07
0.23124 5.02478e-07
0.234318 5.01318e-07
0.239802 4.99293e-07
0.244 4.97782e-07
0.247197 4.96652e-07
0.25207 4.94959e-07
0.25704 4.93272e-07
0.261141 4.92351e-07
0.264783 4.91546e-07
0.27128 4.90139e-07
0.276257 4.89088e-07
0.28005 4.88301e-07
0.285836 4.87122e-07
0.291743 4.85947e-07
0.295972 4.85574e-07
0.30352 4.84919e-07
0.309308 4.8443e-07
0.313721 4.84061e-07
0.320458 4.83512e-07
0.327341 4.82961e-07
0.331608 4.83517e-07
0.335931 4.83128e-07
0.33921 4.83454e-07
0.342521 4.83251e-07
0.345026 4.83444e-07
0.347549 4.83346e-07
0.353937 4.83645e-07
0.355229 4.83481e-07
0.363078 4.83613e-07
0.372606 4.84653e-07
0.379916 4.85433e-07
0.385492 4.86018e-07
0.39401 4.86898e-07
0.402717 4.87779e-07
0.412098 4.89536e-07
0.419276 4.90857e-07
0.430279 4.92846e-07
0.44157 4.94843e-07
0.451856 4.97489e-07
0.459727 4.99483e-07
0.471791 5.02488e-07
0.484172 5.05512e-07
0.49545 5.09187e-07
0.504081 5.11962e-07
0.517309 5.16152e-07
0.530884 5.20374e-07
0.541689 5.2471e-07
0.54325 5.25169e-07
0.549936 5.27883e-07
0.552713 5.28795e-07
0.562544 5.32878e-07
0.567218 5.34276e-07
0.57544 5.37755e-07
0.582103 5.3982e-07
0.587151 5.42293e-07
0.59395 5.45064e-07
0.596091 5.46101e-07
0.602993 5.4903e-07
0.609756 5.52281e-07
0.616817 5.55032e-07
0.623735 5.58319e-07
0.630957 5.61108e-07
0.636429 5.64047e-07
0.643799 5.67455e-07
0.655956 5.73921e-07
0.663552 5.77112e-07
0.676083 5.83686e-07
0.683912 5.86933e-07
0.689843 5.90416e-07
0.697831 5.94568e-07
0.711009 6.02243e-07
0.719242 6.06195e-07
0.732824 6.14025e-07
0.74131 6.18065e-07
0.747739 6.22374e-07
0.756397 6.27658e-07
0.770682 6.37188e-07
0.779606 6.42332e-07
0.794328 6.52075e-07
0.803526 6.57346e-07
0.812831 6.64088e-07
0.824613 6.71771e-07
0.82699 6.73502e-07
0.84079 6.82803e-07
0.848692 6.88598e-07
0.865653 6.99687e-07
0.870964 7.03612e-07
0.891251 7.17007e-07
0.891892 7.175e-07
0.908082 7.29072e-07
0.91197 7.31985e-07
0.924149 7.40566e-07
0.931203 7.46057e-07
0.949602 7.59112e-07
0.955046 7.62605e-07
0.967181 7.71743e-07
0.982927 7.82435e-07
1.00102 7.95585e-07
1.00799 8.00197e-07
1.03044 8.16068e-07
1.03161 8.1694e-07
1.0505 8.30223e-07
1.05913 8.36852e-07
1.08382 8.53879e-07
1.08654 8.55575e-07
1.10589 8.69525e-07
1.11438 8.75104e-07
1.13573 8.90041e-07
1.1456 8.97416e-07
1.16853 9.12916e-07
1.17632 9.18764e-07
1.1999 9.34899e-07
1.20226 9.36383e-07
1.22673 9.54522e-07
1.23615 9.61994e-07
1.26437 9.82378e-07
1.2735 9.89621e-07
1.29942 1.00855e-06
1.30317 1.01107e-06
1.32969 1.03244e-06
1.33929 1.04065e-06
1.37049 1.06533e-06
1.38038 1.07381e-06
1.41254 1.0993e-06
1.42889 1.11456e-06
1.46218 1.1434e-06
1.47911 1.15928e-06
1.51356 1.18932e-06
1.5223 1.19832e-06
1.55776 1.23313e-06
1.56675 1.24245e-06
1.60325 1.27859e-06
1.6125 1.28908e-06
1.65959 1.34006e-06
1.65959 1.34006e-06
1.69824 1.38351e-06
1.71791 1.40457e-06
1.7378 1.42973e-06
1.77828 1.47933e-06
1.7937 1.49925e-06
1.84077 1.5581e-06
1.84409 1.56252e-06
1.88908 1.6211e-06
1.88933 1.62145e-06
1.9712 1.73055e-06
1.97669 1.73754e-06
2.03493 1.81696e-06
2.04505 1.83033e-06
2.08407 1.88446e-06
2.09786 1.90316e-06
2.16001 1.99105e-06
2.17966 2.01787e-06
2.23872 2.10329e-06
2.26464 2.13952e-06
2.31073 2.20996e-06
2.33749 2.24989e-06
2.42312 2.38391e-06
2.45118 2.42625e-06
2.54097 2.57076e-06
2.5704 2.61642e-06
2.63027 2.71851e-06
2.66072 2.76932e-06
2.69929 2.83637e-06
2.73055 2.88984e-06
2.80624 3.02424e-06
2.83874 3.08051e-06
2.91743 3.2238e-06
2.95121 3.28383e-06
3.02866 3.43244e-06
3.06373 3.4984e-06
3.11485 3.59878e-06
3.15092 3.66856e-06
3.24877 3.86538e-06
3.28639 3.93935e-06
3.38844 4.15072e-06
3.42768 4.23022e-06
3.53195 4.45901e-06
3.5789 4.56006e-06
3.64356 4.706e-06
3.69669 4.82426e-06
3.81762 5.10584e-06
3.88067 5.24951e-06
4 5.53774e-06
4.0738 5.71231e-06
4.18355 5.99347e-06
4.26579 6.20076e-06
4.32672 6.36184e-06
4.4157 6.5944e-06
4.55071 6.96392e-06
4.6505 7.23211e-06
4.7863 7.61932e-06
4.89779 7.9316e-06
5.04081 8.36519e-06
5.15822 8.71601e-06
5.24053 8.97489e-06
5.36259 9.3548e-06
5.3955 9.46119e-06
5.52117 9.86455e-06
5.63658 1.02492e-05
5.76787 1.06816e-05
5.88844 1.10981e-05
6.0256 1.15664e-05
6.06038 1.16926e-05
6.21048 1.22339e-05
6.37346 1.28472e-05
6.54777 1.34958e-05
6.61883 1.3774e-05
6.81272 1.45271e-05
7.00472 1.52971e-05
7.01844 1.53517e-05
7.33872 1.66776e-05
7.4131 1.69997e-05
7.65156 1.80242e-05
7.67361 1.81182e-05
7.92045 1.9234e-05
8.08747 2.0023e-05
8.37168 2.13542e-05
8.43062 2.16447e-05
8.6975 2.29533e-05
8.72689 2.30965e-05
9.00315 2.4496e-05
9.11375 2.50789e-05
9.43403 2.67556e-05
9.54993 2.73924e-05
9.88553 2.92239e-05
9.89977 2.93059e-05
10.2164 3.11247e-05
10.2298 3.12016e-05
10.5409 3.30417e-05
10.795 3.46078e-05
11.1082 3.65263e-05
11.2504 3.74394e-05
11.5536 3.93787e-05
11.6045 3.97211e-05
12.1566 4.34235e-05
12.2555 4.4081e-05
12.735 4.7481e-05
13 4.93451e-05
13.3352 5.18676e-05
13.6168 5.39781e-05
13.8835 5.6068e-05
14.1805 5.8387e-05
14.3818 6.00212e-05
14.6928 6.25395e-05
14.8324 6.37084e-05
15.1562 6.6415e-05
15.6552 7.07668e-05
16.0027 7.37827e-05
16.3021 7.65119e-05
16.6684 7.98404e-05
16.8048 8.1125e-05
17.1859 8.47079e-05
17.588 8.86366e-05
17.9923 9.25714e-05
18.4077 9.6808e-05
18.8365 0.000101165
19.2475 0.000105586
19.7242 0.000110702
20.0137 0.000113947
20.5353 0.000119781
20.7091 0.000121802
21.2722 0.000128336
21.9387 0.000136319
21.9847 0.000136894
22.9928 0.000149479
23.1557 0.000151505
23.779 0.000159648
24.1126 0.000163997
25.009 0.000176299
25.6225 0.000184687
26.3027 0.000194582
27.227 0.000207991
27.8612 0.000217827
28.8819 0.000233631
29.3005 0.00024048
30.4121 0.000258646
30.6207 0.000262222
31.8175 0.000282721
31.8246 0.000282849
32.9168 0.00030235
33.1004 0.000305621
34.2652 0.000327175
34.9192 0.00033986
36.4033 0.000368611
36.5004 0.000370593
37.7332 0.000395753
38.0939 0.0004031
39.4132 0.000431067
39.6608 0.000436541
41.4783 0.000476698
41.6869 0.000481545
43.5261 0.000524258
43.6516 0.000527163
45.324 0.000568091
45.5774 0.000574287
47.0769 0.000612522
47.46 0.000622284
48.7817 0.000657312
49.2955 0.000670919
50.4361 0.000702256
51.0807 0.00071996
52.0379 0.000747164
52.813 0.00076919
54.4904 0.000818392
55.1798 0.000839529
57.7803 0.000919284
58.0841 0.000929113
60.7505 0.00101543
60.8215 0.00101772
63.1839 0.0010979
63.6136 0.00111246
65.3929 0.0011754
66.1617 0.00120257
68.4748 0.00128739
69.4461 0.00132469
72.6501 0.00144779
72.719 0.00145044
75.1496 0.0015488
76.0739 0.00158616
78.6913 0.00169621
79.0612 0.00171242
82.7873 0.00187577
83.1764 0.00189369
86.846 0.00206284
87.0964 0.00207435
90.4333 0.00223609
90.939 0.00226059
93.9307 0.00241173
94.6952 0.00245034
97.3323 0.00258885
98.3575 0.00264268
100.633 0.00276663
101.919 0.0028367
105.376 0.0030315
107.127 0.00313494
112.176 0.00343347
113.152 0.00349458
118.484 0.00382871
118.701 0.00384297
123.779 0.00417774
124.295 0.00421172
128.4 0.00449464
129.613 0.00457814
132.585 0.00479112
134.452 0.00492485
138.834 0.00524966
140.24 0.00535847
146.269 0.00582562
146.849 0.00587047
150.961 0.00620482
153.163 0.00638381
158.076 0.006798
158.282 0.0068161
165.742 0.00747034
165.959 0.00749026
173.306 0.00816566
173.78 0.0082092
180.49 0.00885614
181.474 0.00895099
187.495 0.00955631
188.996 0.00970725
194.308 0.0102626
196.331 0.0104741
200.921 0.0109719
203.466 0.011248
210.39 0.0120254
213.932 0.0124422
224.014 0.0136306
226.006 0.0138791
236.657 0.01521
237.129 0.0152718
247.309 0.0166106
248.304 0.0167415
256.574 0.0178788
258.964 0.0182075
264.966 0.0190659
268.666 0.0195952
277.454 0.0208959
280.318 0.0213384
292.412 0.0232104
293.529 0.023383
301.824 0.0247311
306.193 0.0254412
316.049 0.0271027
316.513 0.027184
331.43 0.0298003
331.917 0.0298899
346.51 0.0325739
347.56 0.0327669
360.772 0.0353093
362.84 0.0357069
374.676 0.0380809
377.775 0.0387021
388.198 0.0408754
392.334 0.0417377
401.317 0.0436803
406.493 0.0448
420.23 0.0478742
427.121 0.0494906
447.251 0.0542185
451.058 0.0551643
472.316 0.0604553
473.1 0.0606608
493.269 0.0659424
495.397 0.066499
511.621 0.0709401
516.516 0.0722794
528.238 0.0756164
535.733 0.0777492
553.134 0.0828743
558.628 0.0845631
582.562 0.0919325
584.955 0.092668
610.017 0.100768
620.399 0.104298
649.637 0.114258
660.693 0.118263
689.945 0.128876
691.831 0.129558
718.543 0.139784
722.461 0.141284
746.43 0.150852
752.407 0.153236
773.556 0.162015
781.608 0.165361
799.881 0.17323
810.013 0.177595
837.579 0.189887
851.68 0.196477
891.819 0.215273
899.749 0.219201
942.153 0.240254
944.029 0.241229
984.561 0.26241
988.523 0.264471
1021.46 0.282483
1030.97 0.287674
1054.87 0.301269
1069.6 0.309637
1104.59 0.330221
1115.99 0.337229
1164.14 0.366855
1168.59 0.369594
1201.61 0.390922
1219.01 0.402156
1258.24 0.42846
1260.08 0.429743
1319.47 0.471178
1321.39 0.472569
1379.9 0.515384
1383.66 0.518125
1437.1 0.559049
1444.93 0.565039
1492.89 0.603327
1504.83 0.612842
1547.15 0.647979
1563.24 0.661301
1599.8 0.692824
1620.06 0.710297
1675.2 0.759464
1703.41 0.785828
1783.68 0.860924
1799.55 0.87665
1884.35 0.960814
1888.11 0.964759
1969.17 1.04945
1977.09 1.05776
2042.95 1.12977
2061.97 1.15057
2109.76 1.20483
2139.22 1.23839
2209.19 1.32069
2231.99 1.34866
2328.28 1.46723
2337.18 1.47812
2403.22 1.56341
2438.01 1.60839
2516.47 1.71342
2520.15 1.71855
2638.93 1.88442
2642.77 1.89007
2759.79 2.06109
2767.32 2.0721
2874.19 2.23567
2889.85 2.25962
2985.74 2.41268
3009.65 2.45083
3094.26 2.59128
3126.46 2.64473
3199.56 2.77064
3240.08 2.84047
3350.35 3.03704
3406.76 3.14247
3567.32 3.44308
3599.04 3.50596
3768.65 3.84262
3776.16 3.85831
3938.28 4.19701
3954.12 4.23005
4085.83 4.51788
4123.88 4.60103
4219.46 4.81829
4278.38 4.95217
4418.32 5.28141
4463.92 5.39343
4656.51 5.86732
4674.29 5.91099
4806.38 6.25219
4875.96 6.43203
5032.9 6.85251
5040.28 6.87309
5277.82 7.53573
5285.55 7.55826
5519.57 8.24273
5534.65 8.28691
5748.36 8.94079
5779.7 9.03666
5971.46 9.64882
6019.27 9.8013
6188.48 10.3629
6252.89 10.5767
6399.09 11.0803
6480.13 11.3594
6700.67 12.1457
6813.48 12.5675
7134.58 13.7694
7198.02 14.0207
7537.25 15.3674
7552.26 15.4301
7876.49 16.7842
7908.19 16.9169
8171.59 18.0678
8247.7 18.4001
8438.86 19.2688
8556.71 19.8049
8836.57 21.1217
8927.77 21.569
9312.96 23.4636
9348.53 23.6387
9612.72 25.0036
9752.1 25.724
10067 27.4127
10081 27.4903
10557 30.1463
10571 30.2275
11040 32.9692
11069 33.1389
11498 35.7645
11560 36.1438
11946 38.6064
12040 39.2055
12380 41.4642
12508 42.3136
12802 44.3399
12964 45.4563
13405 48.5975
13632 50.2952
14274 55.1033
14401 56.1094
15080 61.5009
15110 61.7513
15759 67.1745
15822 67.7021
16349 72.3047
16501 73.6348
16884 77.1205
17120 79.2658
17680 84.5327
17861 86.3123
18631 93.8891
18703 94.5958
19230 100.039
19509 102.92
20136 109.647
20164 109.957
21114 120.557
21142 120.886
22079 131.848
22139 132.546
22995 143.027
23120 144.557
23888 154.348
24079 156.782
24757 165.774
25014 169.19
25600 177.251
25924 181.715
26807 194.315
27259 201.074
28543 220.297
28797 224.321
30154 245.862
30215 246.877
31512 268.548
31638 270.651
32692 289.074
32997 294.405
33762 308.306
34233 316.869
35353 337.943
35717 345.091
37257 375.39
37400 378.196
38456 400.015
39013 411.522
40268 438.417
40325 439.685
42225 482.05
42284 483.431
44157 527.237
44277 530.036
45989 571.925
46238 578.023
47774 617.216
48156 626.97
49511 662.926
50026 676.604
51197 708.84
51844 726.649
53609 776.982
54512 803.951
57081 880.856
57589 896.944
60303 983.094
60423 987.1
63018 1073.77
63271 1082.22
65379 1155.86
65987 1177.12
67517 1232.72
68459 1266.94
70699 1351.21
71428 1379.85
74509 1501.03
74794 1512.25
76906 1599.48
78020 1645.49
80531 1753.08
80647 1758.25
84448 1927.76
84569 1933.4
88188 2102.61
88554 2119.73
93909 2384.15
94104 2393.78
100000 2703
