0.000115 97098 756 0
0.000115 0
0.000115 4.22932e-06
0.000116668 4.15871e-06
0.00011836 4.08928e-06
0.0001197 4.03581e-06
0.000121619 3.99443e-06
0.0001233 3.98275e-06
0.0001255 3.9934e-06
0.0001285 4.04121e-06
0.000131826 4.12377e-06
0.000136458 4.27056e-06
0.000140039 4.39831e-06
0.000142787 4.49663e-06
0.000147009 4.64824e-06
0.000151356 4.80497e-06
0.000154882 4.91879e-06
0.000158489 5.03533e-06
0.000162181 5.13804e-06
0.000165959 5.24285e-06
0.000169824 5.33332e-06
0.00017378 5.42534e-06
0.000179302 5.53128e-06
0.000185 5.63929e-06
0.000189618 5.71143e-06
0.000193156 5.76614e-06
0.000198589 5.84919e-06
0.000204174 5.93344e-06
0.000209231 6.00185e-06
0.000213758 6.06237e-06
0.000217799 6.11581e-06
0.000221398 6.16296e-06
0.00022784 6.24635e-06
0.000232795 6.30964e-06
0.000236581 6.35752e-06
0.000242376 6.43003e-06
0.000248313 6.50336e-06
0.00025483 6.57292e-06
0.000259829 6.62557e-06
0.000267512 6.70535e-06
0.000275423 6.78608e-06
0.000280221 6.82678e-06
0.000284487 6.86258e-06
0.00029211 6.92569e-06
0.000297962 6.9734e-06
0.000302427 7.00941e-06
0.00030925 7.06376e-06
0.000316228 7.11853e-06
0.000324526 7.17475e-06
0.000331966 7.22431e-06
0.000338616 7.26796e-06
0.000344543 7.30636e-06
0.000349815 7.34013e-06
0.000359235 7.39961e-06
0.000366466 7.44453e-06
0.000371985 7.4784e-06
0.00038042 7.5295e-06
0.000389045 7.58094e-06
0.000395822 7.6145e-06
0.000401849 7.64398e-06
0.000412617 7.69587e-06
0.000420882 7.735e-06
0.000427189 7.76448e-06
0.000436828 7.80892e-06
0.000446684 7.85361e-06
0.000457088 7.89046e-06
0.000466391 7.92285e-06
0.000474686 7.95129e-06
0.000482065 7.97627e-06
0.000495255 8.02017e-06
0.000505384 8.05325e-06
0.000513117 8.07815e-06
0.000524938 8.11564e-06
0.000537032 8.15331e-06
0.000547961 8.17999e-06
0.000557707 8.2034e-06
0.000566377 8.22394e-06
0.000581874 8.26001e-06
0.000593775 8.28717e-06
0.00060286 8.30759e-06
0.000616749 8.33833e-06
0.000630957 8.36918e-06
0.000646584 8.3925e-06
0.000660575 8.41297e-06
0.000673064 8.43091e-06
0.000684187 8.44665e-06
0.000694069 8.46043e-06
0.000711708 8.48463e-06
0.000725231 8.50281e-06
0.000735542 8.51648e-06
0.000751283 8.53702e-06
0.000767361 8.55761e-06
0.000785236 8.57241e-06
0.000801217 8.58539e-06
0.000815467 8.59675e-06
0.000828143 8.60672e-06
0.000839397 8.61544e-06
0.00085946 8.63073e-06
0.000874821 8.64221e-06
0.000886522 8.65084e-06
0.000904367 8.66379e-06
0.000922571 8.67676e-06
0.000946782 8.68502e-06
0.000968487 8.69226e-06
0.000987887 8.6986e-06
0.00100518 8.70416e-06
0.00102056 8.709e-06
0.00103421 8.71325e-06
0.00105854 8.72071e-06
0.00107716 8.7263e-06
0.00109134 8.73051e-06
0.00111296 8.73679e-06
0.00113501 8.74309e-06
0.00114999 8.74276e-06
0.00117862 8.74212e-06
0.00120426 8.74158e-06
0.00122714 8.74108e-06
0.00124752 8.74068e-06
0.00126564 8.74029e-06
0.00129797 8.73965e-06
0.00132276 8.73917e-06
0.00134166 8.73881e-06
0.00137052 8.73827e-06
0.0014 8.73772e-06
0.00141802 8.73295e-06
0.00145244 8.72399e-06
0.00148324 8.71616e-06
0.00151072 8.70931e-06
0.00153518 8.70333e-06
0.00155692 8.69811e-06
0.00159569 8.68896e-06
0.00162541 8.6821e-06
0.00164805 8.67697e-06
0.00168262 8.66928e-06
0.00171791 8.66158e-06
0.00176045 8.64436e-06
0.00179855 8.62932e-06
0.00183255 8.61619e-06
0.00186283 8.60471e-06
0.00188974 8.59469e-06
0.00193777 8.57716e-06
0.00197459 8.56405e-06
0.00200266 8.55422e-06
0.00204552 8.53951e-06
0.0020893 8.52481e-06
0.00214104 8.50037e-06
0.00218737 8.47905e-06
0.00222873 8.46043e-06
0.00226555 8.44418e-06
0.00229828 8.42998e-06
0.0023273 8.41757e-06
0.00237897 8.39591e-06
0.00241848 8.3797e-06
0.00247897 8.35544e-06
0.00254097 8.33125e-06
0.00257595 8.31398e-06
0.00260918 8.29783e-06
0.00267264 8.2676e-06
0.00272944 8.24126e-06
0.00278012 8.21827e-06
0.00282525 8.1982e-06
0.00286533 8.1807e-06
0.00293684 8.15013e-06
0.00299165 8.12729e-06
0.00303342 8.1102e-06
0.00309718 8.08463e-06
0.00316228 8.05915e-06
0.0032406 8.02354e-06
0.00331072 7.99252e-06
0.00337331 7.96546e-06
0.00342906 7.94187e-06
0.00347859 7.92128e-06
0.00352251 7.90332e-06
0.00360072 7.87196e-06
0.00366051 7.84853e-06
0.00370601 7.831e-06
0.00377532 7.80479e-06
0.00384592 7.77866e-06
0.00390447 7.75349e-06
0.00396018 7.72997e-06
0.00401313 7.70799e-06
0.0040634 7.68744e-06
0.00415938 7.64904e-06
0.00424522 7.61561e-06
0.00432178 7.58647e-06
0.0043899 7.56107e-06
0.00445039 7.53891e-06
0.00455825 7.50029e-06
0.00464086 7.47145e-06
0.0047038 7.4499e-06
0.00479982 7.41769e-06
0.00489779 7.38561e-06
0.00497594 7.35697e-06
0.00505034 7.33021e-06
0.00512109 7.30522e-06
0.00518833 7.28187e-06
0.00525216 7.26004e-06
0.00537398 7.21929e-06
0.00548288 7.18383e-06
0.00557998 7.15294e-06
0.00566635 7.12601e-06
0.00574303 7.10255e-06
0.00587971 7.06165e-06
0.00598435 7.03114e-06
0.00606405 7.00835e-06
0.00618559 6.97429e-06
0.00630957 6.94039e-06
0.00641948 6.90765e-06
0.00652426 6.87709e-06
0.00662404 6.84857e-06
0.00671897 6.82193e-06
0.0068092 6.79706e-06
0.0068949 6.77382e-06
0.00705849 6.73046e-06
0.00720482 6.69275e-06
0.00733534 6.65993e-06
0.00745148 6.63134e-06
0.00755461 6.60642e-06
0.00764602 6.5847e-06
0.00780867 6.54686e-06
0.00793291 6.51862e-06
0.008123 6.47649e-06
0.00831764 6.43463e-06
0.00847471 6.39845e-06
0.00862466 6.36473e-06
0.00876765 6.33327e-06
0.00890386 6.30392e-06
0.00903347 6.27652e-06
0.00915669 6.25095e-06
0.00927374 6.22707e-06
0.00938483 6.20476e-06
0.00959673 6.16316e-06
0.00978606 6.12698e-06
0.00995478 6.0955e-06
0.0101048 6.06809e-06
0.0102379 6.0442e-06
0.0104751 6.00262e-06
0.0106566 5.97164e-06
0.0107948 5.9485e-06
0.0110054 5.91396e-06
0.0112202 5.87962e-06
0.0114568 5.83969e-06
0.0116831 5.80251e-06
0.0118994 5.76786e-06
0.0121057 5.73557e-06
0.0123024 5.70545e-06
0.0124898 5.67737e-06
0.012668 5.65117e-06
0.0128374 5.62671e-06
0.0129982 5.60387e-06
0.0133052 5.56132e-06
0.0135798 5.52433e-06
0.0138248 5.49219e-06
0.0140427 5.4642e-06
0.0142362 5.43984e-06
0.0144077 5.41861e-06
0.0147128 5.38166e-06
0.0149459 5.35411e-06
0.0151231 5.33353e-06
0.0153929 5.30282e-06
0.0156675 5.2723e-06
0.0158546 5.25051e-06
0.0162236 5.20857e-06
0.0165772 5.16955e-06
0.0169158 5.13324e-06
0.0172395 5.09942e-06
0.0175486 5.06793e-06
0.0178434 5.03857e-06
0.0181242 5.01121e-06
0.0183915 4.98569e-06
0.0186457 4.96189e-06
0.0188872 4.93967e-06
0.0191165 4.91893e-06
0.0195538 4.88029e-06
0.0199447 4.84673e-06
0.0202931 4.81755e-06
0.020603 4.79215e-06
0.020878 4.77005e-06
0.0213682 4.73161e-06
0.0217433 4.70298e-06
0.022029 4.68163e-06
0.0224645 4.64978e-06
0.0229087 4.61814e-06
0.0232491 4.59322e-06
0.0235837 4.5692e-06
0.0239125 4.54605e-06
0.0242353 4.52374e-06
0.0245522 4.50223e-06
0.0248632 4.48149e-06
0.0251682 4.46149e-06
0.0254672 4.44219e-06
0.0260568 4.40506e-06
0.0266218 4.37052e-06
0.0271627 4.33839e-06
0.0276797 4.30848e-06
0.0281734 4.28063e-06
0.0286442 4.25468e-06
0.0290927 4.2305e-06
0.0295196 4.20795e-06
0.0299255 4.18692e-06
0.0303111 4.1673e-06
0.0306771 4.14899e-06
0.0313752 4.11488e-06
0.0319992 4.08526e-06
0.0325553 4.05952e-06
0.0330498 4.03713e-06
0.0334886 4.01763e-06
0.0342707 3.98375e-06
0.0348692 3.95853e-06
0.035325 3.93971e-06
0.0360198 3.91166e-06
0.0367282 3.88381e-06
0.0375297 3.85243e-06
0.0383228 3.82228e-06
0.0391071 3.7933e-06
0.0398821 3.76543e-06
0.0406477 3.73862e-06
0.0414032 3.71284e-06
0.0421486 3.68803e-06
0.0428835 3.66415e-06
0.0436076 3.64117e-06
0.0443207 3.61905e-06
0.0450227 3.59774e-06
0.0457134 3.57722e-06
0.0463926 3.55745e-06
0.0470601 3.53841e-06
0.047716 3.52005e-06
0.0483601 3.50236e-06
0.0489923 3.48531e-06
0.0496127 3.46887e-06
0.0502211 3.45302e-06
0.0508177 3.43773e-06
0.0519938 3.4083e-06
0.0531211 3.38095e-06
0.0542002 3.35549e-06
0.0552317 3.33181e-06
0.0562165 3.30976e-06
0.0571557 3.28922e-06
0.0580505 3.27007e-06
0.0589021 3.25223e-06
0.0597118 3.23559e-06
0.060481 3.22006e-06
0.0612111 3.20558e-06
0.0626039 3.17859e-06
0.0638486 3.15517e-06
0.0649579 3.13481e-06
0.0659445 3.11711e-06
0.0668199 3.1017e-06
0.0683801 3.07492e-06
0.069574 3.05498e-06
0.0704831 3.04011e-06
0.0718692 3.01795e-06
0.0732824 2.99595e-06
0.0747739 2.97408e-06
0.0761997 2.95372e-06
0.077561 2.93476e-06
0.0788594 2.91709e-06
0.0800963 2.90063e-06
0.0812736 2.88528e-06
0.0823929 2.87096e-06
0.0834563 2.8576e-06
0.0844658 2.84514e-06
0.0863914 2.82191e-06
0.0881124 2.80174e-06
0.0896463 2.78421e-06
0.0910103 2.76896e-06
0.0922209 2.75568e-06
0.0943783 2.73261e-06
0.0960294 2.71543e-06
0.0972866 2.70261e-06
0.0992034 2.6835e-06
0.101158 2.66453e-06
0.103068 2.64784e-06
0.104892 2.6323e-06
0.106631 2.61781e-06
0.108287 2.6043e-06
0.109864 2.59169e-06
0.111362 2.57993e-06
0.112786 2.56895e-06
0.114137 2.5587e-06
0.116714 2.53959e-06
0.119017 2.52299e-06
0.121069 2.50855e-06
0.122893 2.49598e-06
0.124512 2.48504e-06
0.127397 2.46601e-06
0.129604 2.45182e-06
0.131285 2.44125e-06
0.133847 2.42546e-06
0.136458 2.40977e-06
0.139637 2.3931e-06
0.142479 2.37861e-06
0.145013 2.36601e-06
0.147267 2.35503e-06
0.149268 2.34547e-06
0.152836 2.32882e-06
0.155568 2.31642e-06
0.157648 2.30716e-06
0.160822 2.29334e-06
0.164059 2.2796e-06
0.167398 2.26769e-06
0.170375 2.25732e-06
0.173024 2.24828e-06
0.175375 2.2404e-06
0.179567 2.22668e-06
0.182776 2.21644e-06
0.185221 2.20879e-06
0.188949 2.19737e-06
0.192752 2.18601e-06
0.196675 2.17646e-06
0.200173 2.16812e-06
0.203285 2.16087e-06
0.206047 2.15453e-06
0.210972 2.14349e-06
0.214743 2.13525e-06
0.217615 2.12909e-06
0.221996 2.11988e-06
0.226464 2.11071e-06
0.230078 2.1052e-06
0.233287 2.1004e-06
0.239011 2.09202e-06
0.243396 2.08576e-06
0.246737 2.08107e-06
0.251836 2.07406e-06
0.25704 2.06709e-06
0.261141 2.06357e-06
0.264783 2.0605e-06
0.27128 2.05514e-06
0.276257 2.05114e-06
0.28005 2.04814e-06
0.285836 2.04365e-06
0.291743 2.03916e-06
0.295972 2.03782e-06
0.30352 2.03548e-06
0.309308 2.03372e-06
0.313721 2.03241e-06
0.320458 2.03043e-06
0.327341 2.02846e-06
0.335931 2.02949e-06
0.342521 2.03027e-06
0.347549 2.03085e-06
0.355229 2.03172e-06
0.363078 2.03259e-06
0.372606 2.03733e-06
0.379916 2.04089e-06
0.385492 2.04356e-06
0.39401 2.04758e-06
0.402717 2.0516e-06
0.412098 2.05933e-06
0.419276 2.06515e-06
0.430279 2.07391e-06
0.44157 2.08271e-06
0.451856 2.09411e-06
0.459727 2.1027e-06
0.471791 2.11566e-06
0.484172 2.1287e-06
0.49545 2.14428e-06
0.504081 2.15605e-06
0.517309 2.17382e-06
0.530884 2.19175e-06
0.54325 2.21206e-06
0.552713 2.22741e-06
0.567218 2.25065e-06
0.582103 2.27414e-06
0.59395 2.29634e-06
0.602993 2.31316e-06
0.616817 2.33859e-06
0.630957 2.3643e-06
0.643799 2.39136e-06
0.663552 2.43254e-06
0.683912 2.47442e-06
0.697831 2.50682e-06
0.719242 2.55623e-06
0.74131 2.60661e-06
0.756397 2.64505e-06
0.779606 2.7038e-06
0.803526 2.76385e-06
0.822243 2.81739e-06
0.836566 2.85823e-06
0.858519 2.9206e-06
0.881049 2.98432e-06
0.912011 3.07878e-06
0.935944 3.15158e-06
0.954305 3.20731e-06
0.982525 3.29275e-06
1.01158 3.38047e-06
1.03217 3.44463e-06
1.06921 3.55983e-06
1.09786 3.64876e-06
1.11985 3.71691e-06
1.15367 3.82153e-06
1.1885 3.9291e-06
1.21619 4.02082e-06
1.25893 4.16241e-06
1.30317 4.30901e-06
1.34896 4.47309e-06
1.39637 4.64343e-06
1.44726 4.84229e-06
1.5 5.04968e-06
1.55076 5.27028e-06
1.60325 5.50059e-06
1.66917 5.81536e-06
1.7378 6.14817e-06
1.80926 6.52261e-06
1.88365 6.91983e-06
1.96675 7.38917e-06
2.03148 7.76193e-06
2.08142 8.05379e-06
2.15864 8.5123e-06
2.23872 8.99691e-06
2.31073 9.45771e-06
2.42312 1.01935e-05
2.54097 1.09866e-05
2.63027 1.16235e-05
2.69929 1.21254e-05
2.80624 1.2919e-05
2.91743 1.37646e-05
3.02866 1.46587e-05
3.11485 1.53673e-05
3.24877 1.64949e-05
3.38844 1.77051e-05
3.53195 1.90222e-05
3.64356 2.00739e-05
3.81762 2.17615e-05
4 2.3591e-05
4.18355 2.55432e-05
4.32672 2.71128e-05
4.55071 2.96496e-05
4.7863 3.24237e-05
5.02632 3.54295e-05
5.2142 3.78652e-05
5.50927 4.18364e-05
5.82103 4.62241e-05
5.99964 4.88786e-05
6.32548 5.3896e-05
6.58143 5.79945e-05
6.78016 6.12714e-05
7.08957 6.65373e-05
7.4131 7.22558e-05
7.64056 7.64751e-05
8.05552 8.44603e-05
8.38147 9.09917e-05
8.63456 9.62195e-05
9.02859 0.00010463
9.44061 0.000113775
9.82879 0.000122878
10.1815 0.000131438
10.5005 0.000139416
11.083 0.00015456
11.541 0.000166988
11.8969 0.00017696
12.4513 0.000193047
13.0317 0.000210596
13.6066 0.000228933
14.1305 0.000246284
14.6053 0.000262541
15.4751 0.000293615
16.1613 0.000319311
16.6958 0.000340048
17.5309 0.000373707
18.4077 0.000410698
19.3587 0.00045318
20.2309 0.00049394
21.0263 0.000532603
21.7479 0.000568907
23.0709 0.000638494
24.1156 0.000696216
24.9301 0.000742906
26.2036 0.000818878
27.5423 0.000902622
28.5102 0.000966213
29.4485 0.0010299
31.2917 0.00116082
32.999 0.00128897
34.5691 0.00141266
36.0041 0.00153058
37.3085 0.00164181
38.4886 0.00174574
40.6443 0.00194372
42.3399 0.00210679
45.0168 0.00237741
47.863 0.0026828
49.9747 0.00292271
52.0389 0.00316706
54.0515 0.00341469
56.0089 0.00366438
57.9083 0.00391503
59.7475 0.00416558
63.3548 0.00467932
66.6895 0.0051806
69.751 0.00566307
72.5448 0.00612193
75.0811 0.00655386
79.7348 0.00738433
83.4134 0.0080755
86.2833 0.00863607
90.7744 0.00955067
95.4993 0.0105622
99.7126 0.0115109
103.831 0.0124776
107.847 0.0134574
111.752 0.0144459
115.542 0.0154383
122.998 0.0174868
129.916 0.0195009
136.287 0.0214526
142.117 0.02332
147.423 0.0250868
152.228 0.0267422
161.017 0.0299063
167.94 0.0325228
173.327 0.0346343
181.732 0.0380614
190.546 0.0418275
198.982 0.045607
207.23 0.0494598
215.273 0.0533669
223.096 0.0573098
230.688 0.0612703
245.627 0.0694488
259.49 0.0774959
272.26 0.0852981
283.949 0.092767
294.587 0.0998367
304.222 0.106463
321.848 0.119136
335.734 0.129621
346.541 0.138086
363.406 0.15183
381.092 0.166944
397.847 0.181921
414.222 0.197179
430.186 0.212645
445.711 0.228245
460.773 0.243907
490.401 0.276227
517.884 0.308001
543.192 0.338789
566.349 0.368242
587.42 0.396107
606.499 0.422214
641.39 0.472108
668.87 0.513359
712.313 0.582093
758.578 0.660029
792.163 0.719766
824.999 0.780666
857.017 0.842433
888.162 0.904769
918.389 0.967396
977.865 1.09673
1033.06 1.22402
1083.91 1.34748
1130.45 1.46567
1172.81 1.57756
1211.17 1.68243
1281.34 1.88302
1336.62 2.04897
1379.64 2.18298
1446.77 2.40056
1517.16 2.63983
1584.33 2.87871
1650.01 3.12231
1714.06 3.36943
1776.36 3.61879
1836.81 3.8692
1955.76 4.3865
2066.15 4.89564
2167.83 5.38929
2260.9 5.86193
2345.61 6.30939
2422.32 6.72871
2562.66 7.53106
2673.22 8.19485
2759.25 8.73069
2893.52 9.60096
3034.31 10.558
3168.66 11.5134
3300.01 12.4875
3428.09 13.4757
3552.68 14.4731
3673.59 15.4747
3911.48 17.5434
4132.24 19.5796
4335.6 21.5538
4521.74 23.444
4691.15 25.2333
4844.58 26.911
5125.25 30.1197
5346.38 32.7737
5518.46 34.917
5787.01 38.3984
6068.62 42.2273
6337.31 46.047
6600 49.9438
6856.15 53.8958
7105.32 57.8824
7347.13 61.8895
7822.91 70.165
8264.43 78.3085
8671.26 86.2072
9043.62 93.7656
9382.53 100.924
9689.72 107.644
10252 120.499
10694 131.104
11039 139.713
11576 153.634
12137 168.874
12675 184.172
13202 199.815
13715 215.644
14214 231.616
14698 247.649
15651 280.82
16534 313.386
17348 345.005
18093 375.273
18771 403.922
19385 430.774
20507 482.079
21391 524.528
22079 558.821
23151 614.38
24274 675.411
25350 736.623
26402 799.043
27427 862.26
28425 926.161
29393 990.317
31296 1122.65
33063 1253.01
34690 1379.37
36179 1500.27
37535 1614.86
38763 1722.28
41008 1927.54
42776 2097.27
44152 2234.29
46299 2456.94
48549 2701.47
50699 2946.06
52802 3195.44
54852 3448.42
56846 3703.68
58781 3960.05
62588 4489.61
66120 5010.4
69374 5515.7
72353 5999.63
75064 6457.69
77519 6886.78
82009 7707.91
85547 8387.29
88299 8935.29
92595 9826.03
97098 10805
0.000115 93907 1583 1
0.000115 0
0.000115 4.22932e-06
0.000116668 4.15871e-06
0.00011836 4.08928e-06
0.0001197 4.03581e-06
0.000121619 3.99443e-06
0.0001233 3.98275e-06
0.0001255 3.9934e-06
0.0001285 4.04121e-06
0.000131826 4.12377e-06
0.000136458 4.27056e-06
0.000140039 4.39831e-06
0.000142787 4.49663e-06
0.000147009 4.64824e-06
0.000151356 4.80497e-06
0.000154882 4.91879e-06
0.000158489 5.03533e-06
0.000162181 5.13804e-06
0.000165959 5.24285e-06
0.000169824 5.33332e-06
0.00017378 5.42534e-06
0.000179302 5.53128e-06
0.000185 5.63929e-06
0.000189618 5.71143e-06
0.000193156 5.76614e-06
0.000198589 5.84919e-06
0.000204174 5.93344e-06
0.000209231 6.00185e-06
0.000213758 6.06237e-06
0.000217799 6.11581e-06
0.000221398 6.16296e-06
0.00022784 6.24635e-06
0.000232795 6.30964e-06
0.000236581 6.35752e-06
0.000242376 6.43003e-06
0.000248313 6.50336e-06
0.00025483 6.57292e-06
0.000259829 6.62557e-06
0.000267512 6.70535e-06
0.000275423 6.78608e-06
0.000280221 6.82678e-06
0.000284487 6.86258e-06
0.00029211 6.92569e-06
0.000297962 6.9734e-06
0.000302427 7.00941e-06
0.00030925 7.06376e-06
0.000316228 7.11853e-06
0.000324526 7.17475e-06
0.000331966 7.22431e-06
0.000338616 7.26796e-06
0.000344543 7.30636e-06
0.000349815 7.34013e-06
0.000359235 7.39961e-06
0.000366466 7.44453e-06
0.000371985 7.4784e-06
0.00038042 7.5295e-06
0.000389045 7.58094e-06
0.000395822 7.6145e-06
0.000401849 7.64398e-06
0.000412617 7.69587e-06
0.000420882 7.735e-06
0.000427189 7.76448e-06
0.000436828 7.80892e-06
0.000446684 7.85361e-06
0.000457088 7.89046e-06
0.000466391 7.92285e-06
0.000474686 7.95129e-06
0.000482065 7.97627e-06
0.000495255 8.02017e-06
0.000505384 8.05325e-06
0.000513117 8.07815e-06
0.000524938 8.11564e-06
0.000537032 8.15331e-06
0.000547961 8.17999e-06
0.000557707 8.2034e-06
0.000566377 8.22394e-06
0.000581874 8.26001e-06
0.000593775 8.28717e-06
0.00060286 8.30759e-06
0.000616749 8.33833e-06
0.000630957 8.36918e-06
0.000646584 8.3925e-06
0.000660575 8.41297e-06
0.000673064 8.43091e-06
0.000684187 8.44665e-06
0.000694069 8.46043e-06
0.000711708 8.48463e-06
0.000725231 8.50281e-06
0.000735542 8.51648e-06
0.000751283 8.53702e-06
0.000767361 8.55761e-06
0.000785236 8.57241e-06
0.000801217 8.58539e-06
0.000815467 8.59675e-06
0.000828143 8.60672e-06
0.000839397 8.61544e-06
0.00085946 8.63073e-06
0.000874821 8.64221e-06
0.000886522 8.65084e-06
0.000904367 8.66379e-06
0.000922571 8.67676e-06
0.000946782 8.68502e-06
0.000968487 8.69226e-06
0.000987887 8.6986e-06
0.00100518 8.70416e-06
0.00102056 8.709e-06
0.00103421 8.71325e-06
0.00105854 8.72071e-06
0.00107716 8.7263e-06
0.00109134 8.73051e-06
0.00111296 8.73679e-06
0.00113501 8.74309e-06
0.00114999 8.74276e-06
0.00117862 8.74212e-06
0.00120426 8.74158e-06
0.00122714 8.74108e-06
0.00124752 8.74068e-06
0.00126564 8.74029e-06
0.00129797 8.73965e-06
0.00132276 8.73917e-06
0.00134166 8.73881e-06
0.00137052 8.73827e-06
0.0014 8.73772e-06
0.00141802 8.73295e-06
0.00145244 8.72399e-06
0.00148324 8.71616e-06
0.00151072 8.70931e-06
0.00153518 8.70333e-06
0.00155692 8.69811e-06
0.00159569 8.68896e-06
0.00162541 8.6821e-06
0.00164805 8.67697e-06
0.00168262 8.66928e-06
0.00171791 8.66158e-06
0.00176045 8.64436e-06
0.00179855 8.62932e-06
0.00183255 8.61619e-06
0.00186283 8.60471e-06
0.00188974 8.59469e-06
0.00193777 8.57716e-06
0.00197459 8.56405e-06
0.00200266 8.55422e-06
0.00204552 8.53951e-06
0.0020893 8.52481e-06
0.00214104 8.50037e-06
0.00218737 8.47905e-06
0.00222873 8.46043e-06
0.00226555 8.44418e-06
0.00229828 8.42998e-06
0.0023273 8.41757e-06
0.00237897 8.39591e-06
0.00241848 8.3797e-06
0.00247897 8.35544e-06
0.00254097 8.33125e-06
0.00257595 8.31398e-06
0.00260918 8.29783e-06
0.00267264 8.2676e-06
0.00272944 8.24126e-06
0.00278012 8.21827e-06
0.00282525 8.1982e-06
0.00286533 8.1807e-06
0.00293684 8.15013e-06
0.00299165 8.12729e-06
0.00303342 8.1102e-06
0.00309718 8.08463e-06
0.00316228 8.05915e-06
0.0032406 8.02354e-06
0.00331072 7.99252e-06
0.00337331 7.96546e-06
0.00342906 7.94187e-06
0.00347859 7.92128e-06
0.00352251 7.90332e-06
0.00360072 7.87196e-06
0.00366051 7.84853e-06
0.00370601 7.831e-06
0.00377532 7.80479e-06
0.00384592 7.77866e-06
0.00390447 7.75349e-06
0.00396018 7.72997e-06
0.00401313 7.70799e-06
0.0040634 7.68744e-06
0.00415938 7.64904e-06
0.00424522 7.61561e-06
0.00432178 7.58647e-06
0.0043899 7.56107e-06
0.00445039 7.53891e-06
0.00455825 7.50029e-06
0.00464086 7.47145e-06
0.0047038 7.4499e-06
0.00479982 7.41769e-06
0.00489779 7.38561e-06
0.00497594 7.35697e-06
0.00505034 7.33021e-06
0.00512109 7.30522e-06
0.00518833 7.28187e-06
0.00525216 7.26004e-06
0.00537398 7.21929e-06
0.00548288 7.18383e-06
0.00557998 7.15294e-06
0.00566635 7.12601e-06
0.00574303 7.10255e-06
0.00587971 7.06165e-06
0.00598435 7.03114e-06
0.00606405 7.00835e-06
0.00618559 6.97429e-06
0.00630957 6.94039e-06
0.00641948 6.90765e-06
0.00652426 6.87709e-06
0.00662404 6.84857e-06
0.00671897 6.82193e-06
0.0068092 6.79706e-06
0.0068949 6.77382e-06
0.00705849 6.73046e-06
0.00720482 6.69275e-06
0.00733534 6.65993e-06
0.00745148 6.63134e-06
0.00755461 6.60642e-06
0.00764602 6.5847e-06
0.00780867 6.54686e-06
0.00793291 6.51862e-06
0.008123 6.47649e-06
0.00831764 6.43463e-06
0.00847471 6.39845e-06
0.00862466 6.36473e-06
0.00876765 6.33327e-06
0.00890386 6.30392e-06
0.00903347 6.27652e-06
0.00915669 6.25095e-06
0.00927374 6.22707e-06
0.00938483 6.20476e-06
0.00959673 6.16316e-06
0.00978606 6.12698e-06
0.00995478 6.0955e-06
0.0101048 6.06809e-06
0.0102379 6.0442e-06
0.0104751 6.00262e-06
0.0106566 5.97164e-06
0.0107948 5.9485e-06
0.0110054 5.91396e-06
0.0112202 5.87962e-06
0.0114568 5.83969e-06
0.0116831 5.80251e-06
0.0118994 5.76786e-06
0.0121057 5.73557e-06
0.0123024 5.70545e-06
0.0124898 5.67737e-06
0.012668 5.65117e-06
0.0128374 5.62671e-06
0.0129982 5.60387e-06
0.0133052 5.56132e-06
0.0135798 5.52433e-06
0.0138248 5.49219e-06
0.0140427 5.4642e-06
0.0142362 5.43984e-06
0.0144077 5.41861e-06
0.0147128 5.38166e-06
0.0149459 5.35411e-06
0.0151231 5.33353e-06
0.0153929 5.30282e-06
0.0156675 5.2723e-06
0.0158546 5.25051e-06
0.0162236 5.20857e-06
0.0165772 5.16955e-06
0.0169158 5.13324e-06
0.0172395 5.09942e-06
0.0175486 5.06793e-06
0.0178434 5.03857e-06
0.0181242 5.01121e-06
0.0183915 4.98569e-06
0.0186457 4.96189e-06
0.0188872 4.93967e-06
0.0191165 4.91893e-06
0.0195538 4.88029e-06
0.0199447 4.84673e-06
0.0202931 4.81755e-06
0.020603 4.79215e-06
0.020878 4.77005e-06
0.0213682 4.73161e-06
0.0217433 4.70298e-06
0.022029 4.68163e-06
0.0224645 4.64978e-06
0.0229087 4.61814e-06
0.0232491 4.59322e-06
0.0235837 4.5692e-06
0.0239125 4.54605e-06
0.0242353 4.52374e-06
0.0245522 4.50223e-06
0.0248632 4.48149e-06
0.0251682 4.46149e-06
0.0254672 4.44219e-06
0.0260568 4.40506e-06
0.0266218 4.37052e-06
0.0271627 4.33839e-06
0.0276797 4.30848e-06
0.0281734 4.28063e-06
0.0286442 4.25468e-06
0.0290927 4.2305e-06
0.0295196 4.20795e-06
0.0299255 4.18692e-06
0.0303111 4.1673e-06
0.0306771 4.14899e-06
0.0313752 4.11488e-06
0.0319992 4.08526e-06
0.0325553 4.05952e-06
0.0330498 4.03713e-06
0.0334886 4.01763e-06
0.0342707 3.98375e-06
0.0348692 3.95853e-06
0.035325 3.93971e-06
0.0360198 3.91166e-06
0.0367282 3.88381e-06
0.0375297 3.85243e-06
0.0383228 3.82228e-06
0.0391071 3.7933e-06
0.0398821 3.76543e-06
0.0406477 3.73862e-06
0.0414032 3.71284e-06
0.0421486 3.68803e-06
0.0428835 3.66415e-06
0.0436076 3.64117e-06
0.0443207 3.61905e-06
0.0450227 3.59774e-06
0.0457134 3.57722e-06
0.0463926 3.55745e-06
0.0470601 3.53841e-06
0.047716 3.52005e-06
0.0483601 3.50236e-06
0.0489923 3.48531e-06
0.0496127 3.46887e-06
0.0502211 3.45302e-06
0.0508177 3.43773e-06
0.0519938 3.4083e-06
0.0531211 3.38095e-06
0.0542002 3.35549e-06
0.0552317 3.33181e-06
0.0562165 3.30976e-06
0.0571557 3.28922e-06
0.0580505 3.27007e-06
0.0589021 3.25223e-06
0.0597118 3.23559e-06
0.060481 3.22006e-06
0.0612111 3.20558e-06
0.0626039 3.17859e-06
0.0638486 3.15517e-06
0.0649579 3.13481e-06
0.0659445 3.11711e-06
0.0668199 3.1017e-06
0.0683801 3.07492e-06
0.069574 3.05498e-06
0.0704831 3.04011e-06
0.0718692 3.01795e-06
0.0732824 2.99595e-06
0.0747739 2.97408e-06
0.0761997 2.95372e-06
0.077561 2.93476e-06
0.0788594 2.91709e-06
0.0800963 2.90063e-06
0.0812736 2.88528e-06
0.0823929 2.87096e-06
0.0834563 2.8576e-06
0.0844658 2.84514e-06
0.0863914 2.82191e-06
0.0881124 2.80174e-06
0.0896463 2.78421e-06
0.0910103 2.76896e-06
0.0922209 2.75568e-06
0.0943783 2.73261e-06
0.0960294 2.71543e-06
0.0972866 2.70261e-06
0.0992034 2.6835e-06
0.101158 2.66453e-06
0.103068 2.64784e-06
0.104892 2.6323e-06
0.106631 2.61781e-06
0.108287 2.6043e-06
0.109864 2.59169e-06
0.111362 2.57993e-06
0.112786 2.56895e-06
0.114137 2.5587e-06
0.116714 2.53959e-06
0.119017 2.52299e-06
0.121069 2.50855e-06
0.122893 2.49598e-06
0.124512 2.48504e-06
0.127397 2.46601e-06
0.129604 2.45182e-06
0.131285 2.44125e-06
0.133847 2.42546e-06
0.136458 2.40977e-06
0.139637 2.3931e-06
0.142479 2.37861e-06
0.145013 2.36601e-06
0.147267 2.35503e-06
0.149268 2.34547e-06
0.152836 2.32882e-06
0.155568 2.31642e-06
0.157648 2.30716e-06
0.160822 2.29334e-06
0.164059 2.2796e-06
0.167398 2.26769e-06
0.170375 2.25732e-06
0.173024 2.24828e-06
0.175375 2.2404e-06
0.179567 2.22668e-06
0.182776 2.21644e-06
0.185221 2.20879e-06
0.188949 2.19737e-06
0.192752 2.18601e-06
0.196675 2.17646e-06
0.200173 2.16812e-06
0.203285 2.16087e-06
0.206047 2.15453e-06
0.210972 2.14349e-06
0.214743 2.13525e-06
0.217615 2.12909e-06
0.221996 2.11988e-06
0.226464 2.11071e-06
0.230078 2.1052e-06
0.233287 2.1004e-06
0.239011 2.09202e-06
0.243396 2.08576e-06
0.246737 2.08107e-06
0.251836 2.07406e-06
0.25704 2.06709e-06
0.261141 2.06357e-06
0.264783 2.0605e-06
0.27128 2.05514e-06
0.276257 2.05114e-06
0.28005 2.04814e-06
0.285836 2.04365e-06
0.291743 2.03916e-06
0.295972 2.03782e-06
0.30352 2.03548e-06
0.309308 2.03372e-06
0.313721 2.03241e-06
0.320458 2.03043e-06
0.327341 2.02846e-06
0.335931 2.02949e-06
0.342521 2.03027e-06
0.347549 2.03085e-06
0.355229 2.03172e-06
0.363078 2.03259e-06
0.372606 2.03733e-06
0.379916 2.04089e-06
0.385492 2.04356e-06
0.39401 2.04758e-06
0.402717 2.0516e-06
0.412098 2.05933e-06
0.419276 2.06515e-06
0.430279 2.07391e-06
0.44157 2.08271e-06
0.451856 2.09411e-06
0.459727 2.1027e-06
0.471791 2.11566e-06
0.484172 2.1287e-06
0.49545 2.14428e-06
0.504081 2.15605e-06
0.517309 2.17382e-06
0.530884 2.19175e-06
0.54325 2.21206e-06
0.552713 2.22741e-06
0.567218 2.25065e-06
0.582103 2.27414e-06
0.59395 2.29634e-06
0.602993 2.31316e-06
0.616817 2.33859e-06
0.630957 2.3643e-06
0.643799 2.39136e-06
0.663552 2.43254e-06
0.683912 2.47442e-06
0.697831 2.50682e-06
0.719242 2.55623e-06
0.74131 2.60661e-06
0.756397 2.64505e-06
0.779606 2.7038e-06
0.803526 2.76385e-06
0.822243 2.81739e-06
0.836566 2.85823e-06
0.858519 2.9206e-06
0.881049 2.98432e-06
0.912011 3.07878e-06
0.935944 3.15158e-06
0.954305 3.20731e-06
0.982525 3.29275e-06
1.01158 3.38047e-06
1.03217 3.44463e-06
1.06921 3.55983e-06
1.09786 3.64876e-06
1.11985 3.71691e-06
1.15367 3.82153e-06
1.1885 3.9291e-06
1.21619 4.02082e-06
1.25893 4.16241e-06
1.30317 4.30901e-06
1.34896 4.47309e-06
1.39637 4.64343e-06
1.44726 4.84229e-06
1.5 5.04968e-06
1.55076 5.27028e-06
1.60325 5.50059e-06
1.66917 5.81536e-06
1.7378 6.14817e-06
1.80926 6.52261e-06
1.88365 6.91983e-06
1.96675 7.38917e-06
2.03148 7.76193e-06
2.08142 8.05379e-06
2.15864 8.5123e-06
2.23872 8.99691e-06
2.31073 9.45771e-06
2.42312 1.01935e-05
2.54097 1.09866e-05
2.63027 1.16235e-05
2.69929 1.21254e-05
2.80624 1.2919e-05
2.91743 1.37646e-05
3.02866 1.46587e-05
3.11485 1.53673e-05
3.24877 1.64949e-05
3.38844 1.77051e-05
3.53195 1.90222e-05
3.64356 2.00739e-05
3.81762 2.17615e-05
4 2.3591e-05
4.18355 2.55432e-05
4.32672 2.71128e-05
4.55071 2.96496e-05
4.7863 3.24237e-05
5.02632 3.54295e-05
5.2142 3.78652e-05
5.50927 4.18364e-05
5.82103 4.62241e-05
5.99964 4.88786e-05
6.32548 5.3896e-05
6.58143 5.79945e-05
6.78016 6.12714e-05
7.08957 6.65373e-05
7.4131 7.22558e-05
7.64056 7.64751e-05
8.05552 8.44603e-05
8.38147 9.09917e-05
8.63456 9.62195e-05
9.02859 0.00010463
9.44061 0.000113775
9.82879 0.000122878
10.1815 0.000131438
10.5005 0.000139416
11.083 0.00015456
11.541 0.000166988
11.8969 0.00017696
12.4513 0.000193047
13.0317 0.000210596
13.6066 0.000228933
14.1305 0.000246284
14.6053 0.000262541
15.4751 0.000293615
16.1613 0.000319311
16.6958 0.000340048
17.5309 0.000373707
18.4077 0.000410698
19.3587 0.00045318
20.2309 0.00049394
21.0263 0.000532603
21.7479 0.000568907
23.0709 0.000638494
24.1156 0.000696216
24.9301 0.000742906
26.2036 0.000818878
27.5423 0.000902622
28.5102 0.000966213
29.4485 0.0010299
31.2917 0.00116082
32.999 0.00128897
34.5691 0.00141266
36.0041 0.00153058
37.3085 0.00164181
38.4886 0.00174574
40.6443 0.00194372
42.3399 0.00210679
45.0168 0.00237741
47.863 0.0026828
49.9747 0.00292271
52.0389 0.00316706
54.0515 0.00341469
56.0089 0.00366438
57.9083 0.00391503
59.7475 0.00416558
63.3548 0.00467932
66.6895 0.0051806
69.751 0.00566307
72.5448 0.00612193
75.0811 0.00655386
79.7348 0.00738433
83.4134 0.0080755
86.2833 0.00863607
90.7744 0.00955067
95.4993 0.0105622
99.7126 0.0115109
103.831 0.0124776
107.847 0.0134574
111.752 0.0144459
115.542 0.0154383
122.998 0.0174868
129.916 0.0195009
136.287 0.0214526
142.117 0.02332
147.423 0.0250868
152.228 0.0267422
161.017 0.0299063
167.94 0.0325228
173.327 0.0346343
181.732 0.0380614
190.546 0.0418275
198.982 0.045607
207.23 0.0494598
215.273 0.0533669
223.096 0.0573098
230.688 0.0612703
245.627 0.0694488
259.49 0.0774959
272.26 0.0852981
283.949 0.092767
294.587 0.0998367
304.222 0.106463
321.848 0.119136
335.734 0.129621
346.541 0.138086
363.406 0.15183
381.092 0.166944
397.847 0.181921
414.222 0.197179
430.186 0.212645
445.711 0.228245
460.773 0.243907
490.401 0.276227
517.884 0.308001
543.192 0.338789
566.349 0.368242
587.42 0.396107
606.499 0.422214
641.39 0.472108
668.87 0.513359
712.313 0.582093
758.578 0.660029
792.163 0.719766
824.999 0.780666
857.017 0.842433
888.162 0.904769
918.389 0.967396
977.865 1.09673
1033.06 1.22402
1083.91 1.34748
1130.45 1.46567
1172.81 1.57756
1211.17 1.68243
1281.34 1.88302
1336.62 2.04897
1379.64 2.18298
1446.77 2.40056
1517.16 2.63983
1584.33 2.87871
1650.01 3.12231
1714.06 3.36943
1776.36 3.61879
1836.81 3.8692
1955.76 4.3865
2066.15 4.89564
2167.83 5.38929
2260.9 5.86193
2345.61 6.30939
2422.32 6.72871
2562.66 7.53106
2673.22 8.19485
2759.25 8.73069
2893.52 9.60096
3034.31 10.558
3168.66 11.5134
3300.01 12.4875
3428.09 13.4757
3552.68 14.4731
3673.59 15.4747
3911.48 17.5434
4132.24 19.5796
4335.6 21.5538
4521.74 23.444
4691.15 25.2333
4844.58 26.911
5125.25 30.1197
5346.38 32.7737
5518.46 34.917
5787.01 38.3984
6068.62 42.2273
6337.31 46.047
6600 49.9438
6856.15 53.8958
7105.32 57.8824
7347.13 61.8895
7822.91 70.165
8264.43 78.3085
8671.26 86.2072
9043.62 93.7656
9382.53 100.924
9689.72 107.644
10252 120.499
10694 131.104
11039 139.713
11576 153.634
12137 168.874
12675 184.172
13202 199.815
13715 215.644
14214 231.616
14698 247.649
15651 280.82
16534 313.386
17348 345.005
18093 375.273
18771 403.922
19385 430.774
20507 482.079
21391 524.528
22079 558.821
23151 614.38
24274 675.411
25350 736.623
26402 799.043
27427 862.26
28425 926.161
29393 990.317
31296 1122.65
33063 1253.01
34690 1379.37
36179 1500.27
37535 1614.86
38763 1722.28
41008 1927.54
42776 2097.27
44152 2234.29
46299 2456.94
48549 2701.47
50699 2946.06
52802 3195.44
54852 3448.42
56846 3703.68
58781 3960.05
62588 4489.61
66120 5010.4
69374 5515.7
72353 5999.63
75064 6457.69
77519 6886.78
82009 7707.91
85547 8387.29
88299 8935.29
92595 9826.03
97098 10805
100000 11460
9.32e-06 0
9.32e-06 1.47748e-09
9.35e-06 1.49958e-09
9.6e-06 1.68321e-09
9.88553e-06 1.90188e-09
1.02329e-05 2.17911e-09
1.06e-05 2.48417e-09
1.1e-05 2.8304e-09
1.13501e-05 3.14436e-09
1.18e-05 3.5614e-09
1.23027e-05 4.04406e-09
1.29e-05 4.63861e-09
1.35e-05 5.25762e-09
1.42889e-05 6.10121e-09
1.51356e-05 7.04026e-09
1.61e-05 8.1494e-09
1.71791e-05 9.43568e-09
1.78273e-05 1.02189e-08
1.85e-05 1.10672e-08
1.92354e-05 1.19901e-08
2e-05 1.29901e-08
2.07977e-05 1.40302e-08
2.16272e-05 1.51536e-08
2.26465e-05 1.65285e-08
2.37137e-05 1.80282e-08
2.48313e-05 1.95935e-08
2.60016e-05 2.12948e-08
2.73842e-05 2.32966e-08
2.88403e-05 2.54867e-08
2.95972e-05 2.66065e-08
3.07698e-05 2.83792e-08
3.19889e-05 3.027e-08
3.28284e-05 3.1543e-08
3.41291e-05 3.35536e-08
3.54813e-05 3.56923e-08
3.64125e-05 3.71224e-08
3.78552e-05 3.93757e-08
3.9355e-05 4.17658e-08
4.02717e-05 4.31788e-08
4.16869e-05 4.53884e-08
4.31519e-05 4.77111e-08
4.41571e-05 4.92424e-08
4.57088e-05 5.1632e-08
4.73151e-05 5.41376e-08
4.84172e-05 5.57784e-08
5.01187e-05 5.83333e-08
5.188e-05 6.10053e-08
5.30884e-05 6.27358e-08
5.49541e-05 6.5424e-08
5.68853e-05 6.82274e-08
5.82103e-05 7.00318e-08
6.0256e-05 7.28284e-08
6.23735e-05 7.57367e-08
6.38263e-05 7.75939e-08
6.60693e-05 8.04654e-08
6.83912e-05 8.34431e-08
6.99867e-05 8.53397e-08
7.245e-05 8.82657e-08
7.5e-05 9.12921e-08
7.69655e-05 9.34426e-08
7.84733e-05 9.50887e-08
8.07906e-05 9.76124e-08
8.31764e-05 1.00203e-07
8.56052e-05 1.02621e-07
8.74732e-05 1.04472e-07
9.0352e-05 1.07312e-07
9.33254e-05 1.1023e-07
9.63274e-05 1.12928e-07
9.86422e-05 1.14996e-07
0.000100415 1.16571e-07
0.000103133 1.18974e-07
0.000105925 1.21427e-07
0.000107926 1.23047e-07
0.000109707 1.24482e-07
0.000112895 1.27035e-07
0.000115347 1.28983e-07
0.000119125 1.31962e-07
0.000123027 1.35009e-07
0.000125531 1.3681e-07
0.000127763 1.38406e-07
0.000131766 1.41243e-07
0.000134851 1.43409e-07
0.000137211 1.45055e-07
0.00014083 1.4756e-07
0.000144544 1.50108e-07
0.000147911 1.52241e-07
0.000150921 1.54132e-07
0.000153605 1.55806e-07
0.000158418 1.5878e-07
0.000162126 1.61047e-07
0.000164964 1.62769e-07
0.000169315 1.65386e-07
0.00017378 1.68045e-07
0.000178855 1.70893e-07
0.000183746 1.73608e-07
0.000188454 1.76191e-07
0.000192977 1.78648e-07
0.000197315 1.80983e-07
0.000201471 1.83199e-07
0.000205447 1.85302e-07
0.000209246 1.87295e-07
0.00021287 1.89182e-07
0.000216326 1.9097e-07
0.000222956 1.94366e-07
0.000228924 1.97388e-07
0.000234278 2.0007e-07
0.000239064 2.02447e-07
0.000243332 2.0455e-07
0.000250986 2.08283e-07
0.000256884 2.11128e-07
0.000261398 2.13286e-07
0.000268319 2.16566e-07
0.000275423 2.19896e-07
0.000283465 2.23334e-07
0.000289651 2.25947e-07
0.000294379 2.27927e-07
0.000301615 2.3093e-07
0.00030903 2.33973e-07
0.000313961 2.35734e-07
0.00032278 2.38848e-07
0.000329556 2.41211e-07
0.000334732 2.42998e-07
0.000342648 2.45704e-07
0.000350752 2.4844e-07
0.000356862 2.50213e-07
0.000362295 2.51774e-07
0.000372003 2.54531e-07
0.000379455 2.56618e-07
0.000385141 2.58194e-07
0.000393831 2.60578e-07
0.000402717 2.62983e-07
0.000409143 2.64398e-07
0.000420636 2.66893e-07
0.000429467 2.6878e-07
0.000436212 2.70203e-07
0.000446528 2.72353e-07
0.000457088 2.7452e-07
0.00046505 2.7587e-07
0.000472131 2.77056e-07
0.000484782 2.79144e-07
0.000494493 2.80721e-07
0.000501903 2.81909e-07
0.000513228 2.837e-07
0.000524808 2.85503e-07
0.000537032 2.87037e-07
0.000547961 2.88384e-07
0.000557707 2.89569e-07
0.000566377 2.9061e-07
0.000581874 2.9244e-07
0.000593775 2.93821e-07
0.00060286 2.9486e-07
0.000616749 2.96426e-07
0.000630957 2.98001e-07
0.000643798 2.99161e-07
0.000655249 3.00179e-07
0.000665435 3.01073e-07
0.000683642 3.02645e-07
0.000697625 3.03829e-07
0.000708298 3.04719e-07
0.000724616 3.06061e-07
0.00074131 3.07408e-07
0.000757487 3.0839e-07
0.00077193 3.09251e-07
0.000784794 3.10007e-07
0.000796226 3.1067e-07
0.000816634 3.11833e-07
0.000832282 3.12709e-07
0.000844215 3.13367e-07
0.000862435 3.14357e-07
0.000881049 3.1535e-07
0.00089898 3.1599e-07
0.000914969 3.16551e-07
0.000929192 3.17043e-07
0.000941819 3.17474e-07
0.00096433 3.18229e-07
0.000981565 3.18797e-07
0.001008 3.19651e-07
0.00103514 3.20506e-07
0.00105773 3.2091e-07
0.0010779 3.21263e-07
0.00109586 3.21573e-07
0.00111183 3.21844e-07
0.00114032 3.22319e-07
0.00116217 3.22676e-07
0.00117884 3.22944e-07
0.00120428 3.23346e-07
0.00123027 3.23749e-07
0.00125893 3.23877e-07
0.00128455 3.23989e-07
0.00130739 3.24087e-07
0.00132772 3.24174e-07
0.00134576 3.24249e-07
0.00137792 3.24381e-07
0.00140255 3.24479e-07
0.00142131 3.24554e-07
0.00144992 3.24665e-07
0.00147911 3.24776e-07
0.00149839 3.24683e-07
0.00153522 3.24509e-07
0.0015682 3.24357e-07
0.00159763 3.24225e-07
0.00162383 3.24108e-07
0.00164711 3.24007e-07
0.00168866 3.23828e-07
0.00172051 3.23695e-07
0.00174479 3.23595e-07
0.00178185 3.23445e-07
0.0018197 3.23295e-07
0.00186477 3.22849e-07
0.00190512 3.2246e-07
0.00194114 3.22119e-07
0.00197322 3.21822e-07
0.00200172 3.21561e-07
0.00205259 3.21107e-07
0.00209159 3.20766e-07
0.00212133 3.20511e-07
0.00216672 3.20128e-07
0.00221309 3.19746e-07
0.00224195 3.19358e-07
0.00229706 3.1863e-07
0.00234639 3.17995e-07
0.00239043 3.1744e-07
0.00242963 3.16955e-07
0.00246447 3.16532e-07
0.00252664 3.15792e-07
0.00257429 3.15238e-07
0.00261061 3.14824e-07
0.00266607 3.14203e-07
0.0027227 3.13584e-07
0.00278612 3.1264e-07
0.00284282 3.11816e-07
0.00289339 3.11097e-07
0.00293836 3.10469e-07
0.00297829 3.0992e-07
0.00304948 3.08963e-07
0.00310398 3.08247e-07
0.0031455 3.07711e-07
0.00320881 3.06909e-07
0.00327341 3.06109e-07
0.00331847 3.05409e-07
0.00336127 3.04754e-07
0.00344303 3.0353e-07
0.0035162 3.02463e-07
0.00358149 3.01532e-07
0.00363962 3.0072e-07
0.00369126 3.00011e-07
0.00373704 2.99392e-07
0.00381852 2.98312e-07
0.0038808 2.97505e-07
0.00397613 2.96298e-07
0.0040738 2.95096e-07
0.00413285 2.94237e-07
0.00418899 2.93434e-07
0.00424231 2.92683e-07
0.00434412 2.91279e-07
0.00443521 2.90057e-07
0.00451648 2.88992e-07
0.00458881 2.88063e-07
0.00465305 2.87252e-07
0.00476764 2.8584e-07
0.00485543 2.84785e-07
0.00492233 2.83996e-07
0.00502441 2.82817e-07
0.00512861 2.81643e-07
0.00521045 2.80596e-07
0.00528835 2.79618e-07
0.00536245 2.78703e-07
0.00543285 2.77849e-07
0.00549969 2.7705e-07
0.00562725 2.75559e-07
0.00574128 2.74261e-07
0.00584296 2.7313e-07
0.0059334 2.72145e-07
0.00601369 2.71285e-07
0.00615681 2.69787e-07
0.00626638 2.6867e-07
0.00634984 2.67834e-07
0.00647711 2.66586e-07
0.00660693 2.65344e-07
0.00671719 2.64181e-07
0.00682222 2.63096e-07
0.00692218 2.62082e-07
0.00701722 2.61136e-07
0.00710751 2.60252e-07
0.00719321 2.59425e-07
0.00735669 2.57883e-07
0.00750278 2.56541e-07
0.00763298 2.55372e-07
0.00774876 2.54354e-07
0.00785151 2.53467e-07
0.00803462 2.51921e-07
0.00817474 2.50768e-07
0.00828143 2.49907e-07
0.00844409 2.4862e-07
0.00860994 2.47341e-07
0.00876622 2.46036e-07
0.00891532 2.4482e-07
0.00905739 2.43685e-07
0.00919265 2.42625e-07
0.00932128 2.41637e-07
0.00944351 2.40713e-07
0.00955955 2.3985e-07
0.00978099 2.38242e-07
0.00997895 2.36843e-07
0.0101555 2.35626e-07
0.0103125 2.34565e-07
0.0104518 2.33642e-07
0.0107002 2.32034e-07
0.0108904 2.30836e-07
0.0110353 2.29941e-07
0.0112562 2.28605e-07
0.0114815 2.27277e-07
0.0117236 2.25764e-07
0.0119553 2.24355e-07
0.0121765 2.23042e-07
0.0123877 2.21818e-07
0.012589 2.20676e-07
0.0127807 2.19611e-07
0.0129631 2.18618e-07
0.0131364 2.1769e-07
0.013301 2.16824e-07
0.0136152 2.1521e-07
0.0138962 2.13807e-07
0.0141468 2.12587e-07
0.0143698 2.11526e-07
0.0145678 2.10601e-07
0.0147433 2.09795e-07
0.0150555 2.08392e-07
0.015294 2.07347e-07
0.0156589 2.05788e-07
0.0160325 2.04241e-07
0.0164059 2.02632e-07
0.0167639 2.01136e-07
0.0171066 1.99743e-07
0.0174343 1.98447e-07
0.0177471 1.97239e-07
0.0180456 1.96113e-07
0.0183299 1.95063e-07
0.0186005 1.94084e-07
0.0188578 1.9317e-07
0.0191023 1.92318e-07
0.0193344 1.91522e-07
0.0197772 1.90039e-07
0.0201729 1.88751e-07
0.0205257 1.87631e-07
0.0208394 1.86656e-07
0.0211179 1.85807e-07
0.0216141 1.84331e-07
0.0219939 1.83232e-07
0.0222832 1.82412e-07
0.0227242 1.81189e-07
0.0231739 1.79974e-07
0.023476 1.79129e-07
0.0237725 1.78315e-07
0.0240632 1.7753e-07
0.0243482 1.76773e-07
0.0249101 1.75315e-07
0.0254486 1.73959e-07
0.0259641 1.72697e-07
0.0264568 1.71522e-07
0.0269272 1.70428e-07
0.0273758 1.69409e-07
0.0278031 1.68459e-07
0.0282098 1.67573e-07
0.0285965 1.66747e-07
0.0289638 1.65976e-07
0.0293125 1.65257e-07
0.0299775 1.63916e-07
0.0305718 1.62752e-07
0.0311015 1.6174e-07
0.0315725 1.6086e-07
0.0319904 1.60094e-07
0.0327352 1.58762e-07
0.0333051 1.5777e-07
0.0337391 1.5703e-07
0.0344007 1.55927e-07
0.0350752 1.54832e-07
0.0358406 1.53583e-07
0.036598 1.52383e-07
0.037347 1.5123e-07
0.0380872 1.50121e-07
0.0388182 1.49054e-07
0.0395398 1.48028e-07
0.0402516 1.4704e-07
0.0409534 1.4609e-07
0.0416449 1.45176e-07
0.042326 1.44295e-07
0.0429964 1.43447e-07
0.0436559 1.4263e-07
0.0443045 1.41843e-07
0.0449421 1.41085e-07
0.0455684 1.40355e-07
0.0461835 1.39651e-07
0.0467873 1.38972e-07
0.0473797 1.38318e-07
0.0479608 1.37687e-07
0.0485305 1.37078e-07
0.0496537 1.35907e-07
0.0507303 1.34818e-07
0.0517608 1.33805e-07
0.0527458 1.32862e-07
0.0536863 1.31984e-07
0.0545833 1.31167e-07
0.0554378 1.30404e-07
0.0562511 1.29694e-07
0.0570243 1.29032e-07
0.0577589 1.28414e-07
0.0584561 1.27837e-07
0.0597863 1.26763e-07
0.0609749 1.2583e-07
0.0620344 1.2502e-07
0.0629765 1.24315e-07
0.0638125 1.23702e-07
0.0653024 1.22635e-07
0.0664427 1.21842e-07
0.0673109 1.2125e-07
0.0686345 1.20368e-07
0.0699842 1.19492e-07
0.0714599 1.18582e-07
0.0728716 1.17734e-07
0.0742205 1.16946e-07
0.0755076 1.16212e-07
0.0767347 1.15527e-07
0.0779031 1.1489e-07
0.0790146 1.14295e-07
0.0800711 1.1374e-07
0.0810743 1.13222e-07
0.0820263 1.12739e-07
0.0838415 1.11838e-07
0.0854627 1.11056e-07
0.086907 1.10376e-07
0.0881907 1.09785e-07
0.0893295 1.0927e-07
0.0913579 1.08375e-07
0.0929094 1.07708e-07
0.0940903 1.07211e-07
0.0958898 1.0647e-07
0.0977237 1.05733e-07
0.0995692 1.05062e-07
0.101331 1.04439e-07
0.103011 1.03856e-07
0.104611 1.03314e-07
0.106134 1.02808e-07
0.107582 1.02335e-07
0.108957 1.01895e-07
0.110262 1.01483e-07
0.112752 1.00716e-07
0.114976 1.0005e-07
0.116959 9.947e-08
0.118721 9.89659e-08
0.120285 9.85265e-08
0.123072 9.77627e-08
0.125204 9.71938e-08
0.126828 9.67691e-08
0.129303 9.61358e-08
0.131826 9.55066e-08
0.133448 9.51461e-08
0.136544 9.44739e-08
0.139312 9.38897e-08
0.14178 9.33812e-08
0.143976 9.29388e-08
0.145924 9.25533e-08
0.149398 9.18828e-08
0.152058 9.13831e-08
0.154084 9.10098e-08
0.157173 9.04533e-08
0.160325 8.98998e-08
0.163823 8.9384e-08
0.166947 8.89349e-08
0.169729 8.85441e-08
0.172201 8.82033e-08
0.174394 8.79063e-08
0.178299 8.73892e-08
0.181285 8.70027e-08
0.183557 8.67147e-08
0.187019 8.62836e-08
0.190546 8.58549e-08
0.194424 8.5471e-08
0.197882 8.51369e-08
0.200958 8.48454e-08
0.203689 8.45908e-08
0.208557 8.41479e-08
0.212285 8.38171e-08
0.215124 8.35699e-08
0.219455 8.32004e-08
0.223872 8.28324e-08
0.227772 8.25912e-08
0.23124 8.23807e-08
0.234318 8.2197e-08
0.239802 8.18763e-08
0.244 8.16367e-08
0.247197 8.14575e-08
0.25207 8.11894e-08
0.25704 8.0922e-08
0.261141 8.07818e-08
0.264783 8.06594e-08
0.27128 8.04455e-08
0.276257 8.02855e-08
0.28005 8.01657e-08
0.285836 7.99863e-08
0.291743 7.98074e-08
0.295972 7.97505e-08
0.30352 7.96512e-08
0.309308 7.95769e-08
0.313721 7.95211e-08
0.320458 7.94377e-08
0.327341 7.93541e-08
0.335931 7.93862e-08
0.342521 7.94106e-08
0.347549 7.94287e-08
0.355229 7.9456e-08
0.363078 7.94833e-08
0.372606 7.96625e-08
0.379916 7.97968e-08
0.385492 7.98976e-08
0.39401 8.00498e-08
0.402717 8.02018e-08
0.412098 8.05021e-08
0.419276 8.07282e-08
0.430279 8.10678e-08
0.44157 8.14094e-08
0.451856 8.18552e-08
0.459727 8.2191e-08
0.471791 8.26974e-08
0.484172 8.3207e-08
0.49545 8.38172e-08
0.504081 8.42778e-08
0.517309 8.49736e-08
0.530884 8.5675e-08
0.541689 8.63624e-08
0.549936 8.68817e-08
0.562544 8.76664e-08
0.57544 8.84583e-08
0.587151 8.93072e-08
0.596091 8.99494e-08
0.609756 9.09212e-08
0.623735 9.19037e-08
0.636429 9.29417e-08
0.655956 9.45205e-08
0.676083 9.61261e-08
0.689843 9.7376e-08
0.711009 9.92813e-08
0.732824 1.01224e-07
0.74907 1.02851e-07
0.76149 1.04088e-07
0.780508 1.05971e-07
0.8 1.07889e-07
0.819535 1.10125e-07
0.834499 1.11832e-07
0.857458 1.14442e-07
0.881049 1.17114e-07
0.900275 1.1946e-07
0.917441 1.2155e-07
0.948274 1.25298e-07
0.972076 1.28184e-07
0.990319 1.30392e-07
1.01833 1.33776e-07
1.04713 1.37247e-07
1.08393 1.41783e-07
1.11237 1.45282e-07
1.13419 1.47962e-07
1.16773 1.52078e-07
1.20226 1.56307e-07
1.23027 1.59983e-07
1.2735 1.6566e-07
1.31826 1.71538e-07
1.36458 1.78133e-07
1.41254 1.84981e-07
1.46218 1.92701e-07
1.51356 2.00743e-07
1.56675 2.09954e-07
1.62181 2.19588e-07
1.6885 2.32286e-07
1.75792 2.45718e-07
1.83021 2.60814e-07
1.90546 2.76836e-07
1.98381 2.94317e-07
2.04468 3.08148e-07
2.1395 3.30125e-07
2.23872 3.53668e-07
2.31073 3.7178e-07
2.42312 4.00705e-07
2.54097 4.3188e-07
2.63027 4.56923e-07
2.69929 4.76653e-07
2.80624 5.07858e-07
2.91743 5.41107e-07
3.02866 5.76261e-07
3.11485 6.04117e-07
3.24877 6.48445e-07
3.38844 6.96029e-07
3.53195 7.47805e-07
3.64356 7.89152e-07
3.81762 8.555e-07
4 9.27424e-07
4.18355 1.00417e-06
4.32672 1.06587e-06
4.55071 1.16561e-06
4.7863 1.27467e-06
5.02632 1.39283e-06
5.2142 1.48858e-06
5.50927 1.6447e-06
5.82103 1.81719e-06
5.99964 1.92155e-06
6.32548 2.1188e-06
6.58143 2.27992e-06
6.78016 2.40875e-06
7.08957 2.61577e-06
7.4131 2.84058e-06
7.65156 3.01466e-06
8.08747 3.34537e-06
8.43062 3.61699e-06
8.6975 3.83509e-06
9.11375 4.18714e-06
9.54993 4.57151e-06
9.9426 4.93744e-06
10.2994 5.28156e-06
10.6221 5.6023e-06
11.2114 6.21119e-06
11.6746 6.7109e-06
12.0346 7.11187e-06
12.5955 7.75872e-06
13.1826 8.46439e-06
13.7642 9.20174e-06
14.2941 9.89941e-06
14.7745 1.05532e-05
15.6543 1.18028e-05
16.3484 1.28362e-05
16.8891 1.36702e-05
17.7339 1.50239e-05
18.6209 1.65116e-05
19.595 1.82422e-05
20.489 1.99046e-05
21.3047 2.1483e-05
22.0451 2.29664e-05
23.4031 2.58132e-05
24.4762 2.81775e-05
25.3132 3.0092e-05
26.6227 3.321e-05
28 3.66511e-05
29.0167 3.93217e-05
30.0034 4.20019e-05
30.9588 4.46802e-05
32.8331 5.01708e-05
34.5659 5.55256e-05
36.1569 6.06785e-05
37.6091 6.55777e-05
38.9275 7.01882e-05
41.3468 7.90496e-05
43.2595 8.64221e-05
44.7519 9.23998e-05
47.0875 0.00010215
49.545 0.00011293
51.7309 0.000123031
53.8677 0.000133321
55.951 0.000143746
57.9772 0.000154261
59.9434 0.000164816
61.8472 0.000175364
65.5813 0.000196998
69.0331 0.000218105
72.2022 0.000238424
75.0942 0.000257747
77.7196 0.000275935
82.5369 0.000310912
86.3448 0.000340021
89.3155 0.000363628
93.9644 0.000402152
98.8553 0.000444751
103.217 0.00048471
107.48 0.000525423
111.637 0.000566694
115.68 0.000608318
119.603 0.000650122
127.32 0.00073639
134.481 0.000821227
141.076 0.000903426
147.112 0.000982064
152.604 0.00105649
157.578 0.00112622
166.675 0.0012595
173.842 0.00136973
179.418 0.00145862
188.119 0.00160301
197.242 0.00176163
205.975 0.00192084
214.513 0.00208316
222.838 0.00224771
230.936 0.00241372
238.795 0.00258052
254.259 0.002925
268.609 0.00326403
281.828 0.00359252
293.927 0.00390726
304.939 0.00420515
314.913 0.004484
333.158 0.005018
347.532 0.00545963
358.719 0.00581611
376.177 0.00639481
394.485 0.00703149
411.828 0.0076622
428.779 0.00830491
445.304 0.00895644
461.374 0.00961384
476.966 0.0102735
507.635 0.011635
536.083 0.0129734
562.281 0.0142704
586.252 0.0155111
608.063 0.0166848
627.813 0.0177843
663.93 0.0198861
692.376 0.0216239
737.345 0.0245193
785.236 0.0278026
820.001 0.0303188
853.991 0.0328841
887.135 0.0354858
919.375 0.0381115
950.664 0.0407498
1012.23 0.0461974
1069.37 0.0515603
1122 0.05676
1170.18 0.0617386
1214.02 0.0664502
1253.73 0.0708689
1326.37 0.0793178
1383.59 0.0863084
1428.12 0.0919536
1497.61 0.101119
1570.47 0.111197
1640.01 0.121259
1708 0.131523
1774.29 0.141926
1838.78 0.152431
1901.36 0.162983
2024.49 0.184777
2138.75 0.20622
2244.01 0.227015
2340.35 0.246926
2428.03 0.265769
2507.45 0.283441
2652.71 0.317223
2767.16 0.345184
2856.22 0.36776
2995.2 0.40443
3140.94 0.444725
3280.01 0.484961
3415.98 0.526003
3548.56 0.567627
3677.52 0.609656
3802.68 0.65183
4048.94 0.738986
4277.45 0.824732
4487.96 0.907933
4680.64 0.987542
4856 1.06291
5014.83 1.13358
5305.36 1.26872
5534.26 1.38054
5712.39 1.47083
5990.38 1.61747
6281.88 1.77868
6560.02 1.93968
6831.94 2.1038
7097.09 2.27023
7355.01 2.43824
7605.32 2.60701
8097.82 2.95556
8554.96 3.29862
8976.07 3.63133
9361.51 3.94984
9712.56 4.25164
10031 4.53491
10613 5.07664
11071 5.5241
11427 5.88483
11982 6.47015
12564 7.11422
13121 7.75894
13666 8.41683
14197 9.08346
14713 9.75553
15215 10.4328
16200 11.8269
17115 13.2007
17957 14.5313
18728 15.8054
19430 17.0128
20066 18.1449
21227 20.3046
22142 22.0931
22854 23.5369
23964 25.8778
25128 28.4529
26241 31.0286
27329 33.6542
28391 36.3223
29423 39.0102
30425 41.7106
32396 47.2901
34224 52.7772
35909 58.1011
37451 63.2016
38854 68.0225
40125 72.5479
42448 81.188
44279 88.3427
45704 94.1191
47926 103.492
50255 113.793
52464 124.016
54623 134.432
56728 144.99
58775 155.643
60761 166.338
64666 188.402
68289 210.106
71624 231.125
74676 251.241
77453 270.271
79968 288.11
84565 322.184
88185 350.351
93907 397.283
