1.238e-05 100000 3151
3151
1.238e-05 2.21742e-08
1.2735e-05 2.43358e-08
1.33352e-05 2.81074e-08
1.4e-05 3.24828e-08
1.47911e-05 3.79679e-08
1.57e-05 4.46209e-08
1.65959e-05 5.15252e-08
1.6788e-05 5.30485e-08
1.77828e-05 6.12005e-08
1.8e-05 6.30309e-08
1.90546e-05 7.21851e-08
1.92753e-05 7.41521e-08
2.033e-05 8.37805e-08
2.033e-05 8.75241e-08
2.04174e-05 8.84347e-08
2.07e-05 9.1389e-08
2.09897e-05 9.44486e-08
2.12569e-05 9.73142e-08
2.14851e-05 9.98271e-08
2.14985e-05 9.99762e-08
2.21309e-05 1.0716e-07
2.22849e-05 1.08922e-07
2.23e-05 1.09097e-07
2.30465e-05 1.17806e-07
2.31e-05 1.1845e-07
2.32623e-05 1.20425e-07
2.37137e-05 1.26038e-07
2.4e-05 1.2963e-07
2.42661e-05 1.3298e-07
2.43e-05 1.33407e-07
2.48313e-05 1.40123e-07
2.48837e-05 1.40786e-07
2.51189e-05 1.43832e-07
2.55e-05 1.48861e-07
2.58e-05 1.5282e-07
2.60016e-05 1.55487e-07
2.63027e-05 1.59481e-07
2.68108e-05 1.66213e-07
2.69823e-05 1.68554e-07
2.7e-05 1.68799e-07
2.78612e-05 1.80698e-07
2.8e-05 1.82605e-07
2.89e-05 1.95019e-07
2.89108e-05 1.95167e-07
2.9079e-05 1.97531e-07
3e-05 2.10715e-07
3.01995e-05 2.13539e-07
3.11288e-05 2.26687e-07
3.12608e-05 2.28612e-07
3.12608e-05 2.28612e-07
3.23e-05 2.43773e-07
3.23594e-05 2.44638e-07
3.26e-05 2.48144e-07
3.34658e-05 2.60511e-07
3.34965e-05 2.60963e-07
3.4e-05 2.68479e-07
3.46737e-05 2.78331e-07
3.57e-05 2.93209e-07
3.58922e-05 2.95916e-07
3.71535e-05 3.14522e-07
3.75837e-05 3.20809e-07
3.82384e-05 3.30084e-07
3.84592e-05 3.33291e-07
3.9355e-05 3.46403e-07
3.98107e-05 3.5299e-07
4.05042e-05 3.62717e-07
4.09879e-05 3.69653e-07
4.16869e-05 3.79683e-07
4.22e-05 3.86991e-07
4.31519e-05 4.00027e-07
4.35775e-05 4.06026e-07
4.46684e-05 4.2133e-07
4.5e-05 4.25928e-07
4.59727e-05 4.38953e-07
4.64758e-05 4.45814e-07
4.73151e-05 4.57239e-07
4.8e-05 4.66439e-07
4.89779e-05 4.79008e-07
4.96159e-05 4.87457e-07
5.06991e-05 5.01626e-07
5.12861e-05 5.09076e-07
5.15e-05 5.11746e-07
5.15822e-05 5.12753e-07
5.21904e-05 5.20456e-07
5.29359e-05 5.29738e-07
5.35768e-05 5.37886e-07
5.4325e-05 5.47291e-07
5.5e-05 5.55521e-07
5.52713e-05 5.58737e-07
5.59738e-05 5.67291e-07
5.67218e-05 5.7621e-07
5.7467e-05 5.85283e-07
5.82103e-05 5.94199e-07
5.9e-05 6.0341e-07
5.9395e-05 6.0788e-07
6.01713e-05 6.16979e-07
6.12174e-05 6.28867e-07
6.19719e-05 6.37671e-07
6.30957e-05 6.50479e-07
6.38264e-05 6.58556e-07
6.43799e-05 6.64493e-07
6.51253e-05 6.72769e-07
6.5502e-05 6.76944e-07
6.63552e-05 6.86146e-07
6.71236e-05 6.94767e-07
6.8e-05 7.04492e-07
6.83912e-05 7.08577e-07
6.91831e-05 7.16942e-07
6.99867e-05 7.25123e-07
7.05918e-05 7.31383e-07
7.07946e-05 7.3347e-07
7.12077e-05 7.37775e-07
7.20278e-05 7.46579e-07
7.30792e-05 7.57473e-07
7.32824e-05 7.59672e-07
7.3918e-05 7.66295e-07
7.5e-05 7.77328e-07
7.58578e-05 7.85956e-07
7.58578e-05 7.85956e-07
7.69655e-05 7.96946e-07
7.78484e-05 8.05754e-07
7.84733e-05 8.11874e-07
7.85236e-05 8.12399e-07
7.93757e-05 8.21e-07
8.07906e-05 8.34637e-07
8.1627e-05 8.42852e-07
8.17229e-05 8.43803e-07
8.31764e-05 8.58146e-07
8.41395e-05 8.673e-07
8.45036e-05 8.70674e-07
8.4853e-05 8.74105e-07
8.54261e-05 8.79571e-07
8.68773e-05 8.92838e-07
8.77251e-05 9.006e-07
8.79698e-05 9.02845e-07
8.87012e-05 9.09657e-07
8.94898e-05 9.1709e-07
9.00943e-05 9.2267e-07
9.08367e-05 9.29688e-07
9.12011e-05 9.3311e-07
9.2225e-05 9.42382e-07
9.2895e-05 9.48603e-07
9.44061e-05 9.62055e-07
9.5e-05 9.67188e-07
9.50206e-05 9.67365e-07
9.60506e-05 9.766e-07
9.65791e-05 9.81361e-07
9.7513e-05 9.8956e-07
9.79823e-05 9.93799e-07
9.9e-05 1.00283e-06
0.000100126 1.01233e-06
0.000100487 1.01549e-06
0.000102132 1.0294e-06
0.000102408 1.03172e-06
0.000103402 1.03994e-06
0.000103662 1.04219e-06
0.000103872 1.04411e-06
0.000106001 1.06264e-06
0.000106108 1.06358e-06
0.000108 1.0796e-06
0.000108393 1.08273e-06
0.000110007 1.09568e-06
0.000110281 1.0978e-06
0.000110616 1.10052e-06
0.00011196 1.11156e-06
0.00011289 1.11919e-06
0.000114659 1.13291e-06
0.00011496 1.13527e-06
0.000115102 1.13648e-06
0.000116789 1.15042e-06
0.000117263 1.15417e-06
0.00011885 1.16668e-06
0.00011902 1.16798e-06
0.000119366 1.17077e-06
0.000121705 1.18871e-06
0.000121969 1.19071e-06
0.000122 1.19097e-06
0.00012372 1.20474e-06
0.000124452 1.21031e-06
0.000126437 1.22474e-06
0.000126789 1.22722e-06
0.000126802 1.22732e-06
0.000128201 1.23832e-06
0.00012914 1.24568e-06
0.000130932 1.25885e-06
0.000131346 1.26176e-06
0.000131826 1.26532e-06
0.000133667 1.27874e-06
0.000133756 1.27937e-06
0.000135592 1.29235e-06
0.000135675 1.29293e-06
0.000136458 1.29881e-06
0.000138394 1.31235e-06
0.000138436 1.31265e-06
0.000138636 1.31411e-06
0.000141254 1.33333e-06
0.000141967 1.33822e-06
0.000143198 1.34646e-06
0.000143301 1.3472e-06
0.000144674 1.35743e-06
0.000146738 1.37163e-06
0.000146956 1.37307e-06
0.000147911 1.3797e-06
0.000149758 1.39223e-06
0.00014989 1.39313e-06
0.000151895 1.40635e-06
0.00015223 1.40854e-06
0.000153109 1.41468e-06
0.000155157 1.42796e-06
0.000155352 1.42924e-06
0.000155552 1.43059e-06
0.000158489 1.4507e-06
0.000159356 1.4562e-06
0.000160671 1.46433e-06
0.000161031 1.46675e-06
0.000162427 1.47623e-06
0.000163288 1.48187e-06
0.000164769 1.4916e-06
0.000165959 1.49904e-06
0.000167315 1.50756e-06
0.000168346 1.51413e-06
0.0001704 1.52649e-06
0.000170805 1.52889e-06
0.000172 1.5365e-06
0.000172751 1.54112e-06
0.000174532 1.55199e-06
0.000174718 1.5532e-06
0.000176338 1.56351e-06
0.000177131 1.56861e-06
0.00018 1.58574e-06
0.000180276 1.58731e-06
0.000181435 1.59476e-06
0.000183121 1.60516e-06
0.000184732 1.61478e-06
0.000185896 1.62136e-06
0.000186209 1.62314e-06
0.000187243 1.62945e-06
0.000188359 1.63605e-06
0.000191075 1.65142e-06
0.000191646 1.65444e-06
0.000192748 1.66086e-06
0.000194984 1.67367e-06
0.000195828 1.67821e-06
0.000196107 1.6799e-06
0.000198664 1.69511e-06
0.000199526 1.70007e-06
0.000202273 1.71487e-06
0.000202563 1.71659e-06
0.000203587 1.7229e-06
0.000206538 1.73988e-06
0.000207208 1.74355e-06
0.00020893 1.75265e-06
0.000209985 1.75842e-06
0.000210429 1.7609e-06
0.000213268 1.77576e-06
0.000213288 1.77587e-06
0.00021503 1.78463e-06
0.000216393 1.792e-06
0.000218386 1.80238e-06
0.000219364 1.80723e-06
0.000219723 1.80904e-06
0.000222186 1.82273e-06
0.00022229 1.8233e-06
0.000225263 1.839e-06
0.000226954 1.84703e-06
0.000227577 1.85047e-06
0.000229797 1.86291e-06
0.0002324 1.87626e-06
0.000234423 1.8861e-06
0.000236705 1.89781e-06
0.000238506 1.90666e-06
0.000240537 1.91586e-06
0.000241268 1.91911e-06
0.000242399 1.92489e-06
0.00024394 1.93244e-06
0.000246107 1.94279e-06
0.000246533 1.94474e-06
0.000249633 1.96051e-06
0.000250013 1.96232e-06
0.000252986 1.97643e-06
0.000254646 1.98359e-06
0.000254667 1.98369e-06
0.000258214 2.00191e-06
0.000259394 2.00766e-06
0.000263027 2.02397e-06
0.000263627 2.02687e-06
0.000265133 2.03433e-06
0.000269154 2.05232e-06
0.00027026 2.05698e-06
0.000271819 2.06329e-06
0.000274827 2.0771e-06
0.00027582 2.08134e-06
0.000278606 2.0931e-06
0.000278886 2.09441e-06
0.000281788 2.10728e-06
0.000282487 2.11033e-06
0.000283807 2.11599e-06
0.000287116 2.13136e-06
0.000288901 2.13918e-06
0.000291791 2.15084e-06
0.00029186 2.15117e-06
0.000293806 2.16048e-06
0.000296076 2.17062e-06
0.00029754 2.17691e-06
0.000299814 2.18606e-06
0.0003 2.18681e-06
0.000303231 2.20087e-06
0.000306359 2.21289e-06
0.000306471 2.21336e-06
0.00030903 2.22435e-06
0.00031156 2.23422e-06
0.000312034 2.23607e-06
0.000314413 2.24698e-06
0.0003192 2.26628e-06
0.000319353 2.26684e-06
0.000322219 2.27752e-06
0.000323448 2.28294e-06
0.000327341 2.29879e-06
0.000330076 2.30893e-06
0.000331019 2.31285e-06
0.000333043 2.32104e-06
0.000336094 2.3327e-06
0.000336814 2.33582e-06
0.000338113 2.34136e-06
0.000341226 2.35408e-06
0.000342614 2.35937e-06
0.000345327 2.36941e-06
0.000347954 2.3806e-06
0.000350634 2.39121e-06
0.000354813 2.40651e-06
0.000356771 2.41411e-06
0.000360475 2.42751e-06
0.000361445 2.43074e-06
0.000361514 2.43098e-06
0.000365503 2.4474e-06
0.000368571 2.45872e-06
0.000373546 2.47513e-06
0.000374471 2.47875e-06
0.000375837 2.48406e-06
0.000381285 2.5033e-06
0.000381341 2.50349e-06
0.000382832 2.50835e-06
0.000386117 2.52057e-06
0.000386576 2.52225e-06
0.000389947 2.534e-06
0.000394564 2.5514e-06
0.00039472 2.55195e-06
0.000400869 2.5725e-06
0.000401298 2.57417e-06
0.000402717 2.57977e-06
0.000403 2.58088e-06
0.000403 4.60806e-05
0.00040485 4.62848e-05
0.000406303 4.64462e-05
0.00040738 4.65635e-05
0.000409143 4.67113e-05
0.000412098 4.69443e-05
0.000413928 4.70806e-05
0.00041485 4.71465e-05
0.0004155 4.7192e-05
0.000419908 4.77334e-05
0.000421697 4.79448e-05
0.000425354 4.85371e-05
0.000428425 4.9028e-05
0.00042891 4.91046e-05
0.000433192 4.97724e-05
0.000434401 4.99717e-05
0.000435574 5.01641e-05
0.000435787 5.0199e-05
0.000439698 5.08335e-05
0.000443401 5.14215e-05
0.000445 5.16724e-05
0.000446311 5.18532e-05
0.000449123 5.22339e-05
0.000455 5.29965e-05
0.000455406 5.30412e-05
0.000456325 5.31421e-05
0.000457088 5.32251e-05
0.000461802 5.37163e-05
0.000464382 5.39694e-05
0.000467735 5.42812e-05
0.000470141 5.44687e-05
0.000470859 5.45226e-05
0.000476289 5.48965e-05
0.0004766 5.4921e-05
0.00047863 5.50765e-05
0.000481393 5.52756e-05
0.000485 5.5516e-05
0.000486267 5.56033e-05
0.000486817 5.56403e-05
0.000491898 5.59536e-05
0.00049305 5.6018e-05
0.000494623 5.61018e-05
0.000496085 5.61749e-05
0.000499062 5.63654e-05
0.000499927 5.64176e-05
0.000500559 5.64553e-05
0.000504565 5.66757e-05
0.000509598 5.70053e-05
0.00050976 5.70151e-05
0.000512216 5.71583e-05
0.000517558 5.74337e-05
0.000517934 5.74596e-05
0.0005188 5.75184e-05
0.00052415 5.7852e-05
0.000524808 5.78894e-05
0.000528316 5.80772e-05
0.000530884 5.81999e-05
0.000533615 5.83941e-05
0.000533949 5.84171e-05
0.000536786 5.86069e-05
0.000540183 5.88162e-05
0.00054325 5.90491e-05
0.000544308 5.91261e-05
0.000550332 5.95303e-05
0.000550976 5.95707e-05
0.000552713 5.96761e-05
0.00055685 5.99068e-05
0.000561129 6.02106e-05
0.000562843 6.03246e-05
0.000562949 6.03314e-05
0.000568597 6.06771e-05
0.000569687 6.0738e-05
0.000571911 6.0893e-05
0.0005726 6.09395e-05
0.000578808 6.13306e-05
0.000579508 6.1371e-05
0.000581907 6.1545e-05
0.000587389 6.19122e-05
0.000589309 6.20319e-05
0.000592093 6.21958e-05
0.000594559 6.23312e-05
0.00059985 6.27012e-05
0.0006 6.27111e-05
0.00060256 6.28757e-05
0.000607984 6.31961e-05
0.00061 6.33041e-05
0.000611676 6.34008e-05
0.000613956 6.35259e-05
0.000615565 6.36106e-05
0.000620508 6.38464e-05
0.000622757 6.39822e-05
0.000623735 6.4039e-05
0.000624105 6.40602e-05
0.000636429 6.46627e-05
0.000636472 6.46644e-05
0.00063661 6.467e-05
0.00064227 6.49944e-05
0.000648564 6.53088e-05
0.000648719 6.53158e-05
0.000653131 6.55022e-05
0.00065624 6.56621e-05
0.000659629 6.58235e-05
0.000660151 6.5847e-05
0.000666916 6.61169e-05
0.000669325 6.61987e-05
0.00067027 6.62284e-05
0.000671202 6.62762e-05
0.000677926 6.65873e-05
0.00068173 6.67363e-05
0.000683258 6.67906e-05
0.000685636 6.68706e-05
0.00069175 6.71531e-05
0.000693245 6.72149e-05
0.00069937 6.74371e-05
0.0007 6.7467e-05
0.000701277 6.75268e-05
0.000704961 6.76881e-05
0.000710329 6.7892e-05
0.000711613 6.79353e-05
0.000713199 6.80075e-05
0.000713878 6.80379e-05
0.00071892 6.82458e-05
0.000722501 6.83744e-05
0.000724952 6.84952e-05
0.000727465 6.86137e-05
0.00073531 6.89358e-05
0.00074131 6.91319e-05
0.000741957 6.91503e-05
0.000745988 6.93314e-05
0.000749958 6.94949e-05
0.000751515 6.95542e-05
0.000756892 6.9737e-05
0.000761209 6.99203e-05
0.000762165 6.99582e-05
0.000763013 6.99914e-05
0.00076829 7.01801e-05
0.000770411 7.02785e-05
0.000774527 7.04558e-05
0.000774623 7.04598e-05
0.000784927 7.08287e-05
0.000785711 7.08519e-05
0.000787965 7.09549e-05
0.000793448 7.11837e-05
0.000794055 7.12075e-05
0.000803526 7.15295e-05
0.000803653 7.1535e-05
0.000810285 7.17944e-05
0.000812831 7.1882e-05
0.000817636 7.20321e-05
0.000822675 7.21628e-05
0.000824613 7.22058e-05
0.000830071 7.24057e-05
0.000835363 7.25707e-05
0.00084079 7.27146e-05
0.000841106 7.27262e-05
0.000841616 7.27449e-05
0.000850882 7.30402e-05
0.000853131 7.30989e-05
0.00085559 7.31922e-05
0.000860994 7.33814e-05
0.000868264 7.35919e-05
0.000871983 7.36795e-05
0.00087369 7.3744e-05
0.000875992 7.38283e-05
0.000881534 7.40118e-05
0.000889329 7.42214e-05
0.000889842 7.42332e-05
0.000891251 7.42651e-05
0.000901166 7.45691e-05
0.000901819 7.4586e-05
0.000904219 7.46448e-05
0.000911652 7.47978e-05
0.000913324 7.4825e-05
0.000922571 7.50962e-05
0.00092994 7.5258e-05
0.000930298 7.52648e-05
0.000933086 7.53146e-05
0.000938642 7.54791e-05
0.000944531 7.56249e-05
0.000949711 7.57284e-05
0.000950729 7.57465e-05
0.000952933 7.58121e-05
0.00095535 7.58795e-05
0.000964814 7.60969e-05
0.000965617 7.61123e-05
0.000966439 7.61276e-05
0.000971809 7.62754e-05
0.000976853 7.63933e-05
0.000980399 7.64637e-05
0.00098792 7.66887e-05
0.000988553 7.67061e-05
0.000996832 7.69052e-05
0.00100144 7.69925e-05
0.00100531 7.70526e-05
0.00101158 7.72258e-05
0.00101208 7.72388e-05
0.00101285 7.72581e-05
0.00102368 7.74829e-05
0.00102442 7.7495e-05
0.00103068 7.7686e-05
0.00103314 7.77548e-05
0.00104131 7.79526e-05
0.00104769 7.8073e-05
0.00104863 7.80886e-05
0.00105375 7.81631e-05
0.00105925 7.83314e-05
0.00106039 7.83637e-05
0.00107771 7.87457e-05
0.00107814 7.87526e-05
0.00107828 7.87547e-05
0.00108393 7.88356e-05
0.00109411 7.90475e-05
0.00109648 7.90865e-05
0.00110122 7.9153e-05
0.00110156 7.91623e-05
0.00110868 7.93442e-05
0.00111397 7.94585e-05
0.00111945 7.95573e-05
0.00112158 7.95915e-05
0.00112951 7.96922e-05
0.00113216 7.97163e-05
0.00114328 7.99559e-05
0.00114452 7.99777e-05
0.00114684 8.00164e-05
0.00115592 8.01396e-05
0.00116203 8.02686e-05
0.00116779 8.03699e-05
0.00117408 8.04568e-05
0.0011749 8.04769e-05
0.00117534 8.04878e-05
0.00118652 8.07262e-05
0.00119559 8.08654e-05
0.00119709 8.08835e-05
0.00120076 8.09243e-05
0.00120185 8.09348e-05
0.00121619 8.12317e-05
0.00121684 8.12425e-05
0.00122244 8.1327e-05
0.00123027 8.14148e-05
0.0012344 8.14987e-05
0.00123737 8.1555e-05
0.00124452 8.16705e-05
0.00125621 8.17977e-05
0.00125893 8.18159e-05
0.00126573 8.19401e-05
0.00126619 8.1948e-05
0.00127293 8.20494e-05
0.00128455 8.21663e-05
0.00128547 8.21837e-05
0.00128774 8.22246e-05
0.00128975 8.22584e-05
0.00130258 8.24342e-05
0.00130739 8.24777e-05
0.00131408 8.25887e-05
0.00131774 8.26399e-05
0.00132664 8.27363e-05
0.00132772 8.2746e-05
0.00133419 8.28775e-05
0.00134469 8.30486e-05
0.00134947 8.31091e-05
0.00136405 8.32226e-05
0.00136458 8.32326e-05
0.00136526 8.32454e-05
0.00137272 8.3372e-05
0.0013809 8.34814e-05
0.00139194 8.35788e-05
0.00139236 8.35857e-05
0.00139637 8.36513e-05
0.00140469 8.37643e-05
0.00141324 8.38475e-05
0.00141712 8.39181e-05
0.00142069 8.39788e-05
0.00142889 8.40976e-05
0.00143915 8.42046e-05
0.00144232 8.42299e-05
0.00144544 8.42503e-05
0.0014458 8.42524e-05
0.00146112 8.4496e-05
0.00146152 8.4501e-05
0.00147853 8.46531e-05
0.00147853 8.46531e-05
0.00147911 8.46565e-05
0.001491 8.48164e-05
0.00150877 8.49468e-05
0.00150877 8.4947e-05
0.00151138 8.49559e-05
0.00151763 8.50404e-05
0.00153185 8.51751e-05
0.00153185 8.51751e-05
0.0015402 8.522e-05
0.00154133 8.52355e-05
0.0015494 8.53315e-05
0.00156237 8.54333e-05
0.00156587 8.54493e-05
0.00156714 8.54652e-05
0.00157609 8.55647e-05
0.00158102 8.56068e-05
0.00158868 8.56541e-05
0.00160325 8.58447e-05
0.00161418 8.59424e-05
0.0016294 8.60051e-05
0.00163117 8.60286e-05
0.00163587 8.60851e-05
0.00163951 8.61255e-05
0.00165601 8.62509e-05
0.00165877 8.62623e-05
0.00166062 8.62687e-05
0.00166497 8.63178e-05
0.00167805 8.64326e-05
0.00168443 8.64674e-05
0.00168808 8.65154e-05
0.00169085 8.6549e-05
0.00169757 8.6624e-05
0.00171791 8.67607e-05
0.00172079 8.67689e-05
0.0017323 8.69039e-05
0.00173712 8.69483e-05
0.00175087 8.70424e-05
0.00175792 8.70672e-05
0.0017588 8.7077e-05
0.00177264 8.72005e-05
0.00177894 8.72398e-05
0.00178023 8.72463e-05
0.0017937 8.72837e-05
0.00179977 8.73413e-05
0.00180632 8.73944e-05
0.00180959 8.74163e-05
0.0018256 8.74764e-05
0.00182947 8.75119e-05
0.00184077 8.75913e-05
0.00184123 8.75936e-05
0.00184996 8.7633e-05
0.00185398 8.76436e-05
0.00186745 8.77438e-05
0.00187918 8.77892e-05
0.00188365 8.78371e-05
0.00188638 8.78647e-05
0.00189112 8.79081e-05
0.00191207 8.80272e-05
0.00191417 8.80324e-05
0.00191922 8.804e-05
0.00192409 8.80425e-05
0.00193527 8.81375e-05
0.0019493 8.82108e-05
0.0019509 8.82158e-05
0.00195848 8.8233e-05
0.00196737 8.83277e-05
0.00197769 8.84137e-05
0.00197904 8.8423e-05
0.00199926 8.8516e-05
0.002 8.85174e-05
0.00201122 8.85217e-05
0.00202928 8.86883e-05
0.00203131 8.87032e-05
0.00203205 8.87085e-05
0.00205911 8.88086e-05
0.00206538 8.88062e-05
0.00206779 8.88263e-05
0.00208374 8.89326e-05
0.00209715 8.89765e-05
0.00210438 8.89853e-05
0.00211349 8.89785e-05
0.00212757 8.90706e-05
0.00213912 8.91136e-05
0.00214198 8.91196e-05
0.0021565 8.91278e-05
0.00216104 8.91592e-05
0.00216998 8.92085e-05
0.00218649 8.92543e-05
0.00218776 8.92554e-05
0.00219486 8.92573e-05
0.00219734 8.92737e-05
0.00222157 8.93654e-05
0.00222522 8.93684e-05
0.00222898 8.93687e-05
0.00223298 8.93911e-05
0.00225926 8.94676e-05
0.00226462 8.95083e-05
0.00226464 8.95085e-05
0.00227332 8.95629e-05
0.00229745 8.96457e-05
0.00230741 8.9646e-05
0.0023092 8.9644e-05
0.00231327 8.96381e-05
0.00232239 8.96936e-05
0.00234107 8.97585e-05
0.00234549 8.97658e-05
0.00235461 8.97691e-05
0.0023603 8.98e-05
0.00237933 8.98605e-05
0.0023861 8.9866e-05
0.0023979 8.99354e-05
0.00239883 8.99402e-05
0.00240934 8.99843e-05
0.00243414 9.00104e-05
0.00243591 9.00222e-05
0.00244143 9.00556e-05
0.00244765 9.00891e-05
0.00247459 9.01582e-05
0.00248311 9.01566e-05
0.00248313 9.01566e-05
0.00249119 9.02035e-05
0.00251911 9.02842e-05
0.00252518 9.02845e-05
0.00252991 9.02822e-05
0.00254463 9.02505e-05
0.00254645 9.02605e-05
0.00256429 9.03321e-05
0.0025768 9.03523e-05
0.00258802 9.03524e-05
0.00259475 9.03427e-05
0.00259969 9.03308e-05
0.00262171 9.0404e-05
0.00263027 9.04125e-05
0.00263221 9.04128e-05
0.00264885 9.03979e-05
0.00266955 9.04594e-05
0.00268167 9.0466e-05
0.0026838 9.04655e-05
0.00269262 9.04565e-05
0.00270601 9.04982e-05
0.00272571 9.05128e-05
0.00273151 9.05079e-05
0.00273153 9.0508e-05
0.00276162 9.06253e-05
0.00276484 9.06305e-05
0.00277399 9.06408e-05
0.00280093 9.06023e-05
0.00281169 9.06444e-05
0.00281838 9.0663e-05
0.00283467 9.06836e-05
0.00284509 9.06821e-05
0.00285415 9.06689e-05
0.00285718 9.06797e-05
0.00287465 9.07198e-05
0.0028882 9.07238e-05
0.00289404 9.07197e-05
0.00289473 9.0719e-05
0.0029271 9.08156e-05
0.00292901 9.08173e-05
0.00292902 9.08173e-05
0.00295668 9.07983e-05
0.0029622 9.0823e-05
0.00296708 9.08418e-05
0.0029913 9.08944e-05
0.00299365 9.08965e-05
0.00299741 9.08987e-05
0.00301995 9.08757e-05
0.0030435 9.08975e-05
0.00305352 9.0887e-05
0.00305492 9.08846e-05
0.00305932 9.08767e-05
0.00309029 9.09535e-05
0.00310689 9.09504e-05
0.00312158 9.09214e-05
0.00312383 9.09154e-05
0.00313453 9.08792e-05
0.00315435 9.09286e-05
0.00315666 9.09317e-05
0.00318111 9.09288e-05
0.0031888 9.09165e-05
0.00319648 9.08978e-05
0.00320185 9.08808e-05
0.0032338 9.09246e-05
0.00323412 9.09245e-05
0.003252 9.09064e-05
0.00326194 9.08818e-05
0.00328123 9.09125e-05
0.00330016 9.09123e-05
0.00331239 9.08929e-05
0.00331544 9.08857e-05
0.00335082 9.0905e-05
0.00336297 9.08833e-05
0.00336533 9.08914e-05
0.00337002 9.09078e-05
0.00338932 9.09541e-05
0.00342496 9.09487e-05
0.00342981 9.09387e-05
0.0034478 9.0886e-05
0.00344792 9.08863e-05
0.00347728 9.09305e-05
0.00347899 9.09307e-05
0.00350752 9.09028e-05
0.00351283 9.08893e-05
0.00352705 9.09102e-05
0.00355324 9.09029e-05
0.00355407 9.09017e-05
0.0035624 9.08888e-05
0.00357436 9.09204e-05
0.00359665 9.0948e-05
0.00361929 9.09334e-05
0.00363078 9.09094e-05
0.00363783 9.08909e-05
0.00363807 9.08902e-05
0.00366193 9.09406e-05
0.00367686 9.09493e-05
0.00370236 9.09223e-05
0.00371535 9.0888e-05
0.0037207 9.0891e-05
0.00374066 9.0889e-05
0.00375118 9.08754e-05
0.00376379 9.08474e-05
0.00380121 9.08865e-05
0.00381355 9.08799e-05
0.00381743 9.08753e-05
0.00385631 9.07659e-05
0.00387308 9.07881e-05
0.00387637 9.07909e-05
0.0038785 9.07923e-05
0.00392868 9.07304e-05
0.00393623 9.07049e-05
0.00393708 9.07017e-05
0.00393913 9.06944e-05
0.00397504 9.07112e-05
0.00398745 9.06961e-05
0.00399395 9.0684e-05
0.00401306 9.06357e-05
0.00401605 9.06395e-05
0.00403282 9.06501e-05
0.00407888 9.05821e-05
0.00408883 9.05877e-05
0.00409545 9.05881e-05
0.00411345 9.05795e-05
0.00413736 9.05354e-05
0.00414428 9.05498e-05
0.00417327 9.05781e-05
0.00417498 9.05785e-05
0.00418636 9.05767e-05
0.00422174 9.05188e-05
0.0042326 9.04849e-05
0.00424172 9.04524e-05
0.00425029 9.04641e-05
0.00429285 9.04574e-05
0.00431519 9.04101e-05
0.00432172 9.03905e-05
0.00432318 9.03916e-05
0.00436516 9.03818e-05
0.00437774 9.03589e-05
0.00438271 9.03473e-05
0.0044157 9.0373e-05
0.00442843 9.03696e-05
0.0044372 9.03621e-05
0.00447581 9.0277e-05
0.00448858 9.02933e-05
0.00449368 9.02975e-05
0.00451856 9.02981e-05
0.00454572 9.02678e-05
0.00454729 9.02648e-05
0.00457088 9.02038e-05
0.00459812 9.01868e-05
0.00459994 9.01842e-05
0.00461052 9.0166e-05
0.00463047 9.012e-05
0.00464629 9.01361e-05
0.00465136 9.01386e-05
0.00469252 9.01119e-05
0.00470009 9.00991e-05
0.00473798 8.99905e-05
0.0047443 8.99651e-05
0.00476547 8.99748e-05
0.00479284 8.99602e-05
0.00481969 8.99108e-05
0.00483022 8.98817e-05
0.00484619 8.98304e-05
0.0048755 8.98339e-05
0.00489234 8.98182e-05
0.00493714 8.97116e-05
0.00494567 8.97127e-05
0.00494899 8.97131e-05
0.00495681 8.97119e-05
0.00501391 8.96212e-05
0.0050142 8.96203e-05
0.00501812 8.96086e-05
0.00503407 8.96058e-05
0.00506442 8.95751e-05
0.00507197 8.95613e-05
0.00509007 8.95179e-05
0.0051014 8.95293e-05
0.00512306 8.95406e-05
0.00515403 8.95233e-05
0.00520409 8.94104e-05
0.00521372 8.93783e-05
0.00521846 8.9361e-05
0.00522228 8.93635e-05
0.00528276 8.93266e-05
0.00530884 8.92655e-05
0.00531688 8.92422e-05
0.00532636 8.92425e-05
0.00538192 8.91751e-05
0.00538803 8.91612e-05
0.00539191 8.91516e-05
0.0054325 8.91568e-05
0.00545135 8.91386e-05
0.00549541 8.90523e-05
0.00550644 8.90192e-05
0.00553111 8.90288e-05
0.00557507 8.89931e-05
0.00558394 8.89776e-05
0.00562341 8.88825e-05
0.00562518 8.88818e-05
0.00565079 8.88605e-05
0.0057009 8.87528e-05
0.00570261 8.87518e-05
0.00571483 8.87443e-05
0.00572272 8.87369e-05
0.00577452 8.86355e-05
0.00579099 8.864e-05
0.00580017 8.86389e-05
0.0058085 8.86355e-05
0.00585572 8.85817e-05
0.00588133 8.8522e-05
0.00590277 8.84552e-05
0.00591512 8.84113e-05
0.00591707 8.8412e-05
0.00595845 8.83977e-05
0.00598652 8.8358e-05
0.00603167 8.82503e-05
0.00603383 8.82435e-05
0.00604095 8.82201e-05
0.00610113 8.81729e-05
0.00613593 8.80962e-05
0.00613789 8.80911e-05
0.00615325 8.80476e-05
0.00616697 8.8044e-05
0.00622935 8.796e-05
0.00623041 8.79576e-05
0.00625044 8.79061e-05
0.00625322 8.78984e-05
0.00631251 8.78361e-05
0.00633772 8.77798e-05
0.00634203 8.7769e-05
0.006348 8.77724e-05
0.00638524 8.77727e-05
0.00644956 8.7687e-05
0.00645368 8.76777e-05
0.00647092 8.76338e-05
0.00650048 8.75446e-05
0.00654759 8.75223e-05
0.00656368 8.75019e-05
0.00660693 8.74138e-05
0.00662191 8.73737e-05
0.00663088 8.73702e-05
0.00665059 8.73557e-05
0.00669306 8.7292e-05
0.00670463 8.72686e-05
0.00671448 8.7246e-05
0.00678313 8.7211e-05
0.00683567 8.71085e-05
0.00685575 8.70514e-05
0.0068576 8.70516e-05
0.00691831 8.70262e-05
0.00693563 8.70037e-05
0.007 8.68591e-05
0.00700487 8.68551e-05
0.0070085 8.68524e-05
0.00701156 8.68498e-05
0.00709412 8.67026e-05
0.00709626 8.66967e-05
0.00712701 8.6663e-05
0.00713634 8.66487e-05
0.00717534 8.65738e-05
0.0071877 8.6543e-05
0.00724436 8.65147e-05
0.00725232 8.65055e-05
0.00725339 8.65042e-05
0.00732525 8.63676e-05
0.00735738 8.62709e-05
0.00735995 8.62626e-05
0.00736235 8.62547e-05
0.00746396 8.61485e-05
0.00747 8.61358e-05
0.00751864 8.60059e-05
0.00754297 8.59911e-05
0.00757465 8.59602e-05
0.00758749 8.59423e-05
0.00765812 8.5787e-05
0.0076741 8.57767e-05
0.00768523 8.57668e-05
0.00769726 8.57549e-05
0.00776852 8.56304e-05
0.00778228 8.55954e-05
0.00779368 8.55871e-05
0.0077946 8.55865e-05
0.0078581 8.55055e-05
0.00788079 8.54591e-05
0.00789257 8.54314e-05
0.00794301 8.54146e-05
0.00795924 8.54002e-05
0.00802345 8.53086e-05
0.00803392 8.52869e-05
0.00808935 8.51401e-05
0.00812831 8.51155e-05
0.00815071 8.50925e-05
0.00817647 8.5056e-05
0.00823942 8.49206e-05
0.00824015 8.49186e-05
0.0082402 8.49186e-05
0.00831276 8.48388e-05
0.00834649 8.47733e-05
0.0083551 8.47547e-05
0.0083743 8.47504e-05
0.00843387 8.47023e-05
0.00851138 8.45589e-05
0.00853053 8.45091e-05
0.00854129 8.4506e-05
0.0085495 8.45025e-05
0.00863641 8.44193e-05
0.00864719 8.44013e-05
0.00870964 8.42635e-05
0.00873119 8.42419e-05
0.00877648 8.41812e-05
0.00880542 8.41272e-05
0.00883588 8.40572e-05
0.00889332 8.39859e-05
0.00889944 8.39763e-05
0.00893434 8.39116e-05
0.0089559 8.38631e-05
0.00901628 8.3787e-05
0.00903227 8.37586e-05
0.00903766 8.37484e-05
0.0090699 8.36813e-05
0.00912722 8.36481e-05
0.00916588 8.36024e-05
0.00918118 8.35808e-05
0.00923246 8.34862e-05
0.00928757 8.33459e-05
0.00933222 8.33163e-05
0.00933254 8.33159e-05
0.00939465 8.32344e-05
0.00942672 8.31777e-05
0.00948232 8.3049e-05
0.00949242 8.30432e-05
0.00956996 8.29591e-05
0.00960651 8.28983e-05
0.00964479 8.28177e-05
0.00965606 8.27905e-05
0.0097036 8.27477e-05
0.00976663 8.26577e-05
0.00978985 8.26131e-05
0.0098107 8.25678e-05
0.00990755 8.24472e-05
0.00990893 8.24449e-05
0.00992783 8.24112e-05
0.00994804 8.23707e-05
0.0100351 8.23187e-05
0.010059 8.22909e-05
0.0101158 8.22002e-05
0.0101469 8.21384e-05
0.0101835 8.20524e-05
0.010193 8.20276e-05
0.0102624 8.19697e-05
0.0103016 8.1919e-05
0.0103455 8.18435e-05
0.0103807 8.17687e-05
0.0104018 8.17514e-05
0.0104136 8.17407e-05
0.0104969 8.16265e-05
0.0105196 8.15835e-05
0.0105238 8.15753e-05
0.0105342 8.15706e-05
0.010612 8.15125e-05
0.0107215 8.13347e-05
0.010742 8.12885e-05
0.0107869 8.12619e-05
0.010787 8.1262e-05
0.0109013 8.1127e-05
0.0109648 8.10006e-05
0.0110132 8.0952e-05
0.011061 8.08887e-05
0.0111397 8.0741e-05
0.0111478 8.07343e-05
0.0112028 8.06737e-05
0.011215 8.06566e-05
0.0113063 8.04977e-05
0.0113221 8.04838e-05
0.0113282 8.04776e-05
0.0113946 8.03935e-05
0.0114647 8.02703e-05
0.011488 8.02487e-05
0.0115513 8.01681e-05
0.0115541 8.01637e-05
0.0116152 8.00595e-05
0.0116457 8.00306e-05
0.0117214 7.99278e-05
0.0117581 7.98617e-05
0.0117955 7.98405e-05
0.0118387 7.98034e-05
0.0118507 7.97917e-05
0.0119378 7.96758e-05
0.0120308 7.94887e-05
0.0120472 7.9479e-05
0.0120567 7.94724e-05
0.0120726 7.9461e-05
0.0122005 7.93063e-05
0.0122228 7.92673e-05
0.012247 7.92228e-05
0.0122746 7.91668e-05
0.0123216 7.91324e-05
0.0124728 7.89209e-05
0.0124763 7.89141e-05
0.012492 7.88841e-05
0.0125518 7.88345e-05
0.0126854 7.86397e-05
0.0126883 7.86376e-05
0.012735 7.85943e-05
0.0127569 7.85708e-05
0.012857 7.84239e-05
0.0128938 7.84063e-05
0.0129196 7.83894e-05
0.012939 7.83751e-05
0.0130894 7.81869e-05
0.0130951 7.8177e-05
0.0131005 7.81678e-05
0.013163 7.80473e-05
0.0132435 7.79843e-05
0.0132618 7.79646e-05
0.0132754 7.79498e-05
0.0133973 7.77689e-05
0.0134523 7.77221e-05
0.0134975 7.76711e-05
0.0135757 7.75551e-05
0.0135801 7.7553e-05
0.0136202 7.75309e-05
0.0136911 7.7471e-05
0.0137795 7.73582e-05
0.0138382 7.72595e-05
0.0138478 7.72414e-05
0.0138648 7.72325e-05
0.0139306 7.71888e-05
0.0140618 7.7035e-05
0.0140737 7.70165e-05
0.0141189 7.69396e-05
0.0141254 7.69281e-05
0.0142889 7.67519e-05
0.014345 7.66602e-05
0.0143461 7.66583e-05
0.0143611 7.66318e-05
0.0145274 7.64494e-05
0.0145458 7.64208e-05
0.0145857 7.63559e-05
0.0145887 7.63538e-05
0.0147545 7.61708e-05
0.0147994 7.60989e-05
0.0148044 7.60951e-05
0.014904 7.59937e-05
0.0149707 7.59054e-05
0.0149957 7.58671e-05
0.0150026 7.5856e-05
0.0151651 7.56747e-05
0.0151763 7.56579e-05
0.0151784 7.56546e-05
0.0151956 7.56285e-05
0.0153149 7.55526e-05
0.0153715 7.54957e-05
0.0153876 7.54772e-05
0.0155569 7.52229e-05
0.0155642 7.5209e-05
0.0155807 7.52005e-05
0.0157067 7.50991e-05
0.0157327 7.50721e-05
0.015783 7.50118e-05
0.0158941 7.48418e-05
0.0158993 7.48389e-05
0.0160325 7.47287e-05
0.0160571 7.47022e-05
0.0160914 7.4661e-05
0.0161885 7.45198e-05
0.0162883 7.44402e-05
0.0163572 7.43669e-05
0.0164059 7.43043e-05
0.0164506 7.42391e-05
0.0165318 7.41734e-05
0.016569 7.41371e-05
0.0166243 7.4074e-05
0.0166834 7.39943e-05
0.0167312 7.39568e-05
0.0167634 7.39271e-05
0.0168617 7.38182e-05
0.0168897 7.37808e-05
0.0169835 7.37256e-05
0.0170551 7.36667e-05
0.0170722 7.36501e-05
0.0171925 7.35048e-05
0.0172571 7.34097e-05
0.0172585 7.34088e-05
0.0173749 7.33242e-05
0.0175378 7.31317e-05
0.0175894 7.30924e-05
0.0175912 7.30908e-05
0.0176903 7.29978e-05
0.0177514 7.2925e-05
0.0178418 7.28688e-05
0.0179477 7.27717e-05
0.0180014 7.27123e-05
0.0180335 7.26726e-05
0.0180766 7.26141e-05
0.0182656 7.24732e-05
0.018308 7.24291e-05
0.0183248 7.24102e-05
0.0184077 7.23048e-05
0.0185483 7.21974e-05
0.01861 7.21351e-05
0.0186209 7.21229e-05
0.0187419 7.19654e-05
0.0187993 7.19269e-05
0.0188236 7.19092e-05
0.0189073 7.18359e-05
0.0190254 7.17e-05
0.0190606 7.1652e-05
0.0191998 7.15432e-05
0.0192261 7.1517e-05
0.0192467 7.14952e-05
0.0193644 7.13553e-05
0.0194258 7.13138e-05
0.0194875 7.12624e-05
0.0195892 7.11568e-05
0.0196243 7.11156e-05
0.0196535 7.10789e-05
0.0197703 7.09912e-05
0.0198217 7.0942e-05
0.0198501 7.09121e-05
0.0199285 7.08223e-05
0.020018 7.07581e-05
0.0200482 7.07322e-05
0.0201899 7.05817e-05
0.0202131 7.05658e-05
0.020248 7.05399e-05
0.0203212 7.04798e-05
0.0204379 7.03582e-05
0.0205891 7.02744e-05
0.0206029 7.02643e-05
0.0206538 7.02232e-05
0.0208521 7.00164e-05
0.0209114 6.99371e-05
0.0209876 6.98964e-05
0.0210287 6.98695e-05
0.02111 6.98092e-05
0.0213346 6.95694e-05
0.0213629 6.95544e-05
0.0213671 6.95521e-05
0.0213863 6.95408e-05
0.0216108 6.93632e-05
0.021712 6.92494e-05
0.0217272 6.9241e-05
0.0217413 6.92333e-05
0.0218537 6.91585e-05
0.0220476 6.8971e-05
0.0220516 6.89687e-05
0.0220916 6.89456e-05
0.0221101 6.8934e-05
0.0223245 6.87513e-05
0.0223456 6.87286e-05
0.0223602 6.87232e-05
0.0224733 6.86718e-05
0.0225526 6.86223e-05
0.0226534 6.8543e-05
0.0227757 6.84251e-05
0.0228308 6.83628e-05
0.0228767 6.83066e-05
0.0229318 6.82791e-05
0.0231826 6.80977e-05
0.0232142 6.80671e-05
0.0232833 6.79938e-05
0.023463 6.78731e-05
0.0235286 6.78184e-05
0.023593 6.77575e-05
0.023633 6.77412e-05
0.0238687 6.75933e-05
0.0239378 6.75329e-05
0.0240325 6.7441e-05
0.0240653 6.74057e-05
0.0242028 6.73405e-05
0.0243612 6.72297e-05
0.0244132 6.71866e-05
0.024531 6.70732e-05
0.0245471 6.70559e-05
0.0247378 6.69465e-05
0.0247755 6.69195e-05
0.0248531 6.68575e-05
0.0250287 6.66835e-05
0.0250722 6.66624e-05
0.0251201 6.66377e-05
0.0251692 6.66092e-05
0.0254475 6.63825e-05
0.0254793 6.63495e-05
0.0254887 6.63394e-05
0.0256681 6.62348e-05
0.0257583 6.61691e-05
0.0257833 6.61489e-05
0.0259277 6.60154e-05
0.0260531 6.5947e-05
0.0260813 6.59289e-05
0.0261243 6.58991e-05
0.0263326 6.57262e-05
0.0263461 6.5713e-05
0.0263732 6.56998e-05
0.0264718 6.56438e-05
0.0265973 6.55587e-05
0.0266592 6.55092e-05
0.0267444 6.5433e-05
0.0269391 6.53177e-05
0.0270018 6.52707e-05
0.0271009 6.51897e-05
0.0271234 6.51695e-05
0.0272131 6.51227e-05
0.0274813 6.49256e-05
0.0274835 6.49235e-05
0.0275423 6.48924e-05
0.0275493 6.48887e-05
0.0278255 6.4695e-05
0.0279477 6.4648e-05
0.0280083 6.46188e-05
0.0281028 6.4565e-05
0.0283011 6.44264e-05
0.0284782 6.42649e-05
0.0285115 6.42524e-05
0.0286139 6.42069e-05
0.0286387 6.41943e-05
0.0289915 6.39546e-05
0.0290619 6.38907e-05
0.0291503 6.38526e-05
0.0291698 6.38438e-05
0.0294488 6.36745e-05
0.0295824 6.35652e-05
0.0295937 6.35606e-05
0.0296383 6.35409e-05
0.0298842 6.34042e-05
0.0299158 6.33823e-05
0.0300455 6.32822e-05
0.0301032 6.3256e-05
0.0302981 6.31493e-05
0.0304053 6.30751e-05
0.0304566 6.30358e-05
0.0305456 6.30072e-05
0.0306914 6.29484e-05
0.0309029 6.28293e-05
0.0309663 6.27857e-05
0.0310647 6.27126e-05
0.0311897 6.26067e-05
0.0312271 6.25932e-05
0.031366 6.25329e-05
0.0314188 6.25066e-05
0.0315443 6.24345e-05
0.0317454 6.22903e-05
0.0317511 6.22858e-05
0.0317545 6.22845e-05
0.0318547 6.22425e-05
0.0320724 6.21226e-05
0.0321787 6.20496e-05
0.0324648 6.19302e-05
0.0324691 6.19279e-05
0.0326771 6.18055e-05
0.032831 6.16923e-05
0.0330474 6.16108e-05
0.0331159 6.15776e-05
0.0332156 6.15255e-05
0.0334965 6.13369e-05
0.033603 6.12901e-05
0.0336924 6.12443e-05
0.033694 6.12434e-05
0.0339576 6.1079e-05
0.0341183 6.10062e-05
0.0341324 6.09989e-05
0.0342051 6.09592e-05
0.0344104 6.083e-05
0.0344939 6.07948e-05
0.0346363 6.07236e-05
0.0346601 6.07104e-05
0.0348547 6.05913e-05
0.0351155 6.04683e-05
0.0351613 6.0442e-05
0.0352906 6.03597e-05
0.0354709 6.02774e-05
0.0355707 6.02251e-05
0.0356702 6.01665e-05
0.0357182 6.01358e-05
0.0360028 6.00372e-05
0.0360568 6.00128e-05
0.0360914 5.99962e-05
0.0364127 5.98116e-05
0.0365613 5.97037e-05
0.0365639 5.97029e-05
0.0366445 5.96803e-05
0.0368012 5.96252e-05
0.0371692 5.94384e-05
0.0372417 5.93918e-05
0.0372843 5.93629e-05
0.0373697 5.93037e-05
0.0377488 5.91627e-05
0.0378691 5.91008e-05
0.0380189 5.9012e-05
0.0381439 5.89301e-05
0.0382304 5.89041e-05
0.0384924 5.88009e-05
0.03857 5.87631e-05
0.0386875 5.87015e-05
0.0388842 5.85812e-05
0.0390461 5.85279e-05
0.0391115 5.85026e-05
0.039121 5.84988e-05
0.0395319 5.82925e-05
0.0395372 5.82892e-05
0.0395913 5.82551e-05
0.0396433 5.8239e-05
0.0399209 5.81346e-05
0.0399719 5.81112e-05
0.0401654 5.80104e-05
0.0402659 5.79519e-05
0.0406608 5.78002e-05
0.0406778 5.7792e-05
0.0407442 5.77594e-05
0.0409088 5.76691e-05
0.0411803 5.75717e-05
0.0413194 5.75102e-05
0.0413333 5.75036e-05
0.0415208 5.7405e-05
0.0416731 5.73538e-05
0.0417806 5.73133e-05
0.0419044 5.72603e-05
0.0421028 5.71606e-05
0.042423 5.70421e-05
0.0424607 5.70252e-05
0.0426446 5.69337e-05
0.0426559 5.69278e-05
0.0428822 5.68507e-05
0.0431519 5.67302e-05
0.043181 5.67153e-05
0.0435761 5.66013e-05
0.0436976 5.6556e-05
0.0438089 5.65092e-05
0.0441831 5.6314e-05
0.0443193 5.62793e-05
0.0444339 5.62447e-05
0.0444677 5.62335e-05
0.0447914 5.61099e-05
0.045028 5.59934e-05
0.045079 5.59654e-05
0.0453202 5.5896e-05
0.045509 5.583e-05
0.0455921 5.57967e-05
0.0458778 5.56623e-05
0.0461275 5.55878e-05
0.0461343 5.55854e-05
0.0462381 5.55493e-05
0.0465883 5.53985e-05
0.046635 5.53859e-05
0.0469108 5.52961e-05
0.0469759 5.52719e-05
0.0471159 5.5215e-05
0.0472191 5.51686e-05
0.0476505 5.5061e-05
0.0476782 5.50524e-05
0.048031 5.49201e-05
0.0483435 5.47677e-05
0.0483463 5.4767e-05
0.0483547 5.47651e-05
0.0488463 5.46215e-05
0.048981 5.45687e-05
0.0490243 5.45505e-05
0.0492044 5.44703e-05
0.049571 5.43611e-05
0.0495836 5.43566e-05
0.0496604 5.43282e-05
0.0498601 5.42479e-05
0.0501554 5.41786e-05
0.0502139 5.41618e-05
0.0502643 5.41466e-05
0.0506973 5.3991e-05
0.0507833 5.39534e-05
0.05086 5.39179e-05
0.0512107 5.38347e-05
0.0512868 5.38121e-05
0.0514165 5.37699e-05
0.05188 5.35875e-05
0.05218 5.35178e-05
0.0521874 5.35158e-05
0.0524463 5.3436e-05
0.0528601 5.32762e-05
0.0529359 5.32418e-05
0.0530573 5.32166e-05
0.0533642 5.31361e-05
0.0538303 5.29731e-05
0.0538969 5.29451e-05
0.0539792 5.29089e-05
0.0541806 5.2865e-05
0.0545159 5.27733e-05
0.0549052 5.2632e-05
0.0549541 5.26122e-05
0.0550096 5.2589e-05
0.055123 5.25667e-05
0.0556598 5.24206e-05
0.0557507 5.23891e-05
0.0560265 5.22814e-05
0.0561966 5.22449e-05
0.0565079 5.2166e-05
0.0566117 5.21348e-05
0.0570295 5.19842e-05
0.0571851 5.19517e-05
0.0572272 5.19425e-05
0.0573363 5.19168e-05
0.0579098 5.17391e-05
0.0579378 5.17285e-05
0.0580184 5.16981e-05
0.0584406 5.16032e-05
0.0585572 5.15705e-05
0.0589926 5.14228e-05
0.0590855 5.14042e-05
0.0591707 5.13867e-05
0.0595662 5.12865e-05
0.059952 5.11583e-05
0.060256 5.10924e-05
0.0603383 5.10723e-05
0.0603427 5.10712e-05
0.0608964 5.09018e-05
0.0610799 5.08646e-05
0.0611954 5.0838e-05
0.0613789 5.07923e-05
0.0617792 5.06708e-05
0.0618254 5.06548e-05
0.0621194 5.05928e-05
0.0623041 5.05476e-05
0.062442 5.05098e-05
0.0627388 5.04166e-05
0.0630279 5.03564e-05
0.0630699 5.03468e-05
0.0631251 5.03337e-05
0.0636366 5.0187e-05
0.0638524 5.01438e-05
0.0639207 5.01285e-05
0.0642643 5.00423e-05
0.0644956 4.9973e-05
0.0645186 4.99655e-05
0.0647976 4.99087e-05
0.0653279 4.97696e-05
0.0653847 4.97519e-05
0.0656368 4.97016e-05
0.0656585 4.96967e-05
0.0662348 4.95459e-05
0.0662729 4.95389e-05
0.0665035 4.94923e-05
0.0665059 4.94918e-05
0.0670689 4.93471e-05
0.0671111 4.93394e-05
0.0671654 4.93292e-05
0.0673325 4.9295e-05
0.0678531 4.91651e-05
0.0678869 4.91552e-05
0.0681454 4.91192e-05
0.0681668 4.9116e-05
0.0691715 4.88919e-05
0.0691831 4.88885e-05
0.0695003 4.87865e-05
0.0697484 4.87508e-05
0.0699842 4.8712e-05
0.0701771 4.86747e-05
0.0707437 4.85356e-05
0.0709409 4.84767e-05
0.0710477 4.84425e-05
0.0712854 4.84081e-05
0.0714631 4.83796e-05
0.0721022 4.82434e-05
0.0725297 4.81222e-05
0.0727571 4.80891e-05
0.0728319 4.80777e-05
0.0732824 4.79939e-05
0.0739471 4.78238e-05
0.0740511 4.78094e-05
0.074131 4.77974e-05
0.0741645 4.77922e-05
0.0749355 4.7642e-05
0.0751346 4.75916e-05
0.075301 4.75458e-05
0.0755085 4.75155e-05
0.0756976 4.74853e-05
0.0760957 4.74084e-05
0.0765929 4.72866e-05
0.0767907 4.72578e-05
0.0769467 4.72331e-05
0.0771475 4.71976e-05
0.0778241 4.7045e-05
0.0780126 4.70174e-05
0.0784389 4.69443e-05
0.078459 4.69404e-05
0.0789964 4.68195e-05
0.0791757 4.67933e-05
0.0795866 4.67236e-05
0.0796126 4.67186e-05
0.0801114 4.66092e-05
0.0802818 4.65842e-05
0.080489 4.65513e-05
0.0806046 4.65311e-05
0.081171 4.64128e-05
0.0813329 4.63891e-05
0.0815061 4.6362e-05
0.0818216 4.63051e-05
0.0821771 4.62295e-05
0.0823307 4.62136e-05
0.0831079 4.61061e-05
0.0831764 4.6094e-05
0.0840185 4.59088e-05
0.0840973 4.58881e-05
0.0842349 4.58726e-05
0.08433 4.58618e-05
0.0852583 4.57154e-05
0.0856206 4.56375e-05
0.0858142 4.5591e-05
0.085937 4.55766e-05
0.0866699 4.54706e-05
0.0870474 4.53983e-05
0.0873452 4.53327e-05
0.0874546 4.53195e-05
0.0881049 4.52256e-05
0.0883154 4.51878e-05
0.0887073 4.51078e-05
0.0888045 4.50958e-05
0.0891251 4.50528e-05
0.08944 4.50027e-05
0.0899165 4.4912e-05
0.0900027 4.49011e-05
0.0900923 4.48899e-05
0.0904358 4.4841e-05
0.0909881 4.47435e-05
0.0910085 4.47417e-05
0.0921386 4.45923e-05
0.0922052 4.45811e-05
0.0927517 4.44765e-05
0.0928941 4.44456e-05
0.0935549 4.43619e-05
0.0937738 4.43274e-05
0.0943043 4.42327e-05
0.0943499 4.42236e-05
0.0945801 4.42039e-05
0.0950191 4.41567e-05
0.0956842 4.40646e-05
0.0961391 4.39844e-05
0.0965763 4.38938e-05
0.0969081 4.38645e-05
0.0969182 4.38635e-05
0.0977237 4.37687e-05
0.0979919 4.3728e-05
0.0988553 4.35653e-05
0.0995692 4.34981e-05
0.0999177 4.34544e-05
0.100722 4.33252e-05
0.101013 4.32996e-05
0.101213 4.32804e-05
0.101387 4.32618e-05
0.102503 4.31014e-05
0.102504 4.31011e-05
0.102673 4.30868e-05
0.103078 4.3046e-05
0.103968 4.29301e-05
0.1042 4.28923e-05
0.104204 4.28917e-05
0.105052 4.28045e-05
0.105114 4.27969e-05
0.105822 4.26961e-05
0.105925 4.26875e-05
0.106937 4.25745e-05
0.107151 4.2545e-05
0.107363 4.25132e-05
0.107771 4.24763e-05
0.108704 4.23604e-05
0.108735 4.23559e-05
0.108827 4.23423e-05
0.109411 4.22871e-05
0.109884 4.22303e-05
0.110219 4.21835e-05
0.110449 4.21627e-05
0.110868 4.21203e-05
0.111539 4.20352e-05
0.111678 4.20268e-05
0.112079 4.19978e-05
0.112158 4.19915e-05
0.113299 4.18701e-05
0.113501 4.18423e-05
0.11363 4.18238e-05
0.114057 4.17578e-05
0.115103 4.1671e-05
0.115324 4.16475e-05
0.115478 4.16297e-05
0.116307 4.15165e-05
0.116501 4.15028e-05
0.116866 4.14745e-05
0.117236 4.14402e-05
0.118313 4.13082e-05
0.118797 4.12697e-05
0.119169 4.12337e-05
0.119219 4.12288e-05
0.120096 4.11253e-05
0.120179 4.11192e-05
0.121554 4.09804e-05
0.121619 4.09724e-05
0.121678 4.09649e-05
0.122637 4.09027e-05
0.123559 4.08112e-05
0.123679 4.07968e-05
0.124497 4.06885e-05
0.124513 4.06874e-05
0.125283 4.06309e-05
0.12557 4.06043e-05
0.12594 4.05672e-05
0.126654 4.04816e-05
0.12681 4.04706e-05
0.127248 4.04354e-05
0.128109 4.03505e-05
0.128162 4.03444e-05
0.128296 4.03286e-05
0.130238 4.01654e-05
0.130317 4.01565e-05
0.130563 4.01274e-05
0.1308 4.00974e-05
0.132393 3.99768e-05
0.132527 3.9963e-05
0.132587 3.99568e-05
0.133352 3.98682e-05
0.133782 3.98414e-05
0.13427 3.98044e-05
0.134605 3.97758e-05
0.134993 3.97387e-05
0.135894 3.96965e-05
0.136397 3.96629e-05
0.136927 3.96196e-05
0.137984 3.9513e-05
0.138038 3.95067e-05
0.138125 3.94963e-05
0.139637 3.94064e-05
0.140039 3.93734e-05
0.140806 3.92981e-05
0.140925 3.9285e-05
0.141355 3.92641e-05
0.141814 3.92382e-05
0.142961 3.91494e-05
0.143385 3.91077e-05
0.143422 3.91037e-05
0.144598 3.90326e-05
0.144635 3.90298e-05
0.145643 3.89443e-05
0.146177 3.89157e-05
0.147089 3.88509e-05
0.147567 3.88088e-05
0.147614 3.88045e-05
0.148306 3.87793e-05
0.149624 3.87009e-05
0.149923 3.86773e-05
0.150181 3.86554e-05
0.151128 3.85637e-05
0.152011 3.85214e-05
0.152382 3.84984e-05
0.152507 3.849e-05
0.153819 3.83835e-05
0.154131 3.83684e-05
0.154571 3.83435e-05
0.154882 3.83246e-05
0.155868 3.82502e-05
0.156011 3.82453e-05
0.157127 3.81924e-05
0.157674 3.8157e-05
0.158251 3.81129e-05
0.158993 3.80485e-05
0.159118 3.80443e-05
0.160628 3.79698e-05
0.160881 3.79528e-05
0.161068 3.79395e-05
0.162181 3.78484e-05
0.162879 3.7829e-05
0.163214 3.78165e-05
0.164013 3.77805e-05
0.16572 3.76632e-05
0.166316 3.76449e-05
0.166402 3.76417e-05
0.166486 3.76385e-05
0.168217 3.755e-05
0.16888 3.75017e-05
0.169824 3.74677e-05
0.170976 3.74099e-05
0.171694 3.73622e-05
0.172286 3.73421e-05
0.17353 3.7281e-05
0.17378 3.72664e-05
0.174195 3.72398e-05
0.174469 3.72309e-05
0.176299 3.71409e-05
0.176402 3.71342e-05
0.176414 3.71334e-05
0.176839 3.71239e-05
0.178533 3.70631e-05
0.179786 3.69894e-05
0.179837 3.69861e-05
0.180364 3.69484e-05
0.180511 3.69447e-05
0.182405 3.68688e-05
0.182456 3.68661e-05
0.183384 3.68103e-05
0.184026 3.67887e-05
0.184446 3.67713e-05
0.184728 3.67582e-05
0.185683 3.67077e-05
0.186706 3.66797e-05
0.187471 3.66494e-05
0.188742 3.6581e-05
0.188864 3.65732e-05
0.189185 3.65526e-05
0.190546 3.65134e-05
0.191838 3.64536e-05
0.192027 3.6443e-05
0.192752 3.6399e-05
0.193308 3.63905e-05
0.194434 3.63618e-05
0.194985 3.63431e-05
0.195758 3.63104e-05
0.196675 3.62616e-05
0.197811 3.6237e-05
0.197927 3.62337e-05
0.198101 3.62283e-05
0.200173 3.61413e-05
0.200318 3.61387e-05
0.20178 3.60994e-05
0.201837 3.60973e-05
0.202537 3.60711e-05
0.203285 3.60368e-05
0.204719 3.59997e-05
0.205648 3.59633e-05
0.206047 3.59456e-05
0.20648 3.59418e-05
0.206952 3.59354e-05
0.209042 3.58789e-05
0.209488 3.58615e-05
0.210346 3.58219e-05
0.210972 3.57878e-05
0.211772 3.5774e-05
0.212058 3.57675e-05
0.213796 3.57125e-05
0.214733 3.56698e-05
0.214743 3.56693e-05
0.215246 3.566e-05
0.216583 3.56231e-05
0.217615 3.55824e-05
0.218776 3.55638e-05
0.219052 3.55575e-05
0.219495 3.55458e-05
0.221309 3.54822e-05
0.221996 3.54498e-05
0.223135 3.5432e-05
0.22344 3.54258e-05
0.225814 3.53478e-05
0.225905 3.53437e-05
0.226464 3.53181e-05
0.226788 3.53161e-05
0.229252 3.52723e-05
0.229332 3.52699e-05
0.230125 3.5244e-05
0.230409 3.52339e-05
0.231865 3.52161e-05
0.233202 3.51841e-05
0.233917 3.51608e-05
0.234423 3.5155e-05
0.23584 3.51309e-05
0.237031 3.5098e-05
0.237137 3.5098e-05
0.238163 3.50933e-05
0.239883 3.50701e-05
0.240229 3.50626e-05
0.241485 3.50276e-05
0.242579 3.49889e-05
0.242759 3.49881e-05
0.242967 3.49869e-05
0.246826 3.49065e-05
0.24741 3.49001e-05
0.247834 3.48948e-05
0.247875 3.48942e-05
0.250059 3.48456e-05
0.251548 3.48341e-05
0.251783 3.48309e-05
0.251949 3.48284e-05
0.25437 3.47738e-05
0.254754 3.47612e-05
0.254989 3.47531e-05
0.255408 3.47513e-05
0.258662 3.4703e-05
0.259277 3.46859e-05
0.260016 3.46619e-05
0.260686 3.46611e-05
0.263027 3.46409e-05
0.26388 3.46249e-05
0.264165 3.46185e-05
0.266072 3.46073e-05
0.266456 3.46031e-05
0.267849 3.45804e-05
0.269493 3.45862e-05
0.269808 3.45856e-05
0.270318 3.45834e-05
0.274088 3.45242e-05
0.274341 3.45176e-05
0.274421 3.45154e-05
0.274891 3.45169e-05
0.277791 3.44993e-05
0.27901 3.44778e-05
0.279456 3.44678e-05
0.280813 3.44625e-05
0.283047 3.4436e-05
0.283293 3.44314e-05
0.285305 3.44313e-05
0.285965 3.44268e-05
0.288403 3.43931e-05
0.289146 3.43766e-05
0.289891 3.43787e-05
0.291743 3.43745e-05
0.295121 3.43226e-05
0.295121 3.43226e-05
0.295546 3.43249e-05
0.295881 3.43263e-05
0.299399 3.43134e-05
0.300262 3.43236e-05
0.301995 3.43342e-05
0.302321 3.43353e-05
0.304176 3.43322e-05
0.306373 3.43081e-05
0.307035 3.42974e-05
0.307505 3.4302e-05
0.310143 3.43103e-05
0.31145 3.43034e-05
0.312889 3.42871e-05
0.314186 3.42918e-05
0.316228 3.42884e-05
0.317353 3.4279e-05
0.317464 3.42802e-05
0.320177 3.42945e-05
0.323594 3.42742e-05
0.323594 3.42742e-05
0.324169 3.42661e-05
0.324745 3.42715e-05
0.327812 3.42829e-05
0.32923 3.42759e-05
0.331131 3.42541e-05
0.33172 3.42643e-05
0.333522 3.42908e-05
0.335327 3.43058e-05
0.338844 3.43016e-05
0.339821 3.42941e-05
0.340066 3.42979e-05
0.341076 3.43116e-05
0.345453 3.43312e-05
0.346487 3.43261e-05
0.346737 3.4329e-05
0.347736 3.43386e-05
0.351573 3.43502e-05
0.352123 3.43586e-05
0.353794 3.43783e-05
0.354558 3.43845e-05
0.358922 3.43882e-05
0.35918 3.43865e-05
0.359342 3.43853e-05
0.359762 3.43915e-05
0.367282 3.44213e-05
0.367282 3.44213e-05
0.367414 3.44243e-05
0.367712 3.44307e-05
0.37368 3.45169e-05
0.375837 3.45232e-05
0.376921 3.4523e-05
0.378551 3.4553e-05
0.383486 3.46003e-05
0.384315 3.46017e-05
0.3857 3.46226e-05
0.385978 3.46265e-05
0.389325 3.46581e-05
0.389956 3.46607e-05
0.393267 3.47148e-05
0.39355 3.47184e-05
0.39825 3.47486e-05
0.398573 3.47486e-05
0.399039 3.47576e-05
0.40156 3.47994e-05
0.40738 3.48375e-05
0.407674 3.48447e-05
0.407857 3.48492e-05
0.415671 3.49784e-05
0.416869 3.4986e-05
0.416869 3.4986e-05
0.417019 3.49895e-05
0.422 3.50793e-05
0.424131 3.51013e-05
0.42658 3.51589e-05
0.42658 3.51589e-05
0.431674 3.52444e-05
0.43401 3.52654e-05
0.435261 3.5273e-05
0.436516 3.53044e-05
0.44157 3.53998e-05
0.44412 3.54288e-05
0.4454 3.54384e-05
0.446684 3.54461e-05
0.449262 3.55164e-05
0.449909 3.55322e-05
0.457088 3.56562e-05
0.457088 3.56562e-05
0.458736 3.56989e-05
0.461052 3.57508e-05
0.46505 3.58184e-05
0.467735 3.58913e-05
0.467735 3.58913e-05
0.473151 3.60064e-05
0.475883 3.60455e-05
0.477255 3.60614e-05
0.47863 3.61003e-05
0.482781 3.62e-05
0.486967 3.62725e-05
0.488371 3.62904e-05
0.489779 3.63063e-05
0.490131 3.63179e-05
0.493316 3.6414e-05
0.501187 3.65873e-05
0.501187 3.65873e-05
0.501368 3.65929e-05
0.502994 3.6641e-05
0.509918 3.68036e-05
0.512861 3.68941e-05
0.512861 3.68941e-05
0.520295 3.70759e-05
0.521795 3.71032e-05
0.523299 3.71285e-05
0.523299 3.71285e-05
0.531267 3.73486e-05
0.533565 3.73965e-05
0.535488 3.74312e-05
0.537032 3.74567e-05
0.543446 3.76656e-05
0.543739 3.7674e-05
0.549541 3.7818e-05
0.549541 3.7818e-05
0.551497 3.78834e-05
0.555904 3.80144e-05
0.559114 3.80954e-05
0.562341 3.82063e-05
0.563341 3.8239e-05
0.567218 3.83551e-05
0.572137 3.84778e-05
0.573786 3.85138e-05
0.57544 3.8572e-05
0.575854 3.85861e-05
0.587151 3.89006e-05
0.588844 3.8937e-05
0.588844 3.8937e-05
0.589056 3.89453e-05
0.599101 3.92921e-05
0.602346 3.93825e-05
0.60256 3.93904e-05
0.612676 3.9724e-05
0.614823 3.98063e-05
0.614823 3.98063e-05
0.624184 4.01234e-05
0.628503 4.0242e-05
0.630957 4.03349e-05
0.633687 4.04317e-05
0.638493 4.05907e-05
0.643799 4.07418e-05
0.64474 4.07659e-05
0.653131 4.1092e-05
0.653601 4.1109e-05
0.658095 4.12625e-05
0.666423 4.1608e-05
0.668585 4.16905e-05
0.678647 4.20249e-05
0.683912 4.22462e-05
0.686871 4.23617e-05
0.697831 4.2741e-05
0.699842 4.28004e-05
0.707946 4.3145e-05
0.708455 4.31657e-05
0.714085 4.33814e-05
0.722354 4.37522e-05
0.724436 4.384e-05
0.724697 4.38508e-05
0.735995 4.42743e-05
0.737055 4.43233e-05
0.74131 4.45148e-05
0.744518 4.46515e-05
0.756397 4.51099e-05
0.756397 4.51099e-05
0.758578 4.51838e-05
0.767362 4.55891e-05
0.767914 4.56133e-05
0.774016 4.58719e-05
0.776247 4.59838e-05
0.782979 4.63052e-05
0.785518 4.64214e-05
0.792045 4.67035e-05
0.797765 4.69303e-05
0.803526 4.72113e-05
0.807003 4.73725e-05
0.816347 4.77799e-05
0.822243 4.8012e-05
0.82699 4.82581e-05
0.831764 4.84947e-05
0.841395 4.8946e-05
0.841395 4.8946e-05
0.845036 4.91325e-05
0.851138 4.9431e-05
0.856052 4.96604e-05
0.856052 4.96604e-05
0.858828 4.98073e-05
0.865964 5.01691e-05
0.878517 5.07534e-05
0.878517 5.07534e-05
0.87994 5.08287e-05
0.888689 5.12724e-05
0.901571 5.18695e-05
0.912011 5.24434e-05
0.91992 5.28547e-05
0.925231 5.31162e-05
0.927898 5.32644e-05
0.935944 5.36944e-05
0.943382 5.40722e-05
0.948145 5.43427e-05
0.954306 5.46799e-05
0.954993 5.47169e-05
0.971278 5.55405e-05
0.977237 5.58764e-05
0.977237 5.58764e-05
0.982525 5.61636e-05
1 5.70477e-05
1 5.70477e-05
1.01158 5.77279e-05
1.0182 5.81011e-05
1.02035 5.82193e-05
1.03217 5.88382e-05
1.04112 5.93575e-05
1.04612 5.96383e-05
1.05697 6.0219e-05
1.05697 6.0219e-05
1.06384 6.06329e-05
1.0748 6.12687e-05
1.08529 6.18411e-05
1.0953 6.23521e-05
1.09885 6.25672e-05
1.1045 6.2905e-05
1.10703 6.30538e-05
1.13501 6.45597e-05
1.14046 6.48995e-05
1.1648 6.63154e-05
1.1749 6.69294e-05
1.1749 6.69294e-05
1.18765 6.76635e-05
1.20573 6.87734e-05
1.21619 6.93747e-05
1.22277 6.97371e-05
1.22938 7.01539e-05
1.24094 7.08547e-05
1.25893 7.18745e-05
1.26574 7.23282e-05
1.27901 7.31817e-05
1.28825 7.37504e-05
1.30317 7.47599e-05
1.31826 7.57302e-05
1.33352 7.66565e-05
1.33352 7.66567e-05
1.37246 7.92018e-05
1.38038 7.96771e-05
1.38038 7.96771e-05
1.40936 8.16936e-05
1.42889 8.31073e-05
1.45398 8.48141e-05
1.47911 8.66334e-05
1.47911 8.66334e-05
1.5 8.80544e-05
1.51792 8.94883e-05
1.53109 9.051e-05
1.55972 9.26324e-05
1.57807 9.41182e-05
1.59404 9.53708e-05
1.62181 9.74487e-05
1.64059 9.90359e-05
1.65959 0.000100592
1.65959 0.000100592
1.6788 0.000102259
1.69824 0.000103897
1.71791 0.0001055
1.7378 0.000107248
1.75792 0.000108966
1.77828 0.000110647
1.79887 0.00011255
1.8197 0.000114427
1.8197 0.000114427
1.87284 0.000119373
1.88365 0.000120341
1.93308 0.000125032
1.94985 0.00012656
2.00967 0.000132495
2.01837 0.000133328
2.07133 0.00013864
2.0893 0.000140524
2.1534 0.000147007
2.16272 0.000148008
2.21947 0.000153938
2.23872 0.00015588
2.30741 0.000163456
2.31739 0.000164523
2.37821 0.000171318
2.39883 0.000173724
2.47244 0.000182042
2.48313 0.00018332
2.5483 0.000190931
2.5704 0.000193435
2.64926 0.000203155
2.66072 0.000204532
2.73055 0.000213272
2.75423 0.000216359
2.83874 0.000227086
2.85102 0.00022873
2.92584 0.00023855
2.95121 0.000241794
3.04176 0.000254394
3.06373 0.000257381
3.15092 0.000269727
3.16228 0.00027141
3.28284 0.000288865
3.28639 0.000289366
3.37627 0.000302893
3.42768 0.000310434
3.52143 0.000325335
3.56862 0.000332683
3.67282 0.000349566
3.67811 0.00035041
3.83486 0.000376538
3.84869 0.000378788
3.96107 0.000398266
4.02717 0.000409464
4.15821 0.000433417
4.20484 0.000441786
4.34323 0.000467691
4.36516 0.000471997
4.55938 0.000509427
4.57088 0.00051177
4.73151 0.000544084
4.7863 0.000554886
4.98311 0.000596906
5.02632 0.000605972
5.2142 0.000647349
5.24808 0.000655056
5.3597 0.000680225
5.52713 0.00071926
5.58561 0.000732697
5.74612 0.000771407
5.82103 0.000789218
5.91604 0.000813663
6.14823 0.00087259
6.18039 0.000881193
6.40564 0.000940848
6.45654 0.000954838
6.60575 0.000995526
6.64508 0.00100674
6.91769 0.00108356
6.98836 0.00110447
7.24436 0.00117937
7.2574 0.00118341
7.46664 0.00124789
7.68052 0.00131661
7.87216 0.0013775
8.1283 0.00146286
8.19069 0.00148347
8.40185 0.00155593
8.43801 0.00156826
8.82308 0.00170463
8.9029 0.00173422
9.22571 0.00185285
9.29819 0.00188094
9.50878 0.00196216
9.52248 0.00196769
9.60614 0.00200143
10.0252 0.00216919
10.065 0.00218589
10.0873 0.00219526
10.4309 0.00233869
10.492 0.00236514
10.5925 0.00240854
10.7458 0.00247444
10.8242 0.00250954
11.0758 0.00262187
11.2362 0.00269299
11.3422 0.00274241
11.5167 0.00282353
11.749 0.00293084
11.885 0.00299728
11.9169 0.00301282
12.1794 0.0031404
12.2784 0.00319028
12.3027 0.00320249
12.5689 0.00333604
12.6802 0.0033945
12.9377 0.00352949
13.2807 0.00370817
13.3688 0.00375648
13.4553 0.00380384
13.841 0.00401428
13.9098 0.00405325
14.2707 0.00425701
14.2766 0.00426031
14.7625 0.00454525
14.9559 0.00465796
15.1356 0.00476815
15.6675 0.00509269
15.86 0.00521711
16.3588 0.00553855
16.3823 0.00555371
16.4059 0.00556887
16.5222 0.00564714
16.9886 0.00596033
17.0344 0.00599108
17.0805 0.00602194
17.1243 0.00605245
17.5595 0.00635536
17.6263 0.00640189
17.6691 0.00643156
17.6934 0.00644854
18.2478 0.00684662
18.6052 0.00711382
18.6645 0.00715825
18.7121 0.00719388
19.2601 0.00760279
19.4301 0.00773565
19.4477 0.00774944
19.57 0.00784519
20.056 0.00822434
20.0566 0.00822481
20.0727 0.00823786
20.2392 0.00837256
20.6744 0.00872395
21.0058 0.00900157
21.0767 0.00906091
21.2861 0.00923644
21.638 0.00953043
22 0.00984704
22.1309 0.0099614
22.3872 0.0101856
22.6464 0.0104118
23.2873 0.0110067
23.4423 0.0111503
23.7137 0.0114024
24.0229 0.0116887
24.4754 0.0121315
24.6533 0.0123055
24.9388 0.0125851
25.2957 0.0129338
25.5646 0.0132094
25.7641 0.0134138
26.0625 0.0137199
26.4646 0.0141315
26.5573 0.0142304
26.7771 0.014465
27.0872 0.0147963
27.4575 0.0151912
27.5317 0.0152702
27.6961 0.015452
28.0168 0.0158073
28.5006 0.0163423
29.1069 0.0170447
29.3808 0.0173617
29.721 0.0177562
30.2789 0.0184011
30.4086 0.0185591
30.7113 0.0189277
31.0669 0.0193615
31.423 0.0197951
31.6851 0.0201137
31.7485 0.0201939
32.1161 0.0206598
32.7824 0.0215028
33.0084 0.0218007
33.3704 0.0222779
33.7568 0.0227883
34.5001 0.0237674
34.6737 0.0240078
35.0752 0.0245636
35.4813 0.0251271
35.918 0.025732
36.3078 0.0262706
36.3339 0.0263086
36.7811 0.0269597
37.1251 0.0274604
37.555 0.0280855
37.6108 0.0281667
38.0429 0.0288176
38.8748 0.0300697
39.2651 0.0306843
39.4989 0.0310526
39.9562 0.0317732
41.3604 0.0339877
41.6635 0.0344927
41.7 0.0345537
42.1829 0.0353586
43.6653 0.0378325
43.7265 0.0379395
43.882 0.0382118
44.2328 0.0388263
45.5802 0.0411895
45.7872 0.0415518
45.9198 0.0417942
46.108 0.0421383
47.2666 0.0442606
47.7283 0.045105
47.7805 0.0452039
47.8139 0.0452675
48.7933 0.0471307
49.3583 0.0482043
49.4702 0.0484175
49.4942 0.048463
51.0928 0.0516072
51.5846 0.0526152
52.1819 0.05384
52.5724 0.0546427
53.7824 0.0571259
54.0157 0.0576036
54.4051 0.0584405
55.0261 0.0597776
55.492 0.0607803
56.1345 0.0621618
56.3171 0.0625547
56.9412 0.0639473
58.1072 0.0665465
58.1587 0.0666659
58.8322 0.0682243
59.9395 0.0707929
60.8997 0.0730156
60.9537 0.0731464
61.6595 0.0748564
63.0957 0.078344
63.6429 0.0796704
63.8263 0.0801146
64.3799 0.0815229
65.8795 0.0853482
66.2717 0.0863477
66.6423 0.0872915
67.0391 0.0883436
68.6006 0.0924936
68.8347 0.0931154
69.395 0.0946025
69.6318 0.0952553
71.2537 0.0997352
71.3275 0.0999387
72.0788 0.102011
72.1535 0.102225
73.7464 0.106787
73.8341 0.107038
74.6004 0.109231
74.6891 0.109485
76.338 0.114374
77.222 0.116992
78.5052 0.120973
79.4142 0.123794
81.264 0.12955
82.205 0.132472
82.9203 0.134822
83.8805 0.137978
85.8343 0.144418
86.8283 0.147687
86.9868 0.148235
87.9941 0.151717
90.0437 0.158819
90.7083 0.161119
91.0864 0.162427
91.7586 0.164855
93.8959 0.172594
94.0949 0.173314
94.9832 0.176526
95.1844 0.177282
97.1617 0.184721
97.4016 0.185624
98.2868 0.188952
98.5294 0.189866
100.576 0.197837
101.741 0.202369
102.771 0.20655
103.961 0.211383
106.383 0.221238
107.19 0.224518
107.615 0.226242
108.431 0.22972
110.628 0.239099
110.957 0.240502
111.909 0.244563
112.242 0.245983
114.516 0.256048
115.842 0.261915
115.993 0.26261
117.336 0.26878
120.069 0.281367
121.46 0.287761
121.619 0.288526
123.027 0.295305
125.892 0.309136
126.984 0.314398
127.35 0.31616
128.455 0.321735
131.447 0.33688
132.229 0.340839
132.969 0.344577
133.761 0.348742
136.876 0.365177
137.343 0.367641
138.461 0.373532
138.934 0.376117
142.17 0.39386
142.317 0.394668
143.816 0.40288
143.965 0.403728
147.143 0.421801
147.318 0.422796
148.847 0.431487
149.024 0.432494
152.314 0.451865
154.078 0.462244
156.638 0.478016
158.452 0.489197
162.143 0.512018
164.021 0.523604
165.448 0.532923
167.364 0.545439
171.262 0.570975
173.245 0.583949
173.561 0.586118
175.571 0.599929
179.661 0.6281
180.987 0.637231
181.741 0.642418
183.083 0.652051
187.347 0.682759
187.744 0.685619
189.516 0.698367
189.918 0.701364
193.863 0.730889
194.342 0.734472
196.108 0.747683
196.592 0.751311
200.676 0.782949
203 0.800944
205.055 0.817543
207.43 0.836728
212.262 0.87587
213.872 0.888897
214.72 0.895749
216.348 0.909559
220.732 0.946809
221.388 0.952381
223.288 0.968516
223.951 0.974157
228.489 1.01415
231.135 1.03746
231.437 1.04022
234.117 1.06474
239.57 1.11476
242.344 1.14018
242.661 1.14322
245.471 1.17016
251.189 1.22513
253.405 1.24642
254.097 1.25307
256.339 1.2756
262.31 1.33578
263.908 1.35188
265.347 1.36636
266.964 1.38331
273.182 1.44864
274.15 1.45881
276.346 1.48186
277.325 1.49254
283.785 1.56311
284.113 1.5667
287.071 1.599
287.403 1.60276
293.782 1.67505
294.098 1.67863
297.184 1.71359
297.503 1.71721
304.106 1.79472
307.627 1.83605
312.807 1.89966
316.429 1.9442
323.799 2.0351
327.549 2.08127
330.461 2.11919
334.287 2.16906
342.074 2.27085
346.035 2.32256
346.724 2.33201
350.739 2.38706
358.909 2.49942
361.609 2.53654
363.065 2.55653
365.796 2.5957
374.317 2.71822
375.157 2.7303
378.651 2.7805
379.501 2.79318
387.428 2.91167
388.341 2.92533
391.914 2.97872
392.838 2.99255
401.043 3.11955
405.686 3.19143
409.874 3.25899
414.62 3.33563
424.278 3.49202
427.558 3.54509
429.191 3.57147
432.509 3.62771
441.32 3.77743
442.584 3.7989
446.431 3.86424
447.709 3.88597
456.829 4.04675
462.119 4.13998
462.798 4.1524
468.158 4.25046
479.062 4.45062
484.61 4.55234
485.322 4.566
490.942 4.67383
502.377 4.89391
506.809 4.97913
508.195 5.00576
512.678 5.09575
524.619 5.33612
527.816 5.40045
530.694 5.45834
533.928 5.52602
546.365 5.78704
548.301 5.82766
552.692 5.91974
554.65 5.96236
567.569 6.24429
568.226 6.25863
574.141 6.38765
574.806 6.40266
587.564 6.69145
588.195 6.70575
594.368 6.84542
595.006 6.85991
608.212 7.16954
615.255 7.33463
625.613 7.58874
632.857 7.76666
647.598 8.12981
655.097 8.31422
660.922 8.46573
668.575 8.66495
684.148 9.07154
692.07 9.27814
693.448 9.31585
701.478 9.53578
717.817 9.98464
723.218 10.1329
726.129 10.2128
731.593 10.3693
748.634 10.8587
750.314 10.9069
757.303 11.1075
759.003 11.1581
774.855 11.6315
776.682 11.6861
783.827 11.8994
785.676 11.9546
802.085 12.462
811.373 12.7491
819.748 13.019
829.24 13.3251
848.556 13.9499
855.116 14.1619
858.381 14.2673
865.018 14.4919
882.641 15.0901
885.167 15.1758
892.861 15.4368
895.417 15.5236
913.658 16.1659
924.238 16.5383
925.597 16.5879
936.315 16.9797
958.124 17.7793
969.219 18.1857
970.644 18.2402
981.884 18.6709
1004.75 19.55
1013.18 19.8737
1016.39 19.997
1024.91 20.3385
1048.78 21.298
1054.74 21.5375
1060.93 21.7861
1066.95 22.0376
1091.81 23.0791
1095.26 23.2235
1104.45 23.6083
1107.94 23.7597
1133.74 24.8832
1134.65 24.9227
1146.87 25.4546
1147.79 25.4961
1172.87 26.6283
1174.52 26.7028
1186.45 27.2414
1188.12 27.3168
1214.08 28.5305
1228.14 29.1876
1248.02 30.1595
1262.47 30.8668
1291.87 32.3102
1306.83 33.0433
1317.71 33.6069
1332.97 34.3982
1364.02 36.0128
1379.81 36.8327
1381.88 36.9454
1397.88 37.8178
1430.44 39.5984
1440.59 40.1529
1447 40.5031
1457.27 41.0885
1491.21 43.0279
1494 43.1875
1508.48 44.0144
1511.3 44.1816
1542.35 46.0252
1546.5 46.2715
1560.21 47.0855
1564.4 47.3349
1596.55 49.3113
1615.04 50.4479
1630.76 51.4545
1649.64 52.6644
1688.06 55.1341
1700.37 55.9243
1707.61 56.3888
1720.06 57.2261
1760.12 59.9289
1780.51 61.3043
1810.39 63.421
1831.36 64.9085
1874.01 67.9433
1895.71 69.4849
1927.53 71.8856
1949.85 73.5708
1995.26 77.0094
2012.87 78.341
2018.37 78.7564
2036.18 80.1737
2083.61 83.9595
2096.32 84.9736
2107.74 85.8842
2120.59 86.9506
2169.98 91.0605
2177.68 91.7012
2195.11 93.1507
2202.9 93.8231
2254.21 98.2632
2256.83 98.4899
2280.31 100.521
2282.96 100.758
2333.64 105.308
2336.13 105.531
2360.66 107.733
2363.19 107.961
2415.64 112.837
2443.61 115.438
2484.76 119.442
2513.53 122.244
2572.08 127.965
2601.86 130.871
2625 133.258
2655.39 136.396
2717.24 142.802
2748.71 146.057
2754.18 146.651
2786.07 150.116
2850.97 157.189
2872.43 159.526
2883.98 160.783
2905.69 163.25
2973.37 170.962
2980.04 171.722
3007.79 174.882
3014.55 175.68
3077.51 183.14
3084.77 184
3113.15 187.361
3120.49 188.232
3185.66 196.227
3222.55 200.752
3255.8 205.003
3293.5 209.828
3370.22 219.676
3396.27 223.016
3409.24 224.678
3435.6 228.219
3505.58 237.645
3515.62 238.997
3546.17 243.11
3556.33 244.48
3628.77 254.602
3670.79 260.473
3676.17 261.253
3718.74 267.428
3805.36 280.033
3849.42 286.439
3855.05 287.294
3899.69 294.085
3990.52 307.943
4025.74 313.314
4036.73 314.988
4072.35 320.657
4167.21 335.798
4192.61 339.85
4215.46 343.494
4241.16 347.759
4339.95 364.198
4355.33 366.757
4390.2 372.556
4405.77 375.244
4508.39 393.002
4513.62 393.907
4560.59 402.032
4565.88 402.98
4667.23 421.175
4672.23 422.072
4721.27 430.874
4726.34 431.786
4831.24 451.292
4887.19 461.695
4969.47 477.703
5027.01 488.912
5144.1 511.791
5203.67 523.413
5249.94 532.958
5310.73 545.51
5434.43 571.132
5497.36 584.149
5508.31 586.527
5572.09 600.385
5701.88 628.67
5744.79 638.017
5767.9 643.048
5811.31 652.911
5946.67 683.754
5960.02 686.796
6015.53 699.437
6029.04 702.63
6154.96 732.46
6169.47 735.898
6226.23 749.341
6240.91 752.826
6371.25 784.801
6445.03 802.9
6511.55 819.909
6586.95 839.205
6740.38 878.588
6792.49 891.949
6818.42 898.593
6871.14 912.756
7011.11 950.457
7031.18 955.862
7092.3 972.32
7112.6 977.793
7257.5 1018.28
7341.53 1041.76
7352.31 1044.89
7437.45 1069.58
7610.68 1119.99
7698.81 1145.62
7710.1 1149.05
7799.38 1176.21
7981.05 1231.63
8051.51 1253.12
8073.46 1259.8
8144.74 1282.49
8334.45 1343.05
8385.3 1359.27
8430.96 1373.83
8482.4 1390.9
8679.97 1456.66
8710.78 1466.91
8780.48 1490.09
8811.65 1500.85
9017 1571.92
9027.49 1575.55
9121.41 1608.03
9132.02 1611.84
9334.86 1684.65
9344.83 1688.23
9442.95 1723.45
9453.04 1727.08
9662.99 1805.15
9775.12 1846.85
9939.64 1910.88
10055 1955.82
10290 2047.66
10409 2094.11
10501 2132.06
10623 2182.45
10871 2285.18
10997 2337.31
11019 2346.87
11147 2402.51
11406 2515.45
11492 2552.93
11539 2573.41
11626 2612.95
11897 2736.5
11923 2748.34
12035 2799.36
12062 2812.12
12314 2931.53
12343 2945.28
12457 2999.28
12486 3013.04
12747 3141.01
12894 3213.08
13027 3281.12
13178 3358.45
13485 3516.11
13589 3569.49
13641 3596.13
13746 3652.56
14026 3803.41
14066 3824.94
14188 3890.63
14229 3912.76
14519 4074.92
14687 4168.84
14707 4180.43
14877 4279.07
15224 4480.98
15400 4583.34
15420 4595.5
15599 4704.41
15962 4925.93
16104 5012.55
16147 5038.75
16290 5129.76
16670 5372.34
16772 5437.45
16863 5495.51
16966 5563.86
17361 5826.8
17424 5868.72
17563 5961.22
17626 6004.68
18036 6288.38
18058 6303.64
18245 6432.94
18267 6448.74
18673 6740.3
18692 6753.91
18889 6895.37
18909 6909.73
19329 7222.16
19553 7388.71
19882 7644.76
20113 7824.66
20581 8190.41
20819 8376.15
21005 8529.64
21248 8730.39
21743 9140.55
21995 9349.17
22039 9387.4
22294 9609
22813 10061.3
22985 10211.1
23077 10291.2
23251 10449.3
23792 10942.5
23846 10991.7
24068 11193.9
24122 11245
24626 11722.6
24684 11777.6
24911 11992.7
24970 12048.7
25491 12559.9
25786 12849.1
26052 13121.2
26354 13430.4
26967 14059.7
27175 14273.1
27279 14379.6
27490 14606.3
28049 15208.9
28130 15296.1
28374 15559.1
28456 15647.4
29035 16294.6
29371 16670
29412 16717.5
29753 17113.2
30446 17919.7
30798 18328.7
30840 18380.1
31198 18815.4
31924 19701.6
32207 20046.8
32294 20152.8
32580 20516.6
33338 21484.6
33543 21746
33725 21978.4
33931 22251.5
34721 23302.7
34845 23467.8
35123 23837.2
35249 24011
36070 25147.2
36112 25205.5
36487 25724.4
36530 25785.8
37342 26951.8
37381 27008.1
37774 27571.9
37814 27629.9
38654 28878.8
39101 29543.8
39760 30568.9
40221 31287.3
41157 32750.4
41634 33494.6
42004 34105
42491 34909.2
43480 36547.5
43984 37381.4
44072 37534.3
44582 38420.9
45620 40229.5
45964 40828.9
46148 41149.2
46496 41781.6
47579 43756.2
47686 43951.2
48130 44760
48238 44964.3
49246 46873.8
49362 47092.8
49816 47952.9
49933 48174.6
50976 50221
51566 51379
52098 52466.7
52701 53700.8
53928 56220.6
54345 57075.9
54553 57501.6
54974 58406.2
56093 60817.5
56254 61164.7
56743 62218.2
56906 62569.9
58065 65159.7
58737 66660
58821 66854.8
59502 68434.9
60888 71661.2
61593 73300.8
61681 73514.5
62395 75251.8
63848 78800
64588 80604.5
65522 82996
66185 84694.4
67532 88154.4
68216 89911.1
69079 92236.2
69690 93886.3
70930 97239
71558 98936
72349 101166
72909 102747
74042 105948
74615 107567
75337 109685
75847 111181
76877 114210
77398 115741
78052 117725
78515 119130
79447 121969
79918 123401
83041 133315
83410 134485
84152 136849
84525 138030
86991 146261
87280 147225
87862 149165
88154 150144
90076 156891
90301 157680
90752 159269
93891 170315
94909 174120
95027 174556
95264 175450
100000 193200
