0	0	0.88902159
1	1	0.018546898
2	2	0.033216752
3	3	0.048215185
4	4	0.00072026692
5	5	0.00091766583
6	6	0.0019076192
7	7	0.0027067651
8	8	0.0041987292
9	9	1.9747618e-05
10	10	1.0917967e-05
11	11	3.438108e-05
12	12	2.4482054e-05
13	13	4.2664532e-05
14	14	0.00016727567
15	15	0.00021938799
16	16	3.3611589e-06
17	17	2.4578492e-06
18	18	8.3589976e-06
19	19	5.7852011e-06
20	20	8.9338329e-06
21	21	5.0363179e-07
22	22	7.666336e-08
23	23	1.9588073e-07
