0	0	0.8891544
1	1	0.018549669
2	2	0.033221714
3	3	0.048222388
4	4	0.00072037452
5	5	0.00091780292
6	6	0.0019079042
7	7	0.0027071695
8	8	0.0041993564
9	9	1.9750568e-05
10	10	1.0919598e-05
11	11	3.4386216e-05
12	12	9.9946038e-06
13	13	1.8707611e-05
14	14	0.00012284739
15	15	0.00016303524
16	16	2.3543551e-06
17	17	1.6091645e-06
18	18	5.8924064e-06
19	19	3.5454711e-06
20	20	5.617668e-06
21	21	3.6951626e-07
22	22	5.2840649e-08
23	23	1.4122466e-07
