0	0	0.88943683
1	1	0.018555561
2	2	0.033232266
3	3	0.048237705
4	4	0.00072060334
5	5	0.00091809445
6	6	0.0019085102
7	7	0.0027080294
8	8	0.0042006903
9	9	1.9756842e-05
10	10	1.0923066e-05
11	11	3.4397139e-05
12	12	5.3629659e-06
13	13	5.1528078e-06
14	14	1.222795e-06
15	15	2.0114641e-06
16	16	3.0418421e-07
17	17	5.4735133e-07
18	18	1.0687571e-06
19	19	3.6727852e-07
20	20	4.7804632e-07
21	21	7.9164545e-08
22	22	1.371572e-08
23	23	2.9248886e-08
