0	0	0.88943049
1	1	0.018555429
2	2	0.033232029
3	3	0.048237361
4	4	0.0007205982
5	5	0.0009180879
6	6	0.0019084966
7	7	0.0027080101
8	8	0.0042006603
9	9	1.9756701e-05
10	10	1.0922988e-05
11	11	3.4396893e-05
12	12	5.3629277e-06
13	13	5.1527711e-06
14	14	3.7563014e-06
15	15	6.075764e-06
16	16	4.2699794e-07
17	17	5.5149829e-07
18	18	1.3280605e-06
19	19	3.8782912e-07
20	20	5.7023061e-07
21	21	9.927757e-08
22	22	1.5541298e-08
23	23	3.6759112e-08
