0	0	0.88869399
1	1	0.018540064
2	2	0.033204511
3	3	0.048197418
4	4	0.00072000151
5	5	0.00091732768
6	6	0.0019069163
7	7	0.0027057677
8	8	0.004197182
9	9	1.9740341e-05
10	10	1.3707896e-05
11	11	6.1162118e-05
12	12	8.0770408e-05
13	13	0.00012824929
14	14	0.0002415374
15	15	0.00031201674
16	16	6.2688287e-06
17	17	5.0683706e-06
18	18	1.5580054e-05
19	19	1.2605377e-05
20	20	1.8725514e-05
21	21	8.846179e-07
22	22	1.4993172e-07
23	23	3.5432383e-07
