0	0	0.8888814
1	1	0.018543973
2	2	0.033211514
3	3	0.048207582
4	4	0.00072015334
5	5	0.00091752112
6	6	0.0019073184
7	7	0.0027063383
8	8	0.0041980671
9	9	1.9744504e-05
10	10	1.0916245e-05
11	11	3.9724433e-05
12	12	4.6010914e-05
13	13	7.6281425e-05
14	14	0.00020498479
15	15	0.00026672648
16	16	4.5380581e-06
17	17	3.4431071e-06
18	18	1.1271441e-05
19	19	8.5398037e-06
20	20	1.2928154e-05
21	21	6.5910198e-07
22	22	1.0579199e-07
23	23	2.6039745e-07
