0	0	0.88942176
1	1	0.018555246
2	2	0.033231703
3	3	0.048236888
4	4	0.00072059113
5	5	0.00091807889
6	6	0.0019084779
7	7	0.0027079835
8	8	0.0042006191
9	9	1.9756507e-05
10	10	1.0922881e-05
11	11	3.4396556e-05
12	12	5.362875e-06
13	13	5.1527205e-06
14	14	7.4490848e-06
15	15	1.1659583e-05
16	16	5.1837713e-07
17	17	5.6834733e-07
18	18	1.5521976e-06
19	19	4.4454703e-07
20	20	6.9755802e-07
21	21	1.1477254e-07
22	22	1.7072279e-08
23	23	4.2841991e-08
