0	0	0.88915364
1	1	0.018549653
2	2	0.033221685
3	3	0.048222347
4	4	0.00072037391
5	5	0.00091780214
6	6	0.0019079026
7	7	0.0027071672
8	8	0.0041993528
9	9	1.9750551e-05
10	10	1.0919588e-05
11	11	3.4386187e-05
12	12	1.0067691e-05
13	13	1.8816437e-05
14	14	0.00012312141
15	15	0.00016338014
16	16	2.3596044e-06
17	17	1.6128149e-06
18	18	5.9056459e-06
19	19	3.5567791e-06
20	20	5.6347053e-06
21	21	3.7024356e-07
22	22	5.2973392e-08
23	23	1.414988e-07
