0	0	0.88877556
1	1	0.018541765
2	2	0.033207559
3	3	0.048201842
4	4	0.00072006759
5	5	0.00091741187
6	6	0.0019070913
7	7	0.0027060161
8	8	0.0041975672
9	9	1.9742153e-05
10	10	1.0914945e-05
11	11	5.1492238e-05
12	12	6.4900795e-05
13	13	0.00010474207
14	14	0.00022729073
15	15	0.00029447448
16	16	5.4864767e-06
17	17	4.3111098e-06
18	18	1.3636476e-05
19	19	1.0777681e-05
20	20	1.6134135e-05
21	21	7.8074647e-07
22	22	1.302082e-07
23	23	3.1104168e-07
