0	0	0.88882193
1	1	0.018542733
2	2	0.033209291
3	3	0.048204356
4	4	0.00072010516
5	5	0.00091745973
6	6	0.0019071908
7	7	0.0027061572
8	8	0.0041977862
9	9	1.9743183e-05
10	10	1.0915515e-05
11	11	4.6244751e-05
12	12	5.6264455e-05
13	13	9.1790783e-05
14	14	0.00021799184
15	15	0.00028289759
16	16	5.0620812e-06
17	17	3.916799e-06
18	18	1.2578437e-05
19	19	9.7676184e-06
20	20	1.4688507e-05
21	21	7.2620689e-07
22	22	1.1930181e-07
23	23	2.8811653e-07
