0	0	0.88878
1	1	0.018541858
2	2	0.033207725
3	3	0.048202082
4	4	0.00072007119
5	5	0.00091741645
6	6	0.0019071008
7	7	0.0027060296
8	8	0.0041975882
9	9	1.9742252e-05
10	10	1.0915e-05
11	11	5.0980299e-05
12	12	6.4047553e-05
13	13	0.00010346426
14	14	0.00022643482
15	15	0.00029341964
16	16	5.4450732e-06
17	17	4.2692224e-06
18	18	1.3533264e-05
19	19	1.067691e-05
20	20	1.5991277e-05
21	21	7.7537216e-07
22	22	1.2914427e-07
23	23	3.0864744e-07
