0	0	0.88921468
1	1	0.018550926
2	2	0.033223966
3	3	0.048225657
4	4	0.00072042336
5	5	0.00091786514
6	6	0.0019080336
7	7	0.002707353
8	8	0.0041996411
9	9	1.9751907e-05
10	10	1.0920338e-05
11	11	3.4388547e-05
12	12	5.3616264e-06
13	13	8.8306963e-06
14	14	0.00010112884
15	15	0.00013527693
16	16	1.9591361e-06
17	17	1.3301471e-06
18	18	4.9392632e-06
19	19	2.7217386e-06
20	20	4.3667945e-06
21	21	3.1714156e-07
22	22	4.3944588e-08
23	23	1.2027065e-07
