0	0	0.88851272
1	1	0.018536282
2	2	0.033197738
3	3	0.048187587
4	4	0.00071985464
5	5	0.00091714056
6	6	0.0019065273
7	7	0.0027052158
8	8	0.0041963258
9	9	2.4229536e-05
10	10	2.1577575e-05
11	11	8.5077131e-05
12	12	0.00011921031
13	13	0.00018415377
14	14	0.00026565312
15	15	0.00034179902
16	16	8.1576366e-06
17	17	6.9580727e-06
18	18	2.0261927e-05
19	19	1.6944183e-05
20	20	2.480403e-05
21	21	1.1288181e-06
22	22	2.0261505e-07
23	23	4.5623997e-07
