0	0	0.88867911
1	1	0.018539753
2	2	0.033203955
3	3	0.048196611
4	4	0.00071998945
5	5	0.00091731232
6	6	0.0019068844
7	7	0.0027057224
8	8	0.0041971117
9	9	1.9740011e-05
10	10	1.4280555e-05
11	11	6.29987e-05
12	12	8.3824344e-05
13	13	0.0001326877
14	14	0.0002438341
15	15	0.00031502278
16	16	6.4168481e-06
17	17	5.2093398e-06
18	18	1.5947302e-05
19	19	1.2952112e-05
20	20	1.9214072e-05
21	21	9.0401329e-07
22	22	1.5412879e-07
23	23	3.6238135e-07
