0	0	0.88942971
1	1	0.018555412
2	2	0.033232
3	3	0.048237319
4	4	0.00072059757
5	5	0.0009180871
6	6	0.001908495
7	7	0.0027080077
8	8	0.0042006567
9	9	1.9756684e-05
10	10	1.0922979e-05
11	11	3.4396863e-05
12	12	5.362923e-06
13	13	5.1527666e-06
14	14	4.062484e-06
15	15	6.5901702e-06
16	16	4.367448e-07
17	17	5.528598e-07
18	18	1.3515968e-06
19	19	3.9250929e-07
20	20	5.8219253e-07
21	21	1.0097015e-07
22	22	1.569888e-08
23	23	3.7426172e-08
