0	0	0.88943637
1	1	0.018555551
2	2	0.033232249
3	3	0.04823768
4	4	0.00072060297
5	5	0.00091809397
6	6	0.0019085092
7	7	0.002708028
8	8	0.0042006881
9	9	1.9756831e-05
10	10	1.092306e-05
11	11	3.4397121e-05
12	12	5.3629631e-06
13	13	5.1528051e-06
14	14	1.3886679e-06
15	15	2.3119851e-06
16	16	3.1856501e-07
17	17	5.4682238e-07
18	18	1.096374e-06
19	19	3.6595544e-07
20	20	4.837423e-07
21	21	8.1466626e-08
22	22	1.3911839e-08
23	23	3.001503e-08
