0	0	0.88888878
1	1	0.018544127
2	2	0.033211789
3	3	0.048207982
4	4	0.00072015932
5	5	0.00091752874
6	6	0.0019073343
7	7	0.0027063608
8	8	0.0041981019
9	9	1.9744668e-05
10	10	1.0916336e-05
11	11	3.8922077e-05
12	12	4.4804573e-05
13	13	7.4418741e-05
14	14	0.00020335712
15	15	0.00026457376
16	16	4.4749216e-06
17	17	3.3849055e-06
18	18	1.1118163e-05
19	19	8.3929664e-06
20	20	1.2715652e-05
21	21	6.5085827e-07
22	22	1.0413213e-07
23	23	2.5699156e-07
