0	0	0.88943873
1	1	0.018555601
2	2	0.033232337
3	3	0.048237808
4	4	0.00072060488
5	5	0.00091809641
6	6	0.0019085143
7	7	0.0027080352
8	8	0.0042006993
9	9	1.9756884e-05
10	10	1.0923089e-05
11	11	3.4397212e-05
12	12	5.3629774e-06
13	13	5.1528189e-06
14	14	5.598141e-07
15	15	7.8021889e-07
16	16	2.0304645e-07
17	17	5.6782975e-07
18	18	8.6088945e-07
19	19	4.1865287e-07
20	20	4.8999976e-07
21	21	6.1236323e-08
22	22	1.2225236e-08
23	23	2.2898837e-08
