0	0	0.88942059
1	1	0.018555222
2	2	0.03323166
3	3	0.048236824
4	4	0.00072059018
5	5	0.00091807769
6	6	0.0019084754
7	7	0.00270798
8	8	0.0042006136
9	9	1.9756481e-05
10	10	1.0922867e-05
11	11	3.4396511e-05
12	12	5.362868e-06
13	13	5.1527137e-06
14	14	7.9568906e-06
15	15	1.2391838e-05
16	16	5.2958961e-07
17	17	5.7084629e-07
18	18	1.5832001e-06
19	19	4.5256083e-07
20	20	7.1399735e-07
21	21	1.1649708e-07
22	22	1.724434e-08
23	23	4.3496855e-08
