0	0	0.88940432
1	1	0.018554883
2	2	0.033231052
3	3	0.048235942
4	4	0.000720577
5	5	0.00091806089
6	6	0.0019084405
7	7	0.0027079304
8	8	0.0042005368
9	9	1.975612e-05
10	10	1.0922667e-05
11	11	3.4395881e-05
12	12	5.3627699e-06
13	13	5.1526195e-06
14	14	1.5137268e-05
15	15	2.2592485e-05
16	16	6.6574911e-07
17	17	6.0992909e-07
18	18	1.9414326e-06
19	19	5.7291267e-07
20	20	9.4212823e-07
21	21	1.369395e-07
22	22	1.9411758e-08
23	23	5.1062799e-08
