0	0	0.88927974
1	1	0.018552284
2	2	0.033226397
3	3	0.048229185
4	4	0.00072047607
5	5	0.0009179323
6	6	0.0019081732
7	7	0.0027075511
8	8	0.0041999484
9	9	1.9753352e-05
10	10	1.0921137e-05
11	11	3.4391064e-05
12	12	5.3620187e-06
13	13	5.1518977e-06
14	14	7.261059e-05
15	15	9.8557315e-05
16	16	1.4991866e-06
17	17	1.0268604e-06
18	18	3.8347297e-06
19	19	1.8301704e-06
20	20	2.9917806e-06
21	21	2.5425891e-07
22	22	3.4466594e-08
23	23	9.493032e-08
