0	0	0.88886346
1	1	0.018543599
2	2	0.033210843
3	3	0.048206609
4	4	0.00072013881
5	5	0.0009175026
6	6	0.0019072799
7	7	0.0027062837
8	8	0.0041979823
9	9	1.9744106e-05
10	10	1.0916025e-05
11	11	4.167301e-05
12	12	4.900422e-05
13	13	8.084047e-05
14	14	0.00020893797
15	15	0.00027184939
16	16	4.6932515e-06
17	17	3.5844503e-06
18	18	1.1658926e-05
19	19	8.898791e-06
20	20	1.3447743e-05
21	21	6.7912711e-07
22	22	1.0982304e-07
23	23	2.6866837e-07
