0	0	0.88942639
1	1	0.018555343
2	2	0.033231876
3	3	0.048237139
4	4	0.00072059488
5	5	0.00091808367
6	6	0.0019084878
7	7	0.0027079976
8	8	0.004200641
9	9	1.975661e-05
10	10	1.0922938e-05
11	11	3.4396735e-05
12	12	5.362903e-06
13	13	5.1527473e-06
14	14	5.4557361e-06
15	15	8.7177777e-06
16	16	4.7350038e-07
17	17	5.5864996e-07
18	18	1.4403586e-06
19	19	4.1331253e-07
20	20	6.3067047e-07
21	21	1.0735381e-07
22	22	1.6314486e-08
23	23	3.9942021e-08
