0	0	0.88882997
1	1	0.0185429
2	2	0.033209592
3	3	0.048204793
4	4	0.00072011168
5	5	0.00091746803
6	6	0.0019072081
7	7	0.0027061817
8	8	0.0041978242
9	9	1.9743362e-05
10	10	1.0915613e-05
11	11	4.5348177e-05
12	12	5.4823319e-05
13	13	8.9616475e-05
14	14	0.0002163608
15	15	0.00028074643
16	16	4.9896171e-06
17	17	3.8515017e-06
18	18	1.2397769e-05
19	19	9.5964845e-06
20	20	1.4444741e-05
21	21	7.1695828e-07
22	22	1.1743966e-07
23	23	2.8429565e-07
