0	0	0.88909852
1	1	0.018548503
2	2	0.033219626
3	3	0.048219357
4	4	0.00072032925
5	5	0.00091774524
6	6	0.0019077843
7	7	0.0027069994
8	8	0.0041990925
9	9	1.9749327e-05
10	10	1.0918911e-05
11	11	3.4384055e-05
12	12	1.5506657e-05
13	13	2.758467e-05
14	14	0.00014239978
15	15	0.00018789669
16	16	2.7590523e-06
17	17	1.9588394e-06
18	18	6.8781996e-06
19	19	4.4303278e-06
20	20	6.928891e-06
21	21	4.2367109e-07
22	22	6.272441e-08
23	23	1.6332008e-07
