0	0	0.8894388
1	1	0.018555602
2	2	0.03323234
3	3	0.048237812
4	4	0.00072060494
5	5	0.00091809649
6	6	0.0019085145
7	7	0.0027080354
8	8	0.0042006996
9	9	1.9756886e-05
10	10	1.092309e-05
11	11	3.4397215e-05
12	12	5.3629778e-06
13	13	5.1528193e-06
14	14	2.0867379e-07
15	15	2.5695244e-07
16	16	1.3864715e-07
17	17	4.3972066e-07
18	18	6.5324059e-07
19	19	9.963227e-07
20	20	1.1634389e-06
21	21	2.1153814e-08
22	22	9.7884685e-09
23	23	1.0652079e-08
