0	0	0.88884053
1	1	0.018543121
2	2	0.033209986
3	3	0.048205365
4	4	0.00072012023
5	5	0.00091747893
6	6	0.0019072307
7	7	0.0027062139
8	8	0.004197874
9	9	1.9743596e-05
10	10	1.0915743e-05
11	11	4.4192513e-05
12	12	5.2974231e-05
13	13	8.6817058e-05
14	14	0.00021403103
15	15	0.00027797411
16	16	4.8962343e-06
17	17	3.7673544e-06
18	18	1.2164946e-05
19	19	9.3759316e-06
20	20	1.4130578e-05
21	21	7.0503853e-07
22	22	1.1503979e-07
23	23	2.7937139e-07
