0	0	0.88943791
1	1	0.018555583
2	2	0.033232307
3	3	0.048237764
4	4	0.00072060422
5	5	0.00091809557
6	6	0.0019085126
7	7	0.0027080327
8	8	0.0042006954
9	9	1.9756866e-05
10	10	1.0923079e-05
11	11	3.4397181e-05
12	12	5.3629724e-06
13	13	5.1528141e-06
14	14	8.2740849e-07
15	15	1.315814e-06
16	16	2.6379436e-07
17	17	5.5171957e-07
18	18	9.8380324e-07
19	19	3.7799894e-07
20	20	4.6986224e-07
21	21	7.1825987e-08
22	22	1.3112802e-08
23	23	2.6761379e-08
