0	0	0.88943897
1	1	0.018555605
2	2	0.033232346
3	3	0.048237821
4	4	0.00072060507
5	5	0.00091809666
6	6	0.0019085148
7	7	0.0027080359
8	8	0.0042007004
9	9	1.9756889e-05
10	10	1.0923092e-05
11	11	3.4397221e-05
12	12	5.3629788e-06
13	13	5.1528202e-06
14	14	2.0867383e-07
15	15	2.5695249e-07
16	16	1.3864718e-07
17	17	6.846672e-07
18	18	6.4333596e-07
19	19	8.0704231e-07
20	20	9.2388008e-07
21	21	2.8555107e-08
22	22	1.0129936e-08
23	23	1.2685406e-08
