0	0	0.88872442
1	1	0.018540699
2	2	0.033205648
3	3	0.048199068
4	4	0.00072002616
5	5	0.00091735909
6	6	0.0019069816
7	7	0.0027058604
8	8	0.0041973257
9	9	1.9741017e-05
10	10	1.2545982e-05
11	11	5.7450501e-05
12	12	7.4707313e-05
13	13	0.00011928368
14	14	0.00023640188
15	15	0.00030591486
16	16	5.9684913e-06
17	17	4.7823275e-06
18	18	1.4834869e-05
19	19	1.1911243e-05
20	20	1.7741074e-05
21	21	8.4526279e-07
22	22	1.421891e-07
23	23	3.3797479e-07
