0	0	0.88938038
1	1	0.018554383
2	2	0.033230157
3	3	0.048234643
4	4	0.00072055761
5	5	0.00091803618
6	6	0.0019083891
7	7	0.0027078575
8	8	0.0042004237
9	9	1.9755588e-05
10	10	1.0922373e-05
11	11	3.4394956e-05
12	12	5.3626255e-06
13	13	5.1524808e-06
14	14	2.5992647e-05
15	15	3.7420549e-05
16	16	8.3113848e-07
17	17	6.7408198e-07
18	18	2.345501e-06
19	19	7.6596034e-07
20	20	1.313857e-06
21	21	1.6147566e-07
22	22	2.221342e-08
23	23	5.9597493e-08
