0	0	0.88943889
1	1	0.018555604
2	2	0.033232343
3	3	0.048237817
4	4	0.00072060501
5	5	0.00091809658
6	6	0.0019085147
7	7	0.0027080357
8	8	0.0042007
9	9	1.9756887e-05
10	10	1.0923091e-05
11	11	3.4397218e-05
12	12	5.3629783e-06
13	13	5.1528198e-06
14	14	2.0867381e-07
15	15	2.5695246e-07
16	16	1.3864717e-07
17	17	4.397207e-07
18	18	6.5053957e-07
19	19	9.5412941e-07
20	20	1.1087702e-06
21	21	2.2611516e-08
22	22	9.8492074e-09
23	23	1.1039682e-08
