0	0	0.88943793
1	1	0.018555584
2	2	0.033232307
3	3	0.048237765
4	4	0.00072060423
5	5	0.00091809559
6	6	0.0019085126
7	7	0.0027080328
8	8	0.0042006955
9	9	1.9756866e-05
10	10	1.092308e-05
11	11	3.4397181e-05
12	12	5.3629725e-06
13	13	5.1528142e-06
14	14	8.1986919e-07
15	15	1.3039094e-06
16	16	2.6289873e-07
17	17	5.5191424e-07
18	18	9.8192472e-07
19	19	3.783542e-07
20	20	4.6986191e-07
21	21	7.1669452e-08
22	22	1.309918e-08
23	23	2.6703531e-08
