0	0	0.88878111
1	1	0.018541881
2	2	0.033207766
3	3	0.048202143
4	4	0.00072007209
5	5	0.0009174176
6	6	0.0019071032
7	7	0.002706033
8	8	0.0041975934
9	9	1.9742276e-05
10	10	1.0915013e-05
11	11	5.0852313e-05
12	12	6.3834242e-05
13	13	0.0001031448
14	14	0.00022622084
15	15	0.00029315593
16	16	5.4347223e-06
17	17	4.2587505e-06
18	18	1.3507461e-05
19	19	1.0651717e-05
20	20	1.5955563e-05
21	21	7.7402858e-07
22	22	1.2887829e-07
23	23	3.0804888e-07
