0	0	0.88943861
1	1	0.018555598
2	2	0.033232333
3	3	0.048237802
4	4	0.00072060478
5	5	0.00091809628
6	6	0.0019085141
7	7	0.0027080348
8	8	0.0042006987
9	9	1.9756881e-05
10	10	1.0923088e-05
11	11	3.4397207e-05
12	12	5.3629766e-06
13	13	5.1528181e-06
14	14	5.9812448e-07
15	15	8.6248273e-07
16	16	2.1809772e-07
17	17	5.6273567e-07
18	18	8.9064794e-07
19	19	4.0544245e-07
20	20	4.8076959e-07
21	21	6.3911405e-08
22	22	1.2440749e-08
23	23	2.3804408e-08
