0	0	0.88943757
1	1	0.018555576
2	2	0.033232294
3	3	0.048237745
4	4	0.00072060394
5	5	0.00091809521
6	6	0.0019085118
7	7	0.0027080317
8	8	0.0042006938
9	9	1.9756858e-05
10	10	1.0923075e-05
11	11	3.4397167e-05
12	12	5.3629704e-06
13	13	5.1528121e-06
14	14	9.4803718e-07
15	15	1.5349351e-06
16	16	2.7812448e-07
17	17	5.4994001e-07
18	18	1.013864e-06
19	19	3.726932e-07
20	20	4.7109551e-07
21	21	7.4471023e-08
22	22	1.3335235e-08
23	23	2.7687037e-08
