0	0	0.88906965
1	1	0.018547901
2	2	0.033218547
3	3	0.048217792
4	4	0.00072030586
5	5	0.00091771544
6	6	0.0019077224
7	7	0.0027069115
8	8	0.0041989562
9	9	1.9748686e-05
10	10	1.0918557e-05
11	11	3.4382939e-05
12	12	1.8535614e-05
13	13	3.2918106e-05
14	14	0.00015204661
15	15	0.00020012234
16	16	2.9781173e-06
17	17	2.1454182e-06
18	18	7.419497e-06
19	19	4.920011e-06
20	20	7.661985e-06
21	21	4.526952e-07
22	22	6.7936338e-08
23	23	1.7528915e-07
