0	0	0.88943882
1	1	0.018555602
2	2	0.033232341
3	3	0.048237813
4	4	0.00072060496
5	5	0.00091809651
6	6	0.0019085145
7	7	0.0027080355
8	8	0.0042006997
9	9	1.9756886e-05
10	10	1.0923091e-05
11	11	3.4397216e-05
12	12	5.3629779e-06
13	13	5.1528194e-06
14	14	2.086738e-07
15	15	2.5695244e-07
16	16	1.3864716e-07
17	17	4.3972067e-07
18	18	6.5269257e-07
19	19	9.860936e-07
20	20	1.1507915e-06
21	21	2.1476478e-08
22	22	9.8024832e-09
23	23	1.0740826e-08
