0	0	0.88943908
1	1	0.018555608
2	2	0.03323235
3	3	0.048237827
4	4	0.00072060516
5	5	0.00091809677
6	6	0.0019085151
7	7	0.0027080362
8	8	0.0042007009
9	9	1.9756892e-05
10	10	1.0923094e-05
11	11	3.4397226e-05
12	12	5.3629794e-06
13	13	5.1528208e-06
14	14	2.0867385e-07
15	15	2.5695252e-07
16	16	1.386472e-07
17	17	6.8961971e-07
18	18	6.4646002e-07
19	19	7.4721284e-07
20	20	8.4945628e-07
21	21	3.1471135e-08
22	22	1.0283356e-08
23	23	1.3520132e-08
