0	0	0.88943735
1	1	0.018555572
2	2	0.033232286
3	3	0.048237733
4	4	0.00072060376
5	5	0.00091809499
6	6	0.0019085114
7	7	0.002708031
8	8	0.0042006927
9	9	1.9756853e-05
10	10	1.0923072e-05
11	11	3.4397159e-05
12	12	5.362969e-06
13	13	5.1528108e-06
14	14	1.0321061e-06
15	15	1.6736495e-06
16	16	2.8648757e-07
17	17	5.490019e-07
18	18	1.03128e-06
19	19	3.7051543e-07
20	20	4.7262112e-07
21	21	7.6035539e-08
22	22	1.346205e-08
23	23	2.8207716e-08
