0	0	0.88943528
1	1	0.018555529
2	2	0.033232208
3	3	0.048237621
4	4	0.00072060209
5	5	0.00091809285
6	6	0.0019085069
7	7	0.0027080247
8	8	0.004200683
9	9	1.9756807e-05
10	10	1.0923047e-05
11	11	3.4397079e-05
12	12	5.3629566e-06
13	13	5.1527988e-06
14	14	1.7998481e-06
15	15	3.0166133e-06
16	16	3.4658611e-07
17	17	5.4628791e-07
18	18	1.1523117e-06
19	19	3.6663869e-07
20	20	4.9871276e-07
21	21	8.595163e-08
22	22	1.4311171e-08
23	23	3.1507814e-08
