0	0	0.88934469
1	1	0.018553639
2	2	0.033228824
3	3	0.048232708
4	4	0.00072052869
5	5	0.00091799934
6	6	0.0019083125
7	7	0.0027077489
8	8	0.0042002551
9	9	1.9754795e-05
10	10	1.0921935e-05
11	11	3.4393575e-05
12	12	5.3624103e-06
13	13	5.152274e-06
14	14	4.247484e-05
15	15	5.9289487e-05
16	16	1.0642045e-06
17	17	7.829674e-07
18	18	2.8658692e-06
19	19	1.1146607e-06
20	20	1.8280222e-06
21	21	1.9430648e-07
22	22	2.6309679e-08
23	23	7.2100356e-08
