0	0	0.88943927
1	1	0.018555612
2	2	0.033232358
3	3	0.048237838
4	4	0.00072060532
5	5	0.00091809697
6	6	0.0019085155
7	7	0.0027080368
8	8	0.0042007018
9	9	1.9756896e-05
10	10	1.0923096e-05
11	11	3.4397233e-05
12	12	5.3629806e-06
13	13	5.152822e-06
14	14	2.086739e-07
15	15	2.5695257e-07
16	16	1.3864723e-07
17	17	6.5306479e-07
18	18	6.6706825e-07
19	19	6.4417356e-07
20	20	7.3722755e-07
21	21	3.7600602e-08
22	22	1.062795e-08
23	23	1.5345344e-08
