0	0	0.88848044
1	1	0.018535609
2	2	0.033196533
3	3	0.048185836
4	4	0.0007198285
5	5	0.00091710725
6	6	0.0019064581
7	7	0.0027051175
8	8	0.0041961734
9	9	2.569856e-05
10	10	2.3146509e-05
11	11	8.9628148e-05
12	12	0.00012640045
13	13	0.0001944927
14	14	0.00026907324
15	15	0.00034596581
16	16	8.5103009e-06
17	17	7.3278093e-06
18	18	2.1129477e-05
19	19	1.7743795e-05
20	20	2.5915168e-05
21	21	1.1757996e-06
22	22	2.1294683e-07
23	23	4.753963e-07
