0	0	0.88943449
1	1	0.018555512
2	2	0.033232179
3	3	0.048237578
4	4	0.00072060144
5	5	0.00091809203
6	6	0.0019085052
7	7	0.0027080223
8	8	0.0042006792
9	9	1.975679e-05
10	10	1.0923037e-05
11	11	3.4397048e-05
12	12	5.3629518e-06
13	13	5.1527942e-06
14	14	2.1029139e-06
15	15	3.5366666e-06
16	16	3.6364291e-07
17	17	5.467122e-07
18	18	1.1883391e-06
19	19	3.6864517e-07
20	20	5.1043772e-07
21	21	8.8681943e-08
22	22	1.4557815e-08
23	23	3.2507221e-08
