0	0	0.8892243
1	1	0.018551127
2	2	0.033224325
3	3	0.048226179
4	4	0.00072043115
5	5	0.00091787507
6	6	0.0019080542
7	7	0.0027073823
8	8	0.0041996865
9	9	1.9752121e-05
10	10	1.0920456e-05
11	11	3.4388919e-05
12	12	5.3616844e-06
13	13	6.9336477e-06
14	14	9.7473917e-05
15	15	0.00013060085
16	16	1.8976537e-06
17	17	1.2845919e-06
18	18	4.7870384e-06
19	19	2.5954039e-06
20	20	4.1776986e-06
21	21	3.0891626e-07
22	22	4.2620615e-08
23	23	1.1684976e-07
