0	0	0.88933474
1	1	0.018553431
2	2	0.033228452
3	3	0.048232168
4	4	0.00072052063
5	5	0.00091798907
6	6	0.0019082912
7	7	0.0027077186
8	8	0.0042002081
9	9	1.9754574e-05
10	10	1.0921812e-05
11	11	3.4393191e-05
12	12	5.3623503e-06
13	13	5.1522164e-06
14	14	4.7078363e-05
15	15	6.5361024e-05
16	16	1.1297256e-06
17	17	8.1675624e-07
18	18	3.0034745e-06
19	19	1.2092388e-06
20	20	1.9924401e-06
21	21	2.0354789e-07
22	22	2.7460055e-08
23	23	7.5701247e-08
