0	0	0.8890368
1	1	0.018547215
2	2	0.03321732
3	3	0.04821601
4	4	0.00072027925
5	5	0.00091768153
6	6	0.0019076519
7	7	0.0027068115
8	8	0.004198801
9	9	1.9747956e-05
10	10	1.0918153e-05
11	11	3.4381668e-05
12	12	2.2502293e-05
13	13	3.9441088e-05
14	14	0.00016261369
15	15	0.00021338779
16	16	3.2395384e-06
17	17	2.3586483e-06
18	18	8.060695e-06
19	19	5.5043765e-06
20	20	8.5217745e-06
21	21	4.8745288e-07
22	22	7.3892573e-08
23	23	1.8917178e-07
