0	0	0.88943908
1	1	0.018555608
2	2	0.03323235
3	3	0.048237827
4	4	0.00072060517
5	5	0.00091809677
6	6	0.0019085151
7	7	0.0027080363
8	8	0.0042007009
9	9	1.9756892e-05
10	10	1.0923094e-05
11	11	3.4397226e-05
12	12	5.3629795e-06
13	13	5.1528209e-06
14	14	2.0867386e-07
15	15	2.5695252e-07
16	16	1.386472e-07
17	17	6.8886574e-07
18	18	6.4679638e-07
19	19	7.4431719e-07
20	20	8.4668776e-07
21	21	3.1613376e-08
22	22	1.0291113e-08
23	23	1.3560916e-08
