0	0	0.88941287
1	1	0.018555061
2	2	0.033231371
3	3	0.048236405
4	4	0.00072058393
5	5	0.00091806971
6	6	0.0019084588
7	7	0.0027079564
8	8	0.0042005771
9	9	1.9756309e-05
10	10	1.0922772e-05
11	11	3.4396212e-05
12	12	5.3628214e-06
13	13	5.152669e-06
14	14	1.1339211e-05
15	15	1.7243688e-05
16	16	5.9814716e-07
17	17	5.8860089e-07
18	18	1.7674987e-06
19	19	5.0882969e-07
20	20	8.2194717e-07
21	21	1.2699296e-07
22	22	1.8335883e-08
23	23	4.7389371e-08
