0	0	0.88939778
1	1	0.018554746
2	2	0.033230807
3	3	0.048235587
4	4	0.0007205717
5	5	0.00091805414
6	6	0.0019084264
7	7	0.0027079105
8	8	0.0042005059
9	9	1.9755974e-05
10	10	1.0922586e-05
11	11	3.4395628e-05
12	12	5.3627304e-06
13	13	5.1525816e-06
14	14	1.8087463e-05
15	15	2.6648711e-05
16	16	7.1341864e-07
17	17	6.2713031e-07
18	18	2.0606912e-06
19	19	6.2419497e-07
20	20	1.0445444e-06
21	21	1.4393329e-07
22	22	2.0212798e-08
23	23	5.3581868e-08
