0	0	0.88868656
1	1	0.018539909
2	2	0.033204234
3	3	0.048197015
4	4	0.00071999549
5	5	0.00091732
6	6	0.0019069003
7	7	0.0027057451
8	8	0.0041971469
9	9	1.9740176e-05
10	10	1.3994228e-05
11	11	6.207671e-05
12	12	8.2294641e-05
13	13	0.00013046852
14	14	0.00024268576
15	15	0.00031352031
16	16	6.3428391e-06
17	17	5.1388561e-06
18	18	1.5763679e-05
19	19	1.2778746e-05
20	20	1.8969702e-05
21	21	8.9431568e-07
22	22	1.5203027e-07
23	23	3.5835254e-07
