0	0	0.88914606
1	1	0.018549495
2	2	0.033221402
3	3	0.048221936
4	4	0.00072036777
5	5	0.00091779431
6	6	0.0019078863
7	7	0.0027071441
8	8	0.004199317
9	9	1.9750383e-05
10	10	1.0919495e-05
11	11	3.4385894e-05
12	12	1.0798558e-05
13	13	1.9904684e-05
14	14	0.00012584857
15	15	0.00016682912
16	16	2.4124403e-06
17	17	1.6576397e-06
18	18	6.0380391e-06
19	19	3.6720665e-06
20	20	5.8050707e-06
21	21	3.7751621e-07
22	22	5.4300783e-08
23	23	1.4424015e-07
