0	0	0.88943339
1	1	0.018555489
2	2	0.033232138
3	3	0.048237519
4	4	0.00072060056
5	5	0.0009180909
6	6	0.0019085029
7	7	0.0027080189
8	8	0.0042006741
9	9	1.9756765e-05
10	10	1.0923024e-05
11	11	3.4397006e-05
12	12	5.3629452e-06
13	13	5.1527879e-06
14	14	2.5679535e-06
15	15	4.2156589e-06
16	16	3.8313821e-07
17	17	5.4764618e-07
18	18	1.2301146e-06
19	19	3.7251253e-07
20	20	5.2607316e-07
21	21	9.1823263e-08
22	22	1.4841308e-08
23	23	3.3757617e-08
