0	0	0.88877111
1	1	0.018541673
2	2	0.033207393
3	3	0.048201601
4	4	0.00072006399
5	5	0.00091740728
6	6	0.0019070818
7	7	0.0027060025
8	8	0.0041975462
9	9	1.9742054e-05
10	10	1.0914891e-05
11	11	5.200417e-05
12	12	6.5754028e-05
13	13	0.00010601988
14	14	0.00022814664
15	15	0.00029552943
16	16	5.5278798e-06
17	17	4.3529968e-06
18	18	1.3739686e-05
19	19	1.0878451e-05
20	20	1.6276992e-05
21	21	7.8619722e-07
22	22	1.312722e-07
23	23	3.1343589e-07
