0	0	0.88906883
1	1	0.018547884
2	2	0.033218517
3	3	0.048217747
4	4	0.00072030519
5	5	0.00091771459
6	6	0.0019077206
7	7	0.002706909
8	8	0.0041989523
9	9	1.9748667e-05
10	10	1.0918547e-05
11	11	3.4382907e-05
12	12	1.8631078e-05
13	13	3.3076812e-05
14	14	0.00015231135
15	15	0.0002004694
16	16	2.9846531e-06
17	17	2.1507493e-06
18	18	7.4355281e-06
19	19	4.9344874e-06
20	20	7.6832612e-06
21	21	4.5356287e-07
22	22	6.8085258e-08
23	23	1.7563111e-07
