0	0	0.8894247
1	1	0.018555308
2	2	0.033231813
3	3	0.048237047
4	4	0.00072059351
5	5	0.00091808193
6	6	0.0019084842
7	7	0.0027079925
8	8	0.004200633
9	9	1.9756572e-05
10	10	1.0922917e-05
11	11	3.439667e-05
12	12	5.3628928e-06
13	13	5.1527375e-06
14	14	6.1762286e-06
15	15	9.7989667e-06
16	16	4.899036e-07
17	17	5.6207858e-07
18	18	1.4803879e-06
19	19	4.2454366e-07
20	20	6.5525208e-07
21	21	1.1020238e-07
22	22	1.6605306e-08
23	23	4.1064623e-08
