0	0	0.88941438
1	1	0.018555093
2	2	0.033231428
3	3	0.048236488
4	4	0.00072058516
5	5	0.00091807128
6	6	0.0019084621
7	7	0.0027079611
8	8	0.0042005843
9	9	1.9756343e-05
10	10	1.092279e-05
11	11	3.4396271e-05
12	12	5.3628306e-06
13	13	5.1526778e-06
14	14	1.0666436e-05
15	15	1.6295052e-05
16	16	5.8519201e-07
17	17	5.8510886e-07
18	18	1.7337948e-06
19	19	4.9775437e-07
20	20	8.0127386e-07
21	21	1.2506528e-07
22	22	1.8129123e-08
23	23	4.6677548e-08
