0	0	0.88943893
1	1	0.018555605
2	2	0.033232345
3	3	0.048237819
4	4	0.00072060504
5	5	0.00091809662
6	6	0.0019085147
7	7	0.0027080358
8	8	0.0042007002
9	9	1.9756888e-05
10	10	1.0923092e-05
11	11	3.439722e-05
12	12	5.3629786e-06
13	13	5.15282e-06
14	14	2.0867382e-07
15	15	2.5695248e-07
16	16	1.3864717e-07
17	17	6.3726695e-07
18	18	6.4378296e-07
19	19	8.47472e-07
20	20	9.7345874e-07
21	21	2.6739561e-08
22	22	1.0043886e-08
23	23	1.2179407e-08
