0	0	0.88927448
1	1	0.018552174
2	2	0.0332262
3	3	0.0482289
4	4	0.00072047181
5	5	0.00091792687
6	6	0.0019081619
7	7	0.0027075351
8	8	0.0041999236
9	9	1.9753236e-05
10	10	1.0921072e-05
11	11	3.439086e-05
12	12	5.361987e-06
13	13	5.1518673e-06
14	14	7.5051756e-05
15	15	0.00010169766
16	16	1.5360647e-06
17	17	1.0491426e-06
18	18	3.922631e-06
19	19	1.8980705e-06
20	20	3.0975856e-06
21	21	2.5949643e-07
22	22	3.5201079e-08
23	23	9.6766569e-08
