0	0	0.88879451
1	1	0.018542161
2	2	0.033208267
3	3	0.04820287
4	4	0.00072008295
5	5	0.00091743144
6	6	0.001907132
7	7	0.0027060738
8	8	0.0041976567
9	9	1.9742574e-05
10	10	1.0915178e-05
11	11	4.9316464e-05
12	12	6.1284783e-05
13	13	9.9314591e-05
14	14	0.00022352816
15	15	0.00028999137
16	16	5.3105122e-06
17	17	4.1417417e-06
18	18	1.3197813e-05
19	19	1.035544e-05
20	20	1.552939e-05
21	21	7.5792121e-07
22	22	1.2568646e-07
23	23	3.0128754e-07
