0	0	0.88909935
1	1	0.01854852
2	2	0.033219657
3	3	0.048219402
4	4	0.00072032992
5	5	0.00091774609
6	6	0.0019077861
7	7	0.0027070019
8	8	0.0041990964
9	9	1.9749345e-05
10	10	1.0918922e-05
11	11	3.4384087e-05
12	12	1.5421182e-05
13	13	2.7439948e-05
14	14	0.00014212072
15	15	0.00018753601
16	16	2.7528803e-06
17	17	1.9535083e-06
18	18	6.863348e-06
19	19	4.416546e-06
20	20	6.9087097e-06
21	21	4.2285512e-07
22	22	6.2575484e-08
23	23	1.6297808e-07
