0	0	0.88924418
1	1	0.018551542
2	2	0.033225068
3	3	0.048227257
4	4	0.00072044726
5	5	0.00091789559
6	6	0.0019080969
7	7	0.0027074429
8	8	0.0041997804
9	9	1.9752562e-05
10	10	1.09207e-05
11	11	3.4389688e-05
12	12	5.3618043e-06
13	13	5.1516917e-06
14	14	8.9053787e-05
15	15	0.00011976427
16	16	1.7571091e-06
17	17	1.1919667e-06
18	18	4.4399926e-06
19	19	2.3176257e-06
20	20	3.7490577e-06
21	21	2.901145e-07
22	22	3.959611e-08
23	23	1.0902993e-07
