0	0	0.88941218
1	1	0.018555047
2	2	0.033231345
3	3	0.048236368
4	4	0.00072058338
5	5	0.00091806901
6	6	0.0019084574
7	7	0.0027079544
8	8	0.0042005739
9	9	1.9756294e-05
10	10	1.0922763e-05
11	11	3.4396186e-05
12	12	5.3628173e-06
13	13	5.152665e-06
14	14	1.1646265e-05
15	15	1.7663282e-05
16	16	6.0392717e-07
17	17	5.903222e-07
18	18	1.7824063e-06
19	19	5.1377131e-07
20	20	8.320743e-07
21	21	1.278456e-07
22	22	1.8427335e-08
23	23	4.7704219e-08
