0	0	0.88929562
1	1	0.018552615
2	2	0.03322699
3	3	0.048230047
4	4	0.00072048893
5	5	0.00091794869
6	6	0.0019082072
7	7	0.0027075995
8	8	0.0042000234
9	9	1.9753705e-05
10	10	1.0921332e-05
11	11	3.4391678e-05
12	12	5.3621144e-06
13	13	5.1519897e-06
14	14	6.5244827e-05
15	15	8.9036261e-05
16	16	1.389476e-06
17	17	9.6085806e-07
18	18	3.5710159e-06
19	19	1.633551e-06
20	20	2.6864691e-06
21	21	2.3889565e-07
22	22	3.2309877e-08
23	23	8.9421587e-08
