0	0	0.88940458
1	1	0.018554888
2	2	0.033231061
3	3	0.048235956
4	4	0.00072057722
5	5	0.00091806116
6	6	0.001908441
7	7	0.0027079312
8	8	0.004200538
9	9	1.9756125e-05
10	10	1.092267e-05
11	11	3.4395892e-05
12	12	5.3627715e-06
13	13	5.152621e-06
14	14	1.5016356e-05
15	15	2.2430969e-05
16	16	6.6377952e-07
17	17	6.0930583e-07
18	18	1.936463e-06
19	19	5.709566e-07
20	20	9.3863743e-07
21	21	1.3665534e-07
22	22	1.9378458e-08
23	23	5.095783e-08
