0	0	0.88871146
1	1	0.018540428
2	2	0.033205164
3	3	0.048198365
4	4	0.00072001566
5	5	0.00091734571
6	6	0.0019069538
7	7	0.0027058209
8	8	0.0041972645
9	9	1.9740729e-05
10	10	1.303979e-05
11	11	5.902798e-05
12	12	7.7279503e-05
13	13	0.00012308874
14	14	0.00023863285
15	15	0.00030850823
16	16	6.0961349e-06
17	17	4.9038959e-06
18	18	1.5151576e-05
19	19	1.2205162e-05
20	20	1.8157216e-05
21	21	8.6198887e-07
22	22	1.4535851e-07
23	23	3.4492339e-07
