0	0	0.88889727
1	1	0.018544304
2	2	0.033212107
3	3	0.048208443
4	4	0.0007201662
5	5	0.0009175375
6	6	0.0019073525
7	7	0.0027063866
8	8	0.004198142
9	9	1.9744857e-05
10	10	1.091644e-05
11	11	3.8025969e-05
12	12	4.3425877e-05
13	13	7.2305555e-05
14	14	0.00020139923
15	15	0.00026211348
16	16	4.4037565e-06
17	17	3.3183878e-06
18	18	1.0942986e-05
19	19	8.225138e-06
20	20	1.2474886e-05
21	21	6.4143676e-07
22	22	1.0223513e-07
23	23	2.5309908e-07
