0	0	0.88909108
1	1	0.018548348
2	2	0.033219348
3	3	0.048218954
4	4	0.00072032322
5	5	0.00091773756
6	6	0.0019077683
7	7	0.0027069767
8	8	0.0041990574
9	9	1.9749162e-05
10	10	1.091882e-05
11	11	3.4383768e-05
12	12	1.6275929e-05
13	13	2.8905681e-05
14	14	0.00014491137
15	15	0.00019109916
16	16	2.8145996e-06
17	17	2.0068187e-06
18	18	7.0139187e-06
19	19	4.554359e-06
20	20	7.113066e-06
21	21	4.3101453e-07
22	22	6.4064726e-08
23	23	1.6639796e-07
