0	0	0.88932232
1	1	0.018553172
2	2	0.033227988
3	3	0.048231495
4	4	0.00072051057
5	5	0.00091797625
6	6	0.0019082645
7	7	0.0027076808
8	8	0.0042001495
9	9	1.9754298e-05
10	10	1.092166e-05
11	11	3.439271e-05
12	12	5.3622754e-06
13	13	5.1521444e-06
14	14	5.2846429e-05
15	15	7.2914705e-05
16	16	1.2110147e-06
17	17	8.597242e-07
18	18	3.1723516e-06
19	19	1.3298802e-06
20	20	2.2032872e-06
21	21	2.1488974e-07
22	22	2.8990971e-08
23	23	8.0120118e-08
