0	0	0.88942513
1	1	0.018555317
2	2	0.033231829
3	3	0.048237071
4	4	0.00072059387
5	5	0.00091808238
6	6	0.0019084851
7	7	0.0027079938
8	8	0.0042006351
9	9	1.9756582e-05
10	10	1.0922922e-05
11	11	3.4396686e-05
12	12	5.3628954e-06
13	13	5.1527401e-06
14	14	5.9961058e-06
15	15	9.5167447e-06
16	16	4.8580281e-07
17	17	5.6122143e-07
18	18	1.4703365e-06
19	19	4.215686e-07
20	20	6.490317e-07
21	21	1.0949026e-07
22	22	1.6531722e-08
23	23	4.0783986e-08
