0	0	0.88911521
1	1	0.018548851
2	2	0.03322025
3	3	0.048220263
4	4	0.00072034277
5	5	0.00091776247
6	6	0.0019078201
7	7	0.0027070502
8	8	0.0041991713
9	9	1.9749698e-05
10	10	1.0919116e-05
11	11	3.4384701e-05
12	12	1.3795266e-05
13	13	2.4756187e-05
14	14	0.00013667865
15	15	0.00018062219
16	16	2.6354883e-06
17	17	1.8520953e-06
18	18	6.5808372e-06
19	19	4.1544016e-06
20	20	6.524784e-06
21	21	4.0733406e-07
22	22	5.9742929e-08
23	23	1.5647271e-07
