0	0	0.88943898
1	1	0.018555606
2	2	0.033232347
3	3	0.048237822
4	4	0.00072060509
5	5	0.00091809667
6	6	0.0019085149
7	7	0.002708036
8	8	0.0042007005
9	9	1.975689e-05
10	10	1.0923093e-05
11	11	3.4397222e-05
12	12	5.3629789e-06
13	13	5.1528203e-06
14	14	4.4094881e-07
15	15	6.3259482e-07
16	16	1.5618625e-07
17	17	5.8993628e-07
18	18	7.7388752e-07
19	19	4.768647e-07
20	20	5.4204121e-07
21	21	5.2275056e-08
22	22	1.1574235e-08
23	23	1.9933409e-08
