0	0	0.88892602
1	1	0.018544904
2	2	0.033213181
3	3	0.048210002
4	4	0.0007201895
5	5	0.00091756718
6	6	0.0019074142
7	7	0.0027064742
8	8	0.0041982778
9	9	1.9745495e-05
10	10	1.0916793e-05
11	11	3.500975e-05
12	12	3.8893212e-05
13	13	6.5321522e-05
14	14	0.00019448981
15	15	0.00025369686
16	16	4.1680773e-06
17	17	3.1007901e-06
18	18	1.0359857e-05
19	19	7.6591294e-06
20	20	1.1662183e-05
21	21	6.0963299e-07
22	22	9.5832786e-08
23	23	2.3996202e-07
