0	0	0.88943909
1	1	0.018555608
2	2	0.033232351
3	3	0.048237827
4	4	0.00072060517
5	5	0.00091809678
6	6	0.0019085151
7	7	0.0027080363
8	8	0.0042007009
9	9	1.9756892e-05
10	10	1.0923094e-05
11	11	3.4397226e-05
12	12	5.3629795e-06
13	13	5.1528209e-06
14	14	3.6012006e-07
15	15	5.863587e-07
16	16	1.4711799e-07
17	17	5.960663e-07
18	18	7.5425861e-07
19	19	4.9729537e-07
20	20	5.5986396e-07
21	21	5.0041925e-08
22	22	1.142889e-08
23	23	1.9269636e-08
