0	0	0.88912866
1	1	0.018549132
2	2	0.033220752
3	3	0.048220992
4	4	0.00072035367
5	5	0.00091777635
6	6	0.001907849
7	7	0.0027070912
8	8	0.0041992349
9	9	1.9749997e-05
10	10	1.0919282e-05
11	11	3.4385221e-05
12	12	1.2460544e-05
13	13	2.2601613e-05
14	14	0.00013198619
15	15	0.00017466173
16	16	2.5364697e-06
17	17	1.7665617e-06
18	18	6.3425176e-06
19	19	3.9380157e-06
20	20	6.2037471e-06
21	21	3.9424324e-07
22	22	5.7353721e-08
23	23	1.5098627e-07
