0	0	0.8887586
1	1	0.018541411
2	2	0.033206925
3	3	0.048200922
4	4	0.00072005385
5	5	0.00091739436
6	6	0.0019070549
7	7	0.0027059644
8	8	0.0041974871
9	9	1.9741776e-05
10	10	1.126994e-05
11	11	5.3411939e-05
12	12	6.8129817e-05
13	13	0.00010955697
14	14	0.00023042728
15	15	0.00029843066
16	16	5.6435234e-06
17	17	4.4681847e-06
18	18	1.4027976e-05
19	19	1.1155558e-05
20	20	1.6669828e-05
21	21	8.020439e-07
22	22	1.3419829e-07
23	23	3.2001972e-07
