0	0	0.88910852
1	1	0.018548712
2	2	0.03322
3	3	0.048219899
4	4	0.00072033735
5	5	0.00091775556
6	6	0.0019078058
7	7	0.0027070298
8	8	0.0041991397
9	9	1.9749549e-05
10	10	1.0919034e-05
11	11	3.4384442e-05
12	12	1.4480933e-05
13	13	2.5847999e-05
14	14	0.0001389866
15	15	0.00018356851
16	16	2.6849918e-06
17	17	1.8948637e-06
18	18	6.6999795e-06
19	19	4.2649449e-06
20	20	6.6867139e-06
21	21	4.1387942e-07
22	22	6.0937398e-08
23	23	1.5921603e-07
