0	0	0.88943755
1	1	0.018555576
2	2	0.033232293
3	3	0.048237744
4	4	0.00072060392
5	5	0.00091809519
6	6	0.0019085118
7	7	0.0027080316
8	8	0.0042006937
9	9	1.9756858e-05
10	10	1.0923075e-05
11	11	3.4397167e-05
12	12	5.3629702e-06
13	13	5.152812e-06
14	14	9.5557647e-07
15	15	1.5503478e-06
16	16	2.7902026e-07
17	17	5.4982988e-07
18	18	1.0157429e-06
19	19	3.7245123e-07
20	20	4.7126503e-07
21	21	7.4644858e-08
22	22	1.3349325e-08
23	23	2.7744892e-08
