0	0	0.88940886
1	1	0.018554977
2	2	0.033231221
3	3	0.048236188
4	4	0.00072058068
5	5	0.00091806558
6	6	0.0019084502
7	7	0.0027079443
8	8	0.0042005582
9	9	1.975622e-05
10	10	1.0922723e-05
11	11	3.4396057e-05
12	12	5.3627973e-06
13	13	5.1526458e-06
14	14	1.3105893e-05
15	15	1.9756645e-05
16	16	6.3091061e-07
17	17	5.9877206e-07
18	18	1.8519797e-06
19	19	5.3847811e-07
20	20	8.7945095e-07
21	21	1.3182435e-07
22	22	1.8854136e-08
23	23	4.9173546e-08
