0	0	0.88889834
1	1	0.018544327
2	2	0.033212146
3	3	0.048208501
4	4	0.00072016707
5	5	0.00091753861
6	6	0.0019073548
7	7	0.0027063899
8	8	0.0041981471
9	9	1.974488e-05
10	10	1.0916453e-05
11	11	3.7914264e-05
12	12	4.3253538e-05
13	13	7.2041404e-05
14	14	0.00020114505
15	15	0.00026180594
16	16	4.3950274e-06
17	17	3.3100729e-06
18	18	1.0921089e-05
19	19	8.2041593e-06
20	20	1.244479e-05
21	21	6.4025906e-07
22	22	1.0199801e-07
23	23	2.5261254e-07
