0	0	0.88943839
1	1	0.018555593
2	2	0.033232325
3	3	0.04823779
4	4	0.00072060461
5	5	0.00091809606
6	6	0.0019085136
7	7	0.0027080342
8	8	0.0042006977
9	9	1.9756876e-05
10	10	1.0923085e-05
11	11	3.4397199e-05
12	12	5.3629753e-06
13	13	5.1528169e-06
14	14	6.6741703e-07
15	15	1.0008007e-06
16	16	2.3654386e-07
17	17	5.5775465e-07
18	18	9.2695397e-07
19	19	3.9222601e-07
20	20	4.732801e-07
21	21	6.7098823e-08
22	22	1.2708262e-08
23	23	2.4968072e-08
