0	0	0.88903434
1	1	0.018547164
2	2	0.033217228
3	3	0.048215877
4	4	0.00072027726
5	5	0.000917679
6	6	0.0019076466
7	7	0.002706804
8	8	0.0041987894
9	9	1.9747901e-05
10	10	1.0918123e-05
11	11	3.4381573e-05
12	12	2.2821441e-05
13	13	3.9958947e-05
14	14	0.00016336522
15	15	0.00021436365
16	16	3.2591443e-06
17	17	2.37464e-06
18	18	8.1087783e-06
19	19	5.5486749e-06
20	20	8.5878248e-06
21	21	4.90061e-07
22	22	7.4339239e-08
23	23	1.9024576e-07
