0	0	0.88921537
1	1	0.018550941
2	2	0.033223992
3	3	0.048225695
4	4	0.00072042392
5	5	0.00091786586
6	6	0.001908035
7	7	0.0027073551
8	8	0.0041996444
9	9	1.9751923e-05
10	10	1.0920346e-05
11	11	3.4388574e-05
12	12	5.3616306e-06
13	13	8.6854951e-06
14	14	0.00010086839
15	15	0.00013494293
16	16	1.9547447e-06
17	17	1.3268932e-06
18	18	4.92839e-06
19	19	2.7127069e-06
20	20	4.3532808e-06
21	21	3.1655405e-07
22	22	4.385002e-08
23	23	1.2002631e-07
