0	0	0.88943918
1	1	0.01855561
2	2	0.033232354
3	3	0.048237833
4	4	0.00072060525
5	5	0.00091809688
6	6	0.0019085153
7	7	0.0027080366
8	8	0.0042007014
9	9	1.9756894e-05
10	10	1.0923095e-05
11	11	3.439723e-05
12	12	5.3629801e-06
13	13	5.1528214e-06
14	14	2.7519719e-07
15	15	5.5154448e-07
16	16	1.4262283e-07
17	17	6.0035966e-07
18	18	7.4412254e-07
19	19	5.108462e-07
20	20	5.7161433e-07
21	21	4.8730969e-08
22	22	1.1343543e-08
23	23	1.8879885e-08
