0	0	0.88920159
1	1	0.018550653
2	2	0.033223477
3	3	0.048224947
4	4	0.00072041275
5	5	0.00091785163
6	6	0.0019080055
7	7	0.0027073132
8	8	0.0041995793
9	9	1.9751616e-05
10	10	1.0920177e-05
11	11	3.4388041e-05
12	12	5.3767638e-06
13	13	1.1493582e-05
14	14	0.00010605368
15	15	0.00014158013
16	16	2.0437469e-06
17	17	1.3919694e-06
18	18	5.145851e-06
19	19	2.895489e-06
20	20	4.6337135e-06
21	21	3.2830463e-07
22	22	4.5741411e-08
23	23	1.2491319e-07
