0	0	0.88916604
1	1	0.018549912
2	2	0.033222149
3	3	0.048223019
4	4	0.00072038395
5	5	0.00091781493
6	6	0.0019079292
7	7	0.0027072049
8	8	0.0041994114
9	9	1.9750827e-05
10	10	1.0919741e-05
11	11	3.4386666e-05
12	12	8.723927e-06
13	13	1.7089832e-05
14	14	0.0001187119
15	15	0.0001577439
16	16	2.2756111e-06
17	17	1.5544089e-06
18	18	5.6964563e-06
19	19	3.3758498e-06
20	20	5.3621062e-06
21	21	3.5860662e-07
22	22	5.0852912e-08
23	23	1.3711251e-07
