0	0	0.88884779
1	1	0.018543272
2	2	0.033210258
3	3	0.048205759
4	4	0.00072012612
5	5	0.00091748643
6	6	0.0019072463
7	7	0.002706236
8	8	0.0041979084
9	9	1.9743758e-05
10	10	1.0915832e-05
11	11	4.3392433e-05
12	12	5.1703283e-05
13	13	8.4914496e-05
14	14	0.00021241981
15	15	0.00027605682
16	16	4.8316532e-06
17	17	3.7091601e-06
18	18	1.2003939e-05
19	19	9.2235567e-06
20	20	1.3913312e-05
21	21	6.9679443e-07
22	22	1.1337994e-07
23	23	2.7596589e-07
