0	0	0.88933519
1	1	0.018553441
2	2	0.033228469
3	3	0.048232193
4	4	0.000720521
5	5	0.00091798954
6	6	0.0019082922
7	7	0.00270772
8	8	0.0042002103
9	9	1.9754584e-05
10	10	1.0921818e-05
11	11	3.4393208e-05
12	12	5.3623531e-06
13	13	5.152219e-06
14	14	4.6868466e-05
15	15	6.5082531e-05
16	16	1.1267475e-06
17	17	8.1519563e-07
18	18	2.9972195e-06
19	19	1.2049397e-06
20	20	1.9849665e-06
21	21	2.031278e-07
22	22	2.7407603e-08
23	23	7.5537559e-08
