0	0	0.889376
1	1	0.018554292
2	2	0.033229994
3	3	0.048234406
4	4	0.00072055406
5	5	0.00091803166
6	6	0.0019083797
7	7	0.0027078442
8	8	0.004200403
9	9	1.9755491e-05
10	10	1.0922319e-05
11	11	3.4394786e-05
12	12	5.3625991e-06
13	13	5.1524554e-06
14	14	2.8005431e-05
15	15	4.0106233e-05
16	16	8.6048861e-07
17	17	6.8656145e-07
18	18	2.4124018e-06
19	19	8.0626711e-07
20	20	1.3771204e-06
21	21	1.6560815e-07
22	22	2.2713694e-08
23	23	6.1010485e-08
