0	0	0.88943866
1	1	0.018555599
2	2	0.033232335
3	3	0.048237804
4	4	0.00072060482
5	5	0.00091809633
6	6	0.0019085142
7	7	0.002708035
8	8	0.0042006989
9	9	1.9756882e-05
10	10	1.0923089e-05
11	11	3.4397209e-05
12	12	5.3629769e-06
13	13	5.1528184e-06
14	14	5.8145761e-07
15	15	8.3242604e-07
16	16	2.1269875e-07
17	17	5.6438436e-07
18	18	8.8018879e-07
19	19	4.0983902e-07
20	20	4.8371225e-07
21	21	6.2975108e-08
22	22	1.2365189e-08
23	23	2.34774e-08
