0	0	0.88943883
1	1	0.018555603
2	2	0.033232341
3	3	0.048237814
4	4	0.00072060497
5	5	0.00091809652
6	6	0.0019085145
7	7	0.0027080355
8	8	0.0042006998
9	9	1.9756886e-05
10	10	1.0923091e-05
11	11	3.4397216e-05
12	12	5.362978e-06
13	13	5.1528194e-06
14	14	2.086738e-07
15	15	2.5695245e-07
16	16	1.3864716e-07
17	17	4.3972068e-07
18	18	6.5241856e-07
19	19	9.8097905e-07
20	20	1.1444672e-06
21	21	2.1637809e-08
22	22	9.8094906e-09
23	23	1.0785656e-08
