0	0	0.88905159
1	1	0.018547524
2	2	0.033217872
3	3	0.048216812
4	4	0.00072029123
5	5	0.0009176968
6	6	0.0019076836
7	7	0.0027068565
8	8	0.0041988709
9	9	1.9748284e-05
10	10	1.0918335e-05
11	11	3.438224e-05
12	12	2.0665518e-05
13	13	3.6450742e-05
14	14	0.00015787051
15	15	0.00020751495
16	16	3.1219016e-06
17	17	2.2626984e-06
18	18	7.7721775e-06
19	19	5.2397437e-06
20	20	8.130076e-06
21	21	4.7180381e-07
22	22	7.1212473e-08
23	23	1.8281191e-07
