0	0	0.88907958
1	1	0.018548108
2	2	0.033218918
3	3	0.04821833
4	4	0.0007203139
5	5	0.00091772569
6	6	0.0019077437
7	7	0.0027069417
8	8	0.004199003
9	9	1.9748906e-05
10	10	1.0918679e-05
11	11	3.4383323e-05
12	12	1.7472479e-05
13	13	3.1039243e-05
14	14	0.00014877308
15	15	0.00019595761
16	16	2.9020892e-06
17	17	2.0814485e-06
18	18	7.2271216e-06
19	19	4.7472818e-06
20	20	7.4071033e-06
21	21	4.4243653e-07
22	22	6.6149491e-08
23	23	1.7118565e-07
