0	0	0.88941149
1	1	0.018555032
2	2	0.03323132
3	3	0.048236331
4	4	0.00072058281
5	5	0.00091806829
6	6	0.0019084559
7	7	0.0027079523
8	8	0.0042005706
9	9	1.9756279e-05
10	10	1.0922755e-05
11	11	3.4396159e-05
12	12	5.3628131e-06
13	13	5.152661e-06
14	14	1.1953318e-05
15	15	1.8095864e-05
16	16	6.0970716e-07
17	17	5.9213291e-07
18	18	1.7973141e-06
19	19	5.1906565e-07
20	20	8.4222649e-07
21	21	1.2869822e-07
22	22	1.8518787e-08
23	23	4.8019066e-08
