0	0	0.88943679
1	1	0.01855556
2	2	0.033232265
3	3	0.048237703
4	4	0.00072060331
5	5	0.00091809441
6	6	0.0019085102
7	7	0.0027080293
8	8	0.0042006901
9	9	1.9756841e-05
10	10	1.0923066e-05
11	11	3.4397137e-05
12	12	5.3629657e-06
13	13	5.1528076e-06
14	14	1.2353193e-06
15	15	2.0308468e-06
16	16	3.0527005e-07
17	17	5.473114e-07
18	18	1.0708413e-06
19	19	3.6713977e-07
20	20	4.7837678e-07
21	21	7.9338379e-08
22	22	1.3729813e-08
23	23	2.9306729e-08
