0	0	0.88913924
1	1	0.018549352
2	2	0.033221147
3	3	0.048221565
4	4	0.00072036224
5	5	0.00091778727
6	6	0.0019078717
7	7	0.0027071233
8	8	0.0041992848
9	9	1.9750231e-05
10	10	1.0919411e-05
11	11	3.438563e-05
12	12	1.1456328e-05
13	13	2.0925696e-05
14	14	0.00012826522
15	15	0.00016992911
16	16	2.460569e-06
17	17	1.7001343e-06
18	18	6.1571859e-06
19	19	3.7760349e-06
20	20	5.9583965e-06
21	21	3.8406148e-07
22	22	5.5495394e-08
23	23	1.4686609e-07
