0	0	0.88934334
1	1	0.01855361
2	2	0.033228773
3	3	0.048232635
4	4	0.0007205276
5	5	0.00091799795
6	6	0.0019083096
7	7	0.0027077448
8	8	0.0042002488
9	9	1.9754765e-05
10	10	1.0921918e-05
11	11	3.4393523e-05
12	12	5.3624022e-06
13	13	5.1522662e-06
14	14	4.3094574e-05
15	15	6.0113206e-05
16	16	1.0731409e-06
17	17	7.8752518e-07
18	18	2.8846337e-06
19	19	1.1275566e-06
20	20	1.8504417e-06
21	21	1.9556663e-07
22	22	2.6465849e-08
23	23	7.2591354e-08
