0	0	0.88943889
1	1	0.018555604
2	2	0.033232343
3	3	0.048237817
4	4	0.00072060501
5	5	0.00091809658
6	6	0.0019085147
7	7	0.0027080357
8	8	0.0042007
9	9	1.9756887e-05
10	10	1.0923091e-05
11	11	3.4397218e-05
12	12	5.3629783e-06
13	13	5.1528198e-06
14	14	5.0315287e-07
15	15	6.8108311e-07
16	16	1.7311466e-07
17	17	5.8038799e-07
18	18	8.0533566e-07
19	19	4.5174265e-07
20	20	5.1804275e-07
21	21	5.5752669e-08
22	22	1.1816529e-08
23	23	2.1073965e-08
