0	0	0.88852218
1	1	0.018536479
2	2	0.033198092
3	3	0.0481881
4	4	0.00071986231
5	5	0.00091715033
6	6	0.0019065476
7	7	0.0027052446
8	8	0.0041963705
9	9	2.3801068e-05
10	10	2.1122905e-05
11	11	8.374972e-05
12	12	0.00011712692
13	13	0.00018113715
14	14	0.0002646556
15	15	0.00034050193
16	16	8.0547719e-06
17	17	6.8555168e-06
18	18	2.0008874e-05
19	19	1.6710947e-05
20	20	2.4479995e-05
21	21	1.1151144e-06
22	22	1.996092e-07
23	23	4.5065248e-07
