0	0	0.88898244
1	1	0.018546081
2	2	0.033215289
3	3	0.048213062
4	4	0.00072023521
5	5	0.00091762542
6	6	0.0019075352
7	7	0.002706646
8	8	0.0041985443
9	9	1.9746749e-05
10	10	1.0917486e-05
11	11	3.4379566e-05
12	12	2.9972109e-05
13	13	5.1481032e-05
14	14	0.00017897853
15	15	0.00023413848
16	16	3.6781563e-06
17	17	2.7150118e-06
18	18	9.1456546e-06
19	19	6.5257198e-06
20	20	1.001549e-05
21	21	5.4557387e-07
22	22	8.3847187e-08
23	23	2.1337744e-07
