0	0	0.88877444
1	1	0.018541742
2	2	0.033207517
3	3	0.048201781
4	4	0.00072006669
5	5	0.00091741072
6	6	0.0019070889
7	7	0.0027060127
8	8	0.0041975619
9	9	1.9742128e-05
10	10	1.0914931e-05
11	11	5.1620221e-05
12	12	6.5114104e-05
13	13	0.00010506153
14	14	0.00022750471
15	15	0.00029473819
16	16	5.4968275e-06
17	17	4.3215816e-06
18	18	1.3662278e-05
19	19	1.0802874e-05
20	20	1.616985e-05
21	21	7.8209004e-07
22	22	1.3047418e-07
23	23	3.1164024e-07
