0	0	0.88943896
1	1	0.018555605
2	2	0.033232346
3	3	0.048237821
4	4	0.00072060507
5	5	0.00091809665
6	6	0.0019085148
7	7	0.0027080359
8	8	0.0042007004
9	9	1.9756889e-05
10	10	1.0923092e-05
11	11	3.4397221e-05
12	12	5.3629788e-06
13	13	5.1528202e-06
14	14	4.5586345e-07
15	15	6.4079336e-07
16	16	1.5861286e-07
17	17	5.884674e-07
18	18	7.7860869e-07
19	19	4.7272993e-07
20	20	5.3819629e-07
21	21	5.2810011e-08
22	22	1.1609058e-08
23	23	2.0107444e-08
