0	0	0.88919463
1	1	0.018550508
2	2	0.033223217
3	3	0.04822457
4	4	0.00072040712
5	5	0.00091784444
6	6	0.0019079905
7	7	0.002707292
8	8	0.0041995464
9	9	1.9751462e-05
10	10	1.0920092e-05
11	11	3.4387772e-05
12	12	5.639749e-06
13	13	1.2768013e-05
14	14	0.00010862656
15	15	0.0001448605
16	16	2.0890191e-06
17	17	1.4245049e-06
18	18	5.2545791e-06
19	19	2.9887816e-06
20	20	4.7767261e-06
21	21	3.3417977e-07
22	22	4.6687104e-08
23	23	1.2735664e-07
