0	0	0.88868284
1	1	0.018539831
2	2	0.033204095
3	3	0.048196813
4	4	0.00071999247
5	5	0.00091731616
6	6	0.0019068924
7	7	0.0027057338
8	8	0.0041971293
9	9	1.9740093e-05
10	10	1.4137392e-05
11	11	6.2534e-05
12	12	8.3059496e-05
13	13	0.00013157812
14	14	0.00024325994
15	15	0.00031427208
16	16	6.3798438e-06
17	17	5.1740981e-06
18	18	1.5855491e-05
19	19	1.2865429e-05
20	20	1.9091888e-05
21	21	8.9916451e-07
22	22	1.5307953e-07
23	23	3.6036696e-07
