0	0	0.88933701
1	1	0.018553478
2	2	0.033228537
3	3	0.048232292
4	4	0.00072052247
5	5	0.00091799142
6	6	0.0019082961
7	7	0.0027077255
8	8	0.0042002189
9	9	1.9754625e-05
10	10	1.092184e-05
11	11	3.4393279e-05
12	12	5.3623641e-06
13	13	5.1522296e-06
14	14	4.6028877e-05
15	15	6.3968555e-05
16	16	1.114835e-06
17	17	8.089532e-07
18	18	2.9722005e-06
19	19	1.1877432e-06
20	20	1.9550721e-06
21	21	2.0144743e-07
22	22	2.7197791e-08
23	23	7.4882807e-08
