0	0	0.8892919
1	1	0.018552537
2	2	0.033226851
3	3	0.048229845
4	4	0.00072048592
5	5	0.00091794485
6	6	0.0019081993
7	7	0.0027075882
8	8	0.0042000058
9	9	1.9753622e-05
10	10	1.0921286e-05
11	11	3.4391534e-05
12	12	5.362092e-06
13	13	5.1519682e-06
14	14	6.696721e-05
15	15	9.1267741e-05
16	16	1.4148929e-06
17	17	9.7577174e-07
18	18	3.6325506e-06
19	19	1.6780235e-06
20	20	2.757705e-06
21	21	2.4228924e-07
22	22	3.2777119e-08
23	23	9.0706975e-08
