0	0	0.88943769
1	1	0.018555579
2	2	0.033232298
3	3	0.048237752
4	4	0.00072060404
5	5	0.00091809533
6	6	0.0019085121
7	7	0.002708032
8	8	0.0042006943
9	9	1.9756861e-05
10	10	1.0923077e-05
11	11	3.4397172e-05
12	12	5.3629711e-06
13	13	5.1528128e-06
14	14	9.1034073e-07
15	15	1.4578715e-06
16	16	2.7364632e-07
17	17	5.5049067e-07
18	18	1.0044698e-06
19	19	3.7409105e-07
20	20	4.7024795e-07
21	21	7.3601846e-08
22	22	1.3264782e-08
23	23	2.7397762e-08
