0	0	0.88934737
1	1	0.018553695
2	2	0.033228924
3	3	0.048232854
4	4	0.00072053087
5	5	0.00091800211
6	6	0.0019083183
7	7	0.002707757
8	8	0.0042002678
9	9	1.9754855e-05
10	10	1.0921968e-05
11	11	3.4393679e-05
12	12	5.3624265e-06
13	13	5.1522896e-06
14	14	4.1235364e-05
15	15	5.764733e-05
16	16	1.0463316e-06
17	17	7.7385941e-07
18	18	2.8283398e-06
19	19	1.0888688e-06
20	20	1.7831831e-06
21	21	1.9179356e-07
22	22	2.5997338e-08
23	23	7.1118354e-08
