0	0	0.88939047
1	1	0.018554594
2	2	0.033230534
3	3	0.048235191
4	4	0.00072056578
5	5	0.0009180466
6	6	0.0019084108
7	7	0.0027078883
8	8	0.0042004714
9	9	1.9755812e-05
10	10	1.0922497e-05
11	11	3.4395346e-05
12	12	5.3626864e-06
13	13	5.1525393e-06
14	14	2.1400278e-05
15	15	3.1170039e-05
16	16	7.6404506e-07
17	17	6.4623061e-07
18	18	2.1849121e-06
19	19	6.8201037e-07
20	20	1.1620178e-06
21	21	1.5155548e-07
22	22	2.1051988e-08
23	23	5.6205597e-08
