0	0	0.88936399
1	1	0.018554041
2	2	0.033229545
3	3	0.048233755
4	4	0.00072054433
5	5	0.00091801926
6	6	0.0019083539
7	7	0.0027078076
8	8	0.0042003463
9	9	1.9755224e-05
10	10	1.0922172e-05
11	11	3.4394322e-05
12	12	5.3625267e-06
13	13	5.1523858e-06
14	14	3.3545021e-05
15	15	4.7481935e-05
16	16	9.3875079e-07
17	17	7.2182369e-07
18	18	2.590809e-06
19	19	9.2561519e-07
20	20	1.5458164e-06
21	21	1.7662804e-07
22	22	2.4058205e-08
23	23	6.4901927e-08
