0	0	0.88930876
1	1	0.018552889
2	2	0.033227481
3	3	0.048230759
4	4	0.00072049958
5	5	0.00091796225
6	6	0.0019082354
7	7	0.0027076395
8	8	0.0042000854
9	9	1.9753997e-05
10	10	1.0921493e-05
11	11	3.4392186e-05
12	12	5.3621937e-06
13	13	5.1520659e-06
14	14	5.9140991e-05
15	15	8.1127114e-05
16	16	1.3016341e-06
17	17	9.1024062e-07
18	18	3.3578883e-06
19	19	1.4829748e-06
20	20	2.4431927e-06
21	21	2.2707179e-07
22	22	3.0677827e-08
23	23	8.4866822e-08
