0	0	0.8894211
1	1	0.018555233
2	2	0.033231679
3	3	0.048236852
4	4	0.0007205906
5	5	0.00091807821
6	6	0.0019084765
7	7	0.0027079815
8	8	0.004200616
9	9	1.9756492e-05
10	10	1.0922873e-05
11	11	3.439653e-05
12	12	5.3628711e-06
13	13	5.1527167e-06
14	14	7.7288888e-06
15	15	1.2078015e-05
16	16	5.2468337e-07
17	17	5.6977532e-07
18	18	1.5699134e-06
19	19	4.4912635e-07
20	20	7.0695193e-07
21	21	1.1575799e-07
22	22	1.71706e-08
23	23	4.32162e-08
