0	0	0.88943732
1	1	0.018555571
2	2	0.033232285
3	3	0.048237732
4	4	0.00072060374
5	5	0.00091809496
6	6	0.0019085113
7	7	0.0027080309
8	8	0.0042006926
9	9	1.9756853e-05
10	10	1.0923072e-05
11	11	3.4397158e-05
12	12	5.3629689e-06
13	13	5.1528107e-06
14	14	1.042028e-06
15	15	1.6890622e-06
16	16	2.8742098e-07
17	17	5.48903e-07
18	18	1.0333621e-06
19	19	3.7027346e-07
20	20	4.7279063e-07
21	21	7.6209374e-08
22	22	1.3476141e-08
23	23	2.8265559e-08
