0	0	0.8894301
1	1	0.018555421
2	2	0.033232015
3	3	0.04823734
4	4	0.00072059789
5	5	0.00091808751
6	6	0.0019084958
7	7	0.0027080089
8	8	0.0042006585
9	9	1.9756692e-05
10	10	1.0922983e-05
11	11	3.4396879e-05
12	12	5.3629253e-06
13	13	5.1527689e-06
14	14	3.9093928e-06
15	15	6.3270987e-06
16	16	4.3187138e-07
17	17	5.5217905e-07
18	18	1.3398287e-06
19	19	3.9002187e-07
20	20	5.7621157e-07
21	21	1.0012388e-07
22	22	1.562008e-08
23	23	3.7092632e-08
