0	0	0.88877333
1	1	0.018541719
2	2	0.033207476
3	3	0.048201721
4	4	0.00072006579
5	5	0.00091740958
6	6	0.0019070865
7	7	0.0027060093
8	8	0.0041975567
9	9	1.9742104e-05
10	10	1.0914918e-05
11	11	5.1748204e-05
12	12	6.5327412e-05
13	13	0.00010538098
14	14	0.00022771869
15	15	0.0002950019
16	16	5.5071783e-06
17	17	4.3320534e-06
18	18	1.3688081e-05
19	19	1.0828066e-05
20	20	1.6205564e-05
21	21	7.8343361e-07
22	22	1.3074016e-07
23	23	3.1223879e-07
