0	0	0.88943924
1	1	0.018555611
2	2	0.033232356
3	3	0.048237836
4	4	0.00072060529
5	5	0.00091809694
6	6	0.0019085154
7	7	0.0027080367
8	8	0.0042007017
9	9	1.9756895e-05
10	10	1.0923096e-05
11	11	3.4397232e-05
12	12	5.3629804e-06
13	13	5.1528218e-06
14	14	2.0867389e-07
15	15	2.5695256e-07
16	16	1.3864722e-07
17	17	6.604479e-07
18	18	6.6175187e-07
19	19	6.6142173e-07
20	20	7.589779e-07
21	21	3.6346288e-08
22	22	1.0555635e-08
23	23	1.4980913e-08
