0	0	0.88867787
1	1	0.018539727
2	2	0.033203909
3	3	0.048196544
4	4	0.00071998845
5	5	0.00091731104
6	6	0.0019068817
7	7	0.0027057186
8	8	0.0041971058
9	9	1.9739983e-05
10	10	1.4328276e-05
11	11	6.315454e-05
12	12	8.4079291e-05
13	13	0.00013305757
14	14	0.00024402549
15	15	0.00031527264
16	16	6.4291828e-06
17	17	5.221087e-06
18	18	1.5977905e-05
19	19	1.2981006e-05
20	20	1.92548e-05
21	21	9.0562931e-07
22	22	1.5447854e-07
23	23	3.6305282e-07
