0	0	0.88939834
1	1	0.018554758
2	2	0.033230828
3	3	0.048235618
4	4	0.00072057216
5	5	0.00091805472
6	6	0.0019084277
7	7	0.0027079122
8	8	0.0042005085
9	9	1.9755987e-05
10	10	1.0922593e-05
11	11	3.439565e-05
12	12	5.3627338e-06
13	13	5.1525848e-06
14	14	1.7829661e-05
15	15	2.6302965e-05
16	16	7.0936879e-07
17	17	6.2565118e-07
18	18	2.0507538e-06
19	19	6.1983041e-07
20	20	1.0351456e-06
21	21	1.4334247e-07
22	22	2.0145662e-08
23	23	5.337198e-08
