0	0	0.88943902
1	1	0.018555607
2	2	0.033232348
3	3	0.048237824
4	4	0.00072060512
5	5	0.00091809671
6	6	0.0019085149
7	7	0.0027080361
8	8	0.0042007007
9	9	1.975689e-05
10	10	1.0923093e-05
11	11	3.4397224e-05
12	12	5.3629791e-06
13	13	5.1528205e-06
14	14	2.0867384e-07
15	15	2.569525e-07
16	16	1.3864719e-07
17	17	6.9276e-07
18	18	6.4460376e-07
19	19	7.7327453e-07
20	20	8.8136513e-07
21	21	3.0190953e-08
22	22	1.0213562e-08
23	23	1.3153242e-08
