0	0	0.88923381
1	1	0.018551326
2	2	0.033224681
3	3	0.048226695
4	4	0.00072043886
5	5	0.00091788489
6	6	0.0019080746
7	7	0.0027074113
8	8	0.0041997315
9	9	1.9752332e-05
10	10	1.0920573e-05
11	11	3.4389288e-05
12	12	5.3617418e-06
13	13	5.2000911e-06
14	14	9.3805677e-05
15	15	0.0001258833
16	16	1.8361666e-06
17	17	1.2433837e-06
18	18	4.6348092e-06
19	19	2.4699812e-06
20	20	3.9901832e-06
21	21	3.0069108e-07
22	22	4.1296478e-08
23	23	1.1342861e-07
