0	0	0.8886816
1	1	0.018539805
2	2	0.033204048
3	3	0.048196746
4	4	0.00071999147
5	5	0.00091731488
6	6	0.0019068897
7	7	0.00270573
8	8	0.0041971234
9	9	1.9740066e-05
10	10	1.4185113e-05
11	11	6.268702e-05
12	12	8.3314446e-05
13	13	0.00013194798
14	14	0.00024345133
15	15	0.00031452267
16	16	6.3921786e-06
17	17	5.1858454e-06
18	18	1.5886095e-05
19	19	1.2894323e-05
20	20	1.9132616e-05
21	21	9.0078078e-07
22	22	1.5342929e-07
23	23	3.6103843e-07
