0	0	0.88940586
1	1	0.018554915
2	2	0.033231109
3	3	0.048236026
4	4	0.00072057825
5	5	0.00091806249
6	6	0.0019084438
7	7	0.0027079351
8	8	0.004200544
9	9	1.9756154e-05
10	10	1.0922686e-05
11	11	3.4395941e-05
12	12	5.3627792e-06
13	13	5.1526284e-06
14	14	1.4450583e-05
15	15	2.1623388e-05
16	16	6.5406199e-07
17	17	6.0618946e-07
18	18	1.9116147e-06
19	19	5.611762e-07
20	20	9.2118334e-07
21	21	1.3523451e-07
22	22	1.9220005e-08
23	23	5.0433023e-08
