0	0	0.88924649
1	1	0.01855159
2	2	0.033225154
3	3	0.048227382
4	4	0.00072044913
5	5	0.00091789797
6	6	0.0019081018
7	7	0.0027074499
8	8	0.0041997913
9	9	1.9752614e-05
10	10	1.0920729e-05
11	11	3.4389778e-05
12	12	5.3618182e-06
13	13	5.1517051e-06
14	14	8.7989442e-05
15	15	0.00011839711
16	16	1.7395409e-06
17	17	1.180677e-06
18	18	4.3997743e-06
19	19	2.2842077e-06
20	20	3.6954721e-06
21	21	2.8776402e-07
22	22	3.9218556e-08
23	23	1.0805244e-07
