0	0	0.88896729
1	1	0.018545765
2	2	0.033214723
3	3	0.04821224
4	4	0.00072022293
5	5	0.00091760978
6	6	0.0019075027
7	7	0.0027065998
8	8	0.0041984727
9	9	1.9746412e-05
10	10	1.09173e-05
11	11	3.437898e-05
12	12	3.2283061e-05
13	13	5.5096958e-05
14	14	0.00018328696
15	15	0.00023961844
16	16	3.8084664e-06
17	17	2.8166699e-06
18	18	9.4709515e-06
19	19	6.8289497e-06
20	20	1.0454489e-05
21	21	5.6215472e-07
22	22	8.6687079e-08
23	23	2.2029429e-07
