0	0	0.88941631
1	1	0.018555133
2	2	0.033231499
3	3	0.048236592
4	4	0.00072058672
5	5	0.00091807327
6	6	0.0019084662
7	7	0.0027079669
8	8	0.0042005934
9	9	1.9756386e-05
10	10	1.0922814e-05
11	11	3.4396345e-05
12	12	5.3628422e-06
13	13	5.1526889e-06
14	14	9.8363411e-06
15	15	1.5072367e-05
16	16	5.6883874e-07
17	17	5.805201e-07
18	18	1.6895046e-06
19	19	4.8326441e-07
20	20	7.7410804e-07
21	21	1.2253235e-07
22	22	1.7860651e-08
23	23	4.574207e-08
