0	0	0.88943929
1	1	0.018555612
2	2	0.033232358
3	3	0.048237839
4	4	0.00072060534
5	5	0.00091809699
6	6	0.0019085155
7	7	0.0027080369
8	8	0.0042007019
9	9	1.9756896e-05
10	10	1.0923096e-05
11	11	3.4397234e-05
12	12	5.3629807e-06
13	13	5.1528221e-06
14	14	2.086739e-07
15	15	2.5695258e-07
16	16	1.3864723e-07
17	17	6.4937338e-07
18	18	6.7023484e-07
19	19	6.3574105e-07
20	20	7.2635054e-07
21	21	3.8227783e-08
22	22	1.0664105e-08
23	23	1.5536461e-08
