0	0	0.88867414
1	1	0.01853965
2	2	0.03320377
3	3	0.048196342
4	4	0.00071998543
5	5	0.00091730719
6	6	0.0019068737
7	7	0.0027057073
8	8	0.0041970882
9	9	1.97399e-05
10	10	1.4471437e-05
11	11	6.3622056e-05
12	12	8.484413e-05
13	13	0.00013416714
14	14	0.00024459965
15	15	0.00031602222
16	16	6.4661868e-06
17	17	5.2563283e-06
18	18	1.6069715e-05
19	19	1.3067687e-05
20	20	1.9376984e-05
21	21	9.1047735e-07
22	22	1.5552771e-07
23	23	3.6506719e-07
