0	0	0.88862059
1	1	0.018538532
2	2	0.033201769
3	3	0.048193437
4	4	0.00071994205
5	5	0.00091725191
6	6	0.0019067588
7	7	0.0027055443
8	8	0.0041968353
9	9	1.9738711e-05
10	10	1.6575947e-05
11	11	7.0573869e-05
12	12	9.6105731e-05
13	13	0.00015053912
14	14	0.00025269592
15	15	0.00032580522
16	16	7.0096522e-06
17	17	5.8108601e-06
18	18	1.7419096e-05
19	19	1.434057e-05
20	20	2.1172505e-05
21	21	9.8158725e-07
22	22	1.7091528e-07
23	23	3.946091e-07
