0	0	0.88942381
1	1	0.018555289
2	2	0.03323178
3	3	0.048236999
4	4	0.00072059279
5	5	0.00091808101
6	6	0.0019084823
7	7	0.0027079898
8	8	0.0042006288
9	9	1.9756552e-05
10	10	1.0922906e-05
11	11	3.4396635e-05
12	12	5.3628874e-06
13	13	5.1527324e-06
14	14	6.5650496e-06
15	15	1.036341e-05
16	16	4.9877391e-07
17	17	5.6379285e-07
18	18	1.5004907e-06
19	19	4.3049376e-07
20	20	6.6769281e-07
21	21	1.1162661e-07
22	22	1.6752771e-08
23	23	4.1625893e-08
