0	0	0.8891506
1	1	0.01854959
2	2	0.033221572
3	3	0.048222182
4	4	0.00072037145
5	5	0.000917799
6	6	0.0019078961
7	7	0.002707158
8	8	0.0041993385
9	9	1.9750484e-05
10	10	1.0919551e-05
11	11	3.438607e-05
12	12	1.0360039e-05
13	13	1.9251738e-05
14	14	0.00012421747
15	15	0.00016475974
16	16	2.3806016e-06
17	17	1.6293096e-06
18	18	5.9586034e-06
19	19	3.6027533e-06
20	20	5.7028521e-06
21	21	3.7315263e-07
22	22	5.3504362e-08
23	23	1.4259535e-07
