0	0	0.88890261
1	1	0.018544416
2	2	0.033212306
3	3	0.048208732
4	4	0.00072017053
5	5	0.00091754302
6	6	0.0019073639
7	7	0.0027064029
8	8	0.0041981673
9	9	1.9744975e-05
10	10	1.0916505e-05
11	11	3.746744e-05
12	12	4.256418e-05
13	13	7.0984796e-05
14	14	0.0002001283
15	15	0.00026057574
16	16	4.3601109e-06
17	17	3.2768134e-06
18	18	1.083452e-05
19	19	8.120244e-06
20	20	1.2324406e-05
21	21	6.3554773e-07
22	22	1.010495e-07
23	23	2.5066635e-07
