0	0	0.88922769
1	1	0.018551198
2	2	0.033224452
3	3	0.048226363
4	4	0.0007204339
5	5	0.00091787857
6	6	0.0019080615
7	7	0.0027073926
8	8	0.0041997026
9	9	1.9752196e-05
10	10	1.0920498e-05
11	11	3.4389051e-05
12	12	5.3617049e-06
13	13	6.3145246e-06
14	14	9.6164059e-05
15	15	0.00012892434
16	16	1.8756941e-06
17	17	1.269596e-06
18	18	4.7326718e-06
19	19	2.5506104e-06
20	20	4.1107292e-06
21	21	3.0597866e-07
22	22	4.2147719e-08
23	23	1.1562793e-07
