0	0	0.88933108
1	1	0.018553355
2	2	0.033228315
3	3	0.04823197
4	4	0.00072051767
5	5	0.00091798529
6	6	0.0019082833
7	7	0.0027077074
8	8	0.0042001909
9	9	1.9754493e-05
10	10	1.0921767e-05
11	11	3.4393049e-05
12	12	5.3623283e-06
13	13	5.1521952e-06
14	14	4.8778713e-05
15	15	6.7588959e-05
16	16	1.1535556e-06
17	17	8.29241e-07
18	18	3.0535146e-06
19	19	1.2436281e-06
20	20	2.0535266e-06
21	21	2.069086e-07
22	22	2.7885834e-08
23	23	7.7010741e-08
