0	0	0.88943858
1	1	0.018555597
2	2	0.033232332
3	3	0.0482378
4	4	0.00072060476
5	5	0.00091809625
6	6	0.001908514
7	7	0.0027080347
8	8	0.0042006986
9	9	1.9756881e-05
10	10	1.0923088e-05
11	11	3.4397206e-05
12	12	5.3629764e-06
13	13	5.152818e-06
14	14	6.0786573e-07
15	15	8.8107177e-07
16	16	2.2118285e-07
17	17	5.6182101e-07
18	18	8.9664821e-07
19	19	4.0293013e-07
20	20	4.7908807e-07
21	21	6.444643e-08
22	22	1.2485652e-08
23	23	2.3995281e-08
