0	0	0.88872666
1	1	0.018540745
2	2	0.033205732
3	3	0.04819919
4	4	0.00072002798
5	5	0.0009173614
6	6	0.0019069864
7	7	0.0027058672
8	8	0.0041973363
9	9	1.9741067e-05
10	10	1.2460919e-05
11	11	5.7178755e-05
12	12	7.4265498e-05
13	13	0.00011863234
14	14	0.00023600357
15	15	0.00030546811
16	16	5.9465024e-06
17	17	4.7613853e-06
18	18	1.478031e-05
19	19	1.1860866e-05
20	20	1.7669657e-05
21	21	8.4238147e-07
22	22	1.4164582e-07
23	23	3.3677777e-07
