0	0	0.88943933
1	1	0.018555613
2	2	0.03323236
3	3	0.048237841
4	4	0.00072060537
5	5	0.00091809703
6	6	0.0019085156
7	7	0.002708037
8	8	0.0042007021
9	9	1.9756897e-05
10	10	1.0923097e-05
11	11	3.4397236e-05
12	12	5.362981e-06
13	13	5.1528223e-06
14	14	2.0867392e-07
15	15	2.5695259e-07
16	16	1.3864724e-07
17	17	6.393539e-07
18	18	6.7939242e-07
19	19	6.1481276e-07
20	20	6.9682773e-07
21	21	3.9929939e-08
22	22	1.0763417e-08
23	23	1.6065142e-08
