0	0	0.88943918
1	1	0.01855561
2	2	0.033232354
3	3	0.048237833
4	4	0.00072060525
5	5	0.00091809688
6	6	0.0019085153
7	7	0.0027080366
8	8	0.0042007014
9	9	1.9756894e-05
10	10	1.0923095e-05
11	11	3.439723e-05
12	12	5.3629801e-06
13	13	5.1528214e-06
14	14	2.0867388e-07
15	15	2.5695255e-07
16	16	1.3864721e-07
17	17	6.7151969e-07
18	18	6.5448252e-07
19	19	6.9192623e-07
20	20	7.9160631e-07
21	21	3.45016e-08
22	22	1.0447875e-08
23	23	1.4447662e-08
