0	0	0.8891606
1	1	0.018549798
2	2	0.033221945
3	3	0.048222724
4	4	0.00072037954
5	5	0.00091780932
6	6	0.0019079175
7	7	0.0027071884
8	8	0.0041993857
9	9	1.9750706e-05
10	10	1.0919674e-05
11	11	3.4386456e-05
12	12	9.3181873e-06
13	13	1.7841707e-05
14	14	0.00012065526
15	15	0.00016021397
16	16	2.3123604e-06
17	17	1.5799617e-06
18	18	5.7871396e-06
19	19	3.4550069e-06
20	20	5.4813692e-06
21	21	3.6369782e-07
22	22	5.1778704e-08
23	23	1.3903156e-07
