0	0	0.88943937
1	1	0.018555614
2	2	0.033232361
3	3	0.048237843
4	4	0.0007206054
5	5	0.00091809707
6	6	0.0019085157
7	7	0.0027080371
8	8	0.0042007023
9	9	1.9756898e-05
10	10	1.0923097e-05
11	11	3.4397237e-05
12	12	5.3629812e-06
13	13	5.1528225e-06
14	14	2.0867392e-07
15	15	3.6152232e-07
16	16	1.3864724e-07
17	17	6.1218436e-07
18	18	7.1932673e-07
19	19	5.4544609e-07
20	20	6.04416e-07
21	21	4.5572647e-08
22	22	1.1135733e-08
23	23	1.7887846e-08
