0	0	0.88943885
1	1	0.018555603
2	2	0.033232342
3	3	0.048237815
4	4	0.00072060498
5	5	0.00091809653
6	6	0.0019085146
7	7	0.0027080356
8	8	0.0042006998
9	9	1.9756887e-05
10	10	1.0923091e-05
11	11	3.4397217e-05
12	12	5.3629781e-06
13	13	5.1528195e-06
14	14	2.086738e-07
15	15	2.5695245e-07
16	16	1.3864716e-07
17	17	4.3972068e-07
18	18	6.5205305e-07
19	19	9.7438868e-07
20	20	1.1360348e-06
21	21	2.1860448e-08
22	22	9.8188339e-09
23	23	1.084543e-08
