0	0	0.88886768
1	1	0.018543687
2	2	0.033211001
3	3	0.048206838
4	4	0.00072014223
5	5	0.00091750696
6	6	0.001907289
7	7	0.0027062965
8	8	0.0041980023
9	9	1.9744199e-05
10	10	1.0916076e-05
11	11	4.1214489e-05
12	12	4.8299689e-05
13	13	7.976777e-05
14	14	0.00020800772
15	15	0.0002706451
16	16	4.6563429e-06
17	17	3.5511935e-06
18	18	1.1566925e-05
19	19	8.812491e-06
20	20	1.3324526e-05
21	21	6.7441523e-07
22	22	1.0887457e-07
23	23	2.6672235e-07
