0	0	0.88942571
1	1	0.018555329
2	2	0.033231851
3	3	0.048237102
4	4	0.00072059433
5	5	0.00091808297
6	6	0.0019084864
7	7	0.0027079956
8	8	0.0042006378
9	9	1.9756595e-05
10	10	1.092293e-05
11	11	3.4396709e-05
12	12	5.3628989e-06
13	13	5.1527434e-06
14	14	5.7559418e-06
15	15	9.1404483e-06
16	16	4.8033508e-07
17	17	5.6007857e-07
18	18	1.4569346e-06
19	19	4.1760186e-07
20	20	6.4073784e-07
21	21	1.0854077e-07
22	22	1.6435173e-08
23	23	4.0409784e-08
