0	0	0.88931813
1	1	0.018553084
2	2	0.033227831
3	3	0.048231267
4	4	0.00072050717
5	5	0.00091797192
6	6	0.0019082555
7	7	0.002707668
8	8	0.0042001297
9	9	1.9754205e-05
10	10	1.0921608e-05
11	11	3.4392548e-05
12	12	5.3622502e-06
13	13	5.1521201e-06
14	14	5.4792203e-05
15	15	7.5454357e-05
16	16	1.2388807e-06
17	17	8.7501774e-07
18	18	3.2286384e-06
19	19	1.3763887e-06
20	20	2.2777381e-06
21	21	2.1867033e-07
22	22	2.9514498e-08
23	23	8.1593192e-08
