0	0	0.88942745
1	1	0.018555365
2	2	0.033231916
3	3	0.048237196
4	4	0.00072059574
5	5	0.00091808476
6	6	0.0019084901
7	7	0.0027080008
8	8	0.004200646
9	9	1.9756633e-05
10	10	1.0922951e-05
11	11	3.4396776e-05
12	12	5.3629093e-06
13	13	5.1527535e-06
14	14	5.0036126e-06
15	15	8.0476782e-06
16	16	4.6256523e-07
17	17	5.5683999e-07
18	18	1.4139539e-06
19	19	4.0655956e-07
20	20	6.1566394e-07
21	21	1.0545466e-07
22	22	1.6121386e-08
23	23	3.9193597e-08
