0	0	0.88931953
1	1	0.018553114
2	2	0.033227884
3	3	0.048231343
4	4	0.00072050831
5	5	0.00091797337
6	6	0.0019082585
7	7	0.0027076723
8	8	0.0042001363
9	9	1.9754236e-05
10	10	1.0921626e-05
11	11	3.4392602e-05
12	12	5.3622586e-06
13	13	5.1521283e-06
14	14	5.4143614e-05
15	15	7.4603993e-05
16	16	1.2295921e-06
17	17	8.6973397e-07
18	18	3.2098762e-06
19	19	1.3608859e-06
20	20	2.2529212e-06
21	21	2.1741007e-07
22	22	2.9339989e-08
23	23	8.1102128e-08
