0	0	0.8894391
1	1	0.018555608
2	2	0.033232351
3	3	0.048237828
4	4	0.00072060518
5	5	0.00091809679
6	6	0.0019085151
7	7	0.0027080363
8	8	0.004200701
9	9	1.9756892e-05
10	10	1.0923094e-05
11	11	3.4397227e-05
12	12	5.3629796e-06
13	13	5.152821e-06
14	14	2.0867386e-07
15	15	2.5695252e-07
16	16	1.386472e-07
17	17	6.8571186e-07
18	18	6.4820338e-07
19	19	7.3296972e-07
20	20	8.3510699e-07
21	21	3.2208397e-08
22	22	1.0323559e-08
23	23	1.3736634e-08
