0	0	0.88901056
1	1	0.018546668
2	2	0.03321634
3	3	0.048214587
4	4	0.00072025799
5	5	0.00091765445
6	6	0.0019075956
7	7	0.0027067316
8	8	0.0041986771
9	9	1.9747373e-05
10	10	1.0917831e-05
11	11	3.4380654e-05
12	12	2.5978407e-05
13	13	4.5059886e-05
14	14	0.00017060557
15	15	0.00022366378
16	16	3.4491426e-06
17	17	2.5296186e-06
18	18	8.574818e-06
19	19	5.9914634e-06
20	20	9.2332685e-06
21	21	5.153367e-07
22	22	7.8668253e-08
23	23	2.0076371e-07
