0	0	0.888617
1	1	0.018538458
2	2	0.033201635
3	3	0.048193243
4	4	0.00071993914
5	5	0.00091724821
6	6	0.0019067511
7	7	0.0027055333
8	8	0.0041968184
9	9	1.9738631e-05
10	10	1.6733021e-05
11	11	7.1050928e-05
12	12	9.6877053e-05
13	13	0.00015167004
14	14	0.00025317488
15	15	0.00032643403
16	16	7.0474212e-06
17	17	5.8498116e-06
18	18	1.75153e-05
19	19	1.4428669e-05
20	20	2.1295708e-05
21	21	9.864354e-07
22	22	1.7196446e-07
23	23	3.9662332e-07
