0	0	0.88943899
1	1	0.018555606
2	2	0.033232347
3	3	0.048237822
4	4	0.0007206051
5	5	0.00091809668
6	6	0.0019085149
7	7	0.002708036
8	8	0.0042007005
9	9	1.975689e-05
10	10	1.0923093e-05
11	11	3.4397222e-05
12	12	5.362979e-06
13	13	5.1528204e-06
14	14	4.3153524e-07
15	15	6.2849555e-07
16	16	1.5509991e-07
17	17	5.9067063e-07
18	18	7.7153605e-07
19	19	4.7931222e-07
20	20	5.4396367e-07
21	21	5.2007579e-08
22	22	1.1556823e-08
23	23	1.9853892e-08
