0	0	0.8893857
1	1	0.018554494
2	2	0.033230356
3	3	0.048234932
4	4	0.00072056192
5	5	0.00091804168
6	6	0.0019084005
7	7	0.0027078737
8	8	0.0042004488
9	9	1.9755706e-05
10	10	1.0922438e-05
11	11	3.4395162e-05
12	12	5.3626576e-06
13	13	5.1525116e-06
14	14	2.3563317e-05
15	15	3.4125419e-05
16	16	7.958111e-07
17	17	6.5953261e-07
18	18	2.2618728e-06
19	19	7.221636e-07
20	20	1.2347826e-06
21	21	1.5630994e-07
22	22	2.1590453e-08
23	23	5.7831142e-08
