0	0	0.8890622
1	1	0.018547745
2	2	0.033218269
3	3	0.048217388
4	4	0.00072029983
5	5	0.00091770775
6	6	0.0019077064
7	7	0.0027068888
8	8	0.004198921
9	9	1.974852e-05
10	10	1.0918465e-05
11	11	3.4382651e-05
12	12	1.9394785e-05
13	13	3.4346454e-05
14	14	0.00015442918
15	15	0.00020324589
16	16	3.0369388e-06
17	17	2.1933979e-06
18	18	7.563776e-06
19	19	5.0503502e-06
20	20	7.8534703e-06
21	21	4.6050412e-07
22	22	6.9276604e-08
23	23	1.783667e-07
