0	0	0.88929509
1	1	0.018552604
2	2	0.03322697
3	3	0.048230018
4	4	0.0007204885
5	5	0.00091794814
6	6	0.0019082061
7	7	0.0027075978
8	8	0.0042000209
9	9	1.9753693e-05
10	10	1.0921325e-05
11	11	3.4391657e-05
12	12	5.3621112e-06
13	13	5.1519867e-06
14	14	6.5490883e-05
15	15	8.9355045e-05
16	16	1.393107e-06
17	17	9.6298859e-07
18	18	3.5798066e-06
19	19	1.6399042e-06
20	20	2.6966457e-06
21	21	2.3938045e-07
22	22	3.2376175e-08
23	23	8.9605215e-08
