0	0	0.88943667
1	1	0.018555557
2	2	0.03323226
3	3	0.048237696
4	4	0.00072060321
5	5	0.00091809428
6	6	0.0019085099
7	7	0.0027080289
8	8	0.0042006895
9	9	1.9756838e-05
10	10	1.0923064e-05
11	11	3.4397132e-05
12	12	5.3629649e-06
13	13	5.1528069e-06
14	14	1.2854167e-06
15	15	2.1083777e-06
16	16	3.0961338e-07
17	17	5.4715165e-07
18	18	1.0791826e-06
19	19	3.6658477e-07
20	20	4.7969863e-07
21	21	8.0033711e-08
22	22	1.3786185e-08
23	23	2.9538119e-08
