0	0	0.88937893
1	1	0.018554353
2	2	0.033230103
3	3	0.048234565
4	4	0.00072055643
5	5	0.00091803468
6	6	0.001908386
7	7	0.0027078531
8	8	0.0042004168
9	9	1.9755556e-05
10	10	1.0922355e-05
11	11	3.4394899e-05
12	12	5.3626168e-06
13	13	5.1524724e-06
14	14	2.6663577e-05
15	15	3.8307442e-05
16	16	8.409219e-07
17	17	6.7796465e-07
18	18	2.3678013e-06
19	19	7.7843036e-07
20	20	1.3349448e-06
21	21	1.628531e-07
22	22	2.2380179e-08
23	23	6.0068494e-08
