0	0	0.88924361
1	1	0.01855153
2	2	0.033225047
3	3	0.048227226
4	4	0.0007204468
5	5	0.000917895
6	6	0.0019080956
7	7	0.0027074411
8	8	0.0041997777
9	9	1.975255e-05
10	10	1.0920693e-05
11	11	3.4389666e-05
12	12	5.3618008e-06
13	13	5.1516884e-06
14	14	8.9317784e-05
15	15	0.00012010606
16	16	1.7615013e-06
17	17	1.1947891e-06
18	18	4.4500471e-06
19	19	2.3259801e-06
20	20	3.762454e-06
21	21	2.9070212e-07
22	22	3.9690498e-08
23	23	1.092743e-07
