0	0	0.88940379
1	1	0.018554872
2	2	0.033231032
3	3	0.048235913
4	4	0.00072057658
5	5	0.00091806035
6	6	0.0019084393
7	7	0.0027079288
8	8	0.0042005343
9	9	1.9756108e-05
10	10	1.092266e-05
11	11	3.4395861e-05
12	12	5.3627667e-06
13	13	5.1526164e-06
14	14	1.537909e-05
15	15	2.2915516e-05
16	16	6.6968828e-07
17	17	6.1117563e-07
18	18	1.9513718e-06
19	19	5.7682481e-07
20	20	9.4910984e-07
21	21	1.3750783e-07
22	22	1.9478358e-08
23	23	5.1272736e-08
