0	0	0.88941377
1	1	0.01855508
2	2	0.033231405
3	3	0.048236455
4	4	0.00072058466
5	5	0.00091807065
6	6	0.0019084608
7	7	0.0027079592
8	8	0.0042005814
9	9	1.975633e-05
10	10	1.0922783e-05
11	11	3.4396247e-05
12	12	5.3628269e-06
13	13	5.1526742e-06
14	14	1.0929805e-05
15	15	1.6684227e-05
16	16	5.9044046e-07
17	17	5.8654146e-07
18	18	1.7476218e-06
19	19	5.02298e-07
20	20	8.0975504e-07
21	21	1.2585611e-07
22	22	1.8213946e-08
23	23	4.6969572e-08
