0	0	0.88943903
1	1	0.018555607
2	2	0.033232348
3	3	0.048237824
4	4	0.00072060512
5	5	0.00091809672
6	6	0.0019085149
7	7	0.0027080361
8	8	0.0042007007
9	9	1.975689e-05
10	10	1.0923093e-05
11	11	3.4397224e-05
12	12	5.3629791e-06
13	13	5.1528205e-06
14	14	4.0431822e-07
15	15	6.1643529e-07
16	16	1.5195902e-07
17	17	5.9279383e-07
18	18	7.6473736e-07
19	19	4.863886e-07
20	20	5.501121e-07
21	21	5.1234233e-08
22	22	1.1506481e-08
23	23	1.9623986e-08
