0	0	0.88943602
1	1	0.018555544
2	2	0.033232236
3	3	0.048237661
4	4	0.00072060268
5	5	0.00091809361
6	6	0.0019085085
7	7	0.0027080269
8	8	0.0042006865
9	9	1.9756824e-05
10	10	1.0923056e-05
11	11	3.4397107e-05
12	12	5.362961e-06
13	13	5.1528031e-06
14	14	1.5231587e-06
15	15	2.5348673e-06
16	16	3.2831147e-07
17	17	5.4654757e-07
18	18	1.1151632e-06
19	19	3.6582579e-07
20	20	4.8818015e-07
21	21	8.302678e-08
22	22	1.4048898e-08
23	23	3.0534291e-08
