0	0	0.88940663
1	1	0.018554931
2	2	0.033231138
3	3	0.048236067
4	4	0.00072057887
5	5	0.00091806328
6	6	0.0019084454
7	7	0.0027079375
8	8	0.0042005477
9	9	1.9756171e-05
10	10	1.0922695e-05
11	11	3.4395971e-05
12	12	5.3627838e-06
13	13	5.1526329e-06
14	14	1.4114412e-05
15	15	2.1138839e-05
16	16	6.4827417e-07
17	17	6.0431964e-07
18	18	1.8967057e-06
19	19	5.5530795e-07
20	20	9.1071086e-07
21	21	1.3438202e-07
22	22	1.9128538e-08
23	23	5.0118155e-08
