0	0	0.88860967
1	1	0.018538304
2	2	0.033201361
3	3	0.048192845
4	4	0.00071993319
5	5	0.00091724063
6	6	0.0019067353
7	7	0.002705511
8	8	0.0041967837
9	9	1.9901826e-05
10	10	1.7047161e-05
11	11	7.2005019e-05
12	12	9.8425493e-05
13	13	0.00015394048
14	14	0.00025413275
15	15	0.00032769157
16	16	7.1229571e-06
17	17	5.9277127e-06
18	18	1.7707701e-05
19	19	1.4604863e-05
20	20	2.1542106e-05
21	21	9.9613141e-07
22	22	1.7406276e-07
23	23	4.0065151e-07
