0	0	0.88865067
1	1	0.01853916
2	2	0.033202893
3	3	0.048195068
4	4	0.00071996641
5	5	0.00091728295
6	6	0.0019068233
7	7	0.0027056358
8	8	0.0041969773
9	9	1.9739379e-05
10	10	1.5378019e-05
11	11	6.6598542e-05
12	12	8.9691856e-05
13	13	0.00014123002
14	14	0.00024823551
15	15	0.00032056531
16	16	6.7005448e-06
17	17	5.4893572e-06
18	18	1.6651134e-05
19	19	1.3616677e-05
20	20	2.0150877e-05
21	21	9.4118206e-07
22	22	1.6217233e-07
23	23	3.7782406e-07
