0	0	0.88940983
1	1	0.018554998
2	2	0.033231258
3	3	0.048236241
4	4	0.00072058147
5	5	0.00091806658
6	6	0.0019084523
7	7	0.0027079472
8	8	0.0042005628
9	9	1.9756242e-05
10	10	1.0922735e-05
11	11	3.4396095e-05
12	12	5.3628031e-06
13	13	5.1526514e-06
14	14	1.2669774e-05
15	15	1.9152726e-05
16	16	6.2319376e-07
17	17	5.9635784e-07
18	18	1.8321013e-06
19	19	5.3141905e-07
20	20	8.6591483e-07
21	21	1.3068758e-07
22	22	1.8732179e-08
23	23	4.8753717e-08
