0	0	0.88937674
1	1	0.018554307
2	2	0.033230021
3	3	0.048234446
4	4	0.00072055466
5	5	0.00091803242
6	6	0.0019083813
7	7	0.0027078465
8	8	0.0042004065
9	9	1.9755507e-05
10	10	1.0922328e-05
11	11	3.4394815e-05
12	12	5.3626036e-06
13	13	5.1524597e-06
14	14	2.7669968e-05
15	15	3.9650466e-05
16	16	8.5559695e-07
17	17	6.8435804e-07
18	18	2.4012516e-06
19	19	7.9930794e-07
20	20	1.3665766e-06
21	21	1.6491933e-07
22	22	2.2630316e-08
23	23	6.0774988e-08
