0	0	0.88943941
1	1	0.018555615
2	2	0.033232363
3	3	0.048237845
4	4	0.00072060543
5	5	0.00091809711
6	6	0.0019085158
7	7	0.0027080373
8	8	0.0042007025
9	9	1.9756899e-05
10	10	1.0923098e-05
11	11	3.4397238e-05
12	12	5.3629814e-06
13	13	5.1528228e-06
14	14	2.0867393e-07
15	15	3.0428109e-07
16	16	1.3864725e-07
17	17	6.1481688e-07
18	18	7.1444079e-07
19	19	5.5286196e-07
20	20	6.1193249e-07
21	21	4.4969599e-08
22	22	1.1095062e-08
23	23	1.767658e-08
