0	0	0.88937267
1	1	0.018554222
2	2	0.033229869
3	3	0.048234226
4	4	0.00072055136
5	5	0.00091802823
6	6	0.0019083726
7	7	0.0027078341
8	8	0.0042003873
9	9	1.9755417e-05
10	10	1.0922278e-05
11	11	3.4394658e-05
12	12	5.3625791e-06
13	13	5.1524361e-06
14	14	2.9534367e-05
15	15	4.2157172e-05
16	16	8.825003e-07
17	17	6.9647675e-07
18	18	2.4625818e-06
19	19	8.375832e-07
20	20	1.4245676e-06
21	21	1.6870783e-07
22	22	2.3088899e-08
23	23	6.2071147e-08
