0	0	0.88942241
1	1	0.01855526
2	2	0.033231727
3	3	0.048236923
4	4	0.00072059166
5	5	0.00091807956
6	6	0.0019084793
7	7	0.0027079855
8	8	0.0042006222
9	9	1.9756521e-05
10	10	1.0922889e-05
11	11	3.4396581e-05
12	12	5.3628789e-06
13	13	5.1527243e-06
14	14	7.1770746e-06
15	15	1.124115e-05
16	16	5.1234539e-07
17	17	5.6691933e-07
18	18	1.5344819e-06
19	19	4.3996769e-07
20	20	6.8816409e-07
21	21	1.1378708e-07
22	22	1.6973967e-08
23	23	4.2467794e-08
