0	0	0.88943894
1	1	0.018555605
2	2	0.033232345
3	3	0.048237819
4	4	0.00072060505
5	5	0.00091809663
6	6	0.0019085148
7	7	0.0027080358
8	8	0.0042007003
9	9	1.9756889e-05
10	10	1.0923092e-05
11	11	3.439722e-05
12	12	5.3629786e-06
13	13	5.15282e-06
14	14	2.0867382e-07
15	15	2.5695248e-07
16	16	1.3864717e-07
17	17	4.3972073e-07
18	18	6.4879318e-07
19	19	9.3075511e-07
20	20	1.0784365e-06
21	21	2.347813e-08
22	22	9.8857375e-09
23	23	1.1263737e-08
