0	0	0.88868408
1	1	0.018539857
2	2	0.033204141
3	3	0.04819688
4	4	0.00071999348
5	5	0.00091731744
6	6	0.001906895
7	7	0.0027057375
8	8	0.0041971351
9	9	1.9740121e-05
10	10	1.4089671e-05
11	11	6.238157e-05
12	12	8.2804545e-05
13	13	0.00013120825
14	14	0.00024306854
15	15	0.00031402149
16	16	6.3675089e-06
17	17	5.1623508e-06
18	18	1.5824887e-05
19	19	1.2836535e-05
20	20	1.9051159e-05
21	21	8.9754824e-07
22	22	1.5272978e-07
23	23	3.5969549e-07
