0	0	0.88943869
1	1	0.0185556
2	2	0.033232336
3	3	0.048237806
4	4	0.00072060485
5	5	0.00091809637
6	6	0.0019085142
7	7	0.0027080351
8	8	0.0042006991
9	9	1.9756883e-05
10	10	1.0923089e-05
11	11	3.4397211e-05
12	12	5.3629771e-06
13	13	5.1528186e-06
14	14	2.0867376e-07
15	15	2.5695241e-07
16	16	1.3864714e-07
17	17	4.3972061e-07
18	18	6.5436576e-07
19	19	1.0521307e-06
20	20	1.2336224e-06
21	21	1.946166e-08
22	22	9.7137718e-09
23	23	1.0200777e-08
