0	0	0.88936091
1	1	0.018553977
2	2	0.03322943
3	3	0.048233588
4	4	0.00072054184
5	5	0.00091801609
6	6	0.0019083473
7	7	0.0027077983
8	8	0.0042003318
9	9	1.9755155e-05
10	10	1.0922134e-05
11	11	3.4394203e-05
12	12	5.3625082e-06
13	13	5.152368e-06
14	14	3.4963804e-05
15	15	4.9366285e-05
16	16	9.5831636e-07
17	17	7.313656e-07
18	18	2.6354064e-06
19	19	9.5626942e-07
20	20	1.587987e-06
21	21	1.7938278e-07
22	22	2.4411085e-08
23	23	6.6068898e-08
