0	0	0.88943309
1	1	0.018555483
2	2	0.033232127
3	3	0.048237503
4	4	0.00072060032
5	5	0.00091809059
6	6	0.0019085022
7	7	0.002708018
8	8	0.0042006727
9	9	1.9756759e-05
10	10	1.092302e-05
11	11	3.4396994e-05
12	12	5.3629434e-06
13	13	5.1527862e-06
14	14	2.6923563e-06
15	15	4.4019836e-06
16	16	3.880121e-07
17	17	5.4794888e-07
18	18	1.2405584e-06
19	19	3.7396187e-07
20	20	5.305301e-07
21	21	9.2631326e-08
22	22	1.4918249e-08
23	23	3.40911e-08
