0	0	0.8894375
1	1	0.018555575
2	2	0.033232291
3	3	0.048237741
4	4	0.00072060389
5	5	0.00091809514
6	6	0.0019085117
7	7	0.0027080314
8	8	0.0042006935
9	9	1.9756857e-05
10	10	1.0923074e-05
11	11	3.4397165e-05
12	12	5.3629699e-06
13	13	5.1528117e-06
14	14	9.7257479e-07
15	15	1.5811732e-06
16	16	2.8088709e-07
17	17	5.4960962e-07
18	18	1.0195006e-06
19	19	3.7196728e-07
20	20	4.7160405e-07
21	21	7.4992528e-08
22	22	1.3377507e-08
23	23	2.7860602e-08
