0	0	0.88928079
1	1	0.018552306
2	2	0.033226436
3	3	0.048229243
4	4	0.00072047692
5	5	0.00091793338
6	6	0.0019081754
7	7	0.0027075543
8	8	0.0041999533
9	9	1.9753376e-05
10	10	1.092115e-05
11	11	3.4391104e-05
12	12	5.362025e-06
13	13	5.1519038e-06
14	14	7.2120983e-05
15	15	9.7929242e-05
16	16	1.4918115e-06
17	17	1.0224039e-06
18	18	3.8171493e-06
19	19	1.8165899e-06
20	20	2.9714256e-06
21	21	2.5321142e-07
22	22	3.4319696e-08
23	23	9.4563076e-08
