0	0	0.88934064
1	1	0.018553554
2	2	0.033228672
3	3	0.048232488
4	4	0.00072052541
5	5	0.00091799516
6	6	0.0019083038
7	7	0.0027077365
8	8	0.004200236
9	9	1.9754705e-05
10	10	1.0921885e-05
11	11	3.4393419e-05
12	12	5.3623859e-06
13	13	5.1522505e-06
14	14	4.4349686e-05
15	15	6.1760636e-05
16	16	1.09101e-06
17	17	7.9664069e-07
18	18	2.9221625e-06
19	19	1.15335e-06
20	20	1.895283e-06
21	21	1.9808694e-07
22	22	2.6778188e-08
23	23	7.3573346e-08
