0	0	0.88891321
1	1	0.018544637
2	2	0.033212702
3	3	0.048209307
4	4	0.00072017912
5	5	0.00091755396
6	6	0.0019073867
7	7	0.0027064352
8	8	0.0041982173
9	9	1.9745211e-05
10	10	1.0916636e-05
11	11	3.6350347e-05
12	12	4.0892212e-05
13	13	6.8392184e-05
14	14	0.0001975852
15	15	0.00025749992
16	16	4.2728177e-06
17	17	3.1936627e-06
18	18	1.0618775e-05
19	19	7.9105866e-06
20	20	1.2023409e-05
21	21	6.237683e-07
22	22	9.8678274e-08
23	23	2.4580076e-07
