0	0	0.88943882
1	1	0.018555602
2	2	0.033232341
3	3	0.048237813
4	4	0.00072060495
5	5	0.0009180965
6	6	0.0019085145
7	7	0.0027080355
8	8	0.0042006997
9	9	1.9756886e-05
10	10	1.0923091e-05
11	11	3.4397216e-05
12	12	5.3629779e-06
13	13	5.1528193e-06
14	14	5.3297902e-07
15	15	7.253031e-07
16	16	1.8911922e-07
17	17	5.7298593e-07
18	18	8.3468703e-07
19	19	4.3276736e-07
20	20	5.014207e-07
21	21	5.8695285e-08
22	22	1.2035199e-08
23	23	2.2053188e-08
