0	0	0.88943894
1	1	0.018555605
2	2	0.033232345
3	3	0.048237819
4	4	0.00072060505
5	5	0.00091809662
6	6	0.0019085148
7	7	0.0027080358
8	8	0.0042007002
9	9	1.9756888e-05
10	10	1.0923092e-05
11	11	3.439722e-05
12	12	5.3629786e-06
13	13	5.15282e-06
14	14	4.7473015e-07
15	15	6.568891e-07
16	16	1.6368414e-07
17	17	5.8552931e-07
18	18	7.8809868e-07
19	19	4.6497417e-07
20	20	5.3050645e-07
21	21	5.387995e-08
22	22	1.1683756e-08
23	23	2.0457166e-08
