0	0	0.88936246
1	1	0.018554009
2	2	0.033229487
3	3	0.048233672
4	4	0.00072054309
5	5	0.00091801768
6	6	0.0019083506
7	7	0.002707803
8	8	0.004200339
9	9	1.975519e-05
10	10	1.0922153e-05
11	11	3.4394262e-05
12	12	5.3625175e-06
13	13	5.152377e-06
14	14	3.4254414e-05
15	15	4.8417475e-05
16	16	9.485336e-07
17	17	7.2652836e-07
18	18	2.6131078e-06
19	19	9.4094234e-07
20	20	1.5669018e-06
21	21	1.7800538e-07
22	22	2.4234646e-08
23	23	6.5485414e-08
