0	0	0.88902434
1	1	0.018546955
2	2	0.033216854
3	3	0.048215334
4	4	0.00072026915
5	5	0.00091766867
6	6	0.0019076251
7	7	0.0027067735
8	8	0.0041987422
9	9	1.9747679e-05
10	10	1.0918e-05
11	11	3.4381187e-05
12	12	2.4123975e-05
13	13	4.2072481e-05
14	14	0.00016643246
15	15	0.00021831393
16	16	3.3391616e-06
17	17	2.4399066e-06
18	18	8.3050394e-06
19	19	5.7336331e-06
20	20	8.8589725e-06
21	21	5.0070551e-07
22	22	7.6162208e-08
23	23	1.9465996e-07
