0	0	0.88881963
1	1	0.018542685
2	2	0.033209206
3	3	0.048204232
4	4	0.0007201033
5	5	0.00091745736
6	6	0.0019071859
7	7	0.0027061503
8	8	0.0041977754
9	9	1.9743132e-05
10	10	1.0915486e-05
11	11	4.6500732e-05
12	12	5.6676204e-05
13	13	9.2412007e-05
14	14	0.00021845319
15	15	0.0002835122
16	16	5.082785e-06
17	17	3.9354553e-06
18	18	1.2630056e-05
19	19	9.8165129e-06
20	20	1.4758151e-05
21	21	7.2884933e-07
22	22	1.1983385e-07
23	23	2.892082e-07
