0	0	0.88933792
1	1	0.018553497
2	2	0.033228571
3	3	0.048232341
4	4	0.00072052321
5	5	0.00091799236
6	6	0.001908298
7	7	0.0027077283
8	8	0.0042002232
9	9	1.9754645e-05
10	10	1.0921851e-05
11	11	3.4393314e-05
12	12	5.3623695e-06
13	13	5.1522348e-06
14	14	4.560908e-05
15	15	6.3411566e-05
16	16	1.1088788e-06
17	17	8.0583197e-07
18	18	2.959691e-06
19	19	1.1791449e-06
20	20	1.9401249e-06
21	21	2.0060724e-07
22	22	2.7092884e-08
23	23	7.4555429e-08
