0	0	0.88941078
1	1	0.018555017
2	2	0.033231293
3	3	0.048236292
4	4	0.00072058224
5	5	0.00091806756
6	6	0.0019084543
7	7	0.0027079501
8	8	0.0042005673
9	9	1.9756263e-05
10	10	1.0922746e-05
11	11	3.4396131e-05
12	12	5.3628088e-06
13	13	5.1526569e-06
14	14	1.2260371e-05
15	15	1.8548805e-05
16	16	6.1548714e-07
17	17	5.9394359e-07
18	18	1.8122229e-06
19	19	5.2435997e-07
20	20	8.5237865e-07
21	21	1.295508e-07
22	22	1.8610238e-08
23	23	4.8333912e-08
