0	0	0.88943713
1	1	0.018555567
2	2	0.033232277
3	3	0.048237721
4	4	0.00072060358
5	5	0.00091809476
6	6	0.0019085109
7	7	0.0027080303
8	8	0.0042006917
9	9	1.9756848e-05
10	10	1.092307e-05
11	11	3.439715e-05
12	12	5.3629677e-06
13	13	5.1528095e-06
14	14	1.1114812e-06
15	15	1.817637e-06
16	16	2.9395486e-07
17	17	5.4821065e-07
18	18	1.0479365e-06
19	19	3.6866602e-07
20	20	4.7474168e-07
21	21	7.7426212e-08
22	22	1.357479e-08
23	23	2.8670459e-08
