0	0	0.88924533
1	1	0.018551566
2	2	0.033225111
3	3	0.048227319
4	4	0.0007204482
5	5	0.00091789678
6	6	0.0019080993
7	7	0.0027074464
8	8	0.0041997859
9	9	1.9752588e-05
10	10	1.0920714e-05
11	11	3.4389733e-05
12	12	5.3618112e-06
13	13	5.1516984e-06
14	14	8.8522418e-05
15	15	0.00011908069
16	16	1.7483249e-06
17	17	1.1863219e-06
18	18	4.4198835e-06
19	19	2.3009168e-06
20	20	3.7222649e-06
21	21	2.8893926e-07
22	22	3.9407333e-08
23	23	1.0854119e-07
