0	0	0.88929615
1	1	0.018552626
2	2	0.03322701
3	3	0.048230075
4	4	0.00072048936
5	5	0.00091794923
6	6	0.0019082084
7	7	0.0027076011
8	8	0.0042000259
9	9	1.9753717e-05
10	10	1.0921338e-05
11	11	3.4391698e-05
12	12	5.3621176e-06
13	13	5.1519928e-06
14	14	6.4998771e-05
15	15	8.8717477e-05
16	16	1.385845e-06
17	17	9.5872752e-07
18	18	3.5622252e-06
19	19	1.6271977e-06
20	20	2.6762925e-06
21	21	2.3841085e-07
22	22	3.2243579e-08
23	23	8.923796e-08
