0	0	0.88893989
1	1	0.018545194
2	2	0.033213699
3	3	0.048210754
4	4	0.00072020073
5	5	0.0009175815
6	6	0.0019074439
7	7	0.0027065164
8	8	0.0041983433
9	9	1.9745803e-05
10	10	1.0916963e-05
11	11	3.4377921e-05
12	12	3.6674298e-05
13	13	6.1885243e-05
14	14	0.00019093479
15	15	0.00024916029
16	16	4.0496656e-06
17	17	3.0020521e-06
18	18	1.0067134e-05
19	19	7.3852142e-06
20	20	1.1260166e-05
21	21	5.9365711e-07
22	22	9.2615654e-08
23	23	2.3336779e-07
