0	0	0.88909603
1	1	0.018548451
2	2	0.033219533
3	3	0.048219222
4	4	0.00072032724
5	5	0.00091774267
6	6	0.001907779
7	7	0.0027069918
8	8	0.0041990808
9	9	1.9749272e-05
10	10	1.0918881e-05
11	11	3.4383959e-05
12	12	1.5763082e-05
13	13	2.8018832e-05
14	14	0.00014323698
15	15	0.00018897872
16	16	2.7775681e-06
17	17	1.9748326e-06
18	18	6.9229537e-06
19	19	4.471673e-06
20	20	6.9894345e-06
21	21	4.2611897e-07
22	22	6.3171184e-08
23	23	1.6434606e-07
