0	0	0.88943901
1	1	0.018555606
2	2	0.033232348
3	3	0.048237823
4	4	0.00072060511
5	5	0.0009180967
6	6	0.0019085149
7	7	0.002708036
8	8	0.0042007006
9	9	1.975689e-05
10	10	1.0923093e-05
11	11	3.4397223e-05
12	12	5.362979e-06
13	13	5.1528205e-06
14	14	2.0867384e-07
15	15	2.569525e-07
16	16	1.3864718e-07
17	17	6.9333302e-07
18	18	6.4426475e-07
19	19	7.8051539e-07
20	20	8.9048143e-07
21	21	2.9835344e-08
22	22	1.0194176e-08
23	23	1.3051465e-08
