0	0	0.88896374
1	1	0.018545691
2	2	0.03321459
3	3	0.048212048
4	4	0.00072022006
5	5	0.00091760612
6	6	0.0019074951
7	7	0.002706589
8	8	0.004198456
9	9	1.9746333e-05
10	10	1.0917256e-05
11	11	3.4378843e-05
12	12	3.2827562e-05
13	13	5.5961716e-05
14	14	0.0001843007
15	15	0.00024086839
16	16	3.8395887e-06
17	17	2.8405908e-06
18	18	9.5478863e-06
19	19	6.9007409e-06
20	20	1.0558105e-05
21	21	5.6605608e-07
22	22	8.7373608e-08
23	23	2.219217e-07
