0	0	0.8893864
1	1	0.018554509
2	2	0.033230382
3	3	0.04823497
4	4	0.00072056249
5	5	0.0009180424
6	6	0.001908402
7	7	0.0027078759
8	8	0.0042004521
9	9	1.9755722e-05
10	10	1.0922447e-05
11	11	3.4395189e-05
12	12	5.3626618e-06
13	13	5.1525157e-06
14	14	2.3240912e-05
15	15	3.3697222e-05
16	16	7.9114321e-07
17	17	6.5760532e-07
18	18	2.2507221e-06
19	19	7.1633912e-07
20	20	1.2242393e-06
21	21	1.5562108e-07
22	22	2.1507399e-08
23	23	5.7595626e-08
