0	0	0.88937305
1	1	0.01855423
2	2	0.033229883
3	3	0.048234246
4	4	0.00072055167
5	5	0.00091802861
6	6	0.0019083734
7	7	0.0027078352
8	8	0.0042003891
9	9	1.9755425e-05
10	10	1.0922283e-05
11	11	3.4394672e-05
12	12	5.3625813e-06
13	13	5.1524383e-06
14	14	2.9361323e-05
15	15	4.1929291e-05
16	16	8.8005464e-07
17	17	6.9537506e-07
18	18	2.4570063e-06
19	19	8.3410364e-07
20	20	1.4192957e-06
21	21	1.6836342e-07
22	22	2.3047208e-08
23	23	6.1952467e-08
