0	0	0.88927396
1	1	0.018552163
2	2	0.033226181
3	3	0.048228872
4	4	0.00072047139
5	5	0.00091792633
6	6	0.0019081608
7	7	0.0027075335
8	8	0.0041999211
9	9	1.9753224e-05
10	10	1.0921066e-05
11	11	3.439084e-05
12	12	5.3619838e-06
13	13	5.1518643e-06
14	14	7.529445e-05
15	15	0.00010201169
16	16	1.5397528e-06
17	17	1.0513708e-06
18	18	3.9314211e-06
19	19	1.9048602e-06
20	20	3.1084308e-06
21	21	2.6002018e-07
22	22	3.5274527e-08
23	23	9.6950193e-08
