0	0	0.88940221
1	1	0.018554839
2	2	0.033230973
3	3	0.048235827
4	4	0.00072057529
5	5	0.00091805871
6	6	0.0019084359
7	7	0.002707924
8	8	0.0042005268
9	9	1.9756073e-05
10	10	1.0922641e-05
11	11	3.43958e-05
12	12	5.3627571e-06
13	13	5.1526073e-06
14	14	1.6104554e-05
15	15	2.3884606e-05
16	16	6.8150577e-07
17	17	6.1529718e-07
18	18	1.9811894e-06
19	19	5.8927832e-07
20	20	9.7470117e-07
21	21	1.392128e-07
22	22	1.9678159e-08
23	23	5.1902546e-08
