0	0	0.88919116
1	1	0.018550436
2	2	0.033223087
3	3	0.048224382
4	4	0.00072040431
5	5	0.00091784087
6	6	0.0019079831
7	7	0.0027072814
8	8	0.00419953
9	9	1.9751385e-05
10	10	1.0920049e-05
11	11	3.4387638e-05
12	12	5.7712402e-06
13	13	1.3405222e-05
14	14	0.00010990671
15	15	0.00014649186
16	16	2.1121697e-06
17	17	1.4407711e-06
18	18	5.3089426e-06
19	19	3.0371535e-06
20	20	4.8482294e-06
21	21	3.3711729e-07
22	22	4.7159963e-08
23	23	1.2857834e-07
