0	0	0.88892818
1	1	0.018544949
2	2	0.033213261
3	3	0.048210119
4	4	0.00072019124
5	5	0.00091756941
6	6	0.0019074188
7	7	0.0027064807
8	8	0.004198288
9	9	1.9745543e-05
10	10	1.0916819e-05
11	11	3.4786314e-05
12	12	3.8566069e-05
13	13	6.4809738e-05
14	14	0.0001939739
15	15	0.00025302804
16	16	4.1506206e-06
17	17	3.0853868e-06
18	18	1.0316701e-05
19	19	7.6180496e-06
20	20	1.1602884e-05
21	21	6.0727714e-07
22	22	9.535849e-08
23	23	2.389889e-07
