0	0	0.88903025
1	1	0.018547079
2	2	0.033217075
3	3	0.048215655
4	4	0.00072027394
5	5	0.00091767477
6	6	0.0019076378
7	7	0.0027067915
8	8	0.0041987701
9	9	1.974781e-05
10	10	1.0918073e-05
11	11	3.4381415e-05
12	12	2.335335e-05
13	13	4.082204e-05
14	14	0.00016461777
15	15	0.00021599009
16	16	3.2918205e-06
17	17	2.4012925e-06
18	18	8.1889165e-06
19	19	5.6226532e-06
20	20	8.6979076e-06
21	21	4.9440784e-07
22	22	7.5083674e-08
23	23	1.9203573e-07
