0	0	0.88926246
1	1	0.018551923
2	2	0.033225751
3	3	0.048228248
4	4	0.00072046207
5	5	0.00091791446
6	6	0.0019081361
7	7	0.0027074985
8	8	0.0041998668
9	9	1.9752969e-05
10	10	1.0920925e-05
11	11	3.4390395e-05
12	12	5.3619145e-06
13	13	5.1517976e-06
14	14	8.0610565e-05
15	15	0.00010888409
16	16	1.620996e-06
17	17	1.1032836e-06
18	18	4.1248051e-06
19	19	2.0571195e-06
20	20	3.349036e-06
21	21	2.7154201e-07
22	22	3.6890504e-08
23	23	1.0134924e-07
