0	0	0.88904421
1	1	0.01854737
2	2	0.033217597
3	3	0.048216412
4	4	0.00072028525
5	5	0.00091768918
6	6	0.0019076678
7	7	0.002706834
8	8	0.004198836
9	9	1.974812e-05
10	10	1.0918244e-05
11	11	3.4381955e-05
12	12	2.1581088e-05
13	13	3.792034e-05
14	14	0.0001602527
15	15	0.00021046016
16	16	3.1807205e-06
17	17	2.3106735e-06
18	18	7.9164438e-06
19	19	5.3714802e-06
20	20	8.323622e-06
21	21	4.7962844e-07
22	22	7.2552535e-08
23	23	1.8594979e-07
