0	0	0.88943927
1	1	0.018555612
2	2	0.033232357
3	3	0.048237837
4	4	0.00072060532
5	5	0.00091809696
6	6	0.0019085155
7	7	0.0027080368
8	8	0.0042007018
9	9	1.9756896e-05
10	10	1.0923096e-05
11	11	3.4397233e-05
12	12	5.3629806e-06
13	13	5.1528219e-06
14	14	2.134351e-07
15	15	5.0707111e-07
16	16	1.3938903e-07
17	17	6.0348941e-07
18	18	7.3675089e-07
19	19	5.2073137e-07
20	20	5.8081719e-07
21	21	4.778604e-08
22	22	1.128187e-08
23	23	1.8596438e-08
