0	0	0.88912267
1	1	0.018549007
2	2	0.033220528
3	3	0.048220667
4	4	0.00072034882
5	5	0.00091777017
6	6	0.0019078361
7	7	0.0027070729
8	8	0.0041992066
9	9	1.9749863e-05
10	10	1.0919208e-05
11	11	3.4384989e-05
12	12	1.3033822e-05
13	13	2.3559225e-05
14	14	0.00013407951
15	15	0.00017734096
16	16	2.5804797e-06
17	17	1.8045749e-06
18	18	6.4484373e-06
19	19	4.0315744e-06
20	20	6.3448567e-06
21	21	4.0006134e-07
22	22	5.8415638e-08
23	23	1.534247e-07
