0	0	0.88859328
1	1	0.018537963
2	2	0.033200749
3	3	0.048191956
4	4	0.00071991992
5	5	0.00091722372
6	6	0.0019067002
7	7	0.0027054611
8	8	0.0041967063
9	9	2.0617815e-05
10	10	1.7745116e-05
11	11	7.4091508e-05
12	12	0.00010181386
13	13	0.00015890574
14	14	0.00025622745
15	15	0.00033044184
16	16	7.2906213e-06
17	17	6.0980758e-06
18	18	1.8128952e-05
19	19	1.4990762e-05
20	20	2.2080945e-05
21	21	1.0173348e-06
22	22	1.7865151e-07
23	23	4.0946039e-07
