0	0	0.88937006
1	1	0.018554168
2	2	0.033229771
3	3	0.048234084
4	4	0.00072054924
5	5	0.00091802552
6	6	0.001908367
7	7	0.0027078261
8	8	0.0042003749
9	9	1.9755359e-05
10	10	1.0922246e-05
11	11	3.4394556e-05
12	12	5.3625633e-06
13	13	5.152421e-06
14	14	3.074567e-05
15	15	4.3755916e-05
16	16	8.9961991e-07
17	17	7.0418981e-07
18	18	2.5016104e-06
19	19	8.6430929e-07
20	20	1.4614703e-06
21	21	1.7111866e-07
22	22	2.3380731e-08
23	23	6.2909848e-08
