0	0	0.88859047
1	1	0.018537904
2	2	0.033200644
3	3	0.048191804
4	4	0.00071991764
5	5	0.00091722082
6	6	0.0019066942
7	7	0.0027054525
8	8	0.0041966931
9	9	2.0740256e-05
10	10	1.7875032e-05
11	11	7.4448315e-05
12	12	0.00010239331
13	13	0.00015975477
14	14	0.00025658565
15	15	0.00033091216
16	16	7.320019e-06
17	17	6.1272099e-06
18	18	1.8201259e-05
19	19	1.5056884e-05
20	20	2.2173086e-05
21	21	1.0209608e-06
22	22	1.7943621e-07
23	23	4.1096678e-07
