0	0	0.88938431
1	1	0.018554465
2	2	0.033230304
3	3	0.048234857
4	4	0.00072056079
5	5	0.00091804023
6	6	0.0019083975
7	7	0.0027078695
8	8	0.0042004422
9	9	1.9755675e-05
10	10	1.0922421e-05
11	11	3.4395107e-05
12	12	5.3626492e-06
13	13	5.1525035e-06
14	14	2.4208126e-05
15	15	3.498181e-05
16	16	8.0514687e-07
17	17	6.6340455e-07
18	18	2.2841741e-06
19	19	7.338428e-07
20	20	1.2558692e-06
21	21	1.5768766e-07
22	22	2.175656e-08
23	23	5.8302173e-08
