0	0	0.88930304
1	1	0.01855277
2	2	0.033227268
3	3	0.048230449
4	4	0.00072049495
5	5	0.00091795635
6	6	0.0019082232
7	7	0.0027076221
8	8	0.0042000584
9	9	1.975387e-05
10	10	1.0921423e-05
11	11	3.4391965e-05
12	12	5.3621592e-06
13	13	5.1520328e-06
14	14	6.1794579e-05
15	15	8.4572766e-05
16	16	1.3397744e-06
17	17	9.3158548e-07
18	18	3.4479518e-06
19	19	1.5482548e-06
20	20	2.5476565e-06
21	21	2.321635e-07
22	22	3.1382865e-08
23	23	8.6850767e-08
