0	0	0.88851542
1	1	0.018536338
2	2	0.033197839
3	3	0.048187733
4	4	0.00071985684
5	5	0.00091714335
6	6	0.0019065331
7	7	0.002705224
8	8	0.0041963386
9	9	2.4107118e-05
10	10	2.1447669e-05
11	11	8.4697874e-05
12	12	0.00011861506
13	13	0.00018329188
14	14	0.00026536814
15	15	0.00034142843
16	16	8.1282469e-06
17	17	6.9283428e-06
18	18	2.0189627e-05
19	19	1.6877544e-05
20	20	2.4711437e-05
21	21	1.1249028e-06
22	22	2.0175401e-07
23	23	4.5464356e-07
