0	0	0.88865672
1	1	0.018539286
2	2	0.033203119
3	3	0.048195397
4	4	0.00071997132
5	5	0.00091728921
6	6	0.0019068363
7	7	0.0027056543
8	8	0.004197006
9	9	1.9739513e-05
10	10	1.513945e-05
11	11	6.5803743e-05
12	12	8.8415744e-05
13	13	0.00013937006
14	14	0.0002472787
15	15	0.00031951734
16	16	6.6388718e-06
17	17	5.4271691e-06
18	18	1.649813e-05
19	19	1.3472206e-05
20	20	1.9947216e-05
21	21	9.3310098e-07
22	22	1.6042374e-07
23	23	3.7446711e-07
