0	0	0.88890474
1	1	0.01854446
2	2	0.033212386
3	3	0.048208848
4	4	0.00072017226
5	5	0.00091754522
6	6	0.0019073685
7	7	0.0027064094
8	8	0.0041981773
9	9	1.9745023e-05
10	10	1.0916532e-05
11	11	3.7244026e-05
12	12	4.2227767e-05
13	13	7.0456487e-05
14	14	0.00019961992
15	15	0.00025996059
16	16	4.3426524e-06
17	17	3.2601834e-06
18	18	1.0791371e-05
19	19	8.078286e-06
20	20	1.2264214e-05
21	21	6.3319187e-07
22	22	1.0057524e-07
23	23	2.4969324e-07
