0	0	0.88943929
1	1	0.018555612
2	2	0.033232358
3	3	0.048237839
4	4	0.00072060534
5	5	0.00091809699
6	6	0.0019085155
7	7	0.0027080369
8	8	0.0042007019
9	9	1.9756896e-05
10	10	1.0923096e-05
11	11	3.4397234e-05
12	12	5.3629808e-06
13	13	5.1528221e-06
14	14	2.0867391e-07
15	15	4.6815688e-07
16	16	1.3864723e-07
17	17	6.0647981e-07
18	18	7.3058827e-07
19	19	5.2938145e-07
20	20	5.8891753e-07
21	21	4.6959225e-08
22	22	1.1230658e-08
23	23	1.8348425e-08
