0	0	0.88876546
1	1	0.018541555
2	2	0.033207182
3	3	0.048201294
4	4	0.00072005941
5	5	0.00091740145
6	6	0.0019070696
7	7	0.0027059853
8	8	0.0041975195
9	9	1.9741929e-05
10	10	1.1014705e-05
11	11	5.2644072e-05
12	12	6.6825436e-05
13	13	0.00010762714
14	14	0.00022921649
15	15	0.00029684819
16	16	5.5796443e-06
17	17	4.4053545e-06
18	18	1.3869882e-05
19	19	1.1004411e-05
20	20	1.6455558e-05
21	21	7.9340034e-07
22	22	1.3260225e-07
23	23	3.1642859e-07
