0	0	0.88867663
1	1	0.018539701
2	2	0.033203863
3	3	0.048196476
4	4	0.00071998744
5	5	0.00091730975
6	6	0.001906879
7	7	0.0027057149
8	8	0.0041971
9	9	1.9739956e-05
10	10	1.4375997e-05
11	11	6.3310379e-05
12	12	8.4334238e-05
13	13	0.00013342743
14	14	0.00024421688
15	15	0.0003155225
16	16	6.4415175e-06
17	17	5.2328341e-06
18	18	1.6008508e-05
19	19	1.3009899e-05
20	20	1.9295528e-05
21	21	9.0724533e-07
22	22	1.5482826e-07
23	23	3.6372428e-07
