0	0	0.88924246
1	1	0.018551506
2	2	0.033225004
3	3	0.048227163
4	4	0.00072044586
5	5	0.00091789381
6	6	0.0019080932
7	7	0.0027074376
8	8	0.0041997723
9	9	1.9752524e-05
10	10	1.0920679e-05
11	11	3.4389622e-05
12	12	5.3617939e-06
13	13	5.1516818e-06
14	14	8.9845777e-05
15	15	0.00012078964
16	16	1.7702855e-06
17	17	1.2004339e-06
18	18	4.4716874e-06
19	19	2.3426889e-06
20	20	3.7892467e-06
21	21	2.9187735e-07
22	22	3.9879274e-08
23	23	1.0976304e-07
