0	0	0.88928396
1	1	0.018552372
2	2	0.033226555
3	3	0.048229414
4	4	0.00072047949
5	5	0.00091793666
6	6	0.0019081822
7	7	0.002707564
8	8	0.0041999683
9	9	1.9753446e-05
10	10	1.0921189e-05
11	11	3.4391227e-05
12	12	5.3620442e-06
13	13	5.1519222e-06
14	14	7.0652157e-05
15	15	9.6027604e-05
16	16	1.4696859e-06
17	17	1.0090334e-06
18	18	3.7644079e-06
19	19	1.7758483e-06
20	20	2.9103602e-06
21	21	2.5006928e-07
22	22	3.3878971e-08
23	23	9.3461343e-08
