0	0	0.88943001
1	1	0.018555418
2	2	0.033232011
3	3	0.048237335
4	4	0.00072059781
5	5	0.0009180874
6	6	0.0019084956
7	7	0.0027080086
8	8	0.0042006581
9	9	1.975669e-05
10	10	1.0922982e-05
11	11	3.4396875e-05
12	12	5.3629248e-06
13	13	5.1527683e-06
14	14	3.9476656e-06
15	15	6.3928666e-06
16	16	4.3308974e-07
17	17	5.5234924e-07
18	18	1.3427707e-06
19	19	3.9064373e-07
20	20	5.7770681e-07
21	21	1.0033545e-07
22	22	1.5639776e-08
23	23	3.7176017e-08
