0	0	0.8893871
1	1	0.018554523
2	2	0.033230408
3	3	0.048235008
4	4	0.00072056305
5	5	0.00091804312
6	6	0.0019084035
7	7	0.002707878
8	8	0.0042004554
9	9	1.9755737e-05
10	10	1.0922455e-05
11	11	3.4395216e-05
12	12	5.3626661e-06
13	13	5.1525197e-06
14	14	2.2918506e-05
15	15	3.3269024e-05
16	16	7.864753e-07
17	17	6.5567803e-07
18	18	2.2395713e-06
19	19	7.1052257e-07
20	20	1.2136964e-06
21	21	1.5493222e-07
22	22	2.1424346e-08
23	23	5.736011e-08
