0	0	0.88943933
1	1	0.018555613
2	2	0.03323236
3	3	0.048237841
4	4	0.00072060537
5	5	0.00091809703
6	6	0.0019085156
7	7	0.002708037
8	8	0.0042007021
9	9	1.9756897e-05
10	10	1.0923097e-05
11	11	3.4397236e-05
12	12	5.362981e-06
13	13	5.1528223e-06
14	14	2.0867391e-07
15	15	4.0922334e-07
16	16	1.3864724e-07
17	17	6.099903e-07
18	18	7.2365809e-07
19	19	5.3926738e-07
20	20	5.9845505e-07
21	21	4.6075187e-08
22	22	1.117213e-08
23	23	1.8064992e-08
