0	0	0.88935471
1	1	0.018553848
2	2	0.033229198
3	3	0.048233251
4	4	0.00072053681
5	5	0.00091800968
6	6	0.001908334
7	7	0.0027077794
8	8	0.0042003025
9	9	1.9755018e-05
10	10	1.0922058e-05
11	11	3.4393963e-05
12	12	5.3624707e-06
13	13	5.1523321e-06
14	14	3.7839783e-05
15	15	5.316408e-05
16	16	9.9815049e-07
17	17	7.5078427e-07
18	18	2.7245957e-06
19	19	1.0175718e-06
20	20	1.672648e-06
21	21	1.8489613e-07
22	22	2.5134011e-08
23	23	6.8403064e-08
