0	0	0.88923843
1	1	0.018551422
2	2	0.033224854
3	3	0.048226945
4	4	0.00072044261
5	5	0.00091788966
6	6	0.0019080845
7	7	0.0027074254
8	8	0.0041997533
9	9	1.9752435e-05
10	10	1.092063e-05
11	11	3.4389466e-05
12	12	5.3617696e-06
13	13	5.1516584e-06
14	14	9.1693741e-05
15	15	0.00012318
16	16	1.8010301e-06
17	17	1.2201907e-06
18	18	4.5478113e-06
19	19	2.4011694e-06
20	20	3.8830204e-06
21	21	2.9599066e-07
22	22	4.0539986e-08
23	23	1.1147363e-07
