0	0	0.88936014
1	1	0.018553961
2	2	0.033229401
3	3	0.048233546
4	4	0.00072054121
5	5	0.00091801529
6	6	0.0019083457
7	7	0.0027077959
8	8	0.0042003281
9	9	1.9755138e-05
10	10	1.0922124e-05
11	11	3.4394173e-05
12	12	5.3625035e-06
13	13	5.1523636e-06
14	14	3.5318497e-05
15	15	4.9840689e-05
16	16	9.6320773e-07
17	17	7.3378422e-07
18	18	2.6465552e-06
19	19	9.6393294e-07
20	20	1.5985296e-06
21	21	1.8007147e-07
22	22	2.4499304e-08
23	23	6.636064e-08
