0	0	0.88943719
1	1	0.018555568
2	2	0.03323228
3	3	0.048237724
4	4	0.00072060363
5	5	0.00091809482
6	6	0.001908511
7	7	0.0027080305
8	8	0.004200692
9	9	1.975685e-05
10	10	1.092307e-05
11	11	3.4397152e-05
12	12	5.362968e-06
13	13	5.1528099e-06
14	14	1.0916375e-06
15	15	1.7788715e-06
16	16	2.9208804e-07
17	17	5.4840847e-07
18	18	1.0437724e-06
19	19	3.6906358e-07
20	20	4.7408075e-07
21	21	7.7078544e-08
22	22	1.3546603e-08
23	23	2.8554773e-08
