0	0	0.88918708
1	1	0.018550351
2	2	0.033222935
3	3	0.04822416
4	4	0.000720401
5	5	0.00091783666
6	6	0.0019079743
7	7	0.002707269
8	8	0.0041995108
9	9	1.9751294e-05
10	10	1.0919999e-05
11	11	3.438748e-05
12	12	5.9290288e-06
13	13	1.4084771e-05
14	14	0.00011143332
15	15	0.00014844948
16	16	2.140245e-06
17	17	1.4602906e-06
18	18	5.3741804e-06
19	19	3.0951996e-06
20	20	4.934033e-06
21	21	3.4064231e-07
22	22	4.7727392e-08
23	23	1.3004437e-07
