0	0	0.88858343
1	1	0.018537757
2	2	0.03320038
3	3	0.048191422
4	4	0.00071991193
5	5	0.00091721355
6	6	0.001906679
7	7	0.0027054311
8	8	0.0041966598
9	9	2.1046352e-05
10	10	1.8199816e-05
11	11	7.534032e-05
12	12	0.00010385879
13	13	0.00016187722
14	14	0.00025748116
15	15	0.00033208795
16	16	7.3935123e-06
17	17	6.2000443e-06
18	18	1.8382026e-05
19	19	1.5222188e-05
20	20	2.2403434e-05
21	21	1.0300255e-06
22	22	1.8139796e-07
23	23	4.1479256e-07
