0	0	0.88943888
1	1	0.018555604
2	2	0.033232343
3	3	0.048237817
4	4	0.00072060501
5	5	0.00091809657
6	6	0.0019085146
7	7	0.0027080357
8	8	0.0042007
9	9	1.9756887e-05
10	10	1.0923091e-05
11	11	3.4397218e-05
12	12	5.3629783e-06
13	13	5.1528197e-06
14	14	5.0594797e-07
15	15	6.845394e-07
16	16	1.7456962e-07
17	17	5.796536e-07
18	18	8.0799915e-07
19	19	4.4990656e-07
20	20	5.1630098e-07
21	21	5.6020201e-08
22	22	1.1836409e-08
23	23	2.1162986e-08
