0	0	0.88942208
1	1	0.018555253
2	2	0.033231715
3	3	0.048236905
4	4	0.00072059139
5	5	0.00091807923
6	6	0.0019084786
7	7	0.0027079845
8	8	0.0042006206
9	9	1.9756514e-05
10	10	1.0922885e-05
11	11	3.4396568e-05
12	12	5.362877e-06
13	13	5.1527224e-06
14	14	7.3130797e-06
15	15	1.1450367e-05
16	16	5.1536126e-07
17	17	5.6763333e-07
18	18	1.5433398e-06
19	19	4.4225736e-07
20	20	6.9286106e-07
21	21	1.1427981e-07
22	22	1.7023121e-08
23	23	4.2654886e-08
