0	0	0.88910434
1	1	0.018548624
2	2	0.033219843
3	3	0.048219673
4	4	0.00072033396
5	5	0.00091775124
6	6	0.0019077968
7	7	0.0027070171
8	8	0.00419912
9	9	1.9749456e-05
10	10	1.0918983e-05
11	11	3.438428e-05
12	12	1.4908326e-05
13	13	2.6571616e-05
14	14	0.00014042523
15	15	0.00018537193
16	16	2.7158491e-06
17	17	1.9215216e-06
18	18	6.7742382e-06
19	19	4.3338548e-06
20	20	6.7876216e-06
21	21	4.179593e-07
22	22	6.1681953e-08
23	23	1.6092606e-07
