0	0	0.88912342
1	1	0.018549022
2	2	0.033220556
3	3	0.048220707
4	4	0.00072034942
5	5	0.00091777094
6	6	0.0019078377
7	7	0.0027070752
8	8	0.0041992101
9	9	1.974988e-05
10	10	1.0919217e-05
11	11	3.4385018e-05
12	12	1.2962163e-05
13	13	2.3439528e-05
14	14	0.00013381785
15	15	0.00017701283
16	16	2.5749785e-06
17	17	1.7998233e-06
18	18	6.4351971e-06
19	19	4.0192915e-06
20	20	6.3268638e-06
21	21	3.9933406e-07
22	22	5.8282899e-08
23	23	1.531199e-07
