0	0	0.88927343
1	1	0.018552152
2	2	0.033226161
3	3	0.048228843
4	4	0.00072047096
5	5	0.00091792579
6	6	0.0019081596
7	7	0.0027075319
8	8	0.0041999186
9	9	1.9753212e-05
10	10	1.0921059e-05
11	11	3.439082e-05
12	12	5.3619807e-06
13	13	5.1518612e-06
14	14	7.5537144e-05
15	15	0.00010232572
16	16	1.5434409e-06
17	17	1.053599e-06
18	18	3.9402111e-06
19	19	1.91165e-06
20	20	3.119276e-06
21	21	2.6054393e-07
22	22	3.5347975e-08
23	23	9.7133816e-08
