0	0	0.88932371
1	1	0.018553201
2	2	0.03322804
3	3	0.04823157
4	4	0.0007205117
5	5	0.00091797769
6	6	0.0019082675
7	7	0.002707685
8	8	0.0042001561
9	9	1.9754329e-05
10	10	1.0921677e-05
11	11	3.4392764e-05
12	12	5.3622838e-06
13	13	5.1521525e-06
14	14	5.2197833e-05
15	15	7.2072617e-05
16	16	1.2017259e-06
17	17	8.5488914e-07
18	18	3.1535892e-06
19	19	1.3143772e-06
20	20	2.1784701e-06
21	21	2.1362959e-07
22	22	2.8816477e-08
23	23	7.9629176e-08
