0	0	0.88937857
1	1	0.018554345
2	2	0.033230089
3	3	0.048234545
4	4	0.00072055614
5	5	0.00091803431
6	6	0.0019083852
7	7	0.002707852
8	8	0.0042004151
9	9	1.9755548e-05
10	10	1.0922351e-05
11	11	3.4394885e-05
12	12	5.3626146e-06
13	13	5.1524703e-06
14	14	2.6831309e-05
15	15	3.8529165e-05
16	16	8.4336775e-07
17	17	6.7893531e-07
18	18	2.3733764e-06
19	19	7.8190997e-07
20	20	1.3402168e-06
21	21	1.6319745e-07
22	22	2.2421868e-08
23	23	6.0186243e-08
