0	0	0.88943903
1	1	0.018555607
2	2	0.033232349
3	3	0.048237825
4	4	0.00072060513
5	5	0.00091809672
6	6	0.001908515
7	7	0.0027080361
8	8	0.0042007007
9	9	1.9756891e-05
10	10	1.0923093e-05
11	11	3.4397224e-05
12	12	5.3629792e-06
13	13	5.1528206e-06
14	14	2.0867384e-07
15	15	2.569525e-07
16	16	1.3864719e-07
17	17	6.9241619e-07
18	18	6.4480717e-07
19	19	7.6893021e-07
20	20	8.7594226e-07
21	21	3.0404318e-08
22	22	1.0225193e-08
23	23	1.3214308e-08
