0	0	0.88855469
1	1	0.018537157
2	2	0.033199307
3	3	0.048189863
4	4	0.00071988865
5	5	0.00091718389
6	6	0.0019066174
7	7	0.0027053436
8	8	0.0041965241
9	9	2.2331928e-05
10	10	1.9563947e-05
11	11	7.9207808e-05
12	12	0.00011003817
13	13	0.00017082319
14	14	0.00026108142
15	15	0.00033605423
16	16	7.7020997e-06
17	17	6.5059406e-06
18	18	1.9141233e-05
19	19	1.5916431e-05
20	20	2.3370928e-05
21	21	1.068165e-06
22	22	1.8963649e-07
23	23	4.3149475e-07
