0	0	0.88943641
1	1	0.018555552
2	2	0.033232251
3	3	0.048237682
4	4	0.000720603
5	5	0.00091809401
6	6	0.0019085093
7	7	0.0027080281
8	8	0.0042006883
9	9	1.9756832e-05
10	10	1.0923061e-05
11	11	3.4397122e-05
12	12	5.3629634e-06
13	13	5.1528054e-06
14	14	1.3746154e-06
15	15	2.2841248e-06
16	16	3.1734669e-07
17	17	5.468672e-07
18	18	1.0940342e-06
19	19	3.6597165e-07
20	20	4.8318757e-07
21	21	8.1271606e-08
22	22	1.3894707e-08
23	23	2.9950122e-08
