0	0	0.88877889
1	1	0.018541835
2	2	0.033207683
3	3	0.048202022
4	4	0.00072007029
5	5	0.00091741531
6	6	0.0019070985
7	7	0.0027060262
8	8	0.0041975829
9	9	1.9742227e-05
10	10	1.0914986e-05
11	11	5.1108285e-05
12	12	6.4260865e-05
13	13	0.00010378371
14	14	0.0002266488
15	15	0.00029368335
16	16	5.4554241e-06
17	17	4.2796943e-06
18	18	1.3559067e-05
19	19	1.0702103e-05
20	20	1.6026992e-05
21	21	7.7671575e-07
22	22	1.2941026e-07
23	23	3.0924601e-07
