0	0	0.88936968
1	1	0.01855416
2	2	0.033229757
3	3	0.048234063
4	4	0.00072054894
5	5	0.00091802514
6	6	0.0019083661
7	7	0.002707825
8	8	0.0042003732
9	9	1.975535e-05
10	10	1.0922241e-05
11	11	3.4394542e-05
12	12	5.362561e-06
13	13	5.1524188e-06
14	14	3.0918712e-05
15	15	4.3988794e-05
16	16	9.0206556e-07
17	17	7.0529194e-07
18	18	2.5071859e-06
19	19	8.6814087e-07
20	20	1.4667421e-06
21	21	1.71463e-07
22	22	2.3422422e-08
23	23	6.3029662e-08
