0	0	0.88856834
1	1	0.018537442
2	2	0.033199817
3	3	0.048190603
4	4	0.00071989971
5	5	0.00091719797
6	6	0.0019066467
7	7	0.0027053851
8	8	0.0041965885
9	9	2.1719756e-05
10	10	1.8914336e-05
11	11	7.7355014e-05
12	12	0.00010709575
13	13	0.00016654659
14	14	0.00025941771
15	15	0.00033418428
16	16	7.5551757e-06
17	17	6.3602789e-06
18	18	1.877971e-05
19	19	1.5585848e-05
20	20	2.2910207e-05
21	21	1.0499997e-06
22	22	1.8571356e-07
23	23	4.2353677e-07
