0	0	0.88941555
1	1	0.018555117
2	2	0.033231471
3	3	0.048236551
4	4	0.0007205861
5	5	0.00091807248
6	6	0.0019084646
7	7	0.0027079646
8	8	0.0042005898
9	9	1.9756369e-05
10	10	1.0922805e-05
11	11	3.4396316e-05
12	12	5.3628376e-06
13	13	5.1526845e-06
14	14	1.016838e-05
15	15	1.5547119e-05
16	16	5.7538007e-07
17	17	5.8235562e-07
18	18	1.7072216e-06
19	19	4.8902225e-07
20	20	7.8497439e-07
21	21	1.2354544e-07
22	22	1.7967966e-08
23	23	4.6116267e-08
