0	0	0.88942821
1	1	0.018555381
2	2	0.033231944
3	3	0.048237238
4	4	0.00072059636
5	5	0.00091808555
6	6	0.0019084917
7	7	0.0027080032
8	8	0.0042006496
9	9	1.975665e-05
10	10	1.092296e-05
11	11	3.4396805e-05
12	12	5.3629139e-06
13	13	5.1527579e-06
14	14	4.6957259e-06
15	15	7.5451023e-06
16	16	4.5436469e-07
17	17	5.5550004e-07
18	18	1.3941503e-06
19	19	4.0150387e-07
20	20	6.0440899e-07
21	21	1.0403029e-07
22	22	1.5983838e-08
23	23	3.8632266e-08
