0	0	0.88913848
1	1	0.018549337
2	2	0.033221119
3	3	0.048221524
4	4	0.00072036162
5	5	0.00091778648
6	6	0.00190787
7	7	0.002707121
8	8	0.0041992812
9	9	1.9750215e-05
10	10	1.0919402e-05
11	11	3.4385601e-05
12	12	1.1528951e-05
13	13	2.1045405e-05
14	14	0.00012853373
15	15	0.00017026716
16	16	2.4659166e-06
17	17	1.7048559e-06
18	18	6.170424e-06
19	19	3.7875869e-06
20	20	5.9754889e-06
21	21	3.8478875e-07
22	22	5.5628127e-08
23	23	1.4715903e-07
