0	0	0.88920913
1	1	0.01855081
2	2	0.033223759
3	3	0.048225356
4	4	0.00072041886
5	5	0.00091785941
6	6	0.0019080216
7	7	0.0027073361
8	8	0.0041996149
9	9	1.9751784e-05
10	10	1.092027e-05
11	11	3.4388333e-05
12	12	5.3615929e-06
13	13	9.9922984e-06
14	14	0.00010321238
15	15	0.00013793436
16	16	1.9942674e-06
17	17	1.3561779e-06
18	18	5.0262479e-06
19	19	2.7942132e-06
20	20	4.4763942e-06
21	21	3.2184177e-07
22	22	4.4701138e-08
23	23	1.2222537e-07
