0	0	0.88943914
1	1	0.018555609
2	2	0.033232352
3	3	0.04823783
4	4	0.00072060521
5	5	0.00091809683
6	6	0.0019085152
7	7	0.0027080364
8	8	0.0042007012
9	9	1.9756893e-05
10	10	1.0923094e-05
11	11	3.4397228e-05
12	12	5.3629798e-06
13	13	5.1528212e-06
14	14	3.137985e-07
15	15	5.6831275e-07
16	16	1.4464396e-07
17	17	5.9840357e-07
18	18	7.4872983e-07
19	19	5.0466798e-07
20	20	5.6586254e-07
21	21	4.9326541e-08
22	22	1.1382337e-08
23	23	1.905704e-08
