0	0	0.88943898
1	1	0.018555606
2	2	0.033232347
3	3	0.048237822
4	4	0.00072060508
5	5	0.00091809667
6	6	0.0019085148
7	7	0.002708036
8	8	0.0042007004
9	9	1.9756889e-05
10	10	1.0923092e-05
11	11	3.4397222e-05
12	12	5.3629789e-06
13	13	5.1528203e-06
14	14	2.0867383e-07
15	15	2.5695249e-07
16	16	1.3864718e-07
17	17	4.3972075e-07
18	18	6.4727959e-07
19	19	9.1056002e-07
20	20	1.0536558e-06
21	21	2.4229211e-08
22	22	9.9185694e-09
23	23	1.14706e-08
