0	0	0.88943777
1	1	0.018555581
2	2	0.033232302
3	3	0.048237756
4	4	0.00072060411
5	5	0.00091809542
6	6	0.0019085123
7	7	0.0027080323
8	8	0.0042006948
9	9	1.9756863e-05
10	10	1.0923078e-05
11	11	3.4397175e-05
12	12	5.3629716e-06
13	13	5.1528133e-06
14	14	8.8018357e-07
15	15	1.3991464e-06
16	16	2.7006379e-07
17	17	5.5093119e-07
18	18	9.9695447e-07
19	19	3.755121e-07
20	20	4.698646e-07
21	21	7.292173e-08
22	22	1.3208419e-08
23	23	2.7166342e-08
