0	0	0.88921329
1	1	0.018550897
2	2	0.033223914
3	3	0.048225581
4	4	0.00072042223
5	5	0.0009178637
6	6	0.0019080306
7	7	0.0027073488
8	8	0.0041996345
9	9	1.9751876e-05
10	10	1.0920321e-05
11	11	3.4388494e-05
12	12	5.361618e-06
13	13	9.1210982e-06
14	14	0.00010164973
15	15	0.00013594493
16	16	1.967919e-06
17	17	1.3366549e-06
18	18	4.9610095e-06
19	19	2.7398022e-06
20	20	4.3938219e-06
21	21	3.1831658e-07
22	22	4.4133724e-08
23	23	1.2075933e-07
