0	0	0.88929721
1	1	0.018552648
2	2	0.03322705
3	3	0.048230133
4	4	0.00072049022
5	5	0.00091795033
6	6	0.0019082106
7	7	0.0027076043
8	8	0.0042000309
9	9	1.975374e-05
10	10	1.0921351e-05
11	11	3.4391739e-05
12	12	5.362124e-06
13	13	5.151999e-06
14	14	6.4506076e-05
15	15	8.8079907e-05
16	16	1.3786057e-06
17	17	9.5446644e-07
18	18	3.5446441e-06
19	19	1.6147193e-06
20	20	2.6559392e-06
21	21	2.3744124e-07
22	22	3.2110983e-08
23	23	8.8870703e-08
