0	0	0.88853974
1	1	0.018536846
2	2	0.033198748
3	3	0.048189052
4	4	0.00071987654
5	5	0.00091716846
6	6	0.0019065853
7	7	0.0027052981
8	8	0.0041964535
9	9	2.3005305e-05
10	10	2.0278495e-05
11	11	8.1284236e-05
12	12	0.00011327451
13	13	0.00017553937
14	14	0.00026280249
15	15	0.00033809283
16	16	7.8637329e-06
17	17	6.6661639e-06
18	18	1.9538901e-05
19	19	1.628036e-05
20	20	2.3878646e-05
21	21	1.0896652e-06
22	22	1.9413486e-07
23	23	4.4027548e-07
