0	0	0.88860468
1	1	0.0185382
2	2	0.033201174
3	3	0.048192574
4	4	0.00071992915
5	5	0.00091723548
6	6	0.0019067246
7	7	0.0027054958
8	8	0.0041967601
9	9	2.0120085e-05
10	10	1.7256583e-05
11	11	7.2641061e-05
12	12	9.9458388e-05
13	13	0.00015545407
14	14	0.00025477129
15	15	0.00032852993
16	16	7.1733129e-06
17	17	5.9796453e-06
18	18	1.7835965e-05
19	19	1.4722323e-05
20	20	2.1706367e-05
21	21	1.0025951e-06
22	22	1.7546159e-07
23	23	4.0333677e-07
