0	0	0.88935353
1	1	0.018553823
2	2	0.033229154
3	3	0.048233188
4	4	0.00072053586
5	5	0.00091800847
6	6	0.0019083315
7	7	0.0027077758
8	8	0.0042002969
9	9	1.9754991e-05
10	10	1.0922043e-05
11	11	3.4393917e-05
12	12	5.3624637e-06
13	13	5.1523253e-06
14	14	3.8382155e-05
15	15	5.3886798e-05
16	16	1.0056584e-06
17	17	7.5450408e-07
18	18	2.7413185e-06
19	19	1.0290649e-06
20	20	1.6885568e-06
21	21	1.8600803e-07
22	22	2.5273176e-08
23	23	6.8840799e-08
