0	0	0.88866046
1	1	0.018539364
2	2	0.033203258
3	3	0.048195599
4	4	0.00071997434
5	5	0.00091729306
6	6	0.0019068443
7	7	0.0027056656
8	8	0.0041970236
9	9	1.9739596e-05
10	10	1.4996309e-05
11	11	6.5336246e-05
12	12	8.7650077e-05
13	13	0.00013825408
14	14	0.00024670464
15	15	0.0003187706
16	16	6.6018683e-06
17	17	5.3898564e-06
18	18	1.6406329e-05
19	19	1.3385524e-05
20	20	1.982502e-05
21	21	9.2825313e-07
22	22	1.5937461e-07
23	23	3.7245297e-07
