0	0	0.88917482
1	1	0.018550095
2	2	0.033222477
3	3	0.048223495
4	4	0.00072039107
5	5	0.000917824
6	6	0.001907948
7	7	0.0027072317
8	8	0.0041994528
9	9	1.9751022e-05
10	10	1.0919848e-05
11	11	3.4387006e-05
12	12	7.6237649e-06
13	13	1.5893909e-05
14	14	0.00011563313
15	15	0.0001538053
16	16	2.217855e-06
17	17	1.5142527e-06
18	18	5.5545147e-06
19	19	3.2556595e-06
20	20	5.1775603e-06
21	21	3.5082552e-07
22	22	4.945939e-08
23	23	1.3409684e-07
