0	0	0.88943875
1	1	0.018555601
2	2	0.033232338
3	3	0.048237809
4	4	0.0007206049
5	5	0.00091809643
6	6	0.0019085144
7	7	0.0027080352
8	8	0.0042006994
9	9	1.9756884e-05
10	10	1.092309e-05
11	11	3.4397213e-05
12	12	5.3629775e-06
13	13	5.1528189e-06
14	14	5.5481944e-07
15	15	7.7130308e-07
16	16	2.0082422e-07
17	17	5.6862484e-07
18	18	8.5643575e-07
19	19	4.2073322e-07
20	20	4.917067e-07
21	21	6.0835111e-08
22	22	1.2194173e-08
23	23	2.2765322e-08
