0	0	0.88943501
1	1	0.018555523
2	2	0.033232198
3	3	0.048237607
4	4	0.00072060187
5	5	0.00091809258
6	6	0.0019085063
7	7	0.0027080239
8	8	0.0042006817
9	9	1.9756801e-05
10	10	1.0923044e-05
11	11	3.4397069e-05
12	12	5.362955e-06
13	13	5.1527973e-06
14	14	1.908086e-06
15	15	3.1835247e-06
16	16	3.5267784e-07
17	17	5.4640239e-07
18	18	1.1648403e-06
19	19	3.6717695e-07
20	20	5.0240785e-07
21	21	8.6926532e-08
22	22	1.4399257e-08
23	23	3.1832317e-08
