0	0	0.88943302
1	1	0.018555481
2	2	0.033232124
3	3	0.048237499
4	4	0.00072060026
5	5	0.00091809052
6	6	0.0019085021
7	7	0.0027080178
8	8	0.0042006723
9	9	1.9756757e-05
10	10	1.0923019e-05
11	11	3.4396991e-05
12	12	5.3629429e-06
13	13	5.1527858e-06
14	14	2.723457e-06
15	15	4.4485648e-06
16	16	3.8923058e-07
17	17	5.4802456e-07
18	18	1.2431693e-06
19	19	3.743242e-07
20	20	5.3164434e-07
21	21	9.2833341e-08
22	22	1.4937485e-08
23	23	3.4174471e-08
