0	0	0.88880478
1	1	0.018542375
2	2	0.033208651
3	3	0.048203427
4	4	0.00072009127
5	5	0.00091744204
6	6	0.001907154
7	7	0.002706105
8	8	0.0041977052
9	9	1.9742802e-05
10	10	1.0915304e-05
11	11	4.8164576e-05
12	12	5.9388314e-05
13	13	9.648754e-05
14	14	0.00022145198
15	15	0.00028736493
16	16	5.2173551e-06
17	17	4.0569318e-06
18	18	1.2965558e-05
19	19	1.0134329e-05
20	20	1.5210828e-05
21	21	7.4602788e-07
22	22	1.2329227e-07
23	23	2.9631701e-07
