0	0	0.88935588
1	1	0.018553872
2	2	0.033229242
3	3	0.048233315
4	4	0.00072053776
5	5	0.00091801089
6	6	0.0019083365
7	7	0.0027077829
8	8	0.004200308
9	9	1.9755044e-05
10	10	1.0922072e-05
11	11	3.4394008e-05
12	12	5.3624778e-06
13	13	5.1523388e-06
14	14	3.7297409e-05
15	15	5.2449894e-05
16	16	9.9064253e-07
17	17	7.470865e-07
18	18	2.7078728e-06
19	19	1.0060787e-06
20	20	1.6567392e-06
21	21	1.8385927e-07
22	22	2.4994845e-08
23	23	6.7965328e-08
