0	0	0.88914
1	1	0.018549368
2	2	0.033221176
3	3	0.048221607
4	4	0.00072036285
5	5	0.00091778805
6	6	0.0019078733
7	7	0.0027071257
8	8	0.0041992884
9	9	1.9750248e-05
10	10	1.0919421e-05
11	11	3.4385659e-05
12	12	1.1383243e-05
13	13	2.0805986e-05
14	14	0.0001279967
15	15	0.00016958827
16	16	2.4552214e-06
17	17	1.6954127e-06
18	18	6.1439478e-06
19	19	3.7644829e-06
20	20	5.9413605e-06
21	21	3.8333424e-07
22	22	5.536266e-08
23	23	1.4657315e-07
