0	0	0.88854513
1	1	0.018536958
2	2	0.03319895
3	3	0.048189345
4	4	0.00071988091
5	5	0.00091717402
6	6	0.0019065969
7	7	0.0027053145
8	8	0.0041964789
9	9	2.2760442e-05
10	10	2.0018663e-05
11	11	8.0525596e-05
12	12	0.00011209767
13	13	0.0001738244
14	14	0.00026223229
15	15	0.00033735151
16	16	7.8049501e-06
17	17	6.607901e-06
18	18	1.9394292e-05
19	19	1.6147971e-05
20	20	2.3693611e-05
21	21	1.0818347e-06
22	22	1.9245039e-07
23	23	4.370825e-07
