0	0	0.88897612
1	1	0.018545949
2	2	0.033215053
3	3	0.048212719
4	4	0.00072023008
5	5	0.00091761889
6	6	0.0019075217
7	7	0.0027066267
8	8	0.0041985144
9	9	1.9746608e-05
10	10	1.0917408e-05
11	11	3.4379322e-05
12	12	3.0923684e-05
13	13	5.2969829e-05
14	14	0.00018075259
15	15	0.00023649351
16	16	3.7316477e-06
17	17	2.7568702e-06
18	18	9.2786114e-06
19	19	6.6494687e-06
20	20	1.0195446e-05
21	21	5.5240119e-07
22	22	8.5016558e-08
23	23	2.1622566e-07
