0	0	0.88877222
1	1	0.018541696
2	2	0.033207434
3	3	0.048201661
4	4	0.00072006489
5	5	0.00091740843
6	6	0.0019070842
7	7	0.0027060059
8	8	0.0041975515
9	9	1.9742079e-05
10	10	1.0914904e-05
11	11	5.1876187e-05
12	12	6.554072e-05
13	13	0.00010570043
14	14	0.00022793267
15	15	0.00029526567
16	16	5.5175291e-06
17	17	4.3425251e-06
18	18	1.3713883e-05
19	19	1.0853259e-05
20	20	1.6241278e-05
21	21	7.8477717e-07
22	22	1.3100618e-07
23	23	3.1283734e-07
