0	0	0.88929243
1	1	0.018552548
2	2	0.033226871
3	3	0.048229874
4	4	0.00072048635
5	5	0.0009179454
6	6	0.0019082004
7	7	0.0027075898
8	8	0.0042000083
9	9	1.9753634e-05
10	10	1.0921293e-05
11	11	3.4391554e-05
12	12	5.3620952e-06
13	13	5.1519713e-06
14	14	6.6721156e-05
15	15	9.0948959e-05
16	16	1.4112619e-06
17	17	9.7364122e-07
18	18	3.62376e-06
19	19	1.6716703e-06
20	20	2.7475285e-06
21	21	2.4180444e-07
22	22	3.2707663e-08
23	23	9.0523349e-08
