0	0	0.88909437
1	1	0.018548416
2	2	0.033219471
3	3	0.048219132
4	4	0.00072032589
5	5	0.00091774096
6	6	0.0019077754
7	7	0.0027069868
8	8	0.0041990729
9	9	1.9749235e-05
10	10	1.091886e-05
11	11	3.4383895e-05
12	12	1.5934032e-05
13	13	2.8308272e-05
14	14	0.00014379511
15	15	0.00018970007
16	16	2.789912e-06
17	17	1.9854946e-06
18	18	6.9532754e-06
19	19	4.4992364e-06
20	20	7.0297967e-06
21	21	4.2775089e-07
22	22	6.3469032e-08
23	23	1.6503003e-07
