0	0	0.88943906
1	1	0.018555607
2	2	0.033232349
3	3	0.048237826
4	4	0.00072060515
5	5	0.00091809675
6	6	0.001908515
7	7	0.0027080362
8	8	0.0042007008
9	9	1.9756891e-05
10	10	1.0923093e-05
11	11	3.4397225e-05
12	12	5.3629793e-06
13	13	5.1528207e-06
14	14	2.0867385e-07
15	15	2.5695251e-07
16	16	1.3864719e-07
17	17	6.9149937e-07
18	18	6.4534959e-07
19	19	7.5734761e-07
20	20	8.6148129e-07
21	21	3.0973288e-08
22	22	1.0256209e-08
23	23	1.3377387e-08
