0	0	0.8885738
1	1	0.018537556
2	2	0.033200021
3	3	0.0481909
4	4	0.00071990413
5	5	0.00091720361
6	6	0.0019066584
7	7	0.0027054018
8	8	0.0041966143
9	9	2.1474884e-05
10	10	1.8654511e-05
11	11	7.6613881e-05
12	12	0.00010591868
13	13	0.00016484865
14	14	0.00025873492
15	15	0.00033343528
16	16	7.496403e-06
17	17	6.3020122e-06
18	18	1.8635099e-05
19	19	1.5453613e-05
20	20	2.2725921e-05
21	21	1.0427334e-06
22	22	1.8414436e-07
23	23	4.2035708e-07
