0	0	0.88938894
1	1	0.018554562
2	2	0.033230477
3	3	0.048235108
4	4	0.00072056455
5	5	0.00091804502
6	6	0.0019084075
7	7	0.0027078836
8	8	0.0042004641
9	9	1.9755778e-05
10	10	1.0922478e-05
11	11	3.4395287e-05
12	12	5.3626772e-06
13	13	5.1525304e-06
14	14	2.20857e-05
15	15	3.2124126e-05
16	16	7.7417101e-07
17	17	6.5052491e-07
18	18	2.2097569e-06
19	19	6.9497049e-07
20	20	1.1855081e-06
21	21	1.5309036e-07
22	22	2.1219826e-08
23	23	5.6730377e-08
