0	0	0.88936169
1	1	0.018553993
2	2	0.033229459
3	3	0.04823363
4	4	0.00072054246
5	5	0.00091801688
6	6	0.001908349
7	7	0.0027078006
8	8	0.0042003354
9	9	1.9755173e-05
10	10	1.0922143e-05
11	11	3.4394233e-05
12	12	5.3625128e-06
13	13	5.1523725e-06
14	14	3.4609109e-05
15	15	4.8891881e-05
16	16	9.5342498e-07
17	17	7.2894698e-07
18	18	2.6242571e-06
19	19	9.4860588e-07
20	20	1.5774444e-06
21	21	1.7869408e-07
22	22	2.4322865e-08
23	23	6.5777156e-08
