0	0	0.88894956
1	1	0.018545395
2	2	0.03321406
3	3	0.048211279
4	4	0.00072020857
5	5	0.00091759148
6	6	0.0019074647
7	7	0.0027065458
8	8	0.004198389
9	9	1.9746018e-05
10	10	1.0917082e-05
11	11	3.4378295e-05
12	12	3.509355e-05
13	13	5.9420678e-05
14	14	0.00018832869
15	15	0.0002458014
16	16	3.9640771e-06
17	17	2.9362727e-06
18	18	9.8555971e-06
19	19	7.1878366e-06
20	20	1.0972587e-05
21	21	5.8223831e-07
22	22	9.038606e-08
23	23	2.2862426e-07
