0	0	0.88942273
1	1	0.018555267
2	2	0.03323174
3	3	0.048236941
4	4	0.00072059192
5	5	0.0009180799
6	6	0.00190848
7	7	0.0027079865
8	8	0.0042006237
9	9	1.9756529e-05
10	10	1.0922893e-05
11	11	3.4396594e-05
12	12	5.3628809e-06
13	13	5.1527261e-06
14	14	7.0410693e-06
15	15	1.1031934e-05
16	16	5.0932952e-07
17	17	5.6620534e-07
18	18	1.525624e-06
19	19	4.3767803e-07
20	20	6.8346712e-07
21	21	1.1329435e-07
22	22	1.6924812e-08
23	23	4.2280706e-08
