0	0	0.8886182
1	1	0.018538483
2	2	0.03320168
3	3	0.048193308
4	4	0.00071994011
5	5	0.00091724945
6	6	0.0019067537
7	7	0.002705537
8	8	0.004196824
9	9	1.9738658e-05
10	10	1.6680663e-05
11	11	7.0891909e-05
12	12	9.6619947e-05
13	13	0.00015129162
14	14	0.00025301523
15	15	0.00032622443
16	16	7.0348316e-06
17	17	5.8368278e-06
18	18	1.7483232e-05
19	19	1.4399303e-05
20	20	2.125464e-05
21	21	9.8481936e-07
22	22	1.7161473e-07
23	23	3.9595191e-07
