0	0	0.88932418
1	1	0.018553211
2	2	0.033228057
3	3	0.048231595
4	4	0.00072051207
5	5	0.00091797817
6	6	0.0019082685
7	7	0.0027076864
8	8	0.0042001582
9	9	1.9754339e-05
10	10	1.0921683e-05
11	11	3.4392782e-05
12	12	5.3622866e-06
13	13	5.1521552e-06
14	14	5.1981634e-05
15	15	7.179192e-05
16	16	1.1986296e-06
17	17	8.5327745e-07
18	18	3.1473351e-06
19	19	1.3092096e-06
20	20	2.1701977e-06
21	21	2.1320954e-07
22	22	2.8758313e-08
23	23	7.9465528e-08
