0	0	0.88940353
1	1	0.018554866
2	2	0.033231022
3	3	0.048235899
4	4	0.00072057636
5	5	0.00091806008
6	6	0.0019084388
7	7	0.002707928
8	8	0.004200533
9	9	1.9756102e-05
10	10	1.0922657e-05
11	11	3.4395851e-05
12	12	5.3627651e-06
13	13	5.1526149e-06
14	14	1.5500001e-05
15	15	2.3077031e-05
16	16	6.7165787e-07
17	17	6.1179889e-07
18	18	1.9563414e-06
19	19	5.7878088e-07
20	20	9.5318161e-07
21	21	1.3779199e-07
22	22	1.9511659e-08
23	23	5.1377705e-08
