0	0	0.88882422
1	1	0.01854278
2	2	0.033209377
3	3	0.048204481
4	4	0.00072010702
5	5	0.0009174621
6	6	0.0019071957
7	7	0.0027061642
8	8	0.004197797
9	9	1.9743234e-05
10	10	1.0915543e-05
11	11	4.5988693e-05
12	12	5.5852704e-05
13	13	9.1169556e-05
14	14	0.00021753048
15	15	0.00028228298
16	16	5.0413773e-06
17	17	3.8981426e-06
18	18	1.2526818e-05
19	19	9.7187236e-06
20	20	1.4618863e-05
21	21	7.2356445e-07
22	22	1.1876977e-07
23	23	2.8702485e-07
