0	0	0.88929349
1	1	0.018552571
2	2	0.033226911
3	3	0.048229931
4	4	0.00072048721
5	5	0.0009179465
6	6	0.0019082027
7	7	0.002707593
8	8	0.0042000133
9	9	1.9753658e-05
10	10	1.0921306e-05
11	11	3.4391596e-05
12	12	5.3621016e-06
13	13	5.1519774e-06
14	14	6.6229047e-05
15	15	9.0311395e-05
16	16	1.404e-06
17	17	9.6938018e-07
18	18	3.6061787e-06
19	19	1.6589639e-06
20	20	2.7271754e-06
21	21	2.4083485e-07
22	22	3.2575068e-08
23	23	9.0156096e-08
