0	0	0.88943924
1	1	0.018555611
2	2	0.033232357
3	3	0.048237836
4	4	0.0007206053
5	5	0.00091809694
6	6	0.0019085154
7	7	0.0027080368
8	8	0.0042007017
9	9	1.9756895e-05
10	10	1.0923096e-05
11	11	3.4397232e-05
12	12	5.3629805e-06
13	13	5.1528218e-06
14	14	2.0867389e-07
15	15	2.5695257e-07
16	16	1.3864722e-07
17	17	6.5939317e-07
18	18	6.6251135e-07
19	19	6.5868239e-07
20	20	7.558707e-07
21	21	3.652547e-08
22	22	1.0565966e-08
23	23	1.5031703e-08
