0	0	0.88938146
1	1	0.018554406
2	2	0.033230197
3	3	0.048234702
4	4	0.00072055848
5	5	0.00091803729
6	6	0.0019083914
7	7	0.0027078608
8	8	0.0042004288
9	9	1.9755612e-05
10	10	1.0922386e-05
11	11	3.4394997e-05
12	12	5.362632e-06
13	13	5.152487e-06
14	14	2.5497737e-05
15	15	3.6755377e-05
16	16	8.2381827e-07
17	17	6.7116997e-07
18	18	2.3287757e-06
19	19	7.5720105e-07
20	20	1.2980422e-06
21	21	1.6044259e-07
22	22	2.208877e-08
23	23	5.9244225e-08
