0	0	0.88936666
1	1	0.018554097
2	2	0.033229644
3	3	0.048233899
4	4	0.00072054649
5	5	0.00091802202
6	6	0.0019083597
7	7	0.0027078158
8	8	0.0042003589
9	9	1.9755283e-05
10	10	1.0922204e-05
11	11	3.4394425e-05
12	12	5.3625428e-06
13	13	5.1524013e-06
14	14	3.2303578e-05
15	15	4.5851809e-05
16	16	9.2163078e-07
17	17	7.1410891e-07
18	18	2.5517859e-06
19	19	8.9879344e-07
20	20	1.5089163e-06
21	21	1.742177e-07
22	22	2.3755942e-08
23	23	6.3988169e-08
