0	0	0.88940002
1	1	0.018554793
2	2	0.033230891
3	3	0.048235709
4	4	0.00072057352
5	5	0.00091805645
6	6	0.0019084312
7	7	0.0027079173
8	8	0.0042005164
9	9	1.9756024e-05
10	10	1.0922614e-05
11	11	3.4395715e-05
12	12	5.3627439e-06
13	13	5.1525945e-06
14	14	1.7071835e-05
15	15	2.5265726e-05
16	16	6.972623e-07
17	17	6.2121378e-07
18	18	2.0209413e-06
19	19	6.067367e-07
20	20	1.0091322e-06
21	21	1.4157001e-07
22	22	1.9944557e-08
23	23	5.2742283e-08
