0	0	0.88943873
1	1	0.0185556
2	2	0.033232337
3	3	0.048237808
4	4	0.00072060488
5	5	0.00091809641
6	6	0.0019085143
7	7	0.0027080352
8	8	0.0042006993
9	9	1.9756884e-05
10	10	1.0923089e-05
11	11	3.4397212e-05
12	12	5.3629774e-06
13	13	5.1528188e-06
14	14	5.6147898e-07
15	15	7.8319082e-07
16	16	2.0378719e-07
17	17	5.6756472e-07
18	18	8.6237402e-07
19	19	4.1795943e-07
20	20	4.8943078e-07
21	21	6.137006e-08
22	22	1.2236001e-08
23	23	2.2943342e-08
