0	0	0.88929668
1	1	0.018552637
2	2	0.03322703
3	3	0.048230104
4	4	0.00072048979
5	5	0.00091794978
6	6	0.0019082095
7	7	0.0027076027
8	8	0.0042000284
9	9	1.9753729e-05
10	10	1.0921345e-05
11	11	3.4391719e-05
12	12	5.3621208e-06
13	13	5.1519959e-06
14	14	6.4752574e-05
15	15	8.8398692e-05
16	16	1.382214e-06
17	17	9.5659698e-07
18	18	3.5534345e-06
19	19	1.6208445e-06
20	20	2.6661158e-06
21	21	2.3792605e-07
22	22	3.2177281e-08
23	23	8.9054332e-08
