0	0	0.88886874
1	1	0.018543709
2	2	0.03321104
3	3	0.048206895
4	4	0.00072014308
5	5	0.00091750805
6	6	0.0019072912
7	7	0.0027062998
8	8	0.0041980073
9	9	1.9744223e-05
10	10	1.0916089e-05
11	11	4.1099868e-05
12	12	4.8123555e-05
13	13	7.9499594e-05
14	14	0.00020777516
15	15	0.00027034402
16	16	4.6471156e-06
17	17	3.5428793e-06
18	18	1.1543925e-05
19	19	8.7915154e-06
20	20	1.3294036e-05
21	21	6.7323725e-07
22	22	1.0863745e-07
23	23	2.6623584e-07
