0	0	0.8894362
1	1	0.018555548
2	2	0.033232243
3	3	0.048237671
4	4	0.00072060283
5	5	0.0009180938
6	6	0.0019085089
7	7	0.0027080275
8	8	0.0042006873
9	9	1.9756828e-05
10	10	1.0923058e-05
11	11	3.4397114e-05
12	12	5.3629621e-06
13	13	5.1528042e-06
14	14	1.4510961e-06
15	15	2.4234262e-06
16	16	3.2343826e-07
17	17	5.4664312e-07
18	18	1.105733e-06
19	19	3.6589062e-07
20	20	4.8596123e-07
21	21	8.2246704e-08
22	22	1.3980369e-08
23	23	3.0274661e-08
