0	0	0.88901791
1	1	0.018546821
2	2	0.033216614
3	3	0.048214986
4	4	0.00072026395
5	5	0.00091766204
6	6	0.0019076113
7	7	0.002706754
8	8	0.0041987118
9	9	1.9747536e-05
10	10	1.0917921e-05
11	11	3.4380938e-05
12	12	2.4972372e-05
13	13	4.346299e-05
14	14	0.00016838684
15	15	0.00022082005
16	16	3.390487e-06
17	17	2.4817725e-06
18	18	8.4309413e-06
19	19	5.853958e-06
20	20	9.0336461e-06
21	21	5.0753346e-07
22	22	7.7331593e-08
23	23	1.9750841e-07
