0	0	0.88848447
1	1	0.018535693
2	2	0.033196683
3	3	0.048186055
4	4	0.00071983176
5	5	0.00091711141
6	6	0.0019064667
7	7	0.0027051298
8	8	0.0041961924
9	9	2.5514936e-05
10	10	2.294494e-05
11	11	8.9059276e-05
12	12	0.00012549975
13	13	0.00019320044
14	14	0.00026864564
15	15	0.00034545896
16	16	8.4662193e-06
17	17	7.2800105e-06
18	18	2.1021044e-05
19	19	1.7643848e-05
20	20	2.5776271e-05
21	21	1.1699271e-06
22	22	2.1165547e-07
23	23	4.7300183e-07
