0	0	0.88940788
1	1	0.018554957
2	2	0.033231185
3	3	0.048236135
4	4	0.00072057989
5	5	0.00091806457
6	6	0.0019084481
7	7	0.0027079413
8	8	0.0042005536
9	9	1.9756199e-05
10	10	1.0922711e-05
11	11	3.4396019e-05
12	12	5.3627913e-06
13	13	5.1526401e-06
14	14	1.3554125e-05
15	15	2.0360563e-05
16	16	6.3862777e-07
17	17	6.0120324e-07
18	18	1.8718579e-06
19	19	5.4553714e-07
20	20	8.9325667e-07
21	21	1.3296111e-07
22	22	1.8976093e-08
23	23	4.9593374e-08
