0	0	0.88888773
1	1	0.018544105
2	2	0.03321175
3	3	0.048207925
4	4	0.00072015847
5	5	0.00091752766
6	6	0.001907332
7	7	0.0027063576
8	8	0.004198097
9	9	1.9744645e-05
10	10	1.0916323e-05
11	11	3.90367e-05
12	12	4.4976909e-05
13	13	7.4682887e-05
14	14	0.00020358965
15	15	0.00026488129
16	16	4.4839411e-06
17	17	3.3932201e-06
18	18	1.114006e-05
19	19	8.4139448e-06
20	20	1.2745747e-05
21	21	6.5203596e-07
22	22	1.0436925e-07
23	23	2.5747812e-07
