0	0	0.88943912
1	1	0.018555609
2	2	0.033232352
3	3	0.048237829
4	4	0.0007206052
5	5	0.00091809681
6	6	0.0019085151
7	7	0.0027080364
8	8	0.0042007011
9	9	1.9756893e-05
10	10	1.0923094e-05
11	11	3.4397227e-05
12	12	5.3629797e-06
13	13	5.1528211e-06
14	14	2.0867386e-07
15	15	2.5695253e-07
16	16	1.386472e-07
17	17	6.8315937e-07
18	18	6.4936915e-07
19	19	7.2408133e-07
20	20	8.2578801e-07
21	21	3.2687272e-08
22	22	1.0349668e-08
23	23	1.3889009e-08
