0	0	0.88912716
1	1	0.0185491
2	2	0.033220696
3	3	0.048220911
4	4	0.00072035246
5	5	0.0009177748
6	6	0.0019078458
7	7	0.0027070866
8	8	0.0041992278
9	9	1.9749963e-05
10	10	1.0919263e-05
11	11	3.4385163e-05
12	12	1.2603864e-05
13	13	2.2841026e-05
14	14	0.00013250952
15	15	0.00017533782
16	16	2.5474723e-06
17	17	1.7760651e-06
18	18	6.3689963e-06
19	19	3.9611585e-06
20	20	6.2388633e-06
21	21	3.9569776e-07
22	22	5.7619201e-08
23	23	1.5159588e-07
