0	0	0.88898786
1	1	0.018546194
2	2	0.033215491
3	3	0.048213356
4	4	0.0007202396
5	5	0.00091763101
6	6	0.0019075469
7	7	0.0027066624
8	8	0.0041985699
9	9	1.9746869e-05
10	10	1.0917552e-05
11	11	3.4379776e-05
12	12	2.9189153e-05
13	13	5.0212946e-05
14	14	0.0001774304
15	15	0.00023211126
16	16	3.6324432e-06
17	17	2.6791326e-06
18	18	9.0317889e-06
19	19	6.422054e-06
20	20	9.8624067e-06
21	21	5.397218e-07
22	22	8.284488e-08
23	23	2.1093608e-07
