0	0	0.88943894
1	1	0.018555605
2	2	0.033232345
3	3	0.04823782
4	4	0.00072060505
5	5	0.00091809663
6	6	0.0019085148
7	7	0.0027080358
8	8	0.0042007003
9	9	1.9756889e-05
10	10	1.0923092e-05
11	11	3.439722e-05
12	12	5.3629786e-06
13	13	5.1528201e-06
14	14	4.7001347e-07
15	15	6.5309118e-07
16	16	1.6241632e-07
17	17	5.8626383e-07
18	18	7.8572618e-07
19	19	4.6691311e-07
20	20	5.3242891e-07
21	21	5.3612444e-08
22	22	1.1664876e-08
23	23	2.0369735e-08
