0	0	0.88943926
1	1	0.018555612
2	2	0.033232357
3	3	0.048237837
4	4	0.00072060531
5	5	0.00091809696
6	6	0.0019085154
7	7	0.0027080368
8	8	0.0042007018
9	9	1.9756896e-05
10	10	1.0923096e-05
11	11	3.4397233e-05
12	12	5.3629805e-06
13	13	5.1528219e-06
14	14	2.086739e-07
15	15	2.5695257e-07
16	16	1.3864722e-07
17	17	6.5622898e-07
18	18	6.647898e-07
19	19	6.5142798e-07
20	20	7.4654913e-07
21	21	3.7063019e-08
22	22	1.0596958e-08
23	23	1.5184072e-08
