0	0	0.88924303
1	1	0.018551518
2	2	0.033225025
3	3	0.048227195
4	4	0.00072044633
5	5	0.00091789441
6	6	0.0019080944
7	7	0.0027074394
8	8	0.004199775
9	9	1.9752537e-05
10	10	1.0920686e-05
11	11	3.4389644e-05
12	12	5.3617974e-06
13	13	5.1516851e-06
14	14	8.9581781e-05
15	15	0.00012044785
16	16	1.7658934e-06
17	17	1.1976115e-06
18	18	4.4608125e-06
19	19	2.3343345e-06
20	20	3.7758504e-06
21	21	2.9128974e-07
22	22	3.9784886e-08
23	23	1.0951867e-07
