0	0	0.88922633
1	1	0.018551169
2	2	0.033224401
3	3	0.048226289
4	4	0.0007204328
5	5	0.00091787717
6	6	0.0019080586
7	7	0.0027073885
8	8	0.0041996961
9	9	1.9752166e-05
10	10	1.0920481e-05
11	11	3.4388998e-05
12	12	5.3616967e-06
13	13	6.5621743e-06
14	14	9.6688003e-05
15	15	0.00012959881
16	16	1.884478e-06
17	17	1.2754209e-06
18	18	4.7544185e-06
19	19	2.5685278e-06
20	20	4.137517e-06
21	21	3.0715367e-07
22	22	4.2336882e-08
23	23	1.1611666e-07
