0	0	0.88942542
1	1	0.018555323
2	2	0.03323184
3	3	0.048237086
4	4	0.0007205941
5	5	0.00091808267
6	6	0.0019084858
7	7	0.0027079947
8	8	0.0042006364
9	9	1.9756588e-05
10	10	1.0922926e-05
11	11	3.4396698e-05
12	12	5.3628971e-06
13	13	5.1527417e-06
14	14	5.8760238e-06
15	15	9.3285966e-06
16	16	4.8306894e-07
17	17	5.6065e-07
18	18	1.4636356e-06
19	19	4.1958523e-07
20	20	6.4488477e-07
21	21	1.0901551e-07
22	22	1.6483448e-08
23	23	4.0596888e-08
