0	0	0.88943916
1	1	0.018555609
2	2	0.033232353
3	3	0.048237831
4	4	0.00072060523
5	5	0.00091809685
6	6	0.0019085152
7	7	0.0027080365
8	8	0.0042007013
9	9	1.9756893e-05
10	10	1.0923095e-05
11	11	3.4397229e-05
12	12	5.3629799e-06
13	13	5.1528213e-06
14	14	2.0867387e-07
15	15	2.5695254e-07
16	16	1.3864721e-07
17	17	6.7574823e-07
18	18	6.522523e-07
19	19	7.0354809e-07
20	20	8.0403637e-07
21	21	3.3819044e-08
22	22	1.0410563e-08
23	23	1.4244538e-08
