0	0	0.88943235
1	1	0.018555467
2	2	0.033232099
3	3	0.048237462
4	4	0.00072059971
5	5	0.00091808983
6	6	0.0019085006
7	7	0.0027080158
8	8	0.0042006691
9	9	1.9756742e-05
10	10	1.0923011e-05
11	11	3.4396966e-05
12	12	5.3629389e-06
13	13	5.1527819e-06
14	14	3.0053302e-06
15	15	4.8677951e-06
16	16	4.0019516e-07
17	17	5.488132e-07
18	18	1.2666678e-06
19	19	3.7758521e-07
20	20	5.4167244e-07
21	21	9.4651479e-08
22	22	1.5110603e-08
23	23	3.4924807e-08
