0	0	0.88938535
1	1	0.018554487
2	2	0.033230343
3	3	0.048234913
4	4	0.00072056164
5	5	0.00091804132
6	6	0.0019083998
7	7	0.0027078727
8	8	0.0042004472
9	9	1.9755698e-05
10	10	1.0922434e-05
11	11	3.4395148e-05
12	12	5.3626555e-06
13	13	5.1525096e-06
14	14	2.372452e-05
15	15	3.4339517e-05
16	16	7.9814505e-07
17	17	6.6049625e-07
18	18	2.2674481e-06
19	19	7.250834e-07
20	20	1.2400543e-06
21	21	1.5665437e-07
22	22	2.163198e-08
23	23	5.79489e-08
