0	0	0.88885195
1	1	0.018543359
2	2	0.033210413
3	3	0.048205985
4	4	0.00072012948
5	5	0.00091749072
6	6	0.0019072552
7	7	0.0027062486
8	8	0.004197928
9	9	1.974385e-05
10	10	1.0915883e-05
11	11	4.2933925e-05
12	12	5.0977018e-05
13	13	8.3827304e-05
14	14	0.00021149615
15	15	0.00027496121
16	16	4.7947491e-06
17	17	3.6759053e-06
18	18	1.1911933e-05
19	19	9.1369534e-06
20	20	1.3789162e-05
21	21	6.9208345e-07
22	22	1.1243144e-07
23	23	2.7401986e-07
