0	0	0.88934424
1	1	0.018553629
2	2	0.033228807
3	3	0.048232684
4	4	0.00072052833
5	5	0.00091799888
6	6	0.0019083116
7	7	0.0027077475
8	8	0.004200253
9	9	1.9754785e-05
10	10	1.0921929e-05
11	11	3.4393558e-05
12	12	5.3624076e-06
13	13	5.1522714e-06
14	14	4.2681418e-05
15	15	5.956406e-05
16	16	1.0671833e-06
17	17	7.8448666e-07
18	18	2.8721241e-06
19	19	1.1189594e-06
20	20	1.8354954e-06
21	21	1.9472653e-07
22	22	2.6361736e-08
23	23	7.2264022e-08
