0	0	0.88850056
1	1	0.018536028
2	2	0.033197284
3	3	0.048186928
4	4	0.0007198448
5	5	0.00091712802
6	6	0.0019065012
7	7	0.0027051788
8	8	0.0041962684
9	9	2.4780423e-05
10	10	2.2162148e-05
11	11	8.6783762e-05
12	12	0.00012189686
13	13	0.00018803126
14	14	0.0002669355
15	15	0.00034343151
16	16	8.2898884e-06
17	17	7.0956402e-06
18	18	2.0587273e-05
19	19	1.724405e-05
20	20	2.5220693e-05
21	21	1.1464367e-06
22	22	2.0648969e-07
23	23	4.6342373e-07
