0	0	0.88943287
1	1	0.018555478
2	2	0.033232118
3	3	0.04823749
4	4	0.00072060014
5	5	0.00091809036
6	6	0.0019085017
7	7	0.0027080174
8	8	0.0042006716
9	9	1.9756754e-05
10	10	1.0923017e-05
11	11	3.4396986e-05
12	12	5.362942e-06
13	13	5.1527849e-06
14	14	2.7856584e-06
15	15	4.5417271e-06
16	16	3.916673e-07
17	17	5.4817592e-07
18	18	1.2483912e-06
19	19	3.7504887e-07
20	20	5.3387281e-07
21	21	9.3237372e-08
22	22	1.4975955e-08
23	23	3.4341212e-08
