0	0	0.88894782
1	1	0.018545359
2	2	0.033213995
3	3	0.048211184
4	4	0.00072020715
5	5	0.00091758968
6	6	0.0019074609
7	7	0.0027065405
8	8	0.0041983808
9	9	1.9745979e-05
10	10	1.0917061e-05
11	11	3.4378227e-05
12	12	3.5376794e-05
13	13	5.9857438e-05
14	14	0.00018880253
15	15	0.00024641356
16	16	3.9796389e-06
17	17	2.9482327e-06
18	18	9.8940589e-06
19	19	7.2237225e-06
20	20	1.1024397e-05
21	21	5.8431448e-07
22	22	9.0762612e-08
23	23	2.2948673e-07
