0	0	0.88916682
1	1	0.018549928
2	2	0.033222178
3	3	0.048223061
4	4	0.00072038458
5	5	0.00091781574
6	6	0.0019079309
7	7	0.0027072073
8	8	0.0041994151
9	9	1.9750844e-05
10	10	1.091975e-05
11	11	3.4386697e-05
12	12	8.6390321e-06
13	13	1.698242e-05
14	14	0.00011843201
15	15	0.00015739104
16	16	2.2703605e-06
17	17	1.5507585e-06
18	18	5.6835015e-06
19	19	3.3645416e-06
20	20	5.3450686e-06
21	21	3.5787931e-07
22	22	5.0726228e-08
23	23	1.3683836e-07
