0	0	0.88906551
1	1	0.018547814
2	2	0.033218393
3	3	0.048217567
4	4	0.00072030251
5	5	0.00091771117
6	6	0.0019077135
7	7	0.0027068989
8	8	0.0041989366
9	9	1.9748594e-05
10	10	1.0918506e-05
11	11	3.4382779e-05
12	12	1.9012933e-05
13	13	3.3711636e-05
14	14	0.00015337027
15	15	0.00020185765
16	16	3.010796e-06
17	17	2.1720737e-06
18	18	7.4996522e-06
19	19	4.9923927e-06
20	20	7.7683658e-06
21	21	4.570335e-07
22	22	6.8680933e-08
23	23	1.7699892e-07
