0	0	0.8894051
1	1	0.018554899
2	2	0.033231081
3	3	0.048235984
4	4	0.00072057763
5	5	0.00091806169
6	6	0.0019084421
7	7	0.0027079328
8	8	0.0042005404
9	9	1.9756137e-05
10	10	1.0922676e-05
11	11	3.4395912e-05
12	12	5.3627746e-06
13	13	5.152624e-06
14	14	1.4786754e-05
15	15	2.2107937e-05
16	16	6.598498e-07
17	17	6.0805929e-07
18	18	1.9265237e-06
19	19	5.6704445e-07
20	20	9.3165581e-07
21	21	1.3608701e-07
22	22	1.9311857e-08
23	23	5.0747892e-08
