0	0	0.88935314
1	1	0.018553815
2	2	0.033229139
3	3	0.048233166
4	4	0.00072053554
5	5	0.00091800806
6	6	0.0019083307
7	7	0.0027077746
8	8	0.004200295
9	9	1.9754983e-05
10	10	1.0922038e-05
11	11	3.4393902e-05
12	12	5.3624613e-06
13	13	5.152323e-06
14	14	3.8562945e-05
15	15	5.4127704e-05
16	16	1.008161e-06
17	17	7.5574401e-07
18	18	2.7468927e-06
19	19	1.032896e-06
20	20	1.6938597e-06
21	21	1.8637866e-07
22	22	2.5319564e-08
23	23	6.898671e-08
