0	0	0.88871021
1	1	0.018540402
2	2	0.033205117
3	3	0.048198298
4	4	0.00072001465
5	5	0.00091734442
6	6	0.0019069511
7	7	0.0027058171
8	8	0.0041972586
9	9	1.9740702e-05
10	10	1.3087513e-05
11	11	5.9180428e-05
12	12	7.7528858e-05
13	13	0.00012345714
14	14	0.00023884112
15	15	0.00030875886
16	16	6.1084704e-06
17	17	4.9156443e-06
18	18	1.5182182e-05
19	19	1.2233738e-05
20	20	1.819781e-05
21	21	8.6360528e-07
22	22	1.456648e-07
23	23	3.4559487e-07
