0	0	0.88917564
1	1	0.018550112
2	2	0.033222508
3	3	0.04822354
4	4	0.00072039174
5	5	0.00091782485
6	6	0.0019079498
7	7	0.0027072342
8	8	0.0041994568
9	9	1.975104e-05
10	10	1.0919859e-05
11	11	3.4387038e-05
12	12	7.507846e-06
13	13	1.5771527e-05
14	14	0.00011535325
15	15	0.00015344382
16	16	2.2126045e-06
17	17	1.5106021e-06
18	18	5.5423156e-06
19	19	3.2448047e-06
20	20	5.1608442e-06
21	21	3.5012746e-07
22	22	4.9332707e-08
23	23	1.3382269e-07
