0	0	0.88880135
1	1	0.018542303
2	2	0.033208523
3	3	0.048203241
4	4	0.00072008849
5	5	0.0009174385
6	6	0.0019071467
7	7	0.0027060946
8	8	0.004197689
9	9	1.9742726e-05
10	10	1.0915262e-05
11	11	4.8548532e-05
12	12	6.0020475e-05
13	13	9.7429897e-05
14	14	0.00022214404
15	15	0.0002882467
16	16	5.2484077e-06
17	17	4.0852019e-06
18	18	1.3042977e-05
19	19	1.0208033e-05
20	20	1.5316384e-05
21	21	7.4999235e-07
22	22	1.2409036e-07
23	23	2.9797387e-07
