0	0	0.8889111
1	1	0.018544593
2	2	0.033212623
3	3	0.048209193
4	4	0.0007201774
5	5	0.00091755178
6	6	0.0019073821
7	7	0.0027064287
8	8	0.0041982073
9	9	1.9745164e-05
10	10	1.091661e-05
11	11	3.6573777e-05
12	12	4.1226104e-05
13	13	6.8903954e-05
14	14	0.00019809475
15	15	0.00025811509
16	16	4.2902765e-06
17	17	3.210293e-06
18	18	1.0661924e-05
19	19	7.9524956e-06
20	20	1.2083612e-05
21	21	6.2612421e-07
22	22	9.9152516e-08
23	23	2.4677389e-07
