0	0	0.88908204
1	1	0.018548159
2	2	0.03321901
3	3	0.048218463
4	4	0.0007203159
5	5	0.00091772823
6	6	0.0019077489
7	7	0.0027069492
8	8	0.0041990147
9	9	1.9748961e-05
10	10	1.0918709e-05
11	11	3.4383418e-05
12	12	1.721608e-05
13	13	3.0582055e-05
14	14	0.00014795146
15	15	0.00019491652
16	16	2.8832418e-06
17	17	2.0654566e-06
18	18	7.1806856e-06
19	19	4.7059416e-06
20	20	7.3440959e-06
21	21	4.3998898e-07
22	22	6.5702776e-08
23	23	1.7015974e-07
