0	0	0.88912566
1	1	0.018549069
2	2	0.03322064
3	3	0.048220829
4	4	0.00072035124
5	5	0.00091777325
6	6	0.0019078425
7	7	0.002707082
8	8	0.0041992207
9	9	1.974993e-05
10	10	1.0919245e-05
11	11	3.4385105e-05
12	12	1.2747184e-05
13	13	2.3080435e-05
14	14	0.00013303285
15	15	0.00017601389
16	16	2.5584748e-06
17	17	1.7855684e-06
18	18	6.3954767e-06
19	19	3.9843013e-06
20	20	6.2739795e-06
21	21	3.9715227e-07
22	22	5.7884681e-08
23	23	1.5220549e-07
