0	0	0.88926558
1	1	0.018551988
2	2	0.033225868
3	3	0.048228418
4	4	0.0007204646
5	5	0.00091791768
6	6	0.0019081428
7	7	0.002707508
8	8	0.0041998815
9	9	1.9753038e-05
10	10	1.0920963e-05
11	11	3.4390516e-05
12	12	5.3619333e-06
13	13	5.1518157e-06
14	14	7.9176145e-05
15	15	0.00010701372
16	16	1.5987835e-06
17	17	1.0887402e-06
18	18	4.0720609e-06
19	19	2.0143606e-06
20	20	3.2827145e-06
21	21	2.6839978e-07
22	22	3.6449773e-08
23	23	1.0007164e-07
