0	0	0.88938833
1	1	0.018554549
2	2	0.033230454
3	3	0.048235075
4	4	0.00072056405
5	5	0.00091804439
6	6	0.0019084062
7	7	0.0027078818
8	8	0.0042004613
9	9	1.9755764e-05
10	10	1.0922471e-05
11	11	3.4395263e-05
12	12	5.3626735e-06
13	13	5.1525269e-06
14	14	2.2359868e-05
15	15	3.2505759e-05
16	16	7.7822138e-07
17	17	6.5224262e-07
18	18	2.2196951e-06
19	19	7.0015453e-07
20	20	1.1949042e-06
21	21	1.5370432e-07
22	22	2.1286961e-08
23	23	5.6940289e-08
