0	0	0.88903107
1	1	0.018547096
2	2	0.033217106
3	3	0.048215699
4	4	0.0007202746
5	5	0.00091767561
6	6	0.0019076396
7	7	0.002706794
8	8	0.0041987739
9	9	1.9747829e-05
10	10	1.0918083e-05
11	11	3.4381447e-05
12	12	2.3246968e-05
13	13	4.0649422e-05
14	14	0.00016436726
15	15	0.0002156648
16	16	3.2852853e-06
17	17	2.395962e-06
18	18	8.1728889e-06
19	19	5.6077389e-06
20	20	8.6758911e-06
21	21	4.9353848e-07
22	22	7.4934788e-08
23	23	1.9167774e-07
