0	0	0.8893749
1	1	0.018554269
2	2	0.033229952
3	3	0.048234346
4	4	0.00072055317
5	5	0.00091803052
6	6	0.0019083773
7	7	0.0027078409
8	8	0.0042003978
9	9	1.9755466e-05
10	10	1.0922306e-05
11	11	3.4394744e-05
12	12	5.3625925e-06
13	13	5.152449e-06
14	14	2.8508623e-05
15	15	4.0789881e-05
16	16	8.6782609e-07
17	17	6.8986656e-07
18	18	2.4291285e-06
19	19	8.1670584e-07
20	20	1.3929362e-06
21	21	1.6664138e-07
22	22	2.2838762e-08
23	23	6.1363729e-08
