0	0	0.88849788
1	1	0.018535972
2	2	0.033197184
3	3	0.048186782
4	4	0.00071984263
5	5	0.00091712525
6	6	0.0019064955
7	7	0.0027051706
8	8	0.0041962558
9	9	2.4902843e-05
10	10	2.2292051e-05
11	11	8.7163009e-05
12	12	0.00012249735
13	13	0.0001888928
14	14	0.00026722047
15	15	0.00034376943
16	16	8.3192773e-06
17	17	7.1262103e-06
18	18	2.0659571e-05
19	19	1.7310686e-05
20	20	2.5313284e-05
21	21	1.1503518e-06
22	22	2.0735071e-07
23	23	4.6502011e-07
