0	0	0.88935079
1	1	0.018553766
2	2	0.033229051
3	3	0.048233039
4	4	0.00072053363
5	5	0.00091800563
6	6	0.0019083256
7	7	0.0027077674
8	8	0.0042002839
9	9	1.975493e-05
10	10	1.0922009e-05
11	11	3.4393811e-05
12	12	5.3624471e-06
13	13	5.1523093e-06
14	14	3.9650114e-05
15	15	5.5573133e-05
16	16	1.0234727e-06
17	17	7.6318359e-07
18	18	2.7803408e-06
19	19	1.0558821e-06
20	20	1.7258352e-06
21	21	1.8860243e-07
22	22	2.5597894e-08
23	23	6.9862174e-08
