0	0	0.88908943
1	1	0.018548313
2	2	0.033219286
3	3	0.048218864
4	4	0.00072032189
5	5	0.00091773586
6	6	0.0019077648
7	7	0.0027069717
8	8	0.0041990496
9	9	1.9749125e-05
10	10	1.09188e-05
11	11	3.4383704e-05
12	12	1.6446875e-05
13	13	2.9210479e-05
14	14	0.0001454695
15	15	0.00019179323
16	16	2.8269434e-06
17	17	2.0174805e-06
18	18	7.0442402e-06
19	19	4.5819197e-06
20	20	7.1550717e-06
21	21	4.3264626e-07
22	22	6.4362571e-08
23	23	1.6708193e-07
