0	0	0.88943847
1	1	0.018555595
2	2	0.033232328
3	3	0.048237794
4	4	0.00072060467
5	5	0.00091809614
6	6	0.0019085138
7	7	0.0027080344
8	8	0.0042006981
9	9	1.9756878e-05
10	10	1.0923086e-05
11	11	3.4397202e-05
12	12	5.3629758e-06
13	13	5.1528173e-06
14	14	6.3914866e-07
15	15	9.5337994e-07
16	16	2.304385e-07
17	17	5.591175e-07
18	18	9.1461322e-07
19	19	3.9616661e-07
20	20	4.7549386e-07
21	21	6.6048296e-08
22	22	1.2620094e-08
23	23	2.4566761e-08
