0	0	0.88907132
1	1	0.018547935
2	2	0.033218609
3	3	0.048217882
4	4	0.00072030721
5	5	0.00091771716
6	6	0.0019077259
7	7	0.0027069165
8	8	0.004198964
9	9	1.9748723e-05
10	10	1.0918577e-05
11	11	3.4383003e-05
12	12	1.8344686e-05
13	13	3.2600692e-05
14	14	0.00015151175
15	15	0.00019942821
16	16	2.9650457e-06
17	17	2.134756e-06
18	18	7.3874348e-06
19	19	4.8910581e-06
20	20	7.6194324e-06
21	21	4.5095987e-07
22	22	6.7638519e-08
23	23	1.7460524e-07
