0	0	0.88855059
1	1	0.018537072
2	2	0.033199154
3	3	0.048189641
4	4	0.00071988533
5	5	0.00091717966
6	6	0.0019066086
7	7	0.0027053311
8	8	0.0041965047
9	9	2.2515578e-05
10	10	1.9758827e-05
11	11	7.9766954e-05
12	12	0.00011092082
13	13	0.00017210943
14	14	0.00026158053
15	15	0.00033661021
16	16	7.7461761e-06
17	17	6.5496382e-06
18	18	1.9249688e-05
19	19	1.6015604e-05
20	20	2.3509142e-05
21	21	1.0740041e-06
22	22	1.9081335e-07
23	23	4.3388951e-07
