0	0	0.88928449
1	1	0.018552383
2	2	0.033226574
3	3	0.048229443
4	4	0.00072047992
5	5	0.0009179372
6	6	0.0019081834
7	7	0.0027075656
8	8	0.0041999708
9	9	1.9753458e-05
10	10	1.0921195e-05
11	11	3.4391247e-05
12	12	5.3620474e-06
13	13	5.1519253e-06
14	14	7.0407352e-05
15	15	9.5710418e-05
16	16	1.4659983e-06
17	17	1.006805e-06
18	18	3.7556176e-06
19	19	1.769058e-06
20	20	2.9001826e-06
21	21	2.4954559e-07
22	22	3.3805515e-08
23	23	9.327772e-08
