0	0	0.88921676
1	1	0.01855097
2	2	0.033224044
3	3	0.04822577
4	4	0.00072042505
5	5	0.00091786729
6	6	0.001908038
7	7	0.0027073594
8	8	0.004199651
9	9	1.9751953e-05
10	10	1.0920363e-05
11	11	3.4388628e-05
12	12	5.361639e-06
13	13	8.3950918e-06
14	14	0.0001003475
15	15	0.00013427492
16	16	1.9459618e-06
17	17	1.3203854e-06
18	18	4.9066437e-06
19	19	2.6946432e-06
20	20	4.3262533e-06
21	21	3.1537902e-07
22	22	4.3660883e-08
23	23	1.1953763e-07
