0	0	0.88941309
1	1	0.018555066
2	2	0.033231379
3	3	0.048236418
4	4	0.00072058411
5	5	0.00091806995
6	6	0.0019084593
7	7	0.0027079571
8	8	0.0042005782
9	9	1.9756314e-05
10	10	1.0922775e-05
11	11	3.4396221e-05
12	12	5.3628228e-06
13	13	5.1526703e-06
14	14	1.123686e-05
15	15	1.7103823e-05
16	16	5.9622048e-07
17	17	5.8808604e-07
18	18	1.7625294e-06
19	19	5.0719677e-07
20	20	8.1889914e-07
21	21	1.2670875e-07
22	22	1.8305398e-08
23	23	4.7284421e-08
