0	0	0.88943921
1	1	0.018555611
2	2	0.033232355
3	3	0.048237834
4	4	0.00072060527
5	5	0.00091809691
6	6	0.0019085153
7	7	0.0027080367
8	8	0.0042007015
9	9	1.9756895e-05
10	10	1.0923095e-05
11	11	3.4397231e-05
12	12	5.3629803e-06
13	13	5.1528216e-06
14	14	2.5203641e-07
15	15	5.3486697e-07
16	16	1.4141016e-07
17	17	6.0153331e-07
18	18	7.4135817e-07
19	19	5.1455314e-07
20	20	5.750654e-07
21	21	4.8376621e-08
22	22	1.1320267e-08
23	23	1.8773593e-08
