0	0	0.88934109
1	1	0.018553563
2	2	0.033228689
3	3	0.048232513
4	4	0.00072052577
5	5	0.00091799562
6	6	0.0019083048
7	7	0.0027077379
8	8	0.0042002381
9	9	1.9754715e-05
10	10	1.092189e-05
11	11	3.4393436e-05
12	12	5.3623886e-06
13	13	5.1522532e-06
14	14	4.4139786e-05
15	15	6.1486065e-05
16	16	1.0880318e-06
17	17	7.9512145e-07
18	18	2.9159077e-06
19	19	1.1490508e-06
20	20	1.8878093e-06
21	21	1.9766689e-07
22	22	2.6726131e-08
23	23	7.3409681e-08
