0	0	0.88902343
1	1	0.018546936
2	2	0.03321682
3	3	0.048215285
4	4	0.00072026841
5	5	0.00091766773
6	6	0.0019076232
7	7	0.0027067707
8	8	0.0041987378
9	9	1.9747659e-05
10	10	1.0917989e-05
11	11	3.4381151e-05
12	12	2.4243335e-05
13	13	4.2266159e-05
14	14	0.00016671353
15	15	0.00021867195
16	16	3.3464941e-06
17	17	2.4458875e-06
18	18	8.3230256e-06
19	19	5.7508225e-06
20	20	8.883926e-06
21	21	5.0168094e-07
22	22	7.6329259e-08
23	23	1.9506689e-07
