0	0	0.88943902
1	1	0.018555607
2	2	0.033232348
3	3	0.048237824
4	4	0.00072060512
5	5	0.00091809671
6	6	0.0019085149
7	7	0.0027080361
8	8	0.0042007006
9	9	1.975689e-05
10	10	1.0923093e-05
11	11	3.4397223e-05
12	12	5.3629791e-06
13	13	5.1528205e-06
14	14	4.0851315e-07
15	15	6.1847027e-07
16	16	1.5244312e-07
17	17	5.9246658e-07
18	18	7.6578523e-07
19	19	4.8529793e-07
20	20	5.4913691e-07
21	21	5.1353429e-08
22	22	1.151424e-08
23	23	1.9659421e-08
