0	0	0.88943673
1	1	0.018555559
2	2	0.033232263
3	3	0.0482377
4	4	0.00072060326
5	5	0.00091809435
6	6	0.00190851
7	7	0.0027080291
8	8	0.0042006898
9	9	1.975684e-05
10	10	1.0923065e-05
11	11	3.4397135e-05
12	12	5.3629653e-06
13	13	5.1528073e-06
14	14	1.260368e-06
15	15	2.0696123e-06
16	16	3.0744171e-07
17	17	5.4723152e-07
18	18	1.075012e-06
19	19	3.6686227e-07
20	20	4.7903771e-07
21	21	7.9686045e-08
22	22	1.3757999e-08
23	23	2.942242e-08
