0	0	0.88943896
1	1	0.018555605
2	2	0.033232346
3	3	0.04823782
4	4	0.00072060507
5	5	0.00091809664
6	6	0.0019085148
7	7	0.0027080359
8	8	0.0042007003
9	9	1.9756889e-05
10	10	1.0923092e-05
11	11	3.4397221e-05
12	12	5.3629787e-06
13	13	5.1528201e-06
14	14	2.0867383e-07
15	15	2.5695248e-07
16	16	1.3864718e-07
17	17	6.8044692e-07
18	18	6.4310181e-07
19	19	8.1466937e-07
20	20	9.331557e-07
21	21	2.8199474e-08
22	22	1.0112434e-08
23	23	1.2583887e-08
