0	0	0.88897702
1	1	0.018545968
2	2	0.033215086
3	3	0.048212768
4	4	0.00072023081
5	5	0.00091761982
6	6	0.0019075236
7	7	0.0027066294
8	8	0.0041985187
9	9	1.9746628e-05
10	10	1.0917419e-05
11	11	3.4379356e-05
12	12	3.0787746e-05
13	13	5.2757144e-05
14	14	0.00018049915
15	15	0.00023616567
16	16	3.7240061e-06
17	17	2.7508905e-06
18	18	9.2595188e-06
19	19	6.6315205e-06
20	20	1.0169541e-05
21	21	5.5142586e-07
22	22	8.4849506e-08
23	23	2.1581877e-07
