0	0	0.88936589
1	1	0.018554081
2	2	0.033229616
3	3	0.048233858
4	4	0.00072054587
5	5	0.00091802123
6	6	0.001908358
7	7	0.0027078134
8	8	0.0042003553
9	9	1.9755266e-05
10	10	1.0922195e-05
11	11	3.4394395e-05
12	12	5.3625382e-06
13	13	5.1523969e-06
14	14	3.2658277e-05
15	15	4.631756e-05
16	16	9.2652222e-07
17	17	7.1631314e-07
18	18	2.5629354e-06
19	19	9.0645654e-07
20	20	1.5194596e-06
21	21	1.7490637e-07
22	22	2.3839321e-08
23	23	6.4227794e-08
