0	0	0.88938772
1	1	0.018554536
2	2	0.033230431
3	3	0.048235042
4	4	0.00072056356
5	5	0.00091804376
6	6	0.0019084049
7	7	0.0027078799
8	8	0.0042004584
9	9	1.9755751e-05
10	10	1.0922463e-05
11	11	3.439524e-05
12	12	5.3626698e-06
13	13	5.1525233e-06
14	14	2.2634035e-05
15	15	3.2887392e-05
16	16	7.8231502e-07
17	17	6.5396033e-07
18	18	2.2296332e-06
19	19	7.0533855e-07
20	20	1.2043003e-06
21	21	1.5431827e-07
22	22	2.1354096e-08
23	23	5.71502e-08
