0	0	0.88943893
1	1	0.018555605
2	2	0.033232345
3	3	0.048237819
4	4	0.00072060504
5	5	0.00091809662
6	6	0.0019085147
7	7	0.0027080358
8	8	0.0042007002
9	9	1.9756888e-05
10	10	1.0923092e-05
11	11	3.439722e-05
12	12	5.3629786e-06
13	13	5.15282e-06
14	14	4.7944683e-07
15	15	6.6034539e-07
16	16	1.6495196e-07
17	17	5.8479478e-07
18	18	7.9047117e-07
19	19	4.6303523e-07
20	20	5.28584e-07
21	21	5.4147481e-08
22	22	1.1702636e-08
23	23	2.0544596e-08
