0	0	0.88943382
1	1	0.018555498
2	2	0.033232154
3	3	0.048237542
4	4	0.00072060091
5	5	0.00091809134
6	6	0.0019085038
7	7	0.0027080202
8	8	0.0042006761
9	9	1.9756775e-05
10	10	1.0923029e-05
11	11	3.4397022e-05
12	12	5.3629478e-06
13	13	5.1527904e-06
14	14	2.381349e-06
15	15	3.951229e-06
16	16	3.7582737e-07
17	17	5.471921e-07
18	18	1.2144489e-06
19	19	3.7098397e-07
20	20	5.1968527e-07
21	21	9.0632657e-08
22	22	1.4733991e-08
23	23	3.3275448e-08
