0	0	0.88932695
1	1	0.018553268
2	2	0.033228161
3	3	0.048231746
4	4	0.00072051432
5	5	0.00091798102
6	6	0.0019082745
7	7	0.0027076948
8	8	0.0042001713
9	9	1.9754401e-05
10	10	1.0921717e-05
11	11	3.4392889e-05
12	12	5.3623033e-06
13	13	5.1521712e-06
14	14	5.0696361e-05
15	15	7.0107732e-05
16	16	1.1803644e-06
17	17	8.4360726e-07
18	18	3.1098091e-06
19	19	1.2823138e-06
20	20	2.1224764e-06
21	21	2.1068922e-07
22	22	2.8409323e-08
23	23	7.8483637e-08
