0	0	0.88925316
1	1	0.018551729
2	2	0.033225404
3	3	0.048227744
4	4	0.00072045454
5	5	0.00091790486
6	6	0.0019081161
7	7	0.0027074702
8	8	0.0041998228
9	9	1.9752762e-05
10	10	1.092081e-05
11	11	3.4390036e-05
12	12	5.3618584e-06
13	13	5.1517438e-06
14	14	8.4907477e-05
15	15	0.00011442874
16	16	1.6887468e-06
17	17	1.1480385e-06
18	18	4.2834921e-06
19	19	2.1875802e-06
20	20	3.5493714e-06
21	21	2.8096845e-07
22	22	3.8212608e-08
23	23	1.052262e-07
