0	0	0.88882766
1	1	0.018542852
2	2	0.033209506
3	3	0.048204667
4	4	0.00072010981
5	5	0.00091746565
6	6	0.0019072031
7	7	0.0027061747
8	8	0.0041978133
9	9	1.974331e-05
10	10	1.0915585e-05
11	11	4.5604384e-05
12	12	5.5235074e-05
13	13	9.0237709e-05
14	14	0.00021683845
15	15	0.00028136105
16	16	5.0103212e-06
17	17	3.8701578e-06
18	18	1.2449389e-05
19	19	9.6453804e-06
20	20	1.451439e-05
21	21	7.1960075e-07
22	22	1.1797171e-07
23	23	2.8538733e-07
