0	0	0.88943942
1	1	0.018555615
2	2	0.033232363
3	3	0.048237846
4	4	0.00072060544
5	5	0.00091809713
6	6	0.0019085158
7	7	0.0027080373
8	8	0.0042007025
9	9	1.9756899e-05
10	10	1.0923098e-05
11	11	3.4397239e-05
12	12	5.3629815e-06
13	13	5.1528228e-06
14	14	2.0867394e-07
15	15	2.5695262e-07
16	16	1.3864725e-07
17	17	6.205203e-07
18	18	7.0421853e-07
19	19	5.689298e-07
20	20	6.327886e-07
21	21	4.3662653e-08
22	22	1.100694e-08
23	23	1.7251786e-08
