0	0	0.88940194
1	1	0.018554833
2	2	0.033230963
3	3	0.048235813
4	4	0.00072057507
5	5	0.00091805843
6	6	0.0019084354
7	7	0.0027079232
8	8	0.0042005255
9	9	1.9756067e-05
10	10	1.0922638e-05
11	11	3.4395789e-05
12	12	5.3627555e-06
13	13	5.1526057e-06
14	14	1.6225465e-05
15	15	2.4055608e-05
16	16	6.8347535e-07
17	17	6.1603676e-07
18	18	1.986159e-06
19	19	5.9146062e-07
20	20	9.7900507e-07
21	21	1.3950214e-07
22	22	1.9711459e-08
23	23	5.2007513e-08
