0	0	0.8886326
1	1	0.018538783
2	2	0.033202218
3	3	0.048194089
4	4	0.00071995177
5	5	0.00091726431
6	6	0.0019067846
7	7	0.0027055808
8	8	0.004196892
9	9	1.9738978e-05
10	10	1.6093769e-05
11	11	6.8983666e-05
12	12	9.3534615e-05
13	13	0.00014681476
14	14	0.00025094992
15	15	0.00032370918
16	16	6.8855273e-06
17	17	5.6810199e-06
18	18	1.7110166e-05
19	19	1.4050043e-05
20	20	2.0763475e-05
21	21	9.654263e-07
22	22	1.6741807e-07
23	23	3.8789494e-07
