0	0	0.88886557
1	1	0.018543643
2	2	0.033210922
3	3	0.048206723
4	4	0.00072014052
5	5	0.00091750478
6	6	0.0019072845
7	7	0.0027062901
8	8	0.0041979923
9	9	1.9744152e-05
10	10	1.0916051e-05
11	11	4.144375e-05
12	12	4.8651955e-05
13	13	8.0304122e-05
14	14	0.00020847285
15	15	0.00027124725
16	16	4.6747972e-06
17	17	3.567822e-06
18	18	1.1612926e-05
19	19	8.8554883e-06
20	20	1.3385666e-05
21	21	6.7677118e-07
22	22	1.0934881e-07
23	23	2.6769536e-07
