0	0	0.88943085
1	1	0.018555436
2	2	0.033232043
3	3	0.048237381
4	4	0.00072059849
5	5	0.00091808827
6	6	0.0019084974
7	7	0.0027080112
8	8	0.004200662
9	9	1.9756709e-05
10	10	1.0922993e-05
11	11	3.4396907e-05
12	12	5.3629298e-06
13	13	5.1527732e-06
14	14	3.6032098e-06
15	15	5.8511748e-06
16	16	4.2212449e-07
17	17	5.5081752e-07
18	18	1.3167635e-06
19	19	3.8586247e-07
20	20	5.6481591e-07
21	21	9.8431175e-08
22	22	1.5462515e-08
23	23	3.6425598e-08
