0	0	0.88943898
1	1	0.018555606
2	2	0.033232347
3	3	0.048237822
4	4	0.00072060508
5	5	0.00091809667
6	6	0.0019085148
7	7	0.002708036
8	8	0.0042007004
9	9	1.9756889e-05
10	10	1.0923092e-05
11	11	3.4397222e-05
12	12	5.3629789e-06
13	13	5.1528203e-06
14	14	2.0867383e-07
15	15	2.5695249e-07
16	16	1.3864718e-07
17	17	6.8738311e-07
18	18	6.4357011e-07
19	19	7.9941524e-07
20	20	9.1460272e-07
21	21	2.891074e-08
22	22	1.0147439e-08
23	23	1.2786925e-08
