0	0	0.88878444
1	1	0.018541951
2	2	0.033207891
3	3	0.048202323
4	4	0.00072007479
5	5	0.00091742104
6	6	0.0019071104
7	7	0.0027060431
8	8	0.0041976091
9	9	1.974235e-05
10	10	1.0915054e-05
11	11	5.0468354e-05
12	12	6.3194303e-05
13	13	0.00010218643
14	14	0.00022557889
15	15	0.00029236479
16	16	5.4036693e-06
17	17	4.2273345e-06
18	18	1.3430052e-05
19	19	1.0576547e-05
20	20	1.5848896e-05
21	21	7.699978e-07
22	22	1.2808034e-07
23	23	3.0625803e-07
