0	0	0.88896905
1	1	0.018545802
2	2	0.033214789
3	3	0.048212336
4	4	0.00072022436
5	5	0.0009176116
6	6	0.0019075065
7	7	0.0027066052
8	8	0.0041984811
9	9	1.9746451e-05
10	10	1.0917321e-05
11	11	3.4379048e-05
12	12	3.2011188e-05
13	13	5.4671295e-05
14	14	0.00018278009
15	15	0.00023899346
16	16	3.7929051e-06
17	17	2.8047093e-06
18	18	9.4324838e-06
19	19	6.7930538e-06
20	20	1.0402681e-05
21	21	5.6020403e-07
22	22	8.6352978e-08
23	23	2.1948057e-07
