0	0	0.88925367
1	1	0.01855174
2	2	0.033225423
3	3	0.048227772
4	4	0.00072045495
5	5	0.00091790539
6	6	0.0019081172
7	7	0.0027074718
8	8	0.0041998253
9	9	1.9752773e-05
10	10	1.0920817e-05
11	11	3.4390056e-05
12	12	5.3618615e-06
13	13	5.1517467e-06
14	14	8.4669965e-05
15	15	0.00011412189
16	16	1.6848323e-06
17	17	1.1455233e-06
18	18	4.2745308e-06
19	19	2.1801335e-06
20	20	3.5381429e-06
21	21	2.8044477e-07
22	22	3.813916e-08
23	23	1.0500839e-07
