0	0	0.88942939
1	1	0.018555406
2	2	0.033231988
3	3	0.048237302
4	4	0.00072059731
5	5	0.00091808677
6	6	0.0019084943
7	7	0.0027080068
8	8	0.0042006552
9	9	1.9756676e-05
10	10	1.0922975e-05
11	11	3.4396851e-05
12	12	5.362921e-06
13	13	5.1527647e-06
14	14	4.1866423e-06
15	15	6.8035235e-06
16	16	4.4069704e-07
17	17	5.534119e-07
18	18	1.3611409e-06
19	19	3.945266e-07
20	20	5.8704313e-07
21	21	1.0165648e-07
22	22	1.576279e-08
23	23	3.7696676e-08
