0	0	0.88885299
1	1	0.018543381
2	2	0.033210452
3	3	0.048206041
4	4	0.00072013033
5	5	0.0009174918
6	6	0.0019072575
7	7	0.0027062518
8	8	0.0041979329
9	9	1.9743873e-05
10	10	1.0915896e-05
11	11	4.2819298e-05
12	12	5.079545e-05
13	13	8.3555505e-05
14	14	0.00021126359
15	15	0.0002746873
16	16	4.7855221e-06
17	17	3.6675913e-06
18	18	1.1888932e-05
19	19	9.1153024e-06
20	20	1.3758124e-05
21	21	6.909057e-07
22	22	1.1219431e-07
23	23	2.7353336e-07
