0	0	0.88911596
1	1	0.018548867
2	2	0.033220277
3	3	0.048220303
4	4	0.00072034338
5	5	0.00091776324
6	6	0.0019078217
7	7	0.0027070525
8	8	0.0041991749
9	9	1.9749714e-05
10	10	1.0919125e-05
11	11	3.438473e-05
12	12	1.3719081e-05
13	13	2.4636491e-05
14	14	0.00013642221
15	15	0.00018029407
16	16	2.6299879e-06
17	17	1.8473432e-06
18	18	6.5675973e-06
19	19	4.142119e-06
20	20	6.5067914e-06
21	21	4.066068e-07
22	22	5.961021e-08
23	23	1.5616791e-07
