0	0	0.88943874
1	1	0.018555601
2	2	0.033232338
3	3	0.048237809
4	4	0.00072060489
5	5	0.00091809642
6	6	0.0019085143
7	7	0.0027080352
8	8	0.0042006993
9	9	1.9756884e-05
10	10	1.092309e-05
11	11	3.4397213e-05
12	12	5.3629774e-06
13	13	5.1528189e-06
14	14	2.0867378e-07
15	15	2.5695242e-07
16	16	1.3864714e-07
17	17	4.3972063e-07
18	18	6.5448311e-07
19	19	1.0293072e-06
20	20	1.2042941e-06
21	21	2.0145074e-08
22	22	9.7441194e-09
23	23	1.0376142e-08
