0	0	0.88943624
1	1	0.018555549
2	2	0.033232244
3	3	0.048237673
4	4	0.00072060287
5	5	0.00091809384
6	6	0.001908509
7	7	0.0027080276
8	8	0.0042006875
9	9	1.9756829e-05
10	10	1.0923059e-05
11	11	3.4397116e-05
12	12	5.3629624e-06
13	13	5.1528044e-06
14	14	1.4330805e-06
15	15	2.3955659e-06
16	16	3.2221995e-07
17	17	5.4668794e-07
18	18	1.1033932e-06
19	19	3.6590682e-07
20	20	4.854065e-07
21	21	8.2051684e-08
22	22	1.3963236e-08
23	23	3.0209753e-08
