0	0	0.8894392
1	1	0.01855561
2	2	0.033232355
3	3	0.048237834
4	4	0.00072060526
5	5	0.0009180969
6	6	0.0019085153
7	7	0.0027080366
8	8	0.0042007015
9	9	1.9756894e-05
10	10	1.0923095e-05
11	11	3.439723e-05
12	12	5.3629802e-06
13	13	5.1528216e-06
14	14	2.5975667e-07
15	15	5.4042614e-07
16	16	1.4181438e-07
17	17	6.011421e-07
18	18	7.4227963e-07
19	19	5.1331749e-07
20	20	5.7391504e-07
21	21	4.8494737e-08
22	22	1.1328025e-08
23	23	1.8809024e-08
