0	0	0.88942981
1	1	0.018555414
2	2	0.033232004
3	3	0.048237324
4	4	0.00072059765
5	5	0.0009180872
6	6	0.0019084952
7	7	0.002708008
8	8	0.0042006571
9	9	1.9756686e-05
10	10	1.092298e-05
11	11	3.4396867e-05
12	12	5.3629236e-06
13	13	5.1527671e-06
14	14	4.0242112e-06
15	15	6.5244023e-06
16	16	4.3552645e-07
17	17	5.5268961e-07
18	18	1.3486548e-06
19	19	3.9188743e-07
20	20	5.8069729e-07
21	21	1.0075859e-07
22	22	1.5679178e-08
23	23	3.7342787e-08
