0	0	0.88924476
1	1	0.018551554
2	2	0.03322509
3	3	0.048227288
4	4	0.00072044773
5	5	0.00091789619
6	6	0.0019080981
7	7	0.0027074446
8	8	0.0041997832
9	9	1.9752575e-05
10	10	1.0920707e-05
11	11	3.4389711e-05
12	12	5.3618078e-06
13	13	5.1516951e-06
14	14	8.8788906e-05
15	15	0.00011942248
16	16	1.752717e-06
17	17	1.1891443e-06
18	18	4.429938e-06
19	19	2.3092713e-06
20	20	3.7356613e-06
21	21	2.8952688e-07
22	22	3.9501722e-08
23	23	1.0878556e-07
