0	0	0.8886338
1	1	0.018538808
2	2	0.033202263
3	3	0.048194154
4	4	0.00071995275
5	5	0.00091726555
6	6	0.0019067871
7	7	0.0027055845
8	8	0.0041968977
9	9	1.9739004e-05
10	10	1.6046052e-05
11	11	6.8824661e-05
12	12	9.32775e-05
13	13	0.00014644232
14	14	0.00025077156
15	15	0.00032349959
16	16	6.8731956e-06
17	17	5.6680357e-06
18	18	1.7079564e-05
19	19	1.4021153e-05
20	20	2.0722593e-05
21	21	9.6381004e-07
22	22	1.6706836e-07
23	23	3.8722352e-07
