0	0	0.8894295
1	1	0.018555408
2	2	0.033231992
3	3	0.048237308
4	4	0.0007205974
5	5	0.00091808688
6	6	0.0019084945
7	7	0.0027080071
8	8	0.0042006557
9	9	1.9756679e-05
10	10	1.0922976e-05
11	11	3.4396855e-05
12	12	5.3629217e-06
13	13	5.1527654e-06
14	14	4.1436996e-06
15	15	6.7297308e-06
16	16	4.3933018e-07
17	17	5.5322094e-07
18	18	1.3578399e-06
19	19	3.9382887e-07
20	20	5.8536544e-07
21	21	1.014191e-07
22	22	1.5740686e-08
23	23	3.7603117e-08
