0	0	0.88941742
1	1	0.018555156
2	2	0.033231541
3	3	0.048236652
4	4	0.00072058761
5	5	0.00091807441
6	6	0.0019084686
7	7	0.0027079703
8	8	0.0042005986
9	9	1.975641e-05
10	10	1.0922828e-05
11	11	3.4396388e-05
12	12	5.3628488e-06
13	13	5.1526954e-06
14	14	9.338282e-06
15	15	1.4388323e-05
16	16	5.5902672e-07
17	17	5.7798904e-07
18	18	1.6629277e-06
19	19	4.7539119e-07
20	20	7.585956e-07
21	21	1.2101284e-07
22	22	1.7699677e-08
23	23	4.5180771e-08
