0	0	0.88869648
1	1	0.018540116
2	2	0.033204604
3	3	0.048197553
4	4	0.00072000353
5	5	0.00091733025
6	6	0.0019069216
7	7	0.0027057753
8	8	0.0041971937
9	9	1.9740397e-05
10	10	1.3612451e-05
11	11	6.0857251e-05
12	12	8.0271715e-05
13	13	0.00012750954
14	14	0.00024113205
15	15	0.00031151555
16	16	6.2441584e-06
17	17	5.0448746e-06
18	18	1.5518845e-05
19	19	1.2548066e-05
20	20	1.864433e-05
21	21	8.8138528e-07
22	22	1.492322e-07
23	23	3.5298093e-07
