0	0	0.88897347
1	1	0.018545894
2	2	0.033214954
3	3	0.048212575
4	4	0.00072022794
5	5	0.00091761616
6	6	0.001907516
7	7	0.0027066186
8	8	0.0041985019
9	9	1.9746549e-05
10	10	1.0917376e-05
11	11	3.4379219e-05
12	12	3.13315e-05
13	13	5.3607882e-05
14	14	0.0001815129
15	15	0.00023743099
16	16	3.7545726e-06
17	17	2.7748096e-06
18	18	9.3363139e-06
19	19	6.7033134e-06
20	20	1.0273159e-05
21	21	5.5532725e-07
22	22	8.5517718e-08
23	23	2.1744628e-07
