0	0	0.88943897
1	1	0.018555606
2	2	0.033232346
3	3	0.048237821
4	4	0.00072060508
5	5	0.00091809666
6	6	0.0019085148
7	7	0.0027080359
8	8	0.0042007004
9	9	1.9756889e-05
10	10	1.0923092e-05
11	11	3.4397222e-05
12	12	5.3629788e-06
13	13	5.1528202e-06
14	14	4.5036239e-07
15	15	6.3669409e-07
16	16	1.5734504e-07
17	17	5.8920192e-07
18	18	7.76239e-07
19	19	4.7466887e-07
20	20	5.4011875e-07
21	21	5.2542534e-08
22	22	1.1591647e-08
23	23	2.0020014e-08
