0	0	0.88895043
1	1	0.018545414
2	2	0.033214093
3	3	0.048211326
4	4	0.00072020927
5	5	0.00091759238
6	6	0.0019074666
7	7	0.0027065485
8	8	0.0041983931
9	9	1.9746038e-05
10	10	1.0917093e-05
11	11	3.4378328e-05
12	12	3.4951927e-05
13	13	5.9204495e-05
14	14	0.00018809176
15	15	0.00024549532
16	16	3.9562962e-06
17	17	2.9302926e-06
18	18	9.8363661e-06
19	19	7.1698936e-06
20	20	1.0946682e-05
21	21	5.8120022e-07
22	22	9.0197783e-08
23	23	2.2819303e-07
