0	0	0.88884364
1	1	0.018543186
2	2	0.033210103
3	3	0.048205534
4	4	0.00072012275
5	5	0.00091748215
6	6	0.0019072374
7	7	0.0027062234
8	8	0.0041978887
9	9	1.9743665e-05
10	10	1.0915781e-05
11	11	4.3849987e-05
12	12	5.2429541e-05
13	13	8.6001678e-05
14	14	0.00021334051
15	15	0.00027715242
16	16	4.8685568e-06
17	17	3.7424141e-06
18	18	1.2095943e-05
19	19	9.3105621e-06
20	20	1.4037463e-05
21	21	7.0150536e-07
22	22	1.1432843e-07
23	23	2.779119e-07
