0	0	0.88941778
1	1	0.018555164
2	2	0.033231555
3	3	0.048236672
4	4	0.00072058791
5	5	0.00091807479
6	6	0.0019084694
7	7	0.0027079714
8	8	0.0042006003
9	9	1.9756419e-05
10	10	1.0922832e-05
11	11	3.4396402e-05
12	12	5.3628511e-06
13	13	5.1526975e-06
14	14	9.172895e-06
15	15	1.4160308e-05
16	16	5.5575604e-07
17	17	5.7718945e-07
18	18	1.6540687e-06
19	19	4.7276678e-07
20	20	7.5361255e-07
21	21	1.2050633e-07
22	22	1.7646019e-08
23	23	4.4993672e-08
