0	0	0.8893952
1	1	0.018554692
2	2	0.033230711
3	3	0.048235447
4	4	0.00072056961
5	5	0.00091805148
6	6	0.0019084209
7	7	0.0027079027
8	8	0.0042004937
9	9	1.9755917e-05
10	10	1.0922555e-05
11	11	3.4395529e-05
12	12	5.3627149e-06
13	13	5.1525666e-06
14	14	1.9247566e-05
15	15	2.8250628e-05
16	16	7.3164287e-07
17	17	6.3385188e-07
18	18	2.1054101e-06
19	19	6.4432358e-07
20	20	1.0868384e-06
21	21	1.4664491e-07
22	22	2.0514905e-08
23	23	5.4526359e-08
