0	0	0.8893172
1	1	0.018553065
2	2	0.033227796
3	3	0.048231217
4	4	0.00072050642
5	5	0.00091797096
6	6	0.0019082535
7	7	0.0027076652
8	8	0.0042001253
9	9	1.9754184e-05
10	10	1.0921597e-05
11	11	3.4392512e-05
12	12	5.3622445e-06
13	13	5.1521147e-06
14	14	5.5224594e-05
15	15	7.6021264e-05
16	16	1.2450731e-06
17	17	8.7854024e-07
18	18	3.2411465e-06
19	19	1.3867239e-06
20	20	2.2942826e-06
21	21	2.195105e-07
22	22	2.9630837e-08
23	23	8.1920568e-08
