0	0	0.88859469
1	1	0.018537992
2	2	0.033200801
3	3	0.048192032
4	4	0.00071992106
5	5	0.00091722517
6	6	0.0019067032
7	7	0.0027054654
8	8	0.004196713
9	9	2.0556594e-05
10	10	1.7680158e-05
11	11	7.3913104e-05
12	12	0.00010152414
13	13	0.00015848119
14	14	0.00025604834
15	15	0.00033020668
16	16	7.2759224e-06
17	17	6.0835088e-06
18	18	1.8092798e-05
19	19	1.49577e-05
20	20	2.2034875e-05
21	21	1.0155219e-06
22	22	1.7825915e-07
23	23	4.0870719e-07
