0	0	0.88926298
1	1	0.018551934
2	2	0.033225771
3	3	0.048228277
4	4	0.00072046249
5	5	0.000917915
6	6	0.0019081372
7	7	0.0027075001
8	8	0.0041998692
9	9	1.975298e-05
10	10	1.0920931e-05
11	11	3.4390416e-05
12	12	5.3619177e-06
13	13	5.1518007e-06
14	14	8.0371496e-05
15	15	0.00010857236
16	16	1.6172939e-06
17	17	1.1008597e-06
18	18	4.1160144e-06
19	19	2.049993e-06
20	20	3.3379824e-06
21	21	2.710183e-07
22	22	3.6817049e-08
23	23	1.0113631e-07
