0	0	0.88894518
1	1	0.018545304
2	2	0.033213897
3	3	0.048211041
4	4	0.00072020502
5	5	0.00091758696
6	6	0.0019074553
7	7	0.0027065325
8	8	0.0041983683
9	9	1.9745921e-05
10	10	1.0917028e-05
11	11	3.4378125e-05
12	12	3.5801658e-05
13	13	6.0533377e-05
14	14	0.00018951329
15	15	0.00024733178
16	16	4.0029813e-06
17	17	2.9661726e-06
18	18	9.951751e-06
19	19	7.2775511e-06
20	20	1.1102112e-05
21	21	5.8742871e-07
22	22	9.1347365e-08
23	23	2.3078043e-07
