0	0	0.88850866
1	1	0.018536197
2	2	0.033197587
3	3	0.048187367
4	4	0.00071985135
5	5	0.00091713637
6	6	0.0019065186
7	7	0.0027052034
8	8	0.0041963067
9	9	2.4413163e-05
10	10	2.1772434e-05
11	11	8.5646012e-05
12	12	0.00012010317
13	13	0.00018544659
14	14	0.00026608058
15	15	0.00034235491
16	16	8.2017208e-06
17	17	7.0039289e-06
18	18	2.0370376e-05
19	19	1.7044139e-05
20	20	2.4942919e-05
21	21	1.134691e-06
22	22	2.0390661e-07
23	23	4.5863458e-07
