0	0	0.88910517
1	1	0.018548642
2	2	0.033219875
3	3	0.048219718
4	4	0.00072033464
5	5	0.00091775211
6	6	0.0019077986
7	7	0.0027070196
8	8	0.0041991239
9	9	1.9749475e-05
10	10	1.0918993e-05
11	11	3.4384313e-05
12	12	1.482285e-05
13	13	2.6426893e-05
14	14	0.00014013751
15	15	0.00018501124
16	16	2.7096776e-06
17	17	1.9161905e-06
18	18	6.7593865e-06
19	19	4.3200729e-06
20	20	6.7674401e-06
21	21	4.1714333e-07
22	22	6.1533043e-08
23	23	1.6058406e-07
