0	0	0.88893638
1	1	0.01854512
2	2	0.033213568
3	3	0.048210564
4	4	0.00072019789
5	5	0.00091757788
6	6	0.0019074364
7	7	0.0027065057
8	8	0.0041983268
9	9	1.9745725e-05
10	10	1.091692e-05
11	11	3.4377785e-05
12	12	3.7257461e-05
13	13	6.278648e-05
14	14	0.00019188245
15	15	0.00025035259
16	16	4.0807883e-06
17	17	3.0259716e-06
18	18	1.0144067e-05
19	19	7.4569891e-06
20	20	1.1365814e-05
21	21	5.9785334e-07
22	22	9.3461173e-08
23	23	2.3509624e-07
