0	0	0.88914304
1	1	0.018549432
2	2	0.033221289
3	3	0.048221772
4	4	0.00072036532
5	5	0.0009177912
6	6	0.0019078798
7	7	0.0027071349
8	8	0.0041993028
9	9	1.9750316e-05
10	10	1.0919458e-05
11	11	3.4385777e-05
12	12	1.1090902e-05
13	13	2.0339979e-05
14	14	0.00012692264
15	15	0.0001682087
16	16	2.433831e-06
17	17	1.6765263e-06
18	18	6.0909952e-06
19	19	3.7182749e-06
20	20	5.8732159e-06
21	21	3.8042524e-07
22	22	5.4831724e-08
23	23	1.4540139e-07
