0	0	0.88943866
1	1	0.018555599
2	2	0.033232335
3	3	0.048237805
4	4	0.00072060483
5	5	0.00091809634
6	6	0.0019085142
7	7	0.002708035
8	8	0.004200699
9	9	1.9756882e-05
10	10	1.0923089e-05
11	11	3.439721e-05
12	12	5.362977e-06
13	13	5.1528184e-06
14	14	5.7979272e-07
15	15	8.2813222e-07
16	16	2.1193534e-07
17	17	5.6464939e-07
18	18	8.7870423e-07
19	19	4.104671e-07
20	20	4.8413263e-07
21	21	6.2841352e-08
22	22	1.2354424e-08
23	23	2.3432895e-08
