0	0	0.88862659
1	1	0.018538657
2	2	0.033201993
3	3	0.048193762
4	4	0.0007199469
5	5	0.0009172581
6	6	0.0019067717
7	7	0.0027055625
8	8	0.0041968636
9	9	1.9738844e-05
10	10	1.6332352e-05
11	11	6.9778765e-05
12	12	9.4820181e-05
13	13	0.00014867695
14	14	0.00025184174
15	15	0.00032475721
16	16	6.9471849e-06
17	17	5.7459404e-06
18	18	1.7263174e-05
19	19	1.4194493e-05
20	20	2.0967885e-05
21	21	9.7350692e-07
22	22	1.6916663e-07
23	23	3.9125204e-07
