0	0	0.88943886
1	1	0.018555603
2	2	0.033232342
3	3	0.048237815
4	4	0.00072060498
5	5	0.00091809654
6	6	0.0019085146
7	7	0.0027080356
8	8	0.0042006999
9	9	1.9756887e-05
10	10	1.0923091e-05
11	11	3.4397217e-05
12	12	5.3629781e-06
13	13	5.1528196e-06
14	14	5.1852592e-07
15	15	7.0246589e-07
16	16	1.8111693e-07
17	17	5.7634887e-07
18	18	8.1998489e-07
19	19	4.4164413e-07
20	20	5.090406e-07
21	21	5.7224004e-08
22	22	1.1925871e-08
23	23	2.1563582e-08
