0	0	0.88906634
1	1	0.018547832
2	2	0.033218424
3	3	0.048217612
4	4	0.00072030318
5	5	0.00091771203
6	6	0.0019077153
7	7	0.0027069014
8	8	0.0041989405
9	9	1.9748612e-05
10	10	1.0918516e-05
11	11	3.4382811e-05
12	12	1.891747e-05
13	13	3.355293e-05
14	14	0.00015310554
15	15	0.00020151059
16	16	3.0042603e-06
17	17	2.1667426e-06
18	18	7.4836212e-06
19	19	4.9779164e-06
20	20	7.7470897e-06
21	21	4.5616585e-07
22	22	6.8532014e-08
23	23	1.7665697e-07
