0	0	0.88943868
1	1	0.018555599
2	2	0.033232335
3	3	0.048237806
4	4	0.00072060484
5	5	0.00091809636
6	6	0.0019085142
7	7	0.002708035
8	8	0.004200699
9	9	1.9756883e-05
10	10	1.0923089e-05
11	11	3.439721e-05
12	12	5.3629771e-06
13	13	5.1528186e-06
14	14	5.7479807e-07
15	15	8.1525078e-07
16	16	2.0971312e-07
17	17	5.6544448e-07
18	18	8.7425053e-07
19	19	4.1241185e-07
20	20	4.8539376e-07
21	21	6.2440082e-08
22	22	1.2322127e-08
23	23	2.3299381e-08
