0	0	0.88910266
1	1	0.018548589
2	2	0.033219781
3	3	0.048219582
4	4	0.00072033261
5	5	0.00091774952
6	6	0.0019077932
7	7	0.002707012
8	8	0.0041991121
9	9	1.9749419e-05
10	10	1.0918962e-05
11	11	3.4384216e-05
12	12	1.5079278e-05
13	13	2.6861061e-05
14	14	0.00014100068
15	15	0.00018609329
16	16	2.7281923e-06
17	17	1.9321838e-06
18	18	6.8039415e-06
19	19	4.3614186e-06
20	20	6.8279844e-06
21	21	4.1959124e-07
22	22	6.1979781e-08
23	23	1.6161007e-07
