0	0	0.88914833
1	1	0.018549542
2	2	0.033221487
3	3	0.048222058
4	4	0.0007203696
5	5	0.00091779665
6	6	0.0019078912
7	7	0.002707151
8	8	0.0041993277
9	9	1.9750433e-05
10	10	1.0919523e-05
11	11	3.4385981e-05
12	12	1.0579299e-05
13	13	1.9578212e-05
14	14	0.00012503951
15	15	0.00016579443
16	16	2.3963972e-06
17	17	1.6434747e-06
18	18	5.9983213e-06
19	19	3.63741e-06
20	20	5.7539615e-06
21	21	3.7533442e-07
22	22	5.3902574e-08
23	23	1.4341775e-07
