0	0	0.88880593
1	1	0.018542399
2	2	0.033208694
3	3	0.048203489
4	4	0.0007200922
5	5	0.00091744322
6	6	0.0019071565
7	7	0.0027061085
8	8	0.0041977106
9	9	1.9742828e-05
10	10	1.0915318e-05
11	11	4.803659e-05
12	12	5.9177593e-05
13	13	9.6173419e-05
14	14	0.00022122129
15	15	0.00028707101
16	16	5.2070042e-06
17	17	4.0475083e-06
18	18	1.2939752e-05
19	19	1.0109875e-05
20	20	1.5176007e-05
21	21	7.4470638e-07
22	22	1.2302624e-07
23	23	2.9576472e-07
