0	0	0.88928502
1	1	0.018552394
2	2	0.033226594
3	3	0.048229472
4	4	0.00072048035
5	5	0.00091793775
6	6	0.0019081845
7	7	0.0027075672
8	8	0.0041999733
9	9	1.975347e-05
10	10	1.0921202e-05
11	11	3.4391268e-05
12	12	5.3620505e-06
13	13	5.1519283e-06
14	14	7.0162546e-05
15	15	9.5393231e-05
16	16	1.4623107e-06
17	17	1.0045766e-06
18	18	3.7468273e-06
19	19	1.7622677e-06
20	20	2.890005e-06
21	21	2.490219e-07
22	22	3.3732059e-08
23	23	9.3094097e-08
