0	0	0.88943879
1	1	0.018555602
2	2	0.033232339
3	3	0.048237811
4	4	0.00072060493
5	5	0.00091809647
6	6	0.0019085144
7	7	0.0027080354
8	8	0.0042006995
9	9	1.9756885e-05
10	10	1.092309e-05
11	11	3.4397214e-05
12	12	5.3629777e-06
13	13	5.1528192e-06
14	14	5.431739e-07
15	15	7.4752758e-07
16	16	1.9493907e-07
17	17	5.707902e-07
18	18	8.4540644e-07
19	19	4.2641354e-07
20	20	4.9625855e-07
21	21	5.9765211e-08
22	22	1.2114686e-08
23	23	2.2409262e-08
