0	0	0.88901884
1	1	0.018546841
2	2	0.033216649
3	3	0.048215036
4	4	0.00072026469
5	5	0.00091766299
6	6	0.0019076133
7	7	0.0027067568
8	8	0.0041987162
9	9	1.9747557e-05
10	10	1.0917933e-05
11	11	3.4380974e-05
12	12	2.4846617e-05
13	13	4.3263376e-05
14	14	0.0001681095
15	15	0.00022046204
16	16	3.383155e-06
17	17	2.4757917e-06
18	18	8.4129555e-06
19	19	5.8367688e-06
20	20	9.0086929e-06
21	21	5.0655805e-07
22	22	7.7164509e-08
23	23	1.971015e-07
