0	0	0.88934826
1	1	0.018553713
2	2	0.033228957
3	3	0.048232902
4	4	0.00072053159
5	5	0.00091800303
6	6	0.0019083202
7	7	0.0027077598
8	8	0.004200272
9	9	1.9754874e-05
10	10	1.0921978e-05
11	11	3.4393714e-05
12	12	5.3624319e-06
13	13	5.1522947e-06
14	14	4.0822203e-05
15	15	5.7106736e-05
16	16	1.0403739e-06
17	17	7.7107699e-07
18	18	2.8158299e-06
19	19	1.0802714e-06
20	20	1.7682366e-06
21	21	1.9096187e-07
22	22	2.5893223e-08
23	23	7.0791018e-08
