0	0	0.889235
1	1	0.01855135
2	2	0.033224725
3	3	0.048226759
4	4	0.00072043983
5	5	0.00091788612
6	6	0.0019080772
7	7	0.0027074149
8	8	0.0041997371
9	9	1.9752359e-05
10	10	1.0920587e-05
11	11	3.4389333e-05
12	12	5.361749e-06
13	13	5.1516386e-06
14	14	9.3277698e-05
15	15	0.00012520748
16	16	1.8273825e-06
17	17	1.2375585e-06
18	18	4.61306e-06
19	19	2.452063e-06
20	20	3.9633943e-06
21	21	2.9951599e-07
22	22	4.1107304e-08
23	23	1.1293984e-07
