0	0	0.8894385
1	1	0.018555596
2	2	0.033232329
3	3	0.048237796
4	4	0.0007206047
5	5	0.00091809618
6	6	0.0019085138
7	7	0.0027080345
8	8	0.0042006982
9	9	1.9756879e-05
10	10	1.0923087e-05
11	11	3.4397203e-05
12	12	5.362976e-06
13	13	5.1528175e-06
14	14	6.2883399e-07
15	15	9.3305678e-07
16	16	2.2782365e-07
17	17	5.5985218e-07
18	18	9.0956392e-07
19	19	3.9785543e-07
20	20	4.7644262e-07
21	21	6.5598071e-08
22	22	1.2582307e-08
23	23	2.4406139e-08
