0	0	0.88926506
1	1	0.018551977
2	2	0.033225848
3	3	0.048228389
4	4	0.00072046418
5	5	0.00091791715
6	6	0.0019081417
7	7	0.0027075064
8	8	0.0041998791
9	9	1.9753026e-05
10	10	1.0920957e-05
11	11	3.4390496e-05
12	12	5.3619302e-06
13	13	5.1518127e-06
14	14	7.9415216e-05
15	15	0.00010732545
16	16	1.6024856e-06
17	17	1.0911641e-06
18	18	4.0808513e-06
19	19	2.0214871e-06
20	20	3.2937681e-06
21	21	2.6892348e-07
22	22	3.6523228e-08
23	23	1.0028457e-07
