0	0	0.88855742
1	1	0.018537214
2	2	0.033199409
3	3	0.048190011
4	4	0.00071989086
5	5	0.0009171867
6	6	0.0019066232
7	7	0.0027053519
8	8	0.004196537
9	9	2.2209494e-05
10	10	1.9434027e-05
11	11	7.8837254e-05
12	12	0.00010944973
13	13	0.00016996568
14	14	0.00026074869
15	15	0.00033568226
16	16	7.6727153e-06
17	17	6.4768087e-06
18	18	1.9068929e-05
19	19	1.5850316e-05
20	20	2.3278785e-05
21	21	1.064532e-06
22	22	1.8885192e-07
23	23	4.2989822e-07
