0	0	0.88854922
1	1	0.018537043
2	2	0.033199102
3	3	0.048189567
4	4	0.00071988422
5	5	0.00091717825
6	6	0.0019066057
7	7	0.002705327
8	8	0.0041964983
9	9	2.2576794e-05
10	10	1.9823786e-05
11	11	7.9956615e-05
12	12	0.00011121503
13	13	0.00017253817
14	14	0.00026174689
15	15	0.00033679554
16	16	7.7608681e-06
17	17	6.564204e-06
18	18	1.9285839e-05
19	19	1.6048678e-05
20	20	2.3555212e-05
21	21	1.0759618e-06
22	22	1.9120563e-07
23	23	4.3468776e-07
