0	0	0.88942757
1	1	0.018555368
2	2	0.03323192
3	3	0.048237203
4	4	0.00072059584
5	5	0.00091808489
6	6	0.0019084904
7	7	0.0027080012
8	8	0.0042006466
9	9	1.9756636e-05
10	10	1.0922952e-05
11	11	3.4396781e-05
12	12	5.3629101e-06
13	13	5.1527542e-06
14	14	4.9522982e-06
15	15	7.9639156e-06
16	16	4.6119847e-07
17	17	5.5661666e-07
18	18	1.4106533e-06
19	19	4.0571543e-07
20	20	6.1378811e-07
21	21	1.0521727e-07
22	22	1.6097248e-08
23	23	3.9100044e-08
