0	0	0.88869773
1	1	0.018540142
2	2	0.033204651
3	3	0.048197621
4	4	0.00072000454
5	5	0.00091733153
6	6	0.0019069243
7	7	0.0027057791
8	8	0.0041971996
9	9	1.9740424e-05
10	10	1.356473e-05
11	11	6.0704817e-05
12	12	8.0022368e-05
13	13	0.00012714104
14	14	0.00024092379
15	15	0.00031126495
16	16	6.2318233e-06
17	17	5.0331266e-06
18	18	1.5488239e-05
19	19	1.2519491e-05
20	20	1.8603738e-05
21	21	8.7976897e-07
22	22	1.4888244e-07
23	23	3.5230948e-07
