0	0	0.88930499
1	1	0.01855281
2	2	0.03322734
3	3	0.048230555
4	4	0.00072049653
5	5	0.00091795836
6	6	0.0019082273
7	7	0.002707628
8	8	0.0042000676
9	9	1.9753913e-05
10	10	1.0921447e-05
11	11	3.439204e-05
12	12	5.362171e-06
13	13	5.152044e-06
14	14	6.0888992e-05
15	15	8.3401098e-05
16	16	1.3268055e-06
17	17	9.2432732e-07
18	18	3.4156584e-06
19	19	1.5260569e-06
20	20	2.511555e-06
21	21	2.304321e-07
22	22	3.1143122e-08
23	23	8.6176142e-08
