0	0	0.8889664
1	1	0.018545747
2	2	0.03321469
3	3	0.048212192
4	4	0.00072022221
5	5	0.00091760886
6	6	0.0019075008
7	7	0.0027065971
8	8	0.0041984685
9	9	1.9746392e-05
10	10	1.0917289e-05
11	11	3.4378946e-05
12	12	3.2418997e-05
13	13	5.5313148e-05
14	14	0.0001835404
15	15	0.00023993093
16	16	3.816247e-06
17	17	2.8226501e-06
18	18	9.4901852e-06
19	19	6.8468975e-06
20	20	1.0480393e-05
21	21	5.6313007e-07
22	22	8.6854129e-08
23	23	2.2070114e-07
