0	0	0.88929137
1	1	0.018552526
2	2	0.033226831
3	3	0.048229816
4	4	0.00072048549
5	5	0.0009179443
6	6	0.0019081981
7	7	0.0027075865
8	8	0.0042000033
9	9	1.9753611e-05
10	10	1.092128e-05
11	11	3.4391513e-05
12	12	5.3620888e-06
13	13	5.1519651e-06
14	14	6.7213263e-05
15	15	9.1586522e-05
16	16	1.4185239e-06
17	17	9.7790225e-07
18	18	3.6413412e-06
19	19	1.6843766e-06
20	20	2.7678815e-06
21	21	2.4277403e-07
22	22	3.2850576e-08
23	23	9.0890601e-08
