0	0	0.88943876
1	1	0.018555601
2	2	0.033232338
3	3	0.04823781
4	4	0.0007206049
5	5	0.00091809644
6	6	0.0019085144
7	7	0.0027080353
8	8	0.0042006994
9	9	1.9756885e-05
10	10	1.092309e-05
11	11	3.4397213e-05
12	12	5.3629775e-06
13	13	5.152819e-06
14	14	5.5148966e-07
15	15	7.653592e-07
16	16	1.9934274e-07
17	17	5.691549e-07
18	18	8.5346662e-07
19	19	4.2212011e-07
20	20	4.9284467e-07
21	21	6.0567636e-08
22	22	1.2174301e-08
23	23	2.2676312e-08
