0	0	0.88930198
1	1	0.018552748
2	2	0.033227228
3	3	0.048230392
4	4	0.00072049409
5	5	0.00091795526
6	6	0.0019082209
7	7	0.0027076188
8	8	0.0042000534
9	9	1.9753846e-05
10	10	1.092141e-05
11	11	3.4391924e-05
12	12	5.3621528e-06
13	13	5.1520266e-06
14	14	6.2287581e-05
15	15	8.5210623e-05
16	16	1.3468347e-06
17	17	9.3553682e-07
18	18	3.4655323e-06
19	19	1.5603393e-06
20	20	2.5673102e-06
21	21	2.3310607e-07
22	22	3.1514297e-08
23	23	8.7218034e-08
