0	0	0.88912491
1	1	0.018549053
2	2	0.033220612
3	3	0.048220788
4	4	0.00072035063
5	5	0.00091777248
6	6	0.0019078409
7	7	0.0027070797
8	8	0.0041992171
9	9	1.9749913e-05
10	10	1.0919235e-05
11	11	3.4385076e-05
12	12	1.2818843e-05
13	13	2.3200133e-05
14	14	0.00013329452
15	15	0.00017635193
16	16	2.563976e-06
17	17	1.79032e-06
18	18	6.4087168e-06
19	19	3.9958727e-06
20	20	6.2915375e-06
21	21	3.9787953e-07
22	22	5.801742e-08
23	23	1.5251029e-07
