0	0	0.88929986
1	1	0.018552703
2	2	0.033227149
3	3	0.048230277
4	4	0.00072049237
5	5	0.00091795307
6	6	0.0019082163
7	7	0.0027076124
8	8	0.0042000434
9	9	1.9753799e-05
10	10	1.0921384e-05
11	11	3.4391842e-05
12	12	5.36214e-06
13	13	5.1520143e-06
14	14	6.3273582e-05
15	15	8.6485976e-05
16	16	1.3609552e-06
17	17	9.438137e-07
18	18	3.5006932e-06
19	19	1.5845082e-06
20	20	2.6066174e-06
21	21	2.3501722e-07
22	22	3.1779492e-08
23	23	8.7952559e-08
