0	0	0.88943885
1	1	0.018555603
2	2	0.033232342
3	3	0.048237815
4	4	0.00072060498
5	5	0.00091809654
6	6	0.0019085146
7	7	0.0027080356
8	8	0.0042006998
9	9	1.9756887e-05
10	10	1.0923091e-05
11	11	3.4397217e-05
12	12	5.3629781e-06
13	13	5.1528195e-06
14	14	5.1992347e-07
15	15	7.04542e-07
16	16	1.8184441e-07
17	17	5.7598168e-07
18	18	8.2131663e-07
19	19	4.4072608e-07
20	20	5.0834788e-07
21	21	5.7357757e-08
22	22	1.1935811e-08
23	23	2.1608093e-08
