0	0	0.88862779
1	1	0.018538683
2	2	0.033202038
3	3	0.048193828
4	4	0.00071994787
5	5	0.00091725934
6	6	0.0019067742
7	7	0.0027055662
8	8	0.0041968693
9	9	1.9738871e-05
10	10	1.6284635e-05
11	11	6.9619743e-05
12	12	9.4563069e-05
13	13	0.00014830451
14	14	0.00025166337
15	15	0.0003245476
16	16	6.9348535e-06
17	17	5.7329564e-06
18	18	1.7232573e-05
19	19	1.4165603e-05
20	20	2.0927003e-05
21	21	9.7189085e-07
22	22	1.688169e-07
23	23	3.9058062e-07
