0	0	0.88858766
1	1	0.018537845
2	2	0.033200538
3	3	0.048191651
4	4	0.00071991536
5	5	0.00091721792
6	6	0.0019066881
7	7	0.002705444
8	8	0.0041966798
9	9	2.0862695e-05
10	10	1.8004946e-05
11	11	7.4805119e-05
12	12	0.00010297598
13	13	0.00016060375
14	14	0.00025694386
15	15	0.00033138248
16	16	7.3494165e-06
17	17	6.1563438e-06
18	18	1.8273566e-05
19	19	1.5123006e-05
20	20	2.2265225e-05
21	21	1.0245867e-06
22	22	1.8022092e-07
23	23	4.1247317e-07
