0	0	0.88854109
1	1	0.018536874
2	2	0.033198799
3	3	0.048189126
4	4	0.00071987763
5	5	0.00091716985
6	6	0.0019065882
7	7	0.0027053022
8	8	0.0041964598
9	9	2.294409e-05
10	10	2.0213538e-05
11	11	8.1094577e-05
12	12	0.0001129803
13	13	0.00017511063
14	14	0.00026265994
15	15	0.0003379075
16	16	7.8490373e-06
17	17	6.6515981e-06
18	18	1.9502749e-05
19	19	1.6247263e-05
20	20	2.3832388e-05
21	21	1.0877076e-06
22	22	1.9371374e-07
23	23	4.3947724e-07
