0	0	0.8894394
1	1	0.018555614
2	2	0.033232362
3	3	0.048237844
4	4	0.00072060542
5	5	0.0009180971
6	6	0.0019085157
7	7	0.0027080372
8	8	0.0042007024
9	9	1.9756899e-05
10	10	1.0923098e-05
11	11	3.4397238e-05
12	12	5.3629814e-06
13	13	5.1528227e-06
14	14	2.0867393e-07
15	15	2.5695261e-07
16	16	1.3864725e-07
17	17	6.254223e-07
18	18	6.9636844e-07
19	19	5.8252318e-07
20	20	6.5127539e-07
21	21	4.2556585e-08
22	22	1.0932353e-08
23	23	1.6896098e-08
