0	0	0.8892119
1	1	0.018550868
2	2	0.033223862
3	3	0.048225506
4	4	0.00072042111
5	5	0.00091786227
6	6	0.0019080276
7	7	0.0027073446
8	8	0.004199628
9	9	1.9751845e-05
10	10	1.0920304e-05
11	11	3.438844e-05
12	12	5.3616097e-06
13	13	9.4114992e-06
14	14	0.00010217061
15	15	0.00013660862
16	16	1.9767018e-06
17	17	1.3431627e-06
18	18	4.9827557e-06
19	19	2.7578657e-06
20	20	4.4208492e-06
21	21	3.1949163e-07
22	22	4.432286e-08
23	23	1.2124801e-07
