0	0	0.88905405
1	1	0.018547575
2	2	0.033217964
3	3	0.048216945
4	4	0.00072029322
5	5	0.00091769934
6	6	0.0019076889
7	7	0.002706864
8	8	0.0041988825
9	9	1.9748339e-05
10	10	1.0918365e-05
11	11	3.4382336e-05
12	12	2.0360324e-05
13	13	3.5960871e-05
14	14	0.00015707644
15	15	0.00020653206
16	16	3.1022952e-06
17	17	2.2467066e-06
18	18	7.7240854e-06
19	19	5.1960379e-06
20	20	8.0662446e-06
21	21	4.6919558e-07
22	22	7.0765772e-08
23	23	1.8178611e-07
