0	0	0.88938986
1	1	0.018554581
2	2	0.033230511
3	3	0.048235158
4	4	0.00072056529
5	5	0.00091804597
6	6	0.0019084095
7	7	0.0027078864
8	8	0.0042004685
9	9	1.9755798e-05
10	10	1.0922489e-05
11	11	3.4395322e-05
12	12	5.3626827e-06
13	13	5.1525357e-06
14	14	2.1674447e-05
15	15	3.1551674e-05
16	16	7.6809545e-07
17	17	6.4794833e-07
18	18	2.1948497e-06
19	19	6.8719442e-07
20	20	1.171414e-06
21	21	1.5216943e-07
22	22	2.1119124e-08
23	23	5.6415509e-08
