0	0	0.889403
1	1	0.018554855
2	2	0.033231002
3	3	0.04823587
4	4	0.00072057593
5	5	0.00091805953
6	6	0.0019084376
7	7	0.0027079264
8	8	0.0042005305
9	9	1.975609e-05
10	10	1.0922651e-05
11	11	3.439583e-05
12	12	5.3627619e-06
13	13	5.1526118e-06
14	14	1.5741822e-05
15	15	2.3400062e-05
16	16	6.7559703e-07
17	17	6.1307843e-07
18	18	1.9662806e-06
19	19	5.8273138e-07
20	20	9.6178944e-07
21	21	1.3836031e-07
22	22	1.9578259e-08
23	23	5.1587641e-08
