0	0	0.88853705
1	1	0.018536789
2	2	0.033198648
3	3	0.048188906
4	4	0.00071987436
5	5	0.00091716568
6	6	0.0019065795
7	7	0.0027052899
8	8	0.0041964407
9	9	2.3127736e-05
10	10	2.0408406e-05
11	11	8.1663553e-05
12	12	0.00011386293
13	13	0.00017639684
14	14	0.00026308759
15	15	0.00033846349
16	16	7.8931241e-06
17	17	6.6952957e-06
18	18	1.9611206e-05
19	19	1.6346555e-05
20	20	2.3971163e-05
21	21	1.0935805e-06
22	22	1.9497708e-07
23	23	4.4187195e-07
