0	0	0.88891957
1	1	0.01854477
2	2	0.03321294
3	3	0.048209652
4	4	0.00072018427
5	5	0.00091756052
6	6	0.0019074003
7	7	0.0027064545
8	8	0.0041982473
9	9	1.9745352e-05
10	10	1.0916714e-05
11	11	3.5680051e-05
12	12	3.989053e-05
13	13	6.6856861e-05
14	14	0.00019603751
15	15	0.00025565439
16	16	4.2204472e-06
17	17	3.1469999e-06
18	18	1.0489325e-05
19	19	7.7848585e-06
20	20	1.1842796e-05
21	21	6.1670051e-07
22	22	9.7255535e-08
23	23	2.4288138e-07
