0	0	0.88929933
1	1	0.018552692
2	2	0.033227129
3	3	0.048230248
4	4	0.00072049194
5	5	0.00091795252
6	6	0.0019082152
7	7	0.0027076108
8	8	0.0042000409
9	9	1.9753788e-05
10	10	1.0921377e-05
11	11	3.4391821e-05
12	12	5.3621368e-06
13	13	5.1520112e-06
14	14	6.3520081e-05
15	15	8.6804763e-05
16	16	1.3644853e-06
17	17	9.4594425e-07
18	18	3.5094834e-06
19	19	1.5905505e-06
20	20	2.6164442e-06
21	21	2.3550203e-07
22	22	3.184579e-08
23	23	8.8136188e-08
