0	0	0.88928925
1	1	0.018552482
2	2	0.033226752
3	3	0.048229701
4	4	0.00072048378
5	5	0.00091794212
6	6	0.0019081936
7	7	0.0027075801
8	8	0.0041999933
9	9	1.9753564e-05
10	10	1.0921254e-05
11	11	3.4391432e-05
12	12	5.3620761e-06
13	13	5.1519529e-06
14	14	6.8197475e-05
15	15	9.2855723e-05
16	16	1.4330477e-06
17	17	9.8674909e-07
18	18	3.6765037e-06
19	19	1.7097893e-06
20	20	2.8085874e-06
21	21	2.4483234e-07
22	22	3.3144405e-08
23	23	9.1625104e-08
