0	0	0.88859719
1	1	0.018538044
2	2	0.033200895
3	3	0.048192168
4	4	0.00071992308
5	5	0.00091722776
6	6	0.0019067086
7	7	0.002705473
8	8	0.0041967248
9	9	2.0447468e-05
10	10	1.7570712e-05
11	11	7.3595096e-05
12	12	0.00010100771
13	13	0.00015772442
14	14	0.00025572908
15	15	0.0003297875
16	16	7.2497214e-06
17	17	6.0575432e-06
18	18	1.8028358e-05
19	19	1.4898768e-05
20	20	2.1952754e-05
21	21	1.0122902e-06
22	22	1.7755977e-07
23	23	4.073646e-07
