0	0	0.88875288
1	1	0.018541292
2	2	0.033206712
3	3	0.048200612
4	4	0.00072004922
5	5	0.00091738846
6	6	0.0019070426
7	7	0.002705947
8	8	0.0041974601
9	9	1.9741649e-05
10	10	1.1482632e-05
11	11	5.4064362e-05
12	12	6.9216785e-05
13	13	0.00011116514
14	14	0.00023142305
15	15	0.00029974937
16	16	5.6967552e-06
17	17	4.5205437e-06
18	18	1.415972e-05
19	19	1.1281511e-05
20	20	1.6848371e-05
21	21	8.0924676e-07
22	22	1.355283e-07
23	23	3.2301225e-07
