0	0	0.88899241
1	1	0.018546289
2	2	0.033215661
3	3	0.048213603
4	4	0.00072024329
5	5	0.00091763572
6	6	0.0019075566
7	7	0.0027066763
8	8	0.0041985914
9	9	1.974697e-05
10	10	1.0917608e-05
11	11	3.4379952e-05
12	12	2.8537908e-05
13	13	4.9171521e-05
14	14	0.00017607442
15	15	0.00023042191
16	16	3.5957834e-06
17	17	2.6492308e-06
18	18	8.9369002e-06
19	19	6.3356651e-06
20	20	9.7348366e-06
21	21	5.3484505e-07
22	22	8.2009619e-08
23	23	2.089016e-07
