0	0	0.88943775
1	1	0.01855558
2	2	0.033232301
3	3	0.048237755
4	4	0.00072060409
5	5	0.0009180954
6	6	0.0019085122
7	7	0.0027080322
8	8	0.0042006947
9	9	1.9756862e-05
10	10	1.0923077e-05
11	11	3.4397174e-05
12	12	5.3629715e-06
13	13	5.1528132e-06
14	14	8.8772286e-07
15	15	1.4116333e-06
16	16	2.7095943e-07
17	17	5.5082106e-07
18	18	9.9883331e-07
19	19	3.7515684e-07
20	20	4.6986493e-07
21	21	7.308034e-08
22	22	1.322251e-08
23	23	2.7224197e-08
