0	0	0.88857517
1	1	0.018537585
2	2	0.033200072
3	3	0.048190974
4	4	0.00071990525
5	5	0.00091720503
6	6	0.0019066613
7	7	0.002705406
8	8	0.0041966208
9	9	2.1413666e-05
10	10	1.8589555e-05
11	11	7.6428597e-05
12	12	0.00010562442
13	13	0.00016442416
14	14	0.00025855581
15	15	0.00033324803
16	16	7.4817045e-06
17	17	6.2874455e-06
18	18	1.8598946e-05
19	19	1.5420553e-05
20	20	2.2679851e-05
21	21	1.0409168e-06
22	22	1.8375205e-07
23	23	4.1956215e-07
