0	0	0.88848984
1	1	0.018535805
2	2	0.033196884
3	3	0.048186346
4	4	0.00071983611
5	5	0.00091711695
6	6	0.0019064782
7	7	0.0027051461
8	8	0.0041962178
9	9	2.5270101e-05
10	10	2.2681757e-05
11	11	8.8300772e-05
12	12	0.0001242988
13	13	0.0001914774
14	14	0.0002680755
15	15	0.00034478315
16	16	8.4074431e-06
17	17	7.2179198e-06
18	18	2.0876463e-05
19	19	1.7510585e-05
20	20	2.5591072e-05
21	21	1.162097e-06
22	22	2.0993364e-07
23	23	4.6980917e-07
