0	0	0.88943559
1	1	0.018555535
2	2	0.03323222
3	3	0.048237638
4	4	0.00072060233
5	5	0.00091809317
6	6	0.0019085076
7	7	0.0027080256
8	8	0.0042006844
9	9	1.9756814e-05
10	10	1.0923051e-05
11	11	3.4397091e-05
12	12	5.3629584e-06
13	13	5.1528006e-06
14	14	1.6852993e-06
15	15	2.8163195e-06
16	16	3.3927618e-07
17	17	5.4639178e-07
18	18	1.1374523e-06
19	19	3.6599277e-07
20	20	4.9427863e-07
21	21	8.4781745e-08
22	22	1.4205468e-08
23	23	3.1118409e-08
