0	0	0.88943579
1	1	0.018555539
2	2	0.033232227
3	3	0.048237649
4	4	0.0007206025
5	5	0.00091809337
6	6	0.001908508
7	7	0.0027080262
8	8	0.0042006854
9	9	1.9756819e-05
10	10	1.0923053e-05
11	11	3.4397098e-05
12	12	5.3629596e-06
13	13	5.1528018e-06
14	14	1.6132368e-06
15	15	2.6827902e-06
16	16	3.3440298e-07
17	17	5.4646102e-07
18	18	1.1275461e-06
19	19	3.6574475e-07
20	20	4.9132254e-07
21	21	8.400182e-08
22	22	1.4135e-08
23	23	3.0858806e-08
