0	0	0.88943869
1	1	0.0185556
2	2	0.033232336
3	3	0.048237806
4	4	0.00072060485
5	5	0.00091809637
6	6	0.0019085142
7	7	0.0027080351
8	8	0.0042006991
9	9	1.9756883e-05
10	10	1.0923089e-05
11	11	3.4397211e-05
12	12	5.3629771e-06
13	13	5.1528186e-06
14	14	5.7313318e-07
15	15	8.1095697e-07
16	16	2.0897237e-07
17	17	5.6570951e-07
18	18	8.7276597e-07
19	19	4.1310529e-07
20	20	4.8581414e-07
21	21	6.2306325e-08
22	22	1.2311361e-08
23	23	2.3254876e-08
