0	0	0.8888025
1	1	0.018542327
2	2	0.033208566
3	3	0.048203303
4	4	0.00072008942
5	5	0.00091743968
6	6	0.0019071491
7	7	0.0027060981
8	8	0.0041976944
9	9	1.9742751e-05
10	10	1.0915276e-05
11	11	4.8420547e-05
12	12	5.9809755e-05
13	13	9.7115779e-05
14	14	0.00022191336
15	15	0.00028795278
16	16	5.2380568e-06
17	17	4.0757786e-06
18	18	1.3017171e-05
19	19	1.0183465e-05
20	20	1.5280883e-05
21	21	7.4867086e-07
22	22	1.2382433e-07
23	23	2.9742158e-07
