0	0	0.8886729
1	1	0.018539624
2	2	0.033203723
3	3	0.048196274
4	4	0.00071998442
5	5	0.00091730591
6	6	0.001906871
7	7	0.0027057035
8	8	0.0041970824
9	9	1.9739873e-05
10	10	1.4519158e-05
11	11	6.3777894e-05
12	12	8.5099075e-05
13	13	0.000134537
14	14	0.00024479104
15	15	0.00031627207
16	16	6.4785213e-06
17	17	5.2680753e-06
18	18	1.6100318e-05
19	19	1.3096581e-05
20	20	1.9417711e-05
21	21	9.1209336e-07
22	22	1.5587744e-07
23	23	3.6573864e-07
