0	0	0.88915982
1	1	0.018549782
2	2	0.033221916
3	3	0.048222682
4	4	0.00072037892
5	5	0.00091780852
6	6	0.0019079158
7	7	0.002707186
8	8	0.004199382
9	9	1.9750689e-05
10	10	1.0919664e-05
11	11	3.4386426e-05
12	12	9.403081e-06
13	13	1.7949117e-05
14	14	0.00012092928
15	15	0.00016056683
16	16	2.3176098e-06
17	17	1.5836121e-06
18	18	5.8000943e-06
19	19	3.466315e-06
20	20	5.4984066e-06
21	21	3.6442513e-07
22	22	5.1911448e-08
23	23	1.393057e-07
