0	0	0.88943914
1	1	0.018555609
2	2	0.033232353
3	3	0.04823783
4	4	0.00072060521
5	5	0.00091809683
6	6	0.0019085152
7	7	0.0027080364
8	8	0.0042007012
9	9	1.9756893e-05
10	10	1.0923094e-05
11	11	3.4397228e-05
12	12	5.3629798e-06
13	13	5.1528212e-06
14	14	2.0867387e-07
15	15	2.5695254e-07
16	16	1.3864721e-07
17	17	6.794538e-07
18	18	6.5081073e-07
19	19	7.1371721e-07
20	20	8.1491265e-07
21	21	3.3245959e-08
22	22	1.0380115e-08
23	23	1.406678e-08
