0	0	0.88852624
1	1	0.018536564
2	2	0.033198244
3	3	0.04818832
4	4	0.0007198656
5	5	0.00091715452
6	6	0.0019065563
7	7	0.002705257
8	8	0.0041963897
9	9	2.3617436e-05
10	10	2.0928044e-05
11	11	8.3180792e-05
12	12	0.00011623403
13	13	0.00017984429
14	14	0.00026422796
15	15	0.00033994602
16	16	8.0106867e-06
17	17	6.8118207e-06
18	18	1.990042e-05
19	19	1.6611327e-05
20	20	2.4341225e-05
21	21	1.1092413e-06
22	22	1.9834591e-07
23	23	4.482578e-07
