0	0	0.88942305
1	1	0.018555273
2	2	0.033231751
3	3	0.048236958
4	4	0.00072059218
5	5	0.00091808022
6	6	0.0019084807
7	7	0.0027079874
8	8	0.0042006252
9	9	1.9756536e-05
10	10	1.0922897e-05
11	11	3.4396606e-05
12	12	5.3628828e-06
13	13	5.152728e-06
14	14	6.9050639e-06
15	15	1.0833777e-05
16	16	5.0631364e-07
17	17	5.6549133e-07
18	18	1.517243e-06
19	19	4.3545215e-07
20	20	6.7877014e-07
21	21	1.1281347e-07
22	22	1.6875658e-08
23	23	4.2093617e-08
