0	0	0.88938359
1	1	0.01855445
2	2	0.033230277
3	3	0.048234818
4	4	0.00072056021
5	5	0.0009180395
6	6	0.001908396
7	7	0.0027078673
8	8	0.0042004389
9	9	1.9755659e-05
10	10	1.0922412e-05
11	11	3.439508e-05
12	12	5.3626449e-06
13	13	5.1524994e-06
14	14	2.453053e-05
15	15	3.5425028e-05
16	16	8.0981473e-07
17	17	6.6534591e-07
18	18	2.2953247e-06
19	19	7.3968238e-07
20	20	1.2664125e-06
21	21	1.5837642e-07
22	22	2.1839612e-08
23	23	5.8537686e-08
