0	0	0.88922973
1	1	0.01855124
2	2	0.033224528
3	3	0.048226473
4	4	0.00072043555
5	5	0.00091788068
6	6	0.0019080659
7	7	0.0027073989
8	8	0.0041997122
9	9	1.9752241e-05
10	10	1.0920523e-05
11	11	3.438913e-05
12	12	5.3617172e-06
13	13	5.9430484e-06
14	14	9.537814e-05
15	15	0.00012791067
16	16	1.8625183e-06
17	17	1.2608586e-06
18	18	4.7000516e-06
19	19	2.5237341e-06
20	20	4.0705474e-06
21	21	3.0421614e-07
22	22	4.1863973e-08
23	23	1.1489482e-07
