0	0	0.88933291
1	1	0.018553393
2	2	0.033228384
3	3	0.048232069
4	4	0.00072051915
5	5	0.00091798718
6	6	0.0019082873
7	7	0.002707713
8	8	0.0042001995
9	9	1.9754533e-05
10	10	1.092179e-05
11	11	3.439312e-05
12	12	5.3623393e-06
13	13	5.1522058e-06
14	14	4.7926419e-05
15	15	6.6474994e-05
16	16	1.1416406e-06
17	17	8.2299863e-07
18	18	3.0284946e-06
19	19	1.2264344e-06
20	20	2.022882e-06
21	21	2.0522825e-07
22	22	2.7669866e-08
23	23	7.6355995e-08
