0	0	0.88941649
1	1	0.018555137
2	2	0.033231506
3	3	0.048236602
4	4	0.00072058686
5	5	0.00091807346
6	6	0.0019084666
7	7	0.0027079675
8	8	0.0042005942
9	9	1.975639e-05
10	10	1.0922816e-05
11	11	3.4396352e-05
12	12	5.3628433e-06
13	13	5.15269e-06
14	14	9.7533314e-06
15	15	1.495836e-05
16	16	5.6720341e-07
17	17	5.8006122e-07
18	18	1.6850751e-06
19	19	4.8195221e-07
20	20	7.7139144e-07
21	21	1.222791e-07
22	22	1.7833822e-08
23	23	4.564852e-08
