0	0	0.88943878
1	1	0.018555602
2	2	0.033232339
3	3	0.048237811
4	4	0.00072060492
5	5	0.00091809646
6	6	0.0019085144
7	7	0.0027080353
8	8	0.0042006995
9	9	1.9756885e-05
10	10	1.092309e-05
11	11	3.4397214e-05
12	12	5.3629777e-06
13	13	5.1528191e-06
14	14	2.0867378e-07
15	15	2.5695243e-07
16	16	1.3864715e-07
17	17	4.3972065e-07
18	18	6.5387215e-07
19	19	1.0082566e-06
20	20	1.178194e-06
21	21	2.0777373e-08
22	22	9.772118e-09
23	23	1.0549429e-08
