0	0	0.88862298
1	1	0.018538582
2	2	0.033201858
3	3	0.048193567
4	4	0.00071994397
5	5	0.00091725437
6	6	0.0019067639
7	7	0.0027055515
8	8	0.0041968466
9	9	1.9738764e-05
10	10	1.6475499e-05
11	11	7.0255828e-05
12	12	9.5591511e-05
13	13	0.00014979425
14	14	0.00025237661
15	15	0.00032538601
16	16	6.9844726e-06
17	17	5.7848923e-06
18	18	1.7354979e-05
19	19	1.4281836e-05
20	20	2.1090529e-05
21	21	9.7835511e-07
22	22	1.7021582e-07
23	23	3.9326627e-07
