0	0	0.8894392
1	1	0.01855561
2	2	0.033232355
3	3	0.048237833
4	4	0.00072060526
5	5	0.00091809689
6	6	0.0019085153
7	7	0.0027080366
8	8	0.0042007015
9	9	1.9756894e-05
10	10	1.0923095e-05
11	11	3.439723e-05
12	12	5.3629802e-06
13	13	5.1528215e-06
14	14	2.0867388e-07
15	15	2.5695255e-07
16	16	1.3864721e-07
17	17	6.6888372e-07
18	18	6.5615019e-07
19	19	6.8466284e-07
20	20	7.8383748e-07
21	21	3.4928197e-08
22	22	1.047349e-08
23	23	1.4574615e-08
