0	0	0.88904257
1	1	0.018547336
2	2	0.033217535
3	3	0.048216323
4	4	0.00072028392
5	5	0.00091768748
6	6	0.0019076642
7	7	0.002706829
8	8	0.0041988282
9	9	1.9748084e-05
10	10	1.0918224e-05
11	11	3.4381891e-05
12	12	2.1784546e-05
13	13	3.8246915e-05
14	14	0.00016078207
15	15	0.00021111075
16	16	3.1937912e-06
17	17	2.3213345e-06
18	18	7.9484999e-06
19	19	5.4010129e-06
20	20	8.3676563e-06
21	21	4.8136722e-07
22	22	7.2850324e-08
23	23	1.8666579e-07
