0	0	0.88917647
1	1	0.018550129
2	2	0.033222538
3	3	0.048223585
4	4	0.0007203924
5	5	0.0009178257
6	6	0.0019079516
7	7	0.0027072367
8	8	0.0041994607
9	9	1.9751058e-05
10	10	1.0919869e-05
11	11	3.438707e-05
12	12	7.3919268e-06
13	13	1.5649145e-05
14	14	0.00011507336
15	15	0.00015308234
16	16	2.2073539e-06
17	17	1.5069515e-06
18	18	5.5301166e-06
19	19	3.2339498e-06
20	20	5.1441281e-06
21	21	3.494294e-07
22	22	4.9206023e-08
23	23	1.3354854e-07
