0	0	0.88882651
1	1	0.018542828
2	2	0.033209463
3	3	0.048204605
4	4	0.00072010888
5	5	0.00091746447
6	6	0.0019072006
7	7	0.0027061712
8	8	0.0041978079
9	9	1.9743285e-05
10	10	1.0915571e-05
11	11	4.5732487e-05
12	12	5.5440952e-05
13	13	9.0548325e-05
14	14	0.00021706913
15	15	0.00028166836
16	16	5.0206733e-06
17	17	3.8794861e-06
18	18	1.2475199e-05
19	19	9.6698283e-06
20	20	1.4549214e-05
21	21	7.2092198e-07
22	22	1.1823773e-07
23	23	2.8593317e-07
