0	0	0.88943752
1	1	0.018555575
2	2	0.033232292
3	3	0.048237743
4	4	0.00072060391
5	5	0.00091809517
6	6	0.0019085117
7	7	0.0027080315
8	8	0.0042006936
9	9	1.9756857e-05
10	10	1.0923075e-05
11	11	3.4397166e-05
12	12	5.3629701e-06
13	13	5.1528118e-06
14	14	9.6311576e-07
15	15	1.5657605e-06
16	16	2.7995368e-07
17	17	5.4971975e-07
18	18	1.0176217e-06
19	19	3.7220925e-07
20	20	4.7143454e-07
21	21	7.4818693e-08
22	22	1.3363416e-08
23	23	2.7802747e-08
