0	0	0.88942025
1	1	0.018555215
2	2	0.033231647
3	3	0.048236806
4	4	0.00072058991
5	5	0.00091807734
6	6	0.0019084747
7	7	0.0027079789
8	8	0.004200612
9	9	1.9756473e-05
10	10	1.0922862e-05
11	11	3.4396498e-05
12	12	5.3628659e-06
13	13	5.1527118e-06
14	14	8.1088917e-06
15	15	1.2601053e-05
16	16	5.3286044e-07
17	17	5.7159226e-07
18	18	1.5920579e-06
19	19	4.5485048e-07
20	20	7.1873096e-07
21	21	1.169898e-07
22	22	1.72935e-08
23	23	4.3683958e-08
