0	0	0.88926038
1	1	0.01855188
2	2	0.033225674
3	3	0.048228136
4	4	0.00072046039
5	5	0.00091791232
6	6	0.0019081316
7	7	0.0027074922
8	8	0.004199857
9	9	1.9752922e-05
10	10	1.0920899e-05
11	11	3.4390315e-05
12	12	5.361902e-06
13	13	5.1517856e-06
14	14	8.156684e-05
15	15	0.000110131
16	16	1.6358043e-06
17	17	1.1129792e-06
18	18	4.159968e-06
19	19	2.0856252e-06
20	20	3.39325e-06
21	21	2.7363681e-07
22	22	3.7184323e-08
23	23	1.0220098e-07
