0	0	0.88943611
1	1	0.018555546
2	2	0.033232239
3	3	0.048237666
4	4	0.00072060276
5	5	0.0009180937
6	6	0.0019085087
7	7	0.0027080272
8	8	0.0042006869
9	9	1.9756826e-05
10	10	1.0923057e-05
11	11	3.4397111e-05
12	12	5.3629615e-06
13	13	5.1528036e-06
14	14	1.4871274e-06
15	15	2.4791467e-06
16	16	3.2587486e-07
17	17	5.4658218e-07
18	18	1.1104125e-06
19	19	3.658582e-07
20	20	4.8707069e-07
21	21	8.2636742e-08
22	22	1.4014633e-08
23	23	3.0404476e-08
