0	0	0.88906138
1	1	0.018547728
2	2	0.033218238
3	3	0.048217343
4	4	0.00072029916
5	5	0.00091770691
6	6	0.0019077046
7	7	0.0027068863
8	8	0.0041989171
9	9	1.9748502e-05
10	10	1.0918455e-05
11	11	3.4382619e-05
12	12	1.9490248e-05
13	13	3.4505159e-05
14	14	0.00015469391
15	15	0.00020358332
16	16	3.0434745e-06
17	17	2.1987289e-06
18	18	7.579807e-06
19	19	5.064919e-06
20	20	7.8747478e-06
21	21	4.6137177e-07
22	22	6.9425521e-08
23	23	1.7870864e-07
