0	0	0.88941054
1	1	0.018555012
2	2	0.033231284
3	3	0.04823628
4	4	0.00072058205
5	5	0.00091806732
6	6	0.0019084538
7	7	0.0027079494
8	8	0.0042005662
9	9	1.9756258e-05
10	10	1.0922743e-05
11	11	3.4396122e-05
12	12	5.3628074e-06
13	13	5.1526555e-06
14	14	1.2362722e-05
15	15	1.8699786e-05
16	16	6.1741379e-07
17	17	5.9454716e-07
18	18	1.8171925e-06
19	19	5.2612474e-07
20	20	8.5576269e-07
21	21	1.29835e-07
22	22	1.8640722e-08
23	23	4.843886e-08
