0	0	0.88919602
1	1	0.018550537
2	2	0.033223269
3	3	0.048224645
4	4	0.00072040824
5	5	0.00091784588
6	6	0.0019079935
7	7	0.0027072962
8	8	0.004199553
9	9	1.9751493e-05
10	10	1.0920109e-05
11	11	3.4387826e-05
12	12	5.5871523e-06
13	13	1.2513128e-05
14	14	0.00010811199
15	15	0.00014420796
16	16	2.0799647e-06
17	17	1.4179983e-06
18	18	5.2328336e-06
19	19	2.9694327e-06
20	20	4.7481246e-06
21	21	3.3300476e-07
22	22	4.649796e-08
23	23	1.2686795e-07
