0	0	0.88939919
1	1	0.018554776
2	2	0.03323086
3	3	0.048235664
4	4	0.00072057284
5	5	0.00091805559
6	6	0.0019084295
7	7	0.0027079148
8	8	0.0042005125
9	9	1.9756006e-05
10	10	1.0922604e-05
11	11	3.4395683e-05
12	12	5.3627389e-06
13	13	5.1525897e-06
14	14	1.7442958e-05
15	15	2.5784347e-05
16	16	7.0329401e-07
17	17	6.2343249e-07
18	18	2.0358476e-06
19	19	6.1328357e-07
20	20	1.0220438e-06
21	21	1.4245624e-07
22	22	2.0044959e-08
23	23	5.3057147e-08
