0	0	0.88918395
1	1	0.018550285
2	2	0.033222818
3	3	0.04822399
4	4	0.00072039846
5	5	0.00091783342
6	6	0.0019079676
7	7	0.0027072595
8	8	0.004199496
9	9	1.9751225e-05
10	10	1.091996e-05
11	11	3.4387359e-05
12	12	6.3486451e-06
13	13	1.4547692e-05
14	14	0.00011251312
15	15	0.00014982898
16	16	2.160103e-06
17	17	1.474097e-06
18	18	5.4203242e-06
19	19	3.1362566e-06
20	20	4.9947235e-06
21	21	3.4314684e-07
22	22	4.812874e-08
23	23	1.310813e-07
