0	0	0.88935157
1	1	0.018553782
2	2	0.033229081
3	3	0.048233081
4	4	0.00072053427
5	5	0.00091800645
6	6	0.0019083273
7	7	0.0027077698
8	8	0.0042002876
9	9	1.9754948e-05
10	10	1.0922019e-05
11	11	3.4393842e-05
12	12	5.3624518e-06
13	13	5.1523139e-06
14	14	3.9286106e-05
15	15	5.5091324e-05
16	16	1.0181716e-06
17	17	7.6070374e-07
18	18	2.7691913e-06
19	19	1.0482201e-06
20	20	1.7150712e-06
21	21	1.8786118e-07
22	22	2.5505118e-08
23	23	6.9570353e-08
