0	0	0.88883532
1	1	0.018543012
2	2	0.033209792
3	3	0.048205083
4	4	0.00072011601
5	5	0.00091747356
6	6	0.0019072195
7	7	0.002706198
8	8	0.0041978494
9	9	1.974348e-05
10	10	1.0915679e-05
11	11	4.4763383e-05
12	12	5.3883484e-05
13	13	8.8198504e-05
14	14	0.00021518188
15	15	0.00027934358
16	16	4.942363e-06
17	17	3.8089212e-06
18	18	1.2279949e-05
19	19	9.4848794e-06
20	20	1.4285767e-05
21	21	7.1092685e-07
22	22	1.1622527e-07
23	23	2.8180385e-07
