0	0	0.88940274
1	1	0.01855485
2	2	0.033230992
3	3	0.048235856
4	4	0.00072057572
5	5	0.00091805926
6	6	0.0019084371
7	7	0.0027079256
8	8	0.0042005293
9	9	1.9756084e-05
10	10	1.0922647e-05
11	11	3.439582e-05
12	12	5.3627603e-06
13	13	5.1526103e-06
14	14	1.5862733e-05
15	15	2.3561577e-05
16	16	6.7756662e-07
17	17	6.1381802e-07
18	18	1.9712502e-06
19	19	5.8491369e-07
20	20	9.6609336e-07
21	21	1.3864448e-07
22	22	1.9611559e-08
23	23	5.1692609e-08
