0	0	0.88856697
1	1	0.018537414
2	2	0.033199766
3	3	0.048190529
4	4	0.0007198986
5	5	0.00091719657
6	6	0.0019066437
7	7	0.002705381
8	8	0.0041965821
9	9	2.1780974e-05
10	10	1.8979298e-05
11	11	7.7540296e-05
12	12	0.00010739001
13	13	0.00016697107
14	14	0.00025958408
15	15	0.00033437153
16	16	7.5698683e-06
17	17	6.3748454e-06
18	18	1.8815863e-05
19	19	1.5618907e-05
20	20	2.295628e-05
21	21	1.0518162e-06
22	22	1.8610586e-07
23	23	4.2433168e-07
