0	0	0.8893361
1	1	0.018553459
2	2	0.033228503
3	3	0.048232242
4	4	0.00072052174
5	5	0.00091799048
6	6	0.0019082941
7	7	0.0027077227
8	8	0.0042002146
9	9	1.9754604e-05
10	10	1.0921829e-05
11	11	3.4393243e-05
12	12	5.3623586e-06
13	13	5.1522243e-06
14	14	4.6448672e-05
15	15	6.4525544e-05
16	16	1.1207912e-06
17	17	8.1207442e-07
18	18	2.9847099e-06
19	19	1.1963415e-06
20	20	1.9700193e-06
21	21	2.0228761e-07
22	22	2.7302697e-08
23	23	7.5210183e-08
