0	0	0.88868532
1	1	0.018539883
2	2	0.033204187
3	3	0.048196948
4	4	0.00071999448
5	5	0.00091731872
6	6	0.0019068977
7	7	0.0027057413
8	8	0.004197141
9	9	1.9740149e-05
10	10	1.4041949e-05
11	11	6.222914e-05
12	12	8.2549593e-05
13	13	0.00013083839
14	14	0.00024287715
15	15	0.0003137709
16	16	6.355174e-06
17	17	5.1506035e-06
18	18	1.5794283e-05
19	19	1.280764e-05
20	20	1.9010431e-05
21	21	8.9593196e-07
22	22	1.5238003e-07
23	23	3.5902402e-07
