0	0	0.88935899
1	1	0.018553937
2	2	0.033229358
3	3	0.048233483
4	4	0.00072054027
5	5	0.0009180141
6	6	0.0019083432
7	7	0.0027077924
8	8	0.0042003227
9	9	1.9755113e-05
10	10	1.092211e-05
11	11	3.4394128e-05
12	12	5.3624965e-06
13	13	5.1523568e-06
14	14	3.5851071e-05
15	15	5.0552293e-05
16	16	9.7062122e-07
17	17	7.3741213e-07
18	18	2.6632783e-06
19	19	9.7542819e-07
20	20	1.6143435e-06
21	21	1.8110451e-07
22	22	2.4631633e-08
23	23	6.6798251e-08
