0	0	0.88884572
1	1	0.018543229
2	2	0.03321018
3	3	0.048205647
4	4	0.00072012443
5	5	0.00091748429
6	6	0.0019072419
7	7	0.0027062297
8	8	0.0041978985
9	9	1.9743711e-05
10	10	1.0915807e-05
11	11	4.3621635e-05
12	12	5.2066413e-05
13	13	8.5458089e-05
14	14	0.00021288016
15	15	0.00027660462
16	16	4.850105e-06
17	17	3.7257871e-06
18	18	1.2049941e-05
19	19	9.2669823e-06
20	20	1.3975387e-05
21	21	6.991499e-07
22	22	1.1385419e-07
23	23	2.7693889e-07
