0	0	0.88943652
1	1	0.018555554
2	2	0.033232255
3	3	0.048237688
4	4	0.00072060309
5	5	0.00091809413
6	6	0.0019085096
7	7	0.0027080285
8	8	0.0042006888
9	9	1.9756835e-05
10	10	1.0923062e-05
11	11	3.4397127e-05
12	12	5.362964e-06
13	13	5.152806e-06
14	14	1.3355141e-06
15	15	2.2066034e-06
16	16	3.1395671e-07
17	17	5.4699189e-07
18	18	1.0875238e-06
19	19	3.6602976e-07
20	20	4.8164402e-07
21	21	8.0728964e-08
22	22	1.3847036e-08
23	23	2.9769516e-08
