0	0	0.88943935
1	1	0.018555613
2	2	0.03323236
3	3	0.048237842
4	4	0.00072060538
5	5	0.00091809705
6	6	0.0019085156
7	7	0.0027080371
8	8	0.0042007022
9	9	1.9756898e-05
10	10	1.0923097e-05
11	11	3.4397236e-05
12	12	5.3629811e-06
13	13	5.1528224e-06
14	14	2.0867392e-07
15	15	2.569526e-07
16	16	1.3864724e-07
17	17	6.3566238e-07
18	18	6.83267e-07
19	19	6.0710338e-07
20	20	6.8595278e-07
21	21	4.0557013e-08
22	22	1.0802654e-08
23	23	1.6263522e-08
