0	0	0.88893726
1	1	0.018545139
2	2	0.033213601
3	3	0.048210611
4	4	0.0007201986
5	5	0.00091757878
6	6	0.0019074383
7	7	0.0027065084
8	8	0.0041983309
9	9	1.9745745e-05
10	10	1.0916931e-05
11	11	3.4377819e-05
12	12	3.7111671e-05
13	13	6.2561171e-05
14	14	0.00019164553
15	15	0.00025005452
16	16	4.0730076e-06
17	17	3.0199917e-06
18	18	1.0124834e-05
19	19	7.4390454e-06
20	20	1.1339402e-05
21	21	5.9680344e-07
22	22	9.3249794e-08
23	23	2.3466256e-07
