0	0	0.88943877
1	1	0.018555601
2	2	0.033232339
3	3	0.04823781
4	4	0.00072060491
5	5	0.00091809645
6	6	0.0019085144
7	7	0.0027080353
8	8	0.0042006994
9	9	1.9756885e-05
10	10	1.092309e-05
11	11	3.4397214e-05
12	12	5.3629776e-06
13	13	5.152819e-06
14	14	2.0867378e-07
15	15	2.5695243e-07
16	16	1.3864715e-07
17	17	4.3972064e-07
18	18	6.540758e-07
19	19	1.0152629e-06
20	20	1.1866254e-06
21	21	2.0565663e-08
22	22	9.7627846e-09
23	23	1.0490773e-08
