0	0	0.88907048
1	1	0.018547918
2	2	0.033218578
3	3	0.048217837
4	4	0.00072030654
5	5	0.0009177163
6	6	0.0019077241
7	7	0.002706914
8	8	0.0041989601
9	9	1.9748704e-05
10	10	1.0918567e-05
11	11	3.4382971e-05
12	12	1.844015e-05
13	13	3.2759399e-05
14	14	0.00015178188
15	15	0.00019977527
16	16	2.9715815e-06
17	17	2.1400871e-06
18	18	7.4034659e-06
19	19	4.9055345e-06
20	20	7.6407087e-06
21	21	4.5182754e-07
22	22	6.778742e-08
23	23	1.749472e-07
