0	0	0.88943853
1	1	0.018555596
2	2	0.03323233
3	3	0.048237797
4	4	0.00072060472
5	5	0.00091809621
6	6	0.0019085139
7	7	0.0027080346
8	8	0.0042006983
9	9	1.975688e-05
10	10	1.0923087e-05
11	11	3.4397205e-05
12	12	5.3629762e-06
13	13	5.1528177e-06
14	14	6.206366e-07
15	15	9.127336e-07
16	16	2.2522748e-07
17	17	5.6062188e-07
18	18	9.0451461e-07
19	19	3.9963645e-07
20	20	4.7739137e-07
21	21	6.5147845e-08
22	22	1.2544521e-08
23	23	2.4245517e-08
