0	0	0.88943943
1	1	0.018555615
2	2	0.033232363
3	3	0.048237846
4	4	0.00072060545
5	5	0.00091809713
6	6	0.0019085158
7	7	0.0027080373
8	8	0.0042007026
9	9	1.9756899e-05
10	10	1.0923098e-05
11	11	3.4397239e-05
12	12	5.3629816e-06
13	13	5.1528229e-06
14	14	2.0867394e-07
15	15	2.5695262e-07
16	16	1.3864725e-07
17	17	6.1964285e-07
18	18	7.0579119e-07
19	19	5.6645783e-07
20	20	6.2957997e-07
21	21	4.3863756e-08
22	22	1.1020497e-08
23	23	1.7317139e-08
