0	0	0.88943892
1	1	0.018555604
2	2	0.033232344
3	3	0.048237818
4	4	0.00072060503
5	5	0.0009180966
6	6	0.0019085147
7	7	0.0027080358
8	8	0.0042007001
9	9	1.9756888e-05
10	10	1.0923092e-05
11	11	3.4397219e-05
12	12	5.3629785e-06
13	13	5.1528199e-06
14	14	2.0867382e-07
15	15	2.5695247e-07
16	16	1.3864717e-07
17	17	4.3972072e-07
18	18	6.4960819e-07
19	19	9.4166275e-07
20	20	1.0925922e-06
21	21	2.3073711e-08
22	22	9.8680588e-09
23	23	1.1159178e-08
