0	0	0.99995018
1	1	1.0028539
2	2	0.9992709
3	3	1.0000084
4	4	0.99132831
5	5	0.9945595
6	6	1.0048688
7	7	1.0004856
8	8	1.0019185
9	9	1.0126043
10	10	0.90974604
11	11	1.0449206
12	12	0.96387669
13	13	0.98276191
14	14	1.0217622
15	15	1.0359567
16	16	1.0403708
17	17	0.88471529
18	18	1.0845556
19	19	0.88132833
20	20	0.81786795
21	21	1.486759
22	22	0.46413517
23	23	1.1689951
