0	0	1.0001351
1	1	0.99501321
2	2	1.0016258
3	3	0.99967289
4	4	0.99972946
5	5	0.99771414
6	6	0.99943162
7	7	0.98746923
8	8	0.99328461
9	9	0.93192863
10	10	1.0708913
11	11	0.97719368
12	12	1.1172871
13	13	1.1710954
14	14	1.043369
15	15	inf
16	16	inf
17	17	1.4657356
18	18	2.1707937
19	19	0.80289987
20	20	1.4015976
21	21	inf
22	22	inf
23	23	inf
