0	0	1.0000263
1	1	0.99990734
2	2	1.0010747
3	3	0.99975577
4	4	0.99389805
5	5	0.9788585
6	6	0.99997293
7	7	0.99183118
8	8	0.99973649
9	9	1.1825102
10	10	0.88049462
11	11	1.0112237
12	12	1.1080516
13	13	1.0123748
14	14	1.0013181
15	15	0.99137733
16	16	0.98563908
17	17	0.94772377
18	18	0.99910501
19	19	0.97086119
20	20	0.92105463
21	21	2.4459581
22	22	inf
23	23	0.63295923
