0	0	1.0001834
1	1	1.000507
2	2	0.99932665
3	3	0.99782741
4	4	0.99566229
5	5	0.99621596
6	6	0.99667477
7	7	0.98583431
8	8	1.0031917
9	9	1.0563072
10	10	0.98386594
11	11	0.91463711
12	12	1.1656322
13	13	0.90382309
14	14	0.96304873
15	15	0.98744404
16	16	1.163143
17	17	0.73875427
18	18	0.98628252
19	19	0.90059668
20	20	1.2039797
21	21	1.3629471
22	22	inf
23	23	0.50887555
