0	0	0.9999777
1	1	0.99830521
2	2	1.0001084
3	3	1.0008299
4	4	0.99822599
5	5	1.0086668
6	6	1.014076
7	7	0.99875121
8	8	0.99460139
9	9	0.92744336
10	10	0.8599839
11	11	1.0115629
12	12	1.0724684
13	13	0.90389622
14	14	0.99196144
15	15	1.0441089
16	16	1.6266597
17	17	1.1734829
18	18	1.0074132
19	19	1.3579288
20	20	1.4394435
21	21	0.68269387
22	22	inf
23	23	inf
