0	0	1.000106
1	1	0.99895031
2	2	1.0010495
3	3	0.99860908
4	4	0.98618439
5	5	0.98444829
6	6	1.0065474
7	7	1.0016406
8	8	0.99248661
9	9	1.0621981
10	10	0.98406218
11	11	0.93725381
12	12	1.0515643
13	13	0.90400337
14	14	0.52168447
15	15	2.5695244
16	16	1.3864715
17	17	0.62817237
18	18	0.72602585
19	19	0.71409457
20	20	0.72978413
21	21	inf
22	22	inf
23	23	inf
