0	0	1.000032
1	1	0.99996557
2	2	1.0017949
3	3	0.99833646
4	4	1.0018811
5	5	1.007717
6	6	1.0026146
7	7	0.99990389
8	8	0.99429425
9	9	1.0736662
10	10	0.99293646
11	11	1.0782047
12	12	1.0312674
13	13	0.99085517
14	14	0.92504366
15	15	1.043709
16	16	4.3513595
17	17	0.76774252
18	18	1.3526134
19	19	0.63091185
20	20	1.0755447
21	21	1.6698579
22	22	0.22880451
23	23	inf
