0	0	0.99991876
1	1	1.0017019
2	2	1.0005716
3	3	1.000437
4	4	0.98764585
5	5	0.99574065
6	6	0.99466587
7	7	1.0050721
8	8	1.0012375
9	9	1.1486266
10	10	1.0402676
11	11	1.1204017
12	12	1.1172583
13	13	0.85878113
14	14	0.90111356
15	15	0.98712135
16	16	0.95351568
17	17	1.4535947
18	18	0.80874453
19	19	0.97222308
20	20	1.5590824
21	21	0.41012952
22	22	inf
23	23	inf
