0	0	0.99999082
1	1	0.99801259
2	2	0.9992714
3	3	1.0025295
4	4	1.0223971
5	5	0.99657944
6	6	0.99094965
7	7	1.0014526
8	8	0.99276446
9	9	0.95387151
10	10	0.92513531
11	11	0.99960453
12	12	0.94938185
13	13	0.94351758
14	14	0.99672839
15	15	0.96678891
16	16	0.87734814
17	17	0.94664946
18	18	0.84789674
19	19	1.035513
20	20	0.9463839
21	21	0.89614595
22	22	0.99389637
23	23	1.2363023
