0	0	1.0000996
1	1	1.000564
2	2	0.9983815
3	3	0.99991134
4	4	1.0264838
5	5	1.006887
6	6	0.99815862
7	7	0.98680326
8	8	0.99500727
9	9	0.93632803
10	10	0.92566856
11	11	1.0086974
12	12	0.9246343
13	13	1.1201574
14	14	0.88605859
15	15	0.82655517
16	16	2.5617269
17	17	0.51538121
18	18	1.0229879
19	19	1.466559
20	20	1.3763282
21	21	1.1378708
22	22	inf
23	23	0.42467794
