0	0	1.0003174
1	1	0.99563501
2	2	0.99588454
3	3	0.99813704
4	4	1.0124126
5	5	0.98781443
6	6	1.0142774
7	7	1.006539
8	8	0.99729195
9	9	0.94962336
10	10	0.90251909
11	11	0.93702992
12	12	0.89361611
13	13	0.88678032
14	14	1.0050728
15	15	1.0109112
16	16	0.94223898
17	17	1.2754209
18	18	1.0115784
19	19	1.0274111
20	20	0.88032277
21	21	3.0715367
22	22	inf
23	23	inf
