0	0	1.0002036
1	1	0.99988713
2	2	0.99879318
3	3	0.99882639
4	4	0.98537546
5	5	1.0049219
6	6	0.99541794
7	7	0.98934529
8	8	0.99126894
9	9	0.97806382
10	10	0.9930084
11	11	1.0087162
12	12	1.0118828
13	13	0.95422596
14	14	0.69557943
15	15	0.64238121
16	16	1.3864718
17	17	0.61678755
18	18	1.6147062
19	19	0.7433807
20	20	1.0311812
21	21	0.24922565
22	22	inf
23	23	inf
