0	0	1.0002446
1	1	1.0029456
2	2	0.99692004
3	3	0.99823474
4	4	0.99848235
5	5	0.98868856
6	6	0.99334506
7	7	0.9923539
8	8	0.99129184
9	9	0.88994952
10	10	0.90273445
11	11	1.071564
12	12	1.2188582
13	13	0.85880294
14	14	0.62336906
15	15	1.149385
16	16	1.1304643
17	17	0.70045664
18	18	1.5103295
19	19	0.79796264
20	20	0.7951252
21	21	0.3264896
22	22	inf
23	23	0.12149529
