0	0	0.99988221
1	1	1.0051033
2	2	0.9985506
3	3	1.000424
4	4	1.0009799
5	5	1.0170567
6	6	0.9993799
7	7	1.0061817
8	8	1.0018609
9	9	0.98293031
10	10	0.96664583
11	11	0.99702142
12	12	0.94087395
13	13	1.0103574
14	14	0.41734787
15	15	1.2847631
16	16	1.3864725
17	17	1.241918
18	18	1.4068644
19	19	1.1403312
20	20	0.90627559
21	21	inf
22	22	0.1100016
23	23	inf
