0	0	0.99994524
1	1	1.0001657
2	2	0.9996104
3	3	1.0014226
4	4	0.99560371
5	5	1.0096637
6	6	0.98854397
7	7	0.99963459
8	8	1.0016443
9	9	1.0452123
10	10	0.91014822
11	11	0.97707626
12	12	1.0117611
13	13	1.2566343
14	14	0.99901997
15	15	1.0187231
16	16	0.81971293
17	17	0.82611982
18	18	0.89441312
19	19	0.72648899
20	20	1.3588029
21	21	2.0606843
22	22	inf
23	23	0.76683369
