0	0	1.0000433
1	1	0.99635968
2	2	0.99908141
3	3	0.99948862
4	4	0.98821318
5	5	1.004592
6	6	1.0087287
7	7	1.0093313
8	8	1.0097837
9	9	1.0565181
10	10	1.1620311
11	11	1.0329496
12	12	1.191773
13	13	1.1983302
14	14	inf
15	15	1.2847624
16	16	inf
17	17	inf
18	18	0.92103726
19	19	0.79636715
20	20	2.021239
21	21	inf
22	22	inf
23	23	inf
