0	0	1.0000231
1	1	0.99789265
2	2	0.99904588
3	3	1.0006523
4	4	0.98028216
5	5	1.004153
6	6	0.99969395
7	7	0.99640783
8	8	1.0100513
9	9	1.0565186
10	10	1.0113979
11	11	0.974426
12	12	0.80044497
13	13	0.99092743
14	14	inf
15	15	inf
16	16	1.3864724
17	17	0.89601812
18	18	0.630564
19	19	0.45189709
20	20	0.82281165
21	21	inf
22	22	inf
23	23	inf
