0	0	1.0000417
1	1	0.99957639
2	2	0.99814396
3	3	1.0003422
4	4	1.0238518
5	5	1.0019355
6	6	1.0037165
7	7	1.0066045
8	8	0.99325962
9	9	1.0079791
10	10	1.0922816
11	11	1.0816463
12	12	0.97506241
13	13	1.12015
14	14	0.98518499
15	15	0.8547634
16	16	0.70900426
17	17	0.96676871
18	18	1.2036251
19	19	0.80325368
20	20	0.8571016
21	21	1.222791
22	22	inf
23	23	0.4564852
