0	0	1.0000061
1	1	1.0046662
2	2	1.0008033
3	3	0.99817502
4	4	0.99591999
5	5	1.0039283
6	6	0.9955341
7	7	0.99648334
8	8	0.99752026
9	9	1.0967597
10	10	0.93771261
11	11	0.9477862
12	12	0.94649372
13	13	1.0234857
14	14	1.0235675
15	15	0.99266036
16	16	0.90255698
17	17	0.88432784
18	18	1.0392185
19	19	1.1370021
20	20	0.88024412
21	21	0.73436927
22	22	1.352623
23	23	0.80603437
