0	0	0.99994997
1	1	0.9993372
2	2	1.0018953
3	3	1.0009331
4	4	1.0076868
5	5	0.98708329
6	6	0.98798624
7	7	0.99830604
8	8	0.99638331
9	9	1.0289929
10	10	1.0113859
11	11	0.98276652
12	12	0.92464095
13	13	1.1983166
14	14	0.8878306
15	15	0.88549215
16	16	0.89506174
17	17	1.3859585
18	18	0.91843066
19	19	0.5685932
20	20	0.74428939
21	21	1.0284339
22	22	inf
23	23	inf
