0	0	1.0000265
1	1	1.0021414
2	2	1.0000592
3	3	0.99894423
4	4	0.99640357
5	5	0.98465143
6	6	1.0053726
7	7	0.99967268
8	8	0.99764056
9	9	1.0236645
10	10	1.1378126
11	11	1.032941
12	12	1.3751113
13	13	0.903996
14	14	1.1445485
15	15	0.9646421
16	16	0.37488889
17	17	1.0998045
18	18	0.86299095
19	19	0.95482286
20	20	1.1089008
21	21	inf
22	22	inf
23	23	inf
