0	0	0.99989725
1	1	0.99743571
2	2	1.0009949
3	3	1.0026855
4	4	0.98497088
5	5	1.0019602
6	6	1.0083552
7	7	0.99615027
8	8	0.99497814
9	9	0.99782217
10	10	1.0604938
11	11	1.0816731
12	12	0.89382933
13	13	0.88841681
14	14	0.78604249
15	15	1.8661136
16	16	0.75941217
17	17	1.8661739
18	18	0.75796993
19	19	0.79571087
20	20	0.79407103
21	21	inf
22	22	inf
23	23	inf
