0	0	1.0001083
1	1	0.99947253
2	2	1.0005766
3	3	0.99775425
4	4	1.0032092
5	5	1.0136875
6	6	0.98902162
7	7	1.0014927
8	8	1.0009533
9	9	1.0679401
10	10	0.9930085
11	11	1.029857
12	12	0.97508715
13	13	0.87335945
14	14	2.0867385
15	15	0.64238128
16	16	1.3864719
17	17	0.76820529
18	18	0.92207276
19	19	1.259833
20	20	1.0745921
21	21	inf
22	22	inf
23	23	inf
