0	0	0.99991408
1	1	0.99874872
2	2	1.0017197
3	3	1.0012789
4	4	1.0001588
5	5	1.0002959
6	6	0.99901265
7	7	0.99701273
8	8	0.9946073
9	9	0.97739773
10	10	1.1253251
11	11	0.98450173
12	12	0.98816874
13	13	1.003984
14	14	1.0062633
15	15	1.0328094
16	16	1.2720037
17	17	1.1251611
18	18	1.1851878
19	19	1.1343403
20	20	0.93167804
21	21	0.79253551
22	22	1.1669946
23	23	1.4138842
