0	0	0.99995997
1	1	1.0030383
2	2	0.99945242
3	3	1.0003111
4	4	1.0025761
5	5	0.99237062
6	6	0.99125762
7	7	0.99797361
8	8	1.0043138
9	9	0.96327669
10	10	0.88046129
11	11	0.9936504
12	12	0.96581314
13	13	1.0824974
14	14	0.99805642
15	15	0.97610883
16	16	1.0360184
17	17	0.78467437
18	18	0.96204716
19	19	0.88047616
20	20	0.95785763
21	21	0.87515168
22	22	inf
23	23	1.0241635
