0	0	0.99997813
1	1	1.0010955
2	2	0.9997607
3	3	1.000768
4	4	0.99161285
5	5	0.99945203
6	6	1.0072381
7	7	0.99920148
8	8	0.99234611
9	9	1.0131738
10	10	0.94164587
11	11	1.0176693
12	12	1.0118828
13	13	0.67800265
14	14	0.9305936
15	15	1.2979838
16	16	0.53716168
17	17	0.73374794
18	18	0.71213971
19	19	1.1721301
20	20	1.3358784
21	21	inf
22	22	inf
23	23	inf
