0	0	0.999916
1	1	0.99932184
2	2	0.99827726
3	3	1.0018989
4	4	1.0062913
5	5	1.0095632
6	6	1.0140888
7	7	0.9951991
8	8	1.0061077
9	9	0.98784459
10	10	1.2701272
11	11	1.0519029
12	12	0.74485826
13	13	1.010357
14	14	1.0433693
15	15	0.36707503
16	16	0.69323598
17	17	1.3777315
18	18	1.6169909
19	19	0.74431719
20	20	0.65129828
21	21	0.31613376
22	22	0.10291113
23	23	inf
