0	0	1.0001342
1	1	1.0001578
2	2	0.99742714
3	3	0.99871871
4	4	1.0051823
5	5	1.0103174
6	6	0.9955685
7	7	1.0004752
8	8	1.00206
9	9	0.92258821
10	10	0.92505319
11	11	1.0116348
12	12	1.0305178
13	13	0.97708817
14	14	1.0305319
15	15	1.0246223
16	16	0.84394331
17	17	1.4230275
18	18	0.98975675
19	19	0.95720366
20	20	1.0753669
21	21	0.55049004
22	22	0.5858682
23	23	2.837498
