0	0	0.99999306
1	1	0.99875332
2	2	0.99848171
3	3	1.0013527
4	4	0.99004743
5	5	0.99801759
6	6	0.99204669
7	7	1.002416
8	8	1.0073577
9	9	0.91810565
10	10	1.0310514
11	11	1.0156281
12	12	1.0261622
13	13	1.0274872
14	14	0.97375008
15	15	1.0043865
16	16	0.88814177
17	17	1.0652129
18	18	1.0891909
19	19	1.0563267
20	20	1.0156902
21	21	0.78970605
22	22	0.54523736
23	23	0.63418264
