0	0	0.99979389
1	1	1.0003758
2	2	1.0024676
3	3	1.0033116
4	4	1.00319
5	5	0.99066633
6	6	0.99614373
7	7	0.99555375
8	8	0.99008413
9	9	0.94970019
10	10	1.0206883
11	11	1.0085566
12	12	0.94072464
13	13	1.1981407
14	14	0.99399191
15	15	1.0251153
16	16	0.76196971
17	17	0.95020535
18	18	1.2596656
19	19	1.2327961
20	20	1.3180489
21	21	inf
22	22	inf
23	23	inf
