0	0	1.0001023
1	1	0.99538027
2	2	1.0009484
3	3	0.99912841
4	4	1.016345
5	5	0.99823389
6	6	1.0007715
7	7	0.99539575
8	8	1.0037767
9	9	0.98290739
10	10	0.90271431
11	11	0.92215648
12	12	0.89380941
13	13	0.80510979
14	14	0.87058362
15	15	0.92450811
16	16	1.0951582
17	17	0.52290042
18	18	1.255324
19	19	0.93241147
20	20	0.92644359
21	21	0.59620028
22	22	inf
23	23	inf
