0	0	1.0000654
1	1	1.0040585
2	2	0.99761575
3	3	0.99958699
4	4	1.0083871
5	5	0.99954498
6	6	0.99577712
7	7	0.9907128
8	8	0.9972476
9	9	1.0415416
10	10	1.1152788
11	11	0.98870591
12	12	1.0321084
13	13	0.97523882
14	14	0.99560897
15	15	1.0052005
16	16	1.1348223
17	17	0.95889802
18	18	1.0200737
19	19	0.9906515
20	20	1.2008718
21	21	0.82314526
22	22	0.47507195
23	23	0.54036626
