0	0	1.0000466
1	1	0.9985349
2	2	1.0007854
3	3	0.99933559
4	4	0.98923574
5	5	1.0035119
6	6	1.000436
7	7	0.99135593
8	8	1.0040539
9	9	1.1551417
10	10	0.99280901
11	11	1.0174649
12	12	0.99294481
13	13	0.8049665
14	14	0.97919375
15	15	1.0113039
16	16	1.3631702
17	17	0.79498512
18	18	1.1243157
19	19	0.86901051
20	20	1.1310833
21	21	1.3681841
22	22	0.37184323
23	23	inf
