0	0	0.99994313
1	1	0.99997385
2	2	0.99844259
3	3	1.0025177
4	4	1.0040483
5	5	1.0006508
6	6	1.0000083
7	7	0.98145741
8	8	1.0066144
9	9	1.1901746
10	10	0.98406287
11	11	1.0486963
12	12	0.6964911
13	13	0.93687687
14	14	0.69557978
15	15	0.58948176
16	16	0.46215749
17	17	0.76906951
18	18	3.5682723
19	19	0.92349659
20	20	1.2270736
21	21	inf
22	22	inf
23	23	0.17643904
