0	0	1.0001045
1	1	0.99857847
2	2	1.0001215
3	3	0.99848294
4	4	1.0009052
5	5	1.0034402
6	6	1.0031437
7	7	0.99092322
8	8	1.0039546
9	9	1.044825
10	10	0.94118372
11	11	0.96573985
12	12	0.96477507
13	13	1.0280777
14	14	1.0128215
15	15	0.98782136
16	16	1.2554037
17	17	0.99363262
18	18	1.027841
19	19	1.1174812
20	20	1.1676344
21	21	1.310289
22	22	0.8017198
23	23	0.29203686
