0	0	0.99984644
1	1	1.0015469
2	2	1.0002374
3	3	1.002038
4	4	0.99912237
5	5	0.98404902
6	6	1.0039194
7	7	1.0049058
8	8	0.99919024
9	9	0.98765538
10	10	1.0921002
11	11	0.94740048
12	12	1.5319864
13	13	0.99073729
14	14	1.0213058
15	15	0.97807751
16	16	0.82980713
17	17	1.3427459
18	18	0.8737655
19	19	0.93940831
20	20	1.6930958
21	21	0.66314383
22	22	0.1800452
23	23	inf
