0	0	0.99994019
1	1	1.00516
2	2	0.99782106
3	3	1.0001329
4	4	0.9913975
5	5	1.0157952
6	6	0.99965299
7	7	1.0004713
8	8	1.002246
9	9	0.92722441
10	10	0.90241464
11	11	1.0264185
12	12	0.98947806
13	13	0.99742672
14	14	1.041384
15	15	1.0179001
16	16	1.3552518
17	17	0.89991165
18	18	1.0549503
19	19	1.0048229
20	20	0.84358184
21	21	0.79866812
22	22	inf
23	23	1.531199
