0	0	1.0001288
1	1	0.99997536
2	2	0.99909816
3	3	0.99836852
4	4	1.0128559
5	5	0.98013544
6	6	1.004151
7	7	0.99295179
8	8	1.0032963
9	9	1.0391659
10	10	0.92508903
11	11	1.0545484
12	12	0.97891258
13	13	1.0255954
14	14	1.003238
15	15	0.9987012
16	16	0.99463771
17	17	0.89195549
18	18	0.82361177
19	19	1.0297079
20	20	1.0539895
21	21	2.2559039
22	22	inf
23	23	0.89231787
