0	0	0.99979581
1	1	1.0019287
2	2	0.99862048
3	3	1.0026835
4	4	1.0125077
5	5	1.0127881
6	6	1.0133301
7	7	1.0006368
8	8	1.0042029
9	9	0.96847048
10	10	0.93359331
11	11	1.0206843
12	12	1.0313373
13	13	0.81790418
14	14	1.096127
15	15	0.93940823
16	16	inf
17	17	0.54650566
18	18	1.1726732
19	19	0.52499986
20	20	0.72127024
21	21	inf
22	22	inf
23	23	0.32046283
