0	0	0.99990663
1	1	1.0023125
2	2	0.99890758
3	3	1.0022426
4	4	0.99202272
5	5	0.99285925
6	6	1.0088891
7	7	1.0040922
8	8	0.98849344
9	9	0.99280882
10	10	1.103343
11	11	0.99991954
12	12	0.97508736
13	13	1.0963451
14	14	1.0433695
15	15	2.5695257
16	16	1.3864722
17	17	1.0972307
18	18	1.6581771
19	19	1.0937738
20	20	1.8819088
21	21	0.36704651
22	22	inf
23	23	inf
