0	0	1.0001647
1	1	0.99878234
2	2	0.99890942
3	3	0.99909107
4	4	0.99083118
5	5	0.99769333
6	6	1.0005559
7	7	0.98640674
8	8	1.0005001
9	9	1.0506479
10	10	0.85988105
11	11	0.97419332
12	12	0.87896734
13	13	0.6998206
14	14	1.0086405
15	15	1.0178129
16	16	1.1750538
17	17	1.0604237
18	18	1.2483014
19	19	1.0238276
20	20	1.0310308
21	21	1.0218872
22	22	inf
23	23	0.57936147
