0	0	0.99998919
1	1	1.0031136
2	2	1.0017288
3	3	0.99849518
4	4	1.0063196
5	5	1.0112517
6	6	1.0084603
7	7	0.99324764
8	8	0.99362728
9	9	1.0503411
10	10	1.0703235
11	11	0.9167728
12	12	0.91974533
13	13	0.91371406
14	14	0.97441235
15	15	0.99179818
16	16	1.1540807
17	17	1.2246391
18	18	0.94709515
19	19	0.85361871
20	20	0.90908602
21	21	0.7026934
22	22	inf
23	23	2.2029429
