0	0	0.99978483
1	1	0.99697109
2	2	1.0022379
3	3	1.0031342
4	4	1.0026464
5	5	0.99814388
6	6	1.002841
7	7	1.0083874
8	8	0.99816616
9	9	0.99781843
10	10	1.0402901
11	11	1.055125
12	12	1.05156
13	13	0.93687241
14	14	1.0239685
15	15	0.79060971
16	16	0.87255701
17	17	1.3657478
18	18	5.786324
19	19	0.91713498
20	20	1.250477
21	21	0.86341591
22	22	inf
23	23	inf
