0	0	1.0001506
1	1	1.0025562
2	2	0.99703151
3	3	0.99798565
4	4	0.99256928
5	5	0.99071646
6	6	1.0014774
7	7	1.0059198
8	8	1.0027934
9	9	0.96375099
10	10	1.103343
11	11	1.0087165
12	12	0.85126674
13	13	0.90400383
14	14	0.38145937
15	15	5.1818945
16	16	0.3504937
17	17	0.75338372
18	18	0.73859381
19	19	1.2956502
20	20	1.157033
21	21	inf
22	22	inf
23	23	0.186673
