0	0	1.0000282
1	1	0.99873005
2	2	1.001116
3	3	0.99972272
4	4	1.0224249
5	5	0.9816066
6	6	1.0023186
7	7	0.99472374
8	8	0.99634742
9	9	1.023673
10	10	1.0923092
11	11	1.0206891
12	12	0.90897945
13	13	1.0963447
14	14	1.1396586
15	15	0.91541909
16	16	0.79306431
17	17	1.961558
18	18	0.70782608
19	19	0.59091241
20	20	1.3454907
21	21	0.52810011
22	22	inf
23	23	0.20107444
