0	0	1.0000195
1	1	0.99488307
2	2	1.0001058
3	3	1.0005247
4	4	1.0205293
5	5	1.0081089
6	6	1.0055799
7	7	1.0024435
8	8	1.0030675
9	9	1.122536
10	10	0.89532384
11	11	0.98558097
12	12	0.82506297
13	13	1.0515823
14	14	0.90974775
15	15	0.85613598
16	16	1.1564131
17	17	1.11368
18	18	0.83173758
19	19	1.3551985
20	20	0.68407104
21	21	inf
22	22	inf
23	23	0.39193597
