0	0	0.99997998
1	1	0.99986033
2	2	1.0001881
3	3	1.000515
4	4	1.0005626
5	5	0.99749759
6	6	0.99004777
7	7	0.99706785
8	8	1.0047841
9	9	1.1162086
10	10	0.97527624
11	11	0.96081637
12	12	0.73465473
13	13	1.0305642
14	14	2.0867386
15	15	1.2847626
16	16	0.46215732
17	17	0.98247826
18	18	1.0788349
19	19	1.2334242
20	20	0.7659409
21	21	0.31826739
22	22	inf
23	23	0.13622093
