0	0	0.99995621
1	1	0.99782787
2	2	1.0013544
3	3	1.0012147
4	4	0.99903666
5	5	0.9743147
6	6	0.99880416
7	7	0.99912786
8	8	1.0020517
9	9	0.94530579
10	10	0.92568588
11	11	0.93981488
12	12	1.0118829
13	13	1.0963448
14	14	0.96884627
15	15	3.0220233
16	16	1.5002261
17	17	1.1882056
18	18	0.69140533
19	19	1.2268783
20	20	1.8467095
21	21	0.5075731
22	22	inf
23	23	inf
