0	0	0.99995414
1	1	0.99871329
2	2	1.0008875
3	3	1.0020361
4	4	0.9979663
5	5	0.98552431
6	6	0.9986532
7	7	0.99956974
8	8	0.99169219
9	9	1.0074831
10	10	1.0203216
11	11	0.97117024
12	12	0.94476371
13	13	0.93449599
14	14	1.0044212
15	15	0.99279065
16	16	0.92718073
17	17	0.88352611
18	18	0.96057961
19	19	0.90351016
20	20	0.98230411
21	21	0.91579201
22	22	inf
23	23	1.075025
