0	0	0.99988441
1	1	1.0024891
2	2	1.0027491
3	3	0.99891436
4	4	0.98807061
5	5	0.99662403
6	6	0.99822224
7	7	1.0061365
8	8	1.0030254
9	9	1.0453305
10	10	0.97526909
11	11	1.068229
12	12	1.1917645
13	13	0.95421911
14	14	0.88217332
15	15	1.3508719
16	16	0.79308073
17	17	0.60942941
18	18	0.96833461
19	19	3.7649821
20	20	1.3458244
21	21	0.47022717
22	22	inf
23	23	inf
