0	0	1.0000489
1	1	0.9967827
2	2	0.99843325
3	3	1.001926
4	4	0.99917525
5	5	0.98815715
6	6	1.003109
7	7	0.99487008
8	8	0.99885889
9	9	1.1289653
10	10	0.92568594
11	11	1.0206892
12	12	0.87917699
13	13	0.95422612
14	14	1.0433693
15	15	1.2847626
16	16	1.386472
17	17	0.85555363
18	18	0.46340678
19	19	0.66229593
20	20	1.660895
21	21	0.32447834
22	22	inf
23	23	inf
