0	0	0.99994524
1	1	1.0007709
2	2	1.0004794
3	3	1.0008172
4	4	0.99202176
5	5	0.9954419
6	6	0.99432822
7	7	1.005284
8	8	0.99599243
9	9	1.0028871
10	10	1.1745253
11	11	0.98842526
12	12	1.0118821
13	13	1.2268612
14	14	0.83427129
15	15	1.1120007
16	16	2.3654386
17	17	1.8591822
18	18	0.84268543
19	19	1.30742
20	20	1.1832003
21	21	inf
22	22	inf
23	23	0.24968072
