0	0	1.0000733
1	1	0.99885286
2	2	0.99827487
3	3	1.0007055
4	4	1.0203522
5	5	0.99638875
6	6	0.99900864
7	7	0.99967255
8	8	0.99423001
9	9	0.94900087
10	10	1.0305469
11	11	0.96641778
12	12	1.0413604
13	13	0.95578114
14	14	1.0111299
15	15	1.0104329
16	16	1.1105806
17	17	0.88320014
18	18	0.96751409
19	19	0.82575021
20	20	0.97121575
21	21	0.86443624
22	22	inf
23	23	0.54550335
