0	0	0.99998488
1	1	1.0006386
2	2	0.99998286
3	3	1.0004782
4	4	0.99053212
5	5	1.001938
6	6	0.99671899
7	7	0.99291916
8	8	1.0000129
9	9	1.0022083
10	10	1.0201581
11	11	1.0758846
12	12	0.90557296
13	13	1.0319444
14	14	1.0158398
15	15	1.0107558
16	16	1.2032042
17	17	1.085888
18	18	1.0658216
19	19	0.94630899
20	20	1.1780768
21	21	0.64522663
22	22	0.57994088
23	23	0.70329341
