0	0	1.0000561
1	1	0.99620095
2	2	1.001849
3	3	0.99882633
4	4	1.0121164
5	5	1.0265816
6	6	1.0053409
7	7	0.9979569
8	8	0.99808629
9	9	0.95883194
10	10	0.96640309
11	11	0.95259283
12	12	0.81236891
13	13	0.74914856
14	14	1.0162419
15	15	0.9635571
16	16	1.1472666
17	17	1.2033085
18	18	0.8061503
19	19	0.96559823
20	20	0.73555374
21	21	1.5798327
22	22	inf
23	23	1.1978197
