0	0	0.99999821
1	1	1.0003674
2	2	0.99909696
3	3	0.999889
4	4	1.0123707
5	5	1.0075693
6	6	1.0062296
7	7	1.0101224
8	8	0.99460222
9	9	0.93634592
10	10	1.0208503
11	11	0.95019996
12	12	1.0725963
13	13	0.99092745
14	14	2.0867393
15	15	0.64238153
16	16	0.69323623
17	17	1.0393865
18	18	2.3303883
19	19	2.8879007
20	20	1.6107536
21	21	inf
22	22	0.10959476
23	23	inf
