0	0	0.99990636
1	1	0.99820481
2	2	1.0006329
3	3	1.0012019
4	4	0.99586476
5	5	1.0161321
6	6	0.99890175
7	7	0.99873586
8	8	1.0062355
9	9	1.0446196
10	10	0.82693825
11	11	0.98710788
12	12	0.97934529
13	13	1.0231033
14	14	1.0011009
15	15	1.0106359
16	16	1.0660258
17	17	1.1727751
18	18	1.0550329
19	19	1.0599319
20	20	1.1251465
21	21	1.0280011
22	22	0.58985853
23	23	0.95129111
