0	0	1.0000146
1	1	0.99710732
2	2	1.0010507
3	3	1.0000855
4	4	0.99475932
5	5	0.99760388
6	6	0.99681973
7	7	0.99794759
8	8	1.0043496
9	9	0.91892327
10	10	0.96664344
11	11	1.0616405
12	12	1.1658627
13	13	1.1710932
14	14	1.3521445
15	15	0.76499512
16	16	0.58230926
17	17	0.78358196
18	18	1.0416903
19	19	3.6930556
20	20	1.5791676
21	21	0.76904711
22	22	inf
23	23	inf
