0	0	0.99999052
1	1	1.0015329
2	2	0.99804204
3	3	1.0007473
4	4	1.0021929
5	5	1.0060641
6	6	1.0106855
7	7	1.0017214
8	8	0.99690265
9	9	0.88979117
10	10	0.95799503
11	11	0.9826024
12	12	0.81242756
13	13	0.91998228
14	14	0.96487715
15	15	0.97560356
16	16	1.1503839
17	17	0.78817861
18	18	1.062761
19	19	1.8233802
20	20	0.96180745
21	21	0.50747032
22	22	inf
23	23	0.94746698
