0	0	1.0000952
1	1	1.0039131
2	2	0.99583884
3	3	0.9989535
4	4	0.99661694
5	5	1.0063063
6	6	1.0065364
7	7	1.0024891
8	8	1.0007293
9	9	1.0910107
10	10	1.2267176
11	11	1.0141745
12	12	0.97001536
13	13	1.0997201
14	14	1.0130674
15	15	0.98088685
16	16	1.0870219
17	17	1.0639756
18	18	1.1528991
19	19	0.97745351
20	20	1.014465
21	21	1.0384769
22	22	0.3966829
23	23	2.0239132
