0	0	0.99980684
1	1	1.00142
2	2	1.0002331
3	3	1.002571
4	4	0.9770445
5	5	0.99356318
6	6	1.0048032
7	7	0.99996503
8	8	1.0057218
9	9	1.2120206
10	10	0.97522906
11	11	1.1203766
12	12	0.85122542
13	13	1.1201243
14	14	0.95256897
15	15	0.97550819
16	16	0.65960741
17	17	0.90229913
18	18	1.393669
19	19	0.70845951
20	20	0.71516031
21	21	0.36431044
22	22	0.20414203
23	23	inf
