0	0	1.0000434
1	1	0.99774265
2	2	1.0007596
3	3	0.99987619
4	4	0.99608865
5	5	0.97914411
6	6	1.000355
7	7	1.0031094
8	8	0.99879433
9	9	0.9093706
10	10	1.0135328
11	11	0.99578114
12	12	0.975702
13	13	1.0064176
14	14	0.99897587
15	15	1.0172689
16	16	1.2355968
17	17	0.98674434
18	18	0.90125497
19	19	1.0301668
20	20	1.0533957
21	21	0.99594371
22	22	0.97699094
23	23	1.4755673
