0	0	0.99994501
1	1	1.0008352
2	2	1.0022085
3	3	0.99944387
4	4	1.0001756
5	5	0.99999625
6	6	0.99895657
7	7	1.0023101
8	8	0.99799045
9	9	1.0078946
10	10	0.82741677
11	11	0.96883017
12	12	0.9245507
13	13	0.87326413
14	14	0.93618813
15	15	0.97812074
16	16	0.63651502
17	17	1.5841659
18	18	0.82954233
19	19	3.8015084
20	20	0.89183902
21	21	1.9682679
22	22	inf
23	23	inf
