0	0	0.99989377
1	1	1.0040504
2	2	0.99864331
3	3	1.0006987
4	4	1.0086556
5	5	1.0128743
6	6	1.0040816
7	7	1.0089627
8	8	0.99344298
9	9	1.0079745
10	10	0.97524698
11	11	1.158121
12	12	1.1172539
13	13	1.0515646
14	14	1.1660519
15	15	1.109077
16	16	0.86000071
17	17	1.4742966
18	18	1.1108982
19	19	1.0241911
20	20	1.0358628
21	21	1.2756139
22	22	inf
23	23	inf
