0	0	1.0000179
1	1	0.99783608
2	2	0.99721842
3	3	1.00207
4	4	0.98876673
5	5	1.0108262
6	6	1.0076325
7	7	1.0109619
8	8	0.99592489
9	9	0.92284949
10	10	0.94126888
11	11	1.0419227
12	12	0.90161122
13	13	1.0315139
14	14	0.97284316
15	15	0.98267421
16	16	0.95898645
17	17	1.0842768
18	18	0.91865707
19	19	0.88531349
20	20	0.91538667
21	21	1.4639104
22	22	inf
23	23	inf
