0	0	1.0002026
1	1	1.0031441
2	2	0.9981378
3	3	0.99666036
4	4	1.012143
5	5	1.0035667
6	6	0.99687456
7	7	1.0029447
8	8	0.99278148
9	9	0.96812163
10	10	1.0204773
11	11	1.0024686
12	12	0.79720989
13	13	0.91455447
14	14	1.0002563
15	15	1.041141
16	16	1.2576137
17	17	0.7736864
18	18	0.98419061
19	19	1.1574123
20	20	1.168353
21	21	0.45340148
22	22	inf
23	23	1.5677751
