0	0	1.000056
1	1	0.99790148
2	2	0.99959149
3	3	1.0001791
4	4	1.0151359
5	5	0.9974038
6	6	1.000089
7	7	0.98738325
8	8	1.0040194
9	9	1.0389277
10	10	0.9903788
11	11	0.95764711
12	12	1.0279106
13	13	0.99828939
14	14	1.0213127
15	15	1.0002607
16	16	1.0182561
17	17	0.91950348
18	18	0.95385908
19	19	0.95709416
20	20	1.0210306
21	21	0.83426399
22	22	1.0561251
23	23	0.78700612
