0	0	0.99974584
1	1	0.99990547
2	2	1.0003159
3	3	1.0037536
4	4	1.0161149
5	5	0.99437458
6	6	1.0049527
7	7	1.0004055
8	8	1.0089562
9	9	0.88947713
10	10	1.0015861
11	11	1.0293098
12	12	0.97647582
13	13	0.97211157
14	14	0.97111322
15	15	0.98171411
16	16	1.0600686
17	17	0.80647147
18	18	0.9396223
19	19	0.86669589
20	20	0.91133855
21	21	0.93855011
22	22	inf
23	23	0.55175285
