0	0	1.0000128
1	1	0.99801139
2	2	1.0015526
3	3	0.99933373
4	4	0.99402061
5	5	0.99473082
6	6	1.0040307
7	7	1.0000344
8	8	1.002903
9	9	0.99721738
10	10	1.0107839
11	11	0.94506395
12	12	0.94892509
13	13	0.96865389
14	14	1.0146003
15	15	0.99961164
16	16	1.2900877
17	17	0.97110532
18	18	0.98191369
19	19	0.98592537
20	20	0.94050716
21	21	0.7988517
22	22	1.0176088
23	23	0.63031498
