0	0	0.99999972
1	1	1.0006389
2	2	0.99843293
3	3	1.0017354
4	4	1.0140765
5	5	1.0126779
6	6	0.97517183
7	7	1.0004165
8	8	0.99738516
9	9	1.0183931
10	10	0.94164291
11	11	0.87747736
12	12	1.1410557
13	13	1.0735008
14	14	0.6121299
15	15	1.1672793
16	16	0.8116414
17	17	0.78085641
18	18	0.79148052
19	19	0.52267773
20	20	0.54057329
21	21	0.41220861
22	22	inf
23	23	inf
