0	0	1.0000277
1	1	0.99664817
2	2	0.99948957
3	3	1.0007135
4	4	1.000423
5	5	0.98911459
6	6	1.002634
7	7	1.0001605
8	8	1.0058902
9	9	0.94080375
10	10	0.97527558
11	11	1.032949
12	12	1.0313415
13	13	1.0963441
14	14	1.0526108
15	15	1.8796623
16	16	0.76231372
17	17	1.398989
18	18	0.65089073
19	19	0.79458498
20	20	0.95225273
21	21	inf
22	22	inf
23	23	0.2445968
