0	0	0.99997702
1	1	1.0008896
2	2	0.9999505
3	3	0.99940275
4	4	0.99368604
5	5	0.99426882
6	6	1.014846
7	7	0.99642989
8	8	1.0059605
9	9	1.007471
10	10	1.0203094
11	11	1.0324028
12	12	1.0336696
13	13	1.0201483
14	14	0.98299423
15	15	1.0054872
16	16	0.92699653
17	17	0.85172413
18	18	1.1814647
19	19	0.87320535
20	20	0.97463412
21	21	0.93529896
22	22	0.86520029
23	23	2.1988743
