0	0	1.000077
1	1	1.000588
2	2	0.99957124
3	3	0.99783048
4	4	1.0173727
5	5	1.012346
6	6	1.0026872
7	7	0.99776568
8	8	1.0044716
9	9	0.98784443
10	10	0.94164587
11	11	0.98277773
12	12	0.87917683
13	13	1.4722343
14	14	0.67144782
15	15	0.81636398
16	16	0.54138774
17	17	0.83751976
18	18	0.65477182
19	19	4.6691311
20	20	0.76061273
21	21	0.53612444
22	22	inf
23	23	inf
