0	0	1.0000507
1	1	1.0016618
2	2	0.99831852
3	3	0.99869848
4	4	1.0306597
5	5	1.0053485
6	6	1.0046011
7	7	1.0034559
8	8	0.99716942
9	9	1.0283147
10	10	0.96599721
11	11	1.0467658
12	12	0.99642244
13	13	0.96287357
14	14	1.03374
15	15	1.0207002
16	16	0.90329309
17	17	1.2502425
18	18	1.0820486
19	19	0.81150887
20	20	1.0577821
21	21	0.87835386
22	22	0.38188518
23	23	0.55679679
