0	0	0.99994348
1	1	1.0050052
2	2	1.0007421
3	3	0.99899658
4	4	0.9829095
5	5	1.0006846
6	6	1.0001909
7	7	0.99670102
8	8	1.001533
9	9	0.945132
10	10	1.0812956
11	11	0.95265653
12	12	1.0942844
13	13	1.1199725
14	14	1.0385288
15	15	0.94811999
16	16	1.0919203
17	17	1.0446862
18	18	1.0012951
19	19	0.81934388
20	20	0.93208945
21	21	1.2922447
22	22	inf
23	23	0.4819966
