0	0	1.0000679
1	1	1.0026261
2	2	0.99781132
3	3	0.99970748
4	4	1.0007423
5	5	0.99545661
6	6	0.99083856
7	7	0.9955975
8	8	1.0016961
9	9	0.98803577
10	10	0.94654177
11	11	1.0146456
12	12	0.9652185
13	13	1.013911
14	14	0.99245773
15	15	1.018958
16	16	0.91704688
17	17	1.0818641
18	18	1.0169299
19	19	1.1267447
20	20	0.99936466
21	21	1.060011
22	22	1.0539728
23	23	0.67343644
