0	0	1.0000856
1	1	1.0013357
2	2	0.99954134
3	3	0.99868497
4	4	0.98550739
5	5	0.98518512
6	6	1.0062793
7	7	0.99688133
8	8	1.0003544
9	9	0.89803783
10	10	1.0708883
11	11	1.0057638
12	12	0.99314136
13	13	0.74678339
14	14	0.8591346
15	15	1.427578
16	16	0.79336673
17	17	0.68358399
18	18	0.84156477
19	19	3.6597165
20	20	1.6106252
21	21	inf
22	22	inf
23	23	inf
