0	0	0.99975655
1	1	0.99994578
2	2	1.0018065
3	3	1.002971
4	4	1.001953
5	5	0.98265663
6	6	1.0047453
7	7	0.99391993
8	8	1.0097831
9	9	0.93192816
10	10	1.1146006
11	11	0.91725867
12	12	1.0118822
13	13	0.87335882
14	14	0.82417544
15	15	1.2340649
16	16	0.7826649
17	17	2.7907202
18	18	2.3085133
19	19	0.98337973
20	20	0.52656956
21	21	inf
22	22	inf
23	23	inf
