0	0	0.99999054
1	1	1.0007878
2	2	1.0031268
3	3	0.99723177
4	4	0.9958376
5	5	0.99485005
6	6	1.0086189
7	7	1.0018493
8	8	1.0034214
9	9	1.0235074
10	10	1.0303137
11	11	0.97426791
12	12	0.86485665
13	13	0.93672485
14	14	0.96594222
15	15	0.99615435
16	16	0.73321421
17	17	1.0699873
18	18	0.91789914
19	19	1.8221158
20	20	1.1236024
21	21	0.79793483
22	22	inf
23	23	0.89605215
