0	0	1.00024
1	1	0.99951546
2	2	0.99918954
3	3	0.99645563
4	4	1.0167984
5	5	0.98339398
6	6	1.0008993
7	7	1.0037197
8	8	0.99656012
9	9	1.0508983
10	10	1.0923092
11	11	0.99127435
12	12	0.8379654
13	13	1.0963447
14	14	2.0867382
15	15	0.64238119
16	16	0.46215724
17	17	1.2745339
18	18	0.91968994
19	19	0.847472
20	20	0.74881442
21	21	inf
22	22	inf
23	23	inf
