0	0	1.0000062
1	1	1.0011962
2	2	1.000808
3	3	0.99838838
4	4	1.0019426
5	5	1.0180869
6	6	0.99603073
7	7	1.0028811
8	8	1.0003816
9	9	0.91427916
10	10	1.0300392
11	11	0.99659401
12	12	0.92860269
13	13	0.99559239
14	14	1.0193248
15	15	1.022935
16	16	1.0232057
17	17	0.92502211
18	18	1.1241075
19	19	0.81320547
20	20	1.007577
21	21	0.66406925
22	22	inf
23	23	inf
