0	0	1.00005
1	1	0.99920334
2	2	1.0012065
3	3	0.99896085
4	4	1.0113756
5	5	0.99071616
6	6	0.99880408
7	7	1.0096324
8	8	0.99059106
9	9	0.97324578
10	10	0.9256858
11	11	1.0087162
12	12	0.94087348
13	13	0.88841729
14	14	0.41734766
15	15	2.5695249
16	16	inf
17	17	0.9811999
18	18	0.91931898
19	19	0.50058791
20	20	1.309226
21	21	inf
22	22	inf
23	23	inf
