0	0	0.99996272
1	1	1.0027623
2	2	0.99913304
3	3	0.99982893
4	4	0.98429921
5	5	0.99771478
6	6	1.0108129
7	7	1.0041669
8	8	0.99981021
9	9	0.98784498
10	10	1.1745267
11	11	1.0583766
12	12	0.924652
13	13	0.75776808
14	14	2.0867394
15	15	0.36707517
16	16	0.34661813
17	17	3.0872462
18	18	1.1828714
19	19	1.4006948
20	20	6.215584
21	21	inf
22	22	inf
23	23	inf
