0	0	1.0001169
1	1	0.99607992
2	2	1.0000133
3	3	1.000069
4	4	1.006814
5	5	0.98865025
6	6	0.98939287
7	7	1.00112
8	8	0.99829729
9	9	0.97320757
10	10	0.91022197
11	11	0.95016219
12	12	0.94083654
13	13	0.90396806
14	14	0.95363617
15	15	0.99362446
16	16	0.95388385
17	17	1.2211047
18	18	1.1449425
19	19	1.9162291
20	20	1.3508843
21	21	0.45741221
22	22	inf
23	23	inf
