0	0	0.99998811
1	1	0.99947261
2	2	1.0011886
3	3	0.99978299
4	4	1.0133669
5	5	1.0005414
6	6	1.0003224
7	7	0.99901738
8	8	0.99719909
9	9	0.86653038
10	10	1.0923094
11	11	0.95283179
12	12	0.77724344
13	13	1.0305642
14	14	1.6075938
15	15	0.95220068
16	16	1.4504818
17	17	1.1960247
18	18	0.93706411
19	19	0.62929042
20	20	5.6473991
21	21	inf
22	22	inf
23	23	inf
