0	0	0.99994929
1	1	0.99938114
2	2	0.99966574
3	3	1.000242
4	4	0.98307972
5	5	0.98933934
6	6	1.0044827
7	7	1.0042661
8	8	1.0108907
9	9	0.86238401
10	10	1.0016978
11	11	1.0880626
12	12	1.0222007
13	13	0.9915187
14	14	1.0293307
15	15	1.0309379
16	16	1.0035987
17	17	0.94437986
18	18	1.2294512
19	19	1.2480982
20	20	1.1097665
21	21	0.76172251
22	22	0.68680933
23	23	0.8849946
