0	0	0.99991376
1	1	0.9989151
2	2	1.001728
3	3	1.0012932
4	4	1.0084437
5	5	1.0072469
6	6	1.009268
7	7	0.98521504
8	8	0.9975254
9	9	1.0289017
10	10	1.0207476
11	11	0.92705608
12	12	1.1409452
13	13	0.78065224
14	14	1.0394375
15	15	0.99036997
16	16	0.9352568
17	17	1.0938049
18	18	1.0736501
19	19	0.70902943
20	20	0.96619795
21	21	1.8934369
22	22	inf
23	23	inf
