0	0	0.99992623
1	1	1.0048041
2	2	0.9998474
3	3	1.0004388
4	4	0.97324809
5	5	1.0095557
6	6	0.99704746
7	7	0.99180151
8	8	0.99908618
9	9	1.0731457
10	10	0.87336052
11	11	0.95760604
12	12	1.0109561
13	13	1.0478351
14	14	1.0415961
15	15	0.97423941
16	16	1.2963041
17	17	1.2408885
18	18	0.97943257
19	19	1.1080968
20	20	0.92186091
21	21	1.9650162
22	22	0.9177013
23	23	1.1582144
