0	0	1.0000732
1	1	1.0010586
2	2	0.9975247
3	3	0.99996619
4	4	1.0124271
5	5	1.0045711
6	6	1.0022143
7	7	0.99507424
8	8	0.99918956
9	9	1.1216674
10	10	0.92969492
11	11	1.0236814
12	12	1.0247574
13	13	0.99869756
14	14	1.00738
15	15	0.989082
16	16	0.93960697
17	17	0.84476411
18	18	0.95264669
19	19	0.91934844
20	20	0.97609405
21	21	0.82653448
22	22	1.3872011
23	23	1.1006473
