0	0	1.0000918
1	1	0.99673814
2	2	1.0001262
3	3	0.99855603
4	4	1.0050264
5	5	0.99792958
6	6	1.0121509
7	7	1.0023807
8	8	1.0030789
9	9	1.0343905
10	10	0.93359617
11	11	1.0455066
12	12	1.1917712
13	13	0.88841588
14	14	0.79003098
15	15	0.76746754
16	16	0.9270816
17	17	0.78562859
18	18	1.4483772
19	19	0.3726932
20	20	2.3554776
21	21	0.74471023
22	22	inf
23	23	inf
