0	0	0.99990385
1	1	1.0018434
2	2	1.0006665
3	3	1.0007335
4	4	1.0027869
5	5	1.00371
6	6	1.0017365
7	7	1.0056173
8	8	0.99210842
9	9	1.0976013
10	10	0.94164272
11	11	1.0715609
12	12	1.0313386
13	13	0.9040005
14	14	1.1855187
15	15	1.1142294
16	16	0.65905954
17	17	0.78075751
18	18	1.3970498
19	19	1.2193653
20	20	0.81455814
21	21	0.83221799
22	22	inf
23	23	inf
