0	0	1.0000478
1	1	1.0010765
2	2	1.000508
3	3	0.99795861
4	4	1.0105163
5	5	0.99748931
6	6	1.0071768
7	7	0.99478871
8	8	1.0030723
9	9	1.2046785
10	10	0.96663745
11	11	1.0057585
12	12	1.1172781
13	13	0.84471773
14	14	0.95777016
15	15	0.82651576
16	16	2.0497063
17	17	1.3742111
18	18	1.1717429
19	19	1.2698194
20	20	0.6131767
21	21	0.96315181
22	22	inf
23	23	inf
