0	0	1.0000519
1	1	0.99797605
2	2	1.0015488
3	3	0.99876434
4	4	0.99906503
5	5	0.99723784
6	6	1.0017238
7	7	0.99421677
8	8	1.0060222
9	9	0.88923501
10	10	1.0542842
11	11	0.98205985
12	12	0.97275147
13	13	0.99155178
14	14	1.0176577
15	15	0.98491584
16	16	1.0851802
17	17	1.0627394
18	18	0.98244169
19	19	0.98440027
20	20	0.8408092
21	21	1.4087713
22	22	0.47396368
23	23	0.67594958
