0	0	1.0000892
1	1	0.99953306
2	2	1.0000655
3	3	0.99952577
4	4	1.0015697
5	5	0.97928237
6	6	0.99856178
7	7	0.98764479
8	8	0.99981496
9	9	0.95380806
10	10	0.99235186
11	11	0.9440472
12	12	1.0884805
13	13	0.99056659
14	14	0.9996634
15	15	1.0190119
16	16	1.0918125
17	17	0.92105482
18	18	1.0288737
19	19	1.0527131
20	20	1.0469848
21	21	0.63023745
22	22	0.56334283
23	23	0.68626592
