0	0	1.0001093
1	1	0.99722002
2	2	1.0030591
3	3	0.99739353
4	4	0.98465428
5	5	0.99877624
6	6	1.0035983
7	7	0.99855904
8	8	0.99787864
9	9	1.0910403
10	10	1.0300078
11	11	0.97397866
12	12	0.98088473
13	13	1.0036894
14	14	1.0171241
15	15	0.98118654
16	16	0.93865293
17	17	1.0417226
18	18	0.89811966
19	19	1.0195889
20	20	0.90373866
21	21	0.98707695
22	22	inf
23	23	0.95838868
