0	0	1.0002028
1	1	0.99695388
2	2	0.99894626
3	3	0.99975583
4	4	1.0147938
5	5	0.98911508
6	6	1.0026345
7	7	0.98409616
8	8	0.99098828
9	9	0.89804038
10	10	0.92568576
11	11	1.0954529
12	12	1.0944854
13	13	0.93687636
14	14	0.52168455
15	15	0.51390495
16	16	inf
17	17	1.2998639
18	18	1.6090777
19	19	1.0514146
20	20	0.74252776
21	21	0.27015278
22	22	inf
23	23	inf
