0	0	0.99992891
1	1	1.0026916
2	2	1.0004321
3	3	0.99986178
4	4	1.009251
5	5	0.99361132
6	6	1.0042703
7	7	1.0026794
8	8	0.99807577
9	9	0.914671
10	10	1.02085
11	11	0.98559395
12	12	1.0313423
13	13	0.95422617
14	14	0.52168469
15	15	0.85650847
16	16	inf
17	17	0.61383533
18	18	0.9320832
19	19	2.3403179
20	20	1.337471
21	21	inf
22	22	0.10414913
23	23	inf
