0	0	0.99995161
1	1	0.99868867
2	2	1.0026053
3	3	0.99947111
4	4	0.99618151
5	5	0.99369227
6	6	0.99282498
7	7	1.0107248
8	8	1.0014091
9	9	0.96771551
10	10	0.9376377
11	11	1.0781638
12	12	0.96477933
13	13	0.97195078
14	14	0.98362654
15	15	1.0002015
16	16	1.0181709
17	17	1.2171736
18	18	0.89047339
19	19	0.93011382
20	20	1.2116514
21	21	1.3727553
22	22	0.69094078
23	23	1.0966574
