0	0	0.99989628
1	1	0.99996566
2	2	1.0014673
3	3	1.0014841
4	4	1.0040014
5	5	0.98871858
6	6	1.0020274
7	7	1.0066677
8	8	0.99204485
9	9	0.9635719
10	10	0.85320827
11	11	0.90028377
12	12	0.99295997
13	13	1.3557538
14	14	0.93533479
15	15	1.0160527
16	16	1.0998234
17	17	1.0513708
18	18	1.3556624
19	19	1.0582557
20	20	0.79703353
21	21	inf
22	22	inf
23	23	inf
