0	0	0.99989361
1	1	1.0034345
2	2	0.99846642
3	3	1.0006293
4	4	1.0189555
5	5	1.0021799
6	6	0.99922275
7	7	1.0076791
8	8	1.0042318
9	9	0.95907261
10	10	1.1146016
11	11	0.93981511
12	12	1.0725961
13	13	1.1201787
14	14	2.086739
15	15	inf
16	16	inf
17	17	0.81896781
18	18	0.95078469
19	19	2.1633661
20	20	1.2390699
21	21	0.37242213
22	22	0.10607289
23	23	0.15236135
