0	0	1.0000418
1	1	1.0040703
2	2	0.99642519
3	3	0.99963627
4	4	0.99597056
5	5	1.0045868
6	6	0.99280225
7	7	1.0095992
8	8	0.99969997
9	9	0.94488702
10	10	1.102854
11	11	0.94197223
12	12	1.0179791
13	13	1.0517285
14	14	1.0157969
15	15	1.0326038
16	16	0.99193284
17	17	1.4408393
18	18	1.09728
19	19	1.0932069
20	20	1.2208242
21	21	1.5958635
22	22	0.7240364
23	23	0.61863929
