0	0	0.99992008
1	1	0.99642115
2	2	0.99975175
3	3	1.0017422
4	4	1.0104591
5	5	1.0103757
6	6	1.0019546
7	7	1.0038731
8	8	1.0072392
9	9	0.95384191
10	10	1.020211
11	11	1.154805
12	12	0.9510079
13	13	1.0244372
14	14	0.98249648
15	15	1.0008225
16	16	1.0532648
17	17	0.98136934
18	18	0.94533986
19	19	0.96804857
20	20	1.0748053
21	21	6.5792432
22	22	inf
23	23	0.32488863
