0	0	0.99999723
1	1	1.0005233
2	2	1.0021666
3	3	0.99791717
4	4	1.005589
5	5	1.0014143
6	6	1.0112944
7	7	1.0138659
8	8	0.98993737
9	9	1.1354534
10	10	0.91025766
11	11	0.97719375
12	12	0.99314418
13	13	0.99092693
14	14	0.6955794
15	15	0.85650825
16	16	1.3864717
17	17	0.85396279
18	18	0.92043666
19	19	1.2333185
20	20	1.4198434
21	21	inf
22	22	inf
23	23	inf
