0	0	0.99991124
1	1	1.0020694
2	2	0.99974787
3	3	1.0005501
4	4	1.0181177
5	5	1.0184257
6	6	1.0065887
7	7	1.0016192
8	8	0.99291338
9	9	0.95392435
10	10	0.94113805
11	11	1.0323925
12	12	1.0131628
13	13	1.0682144
14	14	1.0019863
15	15	1.0207613
16	16	1.1407327
17	17	0.89702865
18	18	0.84596962
19	19	0.80350144
20	20	1.0082669
21	21	2.8546636
22	22	inf
23	23	2.2395594
