0	0	1.0000479
1	1	0.9997757
2	2	0.99979627
3	3	0.9996776
4	4	0.99117332
5	5	1.0105322
6	6	1.0033418
7	7	0.99744115
8	8	0.99603342
9	9	0.97321597
10	10	0.98403224
11	11	1.0028037
12	12	0.89380243
13	13	1.0515638
14	14	0.98758062
15	15	0.94446753
16	16	1.5194513
17	17	0.98588224
18	18	0.99574709
19	19	0.86216812
20	20	0.93204715
21	21	inf
22	22	inf
23	23	inf
