0	0	0.99991621
1	1	0.99895095
2	2	0.99681034
3	3	1.0041476
4	4	1.0055894
5	5	0.99956131
6	6	1.0034785
7	7	0.99508971
8	8	1.0007629
9	9	1.0453385
10	10	1.0304809
11	11	1.0087166
12	12	0.92465193
13	13	0.95422639
14	14	0.52168481
15	15	2.569526
16	16	1.3864724
17	17	0.70241832
18	18	1.3738515
19	19	1.4995587
20	20	1.1261393
21	21	inf
22	22	inf
23	23	inf
