0	0	1.00002
1	1	0.99596459
2	2	1.0007359
3	3	0.99998288
4	4	1.006985
5	5	1.023365
6	6	0.99809704
7	7	1.0015615
8	8	1.0041928
9	9	0.9677894
10	10	0.99230547
11	11	0.99691694
12	12	0.88038234
13	13	1.0396403
14	14	0.98582587
15	15	0.98211816
16	16	1.2323693
17	17	1.0577389
18	18	1.0808683
19	19	1.0346944
20	20	1.0322976
21	21	1.8518547
22	22	1.2222815
23	23	0.98040216
