0	0	0.99991913
1	1	1.000643
2	2	1.001329
3	3	1.0002987
4	4	1.0031952
5	5	0.99057837
6	6	1.0095939
7	7	0.99624198
8	8	0.9993105
9	9	0.89346674
10	10	1.0298924
11	11	0.94646038
12	12	1.0180575
13	13	0.99767085
14	14	0.9882355
15	15	1.031198
16	16	1.288886
17	17	1.1778006
18	18	0.94054726
19	19	0.92166507
20	20	1.1178626
21	21	0.54885758
22	22	inf
23	23	2.375292
