0	0	1.0001258
1	1	0.99928916
2	2	0.99923389
3	3	0.99937574
4	4	0.9943278
5	5	0.9901603
6	6	1.0003004
7	7	0.98917916
8	8	0.99928841
9	9	1.0679167
10	10	1.0604713
11	11	0.99699917
12	12	1.0313196
13	13	1.288177
14	14	1.0925836
15	15	0.86801529
16	16	0.7705744
17	17	1.4329787
18	18	1.1498383
19	19	0.91928935
20	20	1.040996
21	21	inf
22	22	inf
23	23	inf
