0	0	0.99986865
1	1	1.0031383
2	2	0.99925867
3	3	1.0014077
4	4	0.99943834
5	5	0.99415217
6	6	0.99947302
7	7	1.0030279
8	8	1.0018597
9	9	1.0232328
10	10	0.88051576
11	11	1.0082824
12	12	1.1023638
13	13	0.99080994
14	14	0.99163884
15	15	1.0277458
16	16	1.0275628
17	17	1.1153573
18	18	1.0661101
19	19	0.99083307
20	20	1.1432018
21	21	1.5552911
22	22	0.17579756
23	23	0.60253431
