0	0	1.0001639
1	1	1.005697
2	2	0.99465022
3	3	0.99953871
4	4	0.98631991
5	5	0.99684797
6	6	0.99708244
7	7	0.99454143
8	8	0.99705724
9	9	0.82320401
10	10	1.1260924
11	11	1.0519032
12	12	0.85126677
13	13	0.75776794
14	14	0.26084238
15	15	0.81732264
16	16	0.69323614
17	17	1.5118114
18	18	1.2234223
19	19	1.048877
20	20	1.4606706
21	21	0.47431691
22	22	inf
23	23	inf
