0	0	1.0000499
1	1	1.0023858
2	2	0.99795102
3	3	0.99904003
4	4	1.0179887
5	5	1.0059827
6	6	0.99946246
7	7	0.99589626
8	8	1.0045256
9	9	0.98213644
10	10	0.96011946
11	11	1.031339
12	12	1.0353026
13	13	0.94175205
14	14	1.0215489
15	15	1.0158548
16	16	1.0002457
17	17	0.85959653
18	18	0.97494827
19	19	0.98252528
20	20	0.84991422
21	21	0.84958477
22	22	1.4300807
23	23	0.84942577
