0	0	0.99996586
1	1	0.99924678
2	2	1.0009114
3	3	1.0001957
4	4	1.0019541
5	5	0.99945246
6	6	1.00153
7	7	1.0031996
8	8	0.99767299
9	9	1.1760058
10	10	1.0814947
11	11	0.96081663
12	12	0.97508745
13	13	0.99092737
14	14	0.34778986
15	15	0.64238148
16	16	0.69323617
17	17	0.80051078
18	18	1.1304757
19	19	2.0567191
20	20	1.1665581
21	21	inf
22	22	inf
23	23	inf
