0	0	0.99976157
1	1	1.0006023
2	2	1.0015047
3	3	1.0026706
4	4	1.0023687
5	5	1.017588
6	6	0.999499
7	7	0.99429014
8	8	1.0048334
9	9	0.97792477
10	10	1.1871238
11	11	0.97983849
12	12	1.1171284
13	13	0.85868127
14	14	0.96793254
15	15	1.041688
16	16	1.2764612
17	17	0.81468419
18	18	0.91831122
19	19	0.84699538
20	20	1.0804592
21	21	0.74570435
22	22	inf
23	23	inf
