0	0	0.99990669
1	1	1.0009159
2	2	0.99898525
3	3	1.0016066
4	4	0.99586973
5	5	1.0102642
6	6	0.99636504
7	7	1.0077948
8	8	0.99978459
9	9	0.9633595
10	10	1.0017118
11	11	1.0202748
12	12	1.0564916
13	13	1.0110978
14	14	1.0021532
15	15	1.010543
16	16	0.71089124
17	17	0.95095893
18	18	1.1342476
19	19	0.93632264
20	20	1.0795971
21	21	0.55508527
22	22	0.3322365
23	23	1.7186957
