0	0	0.99997232
1	1	1.0011653
2	2	0.99968354
3	3	1.0009907
4	4	1.0041051
5	5	1.0004286
6	6	0.99571671
7	7	1.0016781
8	8	0.99252483
9	9	1.0181707
10	10	1.1617736
11	11	1.0174438
12	12	1.0116586
13	13	0.57884027
14	14	1.0012197
15	15	0.990445
16	16	0.93404084
17	17	1.0938694
18	18	0.93386714
19	19	1.3061352
20	20	0.95066075
21	21	0.97488324
22	22	inf
23	23	1.1000741
