0	0	0.99984855
1	1	1.0011151
2	2	1.0030231
3	3	0.99942476
4	4	1.0004632
5	5	0.99545178
6	6	1.0057052
7	7	1.0006162
8	8	1.0068277
9	9	1.1036274
10	10	0.94155253
11	11	1.002735
12	12	1.4111703
13	13	1.0514917
14	14	1.0140694
15	15	1.0329579
16	16	1.0234727
17	17	1.5263672
18	18	0.86885651
19	19	0.95989282
20	20	0.75036313
21	21	0.94301217
22	22	inf
23	23	0.34931087
