0	0	1.0000964
1	1	0.9982953
2	2	0.99880659
3	3	1.0008609
4	4	0.99470289
5	5	0.98895051
6	6	0.99582696
7	7	0.99792775
8	8	0.99487312
9	9	0.9780064
10	10	0.9840046
11	11	0.89106741
12	12	0.8512165
13	13	0.83105124
14	14	1.0443307
15	15	0.99062494
16	16	1.3146821
17	17	0.93805954
18	18	0.97615074
19	19	0.79270094
20	20	0.87069117
21	21	0.77638326
22	22	0.21465873
23	23	inf
