0	0	0.99998813
1	1	0.99975301
2	2	1.0004169
3	3	1.0000906
4	4	0.99642675
5	5	1.0170434
6	6	1.0011434
7	7	0.99285049
8	8	1.0008536
9	9	0.96835549
10	10	1.1618878
11	11	1.0175437
12	12	1.1409186
13	13	0.87325162
14	14	0.98084987
15	15	0.95555261
16	16	0.72841917
17	17	1.6710974
18	18	1.1840517
19	19	0.84054788
20	20	1.4886936
21	21	0.69529649
22	22	0.28118496
23	23	0.77665388
