0	0	0.99999428
1	1	0.99994823
2	2	1.0005776
3	3	0.99968352
4	4	1.004372
5	5	1.000337
6	6	0.9952713
7	7	1.0013232
8	8	1.0018367
9	9	0.97315315
10	10	1.1496898
11	11	0.99404473
12	12	1.0943813
13	13	0.67793813
14	14	1.0679936
15	15	0.93857621
16	16	1.4295045
17	17	1.0743203
18	18	0.94143791
19	19	0.78569451
20	20	0.64536574
21	21	0.92633382
22	22	0.25180399
23	23	0.68548976
