0	0	1.0000974
1	1	0.99732927
2	2	0.99953846
3	3	1.0010217
4	4	0.99779183
5	5	0.98868931
6	6	0.98610898
7	7	1.0007896
8	8	0.99248706
9	9	0.94080449
10	10	1.0113977
11	11	0.98842616
12	12	0.76614003
13	13	1.1201786
14	14	1.0433694
15	15	inf
16	16	inf
17	17	0.60759685
18	18	1.0941395
19	19	0.97601467
20	20	1.9557093
21	21	inf
22	22	inf
23	23	inf
