0	0	0.99985102
1	1	1.0071657
2	2	1.0001536
3	3	1.000372
4	4	0.98915202
5	5	0.98646523
6	6	1.0033704
7	7	0.99346398
8	8	1.0007925
9	9	0.96334335
10	10	0.94943265
11	11	1.0172391
12	12	0.87724192
13	13	0.96849151
14	14	1.0332738
15	15	1.0119642
16	16	1.1655397
17	17	1.1516141
18	18	1.1793352
19	19	0.95015499
20	20	1.186696
21	21	2.2981823
22	22	inf
23	23	1.7802476
