0	0	0.9999395
1	1	0.99806964
2	2	1.0018625
3	3	1.0010849
4	4	0.99147144
5	5	0.9939288
6	6	0.9962443
7	7	1.0008953
8	8	0.99833145
9	9	0.90213651
10	10	1.1145956
11	11	1.0329444
12	12	1.0515592
13	13	0.95422116
14	14	0.84116554
15	15	0.86260162
16	16	0.60607152
17	17	2.733561
18	18	1.4854239
19	19	0.73729035
20	20	0.85072954
21	21	0.88681943
22	22	0.14557815
23	23	0.32507221
