0	0	1.0000177
1	1	0.99984955
2	2	1.0006924
3	3	0.999004
4	4	0.99365334
5	5	0.98931776
6	6	0.99999712
7	7	0.99746108
8	8	1.0086092
9	9	0.90626968
10	10	1.2412473
11	11	0.97718339
12	12	0.75534109
13	13	0.97221988
14	14	0.81249011
15	15	1.1406323
16	16	0.73221696
17	17	5.5322094
18	18	1.0444922
19	19	0.98457218
20	20	1.1707309
21	21	1.014191
22	22	inf
23	23	inf
