0	0	1.0000978
1	1	1.0017768
2	2	0.99904275
3	3	0.99903153
4	4	0.97961572
5	5	0.99609089
6	6	0.99241614
7	7	0.99728838
8	8	0.99874034
9	9	1.0080049
10	10	1.0814947
11	11	1.1095882
12	12	0.99314457
13	13	1.0515963
14	14	1.0433695
15	15	0.99190552
16	16	inf
17	17	1.2085715
18	18	0.66810876
19	19	1.0464055
20	20	1.1662358
21	21	0.47549807
22	22	inf
23	23	inf
