0	0	0.9999729
1	1	0.99948839
2	2	0.99954101
3	3	1.0011189
4	4	1.0082621
5	5	0.99803944
6	6	0.98789505
7	7	0.99853812
8	8	1.0040153
9	9	0.94530552
10	10	0.86691192
11	11	1.0682365
12	12	1.2188586
13	13	0.99092677
14	14	0.90104197
15	15	1.4831674
16	16	inf
17	17	1.1426783
18	18	2.1068165
19	19	2.14001
20	20	1.2434913
21	21	inf
22	22	0.12094815
23	23	0.22320243
