0	0	1.0002213
1	1	1.0003881
2	2	0.99752655
3	3	0.99866095
4	4	0.99581777
5	5	1.0063101
6	6	0.98703482
7	7	0.99263862
8	8	0.99668234
9	9	1.1225017
10	10	1.002075
11	11	0.9634657
12	12	1.1172387
13	13	0.85876602
14	14	0.91134007
15	15	0.98403344
16	16	1.1588212
17	17	0.88639172
18	18	1.1199847
19	19	1.511386
20	20	1.4354691
21	21	inf
22	22	inf
23	23	inf
