0	0	0.99994068
1	1	0.99874111
2	2	1.0035924
3	3	0.99927362
4	4	1.0001461
5	5	0.99178669
6	6	0.99020204
7	7	1.0020487
8	8	1.0045921
9	9	0.8741989
10	10	0.98406267
11	11	0.93981508
12	12	0.99314452
13	13	0.93687669
14	14	2.0867389
15	15	0.85650855
16	16	inf
17	17	1.1007465
18	18	0.94535981
19	19	0.55118477
20	20	0.7589779
21	21	inf
22	22	inf
23	23	inf
