0	0	1.0000189
1	1	0.99786578
2	2	0.99882063
3	3	1.0011818
4	4	1.006854
5	5	0.98476569
6	6	1.0017929
7	7	0.99512626
8	8	1.0064696
9	9	0.94080466
10	10	1.1497997
11	11	0.9398152
12	12	0.9576752
13	13	0.93687681
14	14	1.0433696
15	15	0.54371819
16	16	0.69323619
17	17	1.2226135
18	18	1.4421186
19	19	2.714873
20	20	0.60203162
21	21	0.45773663
22	22	inf
23	23	inf
