0	0	0.99984937
1	1	1.0002159
2	2	1.0030227
3	3	1.0021112
4	4	1.0166551
5	5	0.99738913
6	6	0.9908701
7	7	0.98808189
8	8	0.99265102
9	9	1.0290047
10	10	1.1033427
11	11	0.90281425
12	12	1.0944855
13	13	1.1710956
14	14	0.52168459
15	15	2.569525
16	16	0.69323592
17	17	2.3111937
18	18	1.6103229
19	19	0.97926467
20	20	2.235481
21	21	inf
22	22	inf
23	23	inf
