0	0	0.9999764
1	1	1.001229
2	2	1.0011835
3	3	0.99785977
4	4	1.0069541
5	5	1.0080516
6	6	1.0066853
7	7	1.0043585
8	8	1.0050362
9	9	0.94063527
10	10	1.0813
11	11	1.0647382
12	12	0.97491192
13	13	0.93670813
14	14	1.0146991
15	15	1.0363873
16	16	1.0734816
17	17	0.6860591
18	18	0.89384182
19	19	1.0205337
20	20	0.90968427
21	21	1.2739133
22	22	0.34540043
23	23	0.95113945
