0	0	1.0002402
1	1	1.0002752
2	2	0.99811223
3	3	0.99704678
4	4	0.99434949
5	5	1.0064642
6	6	0.99869955
7	7	0.99864879
8	8	0.99812299
9	9	1.073744
10	10	0.98406238
11	11	0.95547838
12	12	0.99314422
13	13	0.99092697
14	14	1.0433691
15	15	0.51390497
16	16	inf
17	17	0.97435107
18	18	3.2299945
19	19	1.1169985
20	20	0.64565906
21	21	0.24864786
22	22	inf
23	23	inf
