0	0	1.0000375
1	1	0.99532641
2	2	1.0016691
3	3	1.0003093
4	4	0.99695905
5	5	1.0155044
6	6	1.00398
7	7	0.99350071
8	8	0.99441124
9	9	1.0275064
10	10	1.008352
11	11	1.0228823
12	12	0.99641283
13	13	0.9859369
14	14	1.0126611
15	15	1.0119432
16	16	0.98636882
17	17	0.95485034
18	18	0.95564608
19	19	0.8932724
20	20	1.0770579
21	21	0.94793945
22	22	1.8414436
23	23	1.0508927
