0	0	1.0001
1	1	1.0014467
2	2	0.99808822
3	3	0.99892772
4	4	1.0008404
5	5	0.99490316
6	6	1.0057519
7	7	0.99290015
8	8	1.0021711
9	9	1.1354534
10	10	1.0814943
11	11	0.99702089
12	12	0.97508703
13	13	0.99092694
14	14	1.0433691
15	15	0.85650827
16	16	1.3864718
17	17	2.2382398
18	18	1.286351
19	19	0.5873546
20	20	1.3463305
21	21	inf
22	22	inf
23	23	inf
