0	0	1.0000018
1	1	1.0023184
2	2	0.99699004
3	3	1.0020369
4	4	1.0152294
5	5	0.98706814
6	6	0.9870473
7	7	0.99294887
8	8	0.99986581
9	9	1.0027531
10	10	0.99287505
11	11	1.0359218
12	12	1.0943385
13	13	0.97209967
14	14	1.0658192
15	15	0.98813236
16	16	1.117811
17	17	1.4495566
18	18	0.91710749
19	19	1.1340716
20	20	0.97953096
21	21	0.72470025
22	22	0.29339989
23	23	0.27034043
