0	0	0.99996648
1	1	1.0036724
2	2	0.99870254
3	3	1.0008963
4	4	1.0157687
5	5	0.98967168
6	6	0.99380925
7	7	0.99950384
8	8	0.99084842
9	9	0.98221142
10	10	0.8662785
11	11	1.0606456
12	12	0.97255923
13	13	0.97969503
14	14	1.0098049
15	15	1.0493874
16	16	0.87905996
17	17	0.89124638
18	18	1.0576856
19	19	1.1389432
20	20	0.94619842
21	21	0.95577925
22	22	0.423388
23	23	0.60809787
