0	0	0.9999184
1	1	1.0023182
2	2	1.0000652
3	3	1.0006762
4	4	0.98881924
5	5	1.0087963
6	6	1.0058587
7	7	0.9960881
8	8	1.0016738
9	9	0.94965091
10	10	0.8807095
11	11	0.91706655
12	12	0.94067583
13	13	0.99071881
14	14	1.0045
15	15	0.94763128
16	16	1.4138131
17	17	0.96089069
18	18	0.82719513
19	19	1.0011243
20	20	0.99217452
21	21	1.4100791
22	22	inf
23	23	0.52830902
