0	0	0.99982268
1	1	0.99808529
2	2	1.0003474
3	3	1.0025984
4	4	0.99284236
5	5	1.0143592
6	6	1.0013193
7	7	1.0049115
8	8	1.0064691
9	9	1.1037367
10	10	1.1146011
11	11	1.1131786
12	12	0.9931441
13	13	1.0515958
14	14	0.52168451
15	15	1.2847623
16	16	0.69323581
17	17	0.87944138
18	18	0.59235215
19	19	0.80679588
20	20	1.6108605
21	21	inf
22	22	inf
23	23	inf
