0	0	1.0000101
1	1	1.0008579
2	2	0.99928069
3	3	0.99955979
4	4	1.0006649
5	5	0.99305344
6	6	1.003551
7	7	1.0035626
8	8	1.0038725
9	9	0.88160437
10	10	0.90984528
11	11	0.99368892
12	12	1.0276671
13	13	0.91486624
14	14	0.97348595
15	15	1.0235301
16	16	0.87731721
17	17	0.90922264
18	18	1.2820195
19	19	1.0613736
20	20	0.8376266
21	21	1.6277408
22	22	inf
23	23	inf
