0	0	1.0001208
1	1	0.99812586
2	2	1.0003397
3	3	0.99881025
4	4	1.0018065
5	5	0.99554264
6	6	0.98773408
7	7	1.0073709
8	8	0.99546597
9	9	0.96846733
10	10	0.99300057
11	11	1.0329415
12	12	0.9931364
13	13	0.95421845
14	14	1.1712076
15	15	0.85354307
16	16	0.81257297
17	17	1.0987154
18	18	0.75327247
19	19	0.75894162
20	20	1.8265732
21	21	0.95680381
22	22	inf
23	23	inf
