0	0	0.99996634
1	1	1.0028234
2	2	0.9999669
3	3	0.9991092
4	4	0.99395424
5	5	0.98700654
6	6	1.0070261
7	7	1.0044423
8	8	1.0030864
9	9	1.0227161
10	10	1.0102948
11	11	0.98288702
12	12	1.032799
13	13	1.0036807
14	14	1.0041111
15	15	0.98775554
16	16	1.0544815
17	17	0.92174376
18	18	1.0458265
19	19	0.95271976
20	20	1.0201331
21	21	1.0155219
22	22	0.89129575
23	23	0.51088398
