0	0	1.0001871
1	1	0.99964613
2	2	0.9990382
3	3	0.9974299
4	4	1.0167469
5	5	0.99054256
6	6	1.0067236
7	7	0.99867987
8	8	0.99481736
9	9	1.0129041
10	10	0.99294765
11	11	1.0180033
12	12	0.98599382
13	13	1.0160304
14	14	0.99687507
15	15	1.0128402
16	16	0.96764843
17	17	0.88824908
18	18	1.0353655
19	19	1.0959444
20	20	0.94679834
21	21	1.249892
22	22	1.00877
23	23	0.75773926
