0	0	0.99990502
1	1	0.99503189
2	2	1.001784
3	3	1.0019487
4	4	1.000286
5	5	0.98756511
6	6	1.0140779
7	7	0.99244392
8	8	1.0078815
9	9	0.91020419
10	10	1.0602014
11	11	1.0114035
12	12	1.1617032
13	13	0.91710544
14	14	1.006837
15	15	0.99530127
16	16	1.1656289
17	17	0.89438211
18	18	0.97709714
19	19	0.69956521
20	20	0.90666556
21	21	0.55892463
22	22	inf
23	23	1.2784533
