0	0	0.9998322
1	1	1.0015771
2	2	1.0009832
3	3	1.0011825
4	4	0.98595449
5	5	1.0066982
6	6	1.0091114
7	7	0.99532241
8	8	1.0072408
9	9	0.95434699
10	10	1.050196
11	11	1.0297576
12	12	1.0117851
13	13	1.0514945
14	14	1.0121508
15	15	1.0079647
16	16	1.008161
17	17	0.62978668
18	18	0.68672318
19	19	1.29112
20	20	0.73646072
21	21	1.8637866
22	22	inf
23	23	inf
