0	0	0.99996539
1	1	1.0007876
2	2	0.9989131
3	3	1.0009029
4	4	1.0099579
5	5	1.0019606
6	6	1.0012667
7	7	1.0050607
8	8	0.99596929
9	9	0.95907213
10	10	1.0304802
11	11	1.0919751
12	12	1.1172871
13	13	0.81790783
14	14	0.52168448
15	15	inf
16	16	1.3864715
17	17	0.43972067
18	18	1.3057505
19	19	1.4135761
20	20	0.55000352
21	21	inf
22	22	inf
23	23	inf
