0	0	0.99991169
1	1	1.0005601
2	2	1.0009264
3	3	1.0006301
4	4	1.028891
5	5	1.0087625
6	6	0.99605859
7	7	0.99870011
8	8	0.99920936
9	9	1.1351768
10	10	0.82108504
11	11	1.0114365
12	12	0.83776127
13	13	0.8594258
14	14	1.0026513
15	15	0.96341784
16	16	1.2738862
17	17	0.68123888
18	18	0.96393165
19	19	1.3802042
20	20	0.89747705
21	21	1.5533942
22	22	inf
23	23	0.39194286
