0	0	0.99986254
1	1	0.99944512
2	2	1.0013962
3	3	1.0021586
4	4	0.99903618
5	5	1.0041521
6	6	1.0003743
7	7	0.99953304
8	8	0.99493114
9	9	1.0028874
10	10	1.0502969
11	11	1.0176689
12	12	1.0118824
13	13	0.92014611
14	14	1.1865077
15	15	1.7077902
16	16	inf
17	17	1.126386
18	18	0.7397065
19	19	1.355662
20	20	0.68801478
21	21	inf
22	22	inf
23	23	inf
