0	0	0.99995638
1	1	1.0018144
2	2	1.0011432
3	3	0.99872303
4	4	1.0048879
5	5	1.0116768
6	6	1.0049576
7	7	0.99406652
8	8	1.0052168
9	9	0.95907233
10	10	1.1378222
11	11	0.95547841
12	12	0.94087351
13	13	1.0963448
14	14	1.0670711
15	15	1.0440765
16	16	1.5455673
17	17	1.970126
18	18	0.9629504
19	19	2.4026799
20	20	1.0898498
21	21	inf
22	22	inf
23	23	inf
