0	0	1.0001544
1	1	0.99833817
2	2	1.0002127
3	3	0.99867545
4	4	0.99542584
5	5	0.99123324
6	6	1.0068259
7	7	0.98606067
8	8	0.99621208
9	9	1.064821
10	10	1.0881498
11	11	0.93189545
12	12	0.99322579
13	13	1.0194644
14	14	1.0014693
15	15	1.0053791
16	16	1.0785948
17	17	0.91017502
18	18	1.045757
19	19	1.0338077
20	20	1.0014101
21	21	0.96610499
22	22	0.94229813
23	23	1.4303371
