0	0	0.99994888
1	1	1.001299
2	2	1.0007585
3	3	1.0000526
4	4	1.0006997
5	5	1.0117865
6	6	0.99713245
7	7	0.99523382
8	8	1.0009753
9	9	1.0080028
10	10	1.2555257
11	11	0.90997782
12	12	0.80044321
13	13	1.0963428
14	14	0.71595748
15	15	0.70757016
16	16	0.70921832
17	17	0.68662327
18	18	1.7085618
19	19	0.74248271
20	20	0.78685431
21	21	0.75514034
22	22	inf
23	23	inf
