0	0	0.99995947
1	1	1.0006752
2	2	1.0024041
3	3	0.99902303
4	4	0.98937811
5	5	1.0093675
6	6	1.0080322
7	7	1.001563
8	8	0.99332142
9	9	1.022912
10	10	0.86626765
11	11	0.96854952
12	12	1.0011518
13	13	0.98863407
14	14	0.98721835
15	15	1.0125631
16	16	0.85402735
17	17	0.95337025
18	18	1.2815915
19	19	1.041485
20	20	1.056757
21	21	0.59850717
22	22	0.43225412
23	23	0.77461141
