0	0	0.99979259
1	1	1.0035612
2	2	1.0019649
3	3	1.0015837
4	4	0.9833786
5	5	1.0238435
6	6	0.98823198
7	7	0.98830275
8	8	1.0042701
9	9	1.0020872
10	10	0.97447678
11	11	1.0499448
12	12	0.95626533
13	13	1.0075235
14	14	1.00643
15	15	1.0059202
16	16	1.2879377
17	17	1.394248
18	18	0.96879935
19	19	1.1466494
20	20	0.9071258
21	21	0.83950022
22	22	0.70556939
23	23	1.1186025
