0	0	1.000106
1	1	0.99873625
2	2	0.99752944
3	3	1.0000394
4	4	0.99051792
5	5	0.99641032
6	6	1.004424
7	7	1.0053921
8	8	0.99878292
9	9	1.0621935
10	10	0.99300386
11	11	1.0391862
12	12	0.90897531
13	13	1.3212299
14	14	0.81307545
15	15	0.87845654
16	16	1.1837151
17	17	0.68308905
18	18	0.97505187
19	19	1.2246408
20	20	0.83994068
21	21	inf
22	22	inf
23	23	0.3196946
