0	0	0.99995594
1	1	0.99921067
2	2	1.0018495
3	3	0.99927783
4	4	1.0123404
5	5	1.0036213
6	6	0.99438291
7	7	1.0039664
8	8	1.0014539
9	9	1.0025765
10	10	1.1030002
11	11	1.0515763
12	12	1.224798
13	13	1.0126864
14	14	0.98061743
15	15	1.0470748
16	16	0.76553743
17	17	1.5690105
18	18	1.0644955
19	19	0.83441038
20	20	0.98731938
21	21	3.6151588
22	22	0.51380471
23	23	inf
