0	0	0.9998626
1	1	1.0054724
2	2	0.99829477
3	3	1.0010283
4	4	1.0119836
5	5	0.98299253
6	6	0.99427123
7	7	1.0024382
8	8	1.0079102
9	9	0.92869136
10	10	1.0521688
11	11	0.99291445
12	12	0.97754154
13	13	0.99409523
14	14	1.013531
15	15	1.0212971
16	16	1.146614
17	17	1.0052629
18	18	1.0757022
19	19	0.94521242
20	20	1.0219919
21	21	1.0090585
22	22	0.58953462
23	23	0.58003142
