0	0	0.99992786
1	1	1.001863
2	2	1.0023933
3	3	0.99925879
4	4	0.99834448
5	5	0.98762545
6	6	1.0059109
7	7	0.99953339
8	8	0.99698586
9	9	0.94080421
10	10	1.1620311
11	11	1.0087161
12	12	0.94087344
13	13	1.0515959
14	14	1.0433691
15	15	0.85650825
16	16	1.3864717
17	17	2.0452372
18	18	1.6102386
19	19	1.2242606
20	20	1.4081682
21	21	inf
22	22	inf
23	23	inf
