0	0	1.0000523
1	1	1.0001732
2	2	0.99868554
3	3	1.0000962
4	4	0.97629775
5	5	0.99977897
6	6	1.0088358
7	7	1.0063685
8	8	0.99300336
9	9	1.0183968
10	10	1.0814947
11	11	1.0649299
12	12	0.94087386
13	13	0.90400392
14	14	inf
15	15	0.85650864
16	16	1.3864724
17	17	1.5997032
18	18	1.3576778
19	19	0.8798775
20	20	0.77597921
21	21	inf
22	22	inf
23	23	inf
