0	0	1.0001084
1	1	0.999128
2	2	1.0002187
3	3	0.99853252
4	4	0.9803679
5	5	0.99345265
6	6	0.98997478
7	7	1.0048758
8	8	1.0035168
9	9	1.0673074
10	10	1.1371482
11	11	1.035854
12	12	0.9268433
13	13	0.97235226
14	14	1.000205
15	15	0.99194885
16	16	0.89198897
17	17	1.1859177
18	18	0.87936773
19	19	1.0039925
20	20	1.0481313
21	21	0.56813296
22	22	0.49457698
23	23	inf
