0	0	1.0001212
1	1	0.99788103
2	2	0.99956484
3	3	0.9982844
4	4	1.0113751
5	5	0.99652261
6	6	1.0046926
7	7	1.0002345
8	8	1.0039191
9	9	1.0508979
10	10	0.89533507
11	11	0.92965425
12	12	1.1172868
13	13	0.99092655
14	14	0.85794256
15	15	1.2382522
16	16	0.72956334
17	17	0.93751167
18	18	1.784296
19	19	4.0481437
20	20	0.80058202
21	21	0.64045161
22	22	inf
23	23	inf
