0	0	1.0000206
1	1	0.99834361
2	2	1.0007426
3	3	1.0004074
4	4	1.0018148
5	5	0.99479582
6	6	1.0046406
7	7	0.9954189
8	8	0.99352008
9	9	1.0565186
10	10	1.0604949
11	11	1.0028349
12	12	1.0313425
13	13	1.1201788
14	14	1.0433696
15	15	0.6423815
16	16	1.3864724
17	17	0.90395456
18	18	1.3726094
19	19	1.502648
20	20	1.1290445
21	21	0.20524349
22	22	inf
23	23	inf
