0	0	0.999914
1	1	0.99917623
2	2	1.002378
3	3	1.0004233
4	4	0.99558571
5	5	0.97235382
6	6	1.006229
7	7	0.99402981
8	8	1.0062038
9	9	0.92321895
10	10	1.1620309
11	11	0.99702072
12	12	1.3407444
13	13	1.0515958
14	14	0.77050117
15	15	0.82067975
16	16	0.96378314
17	17	0.95268933
18	18	0.70115555
19	19	0.85759245
20	20	0.71137928
21	21	inf
22	22	0.12084879
23	23	inf
