0	0	0.99984928
1	1	1.0006579
2	2	1.0022177
3	3	1.0019839
4	4	1.008121
5	5	0.99738882
6	6	0.99246714
7	7	1.0023078
8	8	0.99028719
9	9	0.99280823
10	10	0.95816573
11	11	1.0519025
12	12	0.80044438
13	13	0.85880313
14	14	0.56314387
15	15	0.87351418
16	16	inf
17	17	1.890999
18	18	0.86385858
19	19	1.0431649
20	20	1.6295393
21	21	inf
22	22	inf
23	23	0.22987847
