0	0	1.0000741
1	1	0.99965597
2	2	0.99708552
3	3	1.000644
4	4	1.0157956
5	5	0.9963072
6	6	1.003848
7	7	1.0009378
8	8	0.99843186
9	9	0.94530615
10	10	0.84023827
11	11	0.97719425
12	12	0.90897989
13	13	1.0735047
14	14	0.41734786
15	15	0.47557386
16	16	1.3864724
17	17	1.0225012
18	18	2.3893325
19	19	0.91525665
20	20	0.86856083
21	21	inf
22	22	inf
23	23	inf
