0	0	1.0000419
1	1	1.0021621
2	2	1.0007877
3	3	0.9988675
4	4	1.003334
5	5	0.98043904
6	6	1.0041496
7	7	0.99332257
8	8	0.99581311
9	9	0.92320551
10	10	0.88088155
11	11	1.0146523
12	12	0.90896605
13	13	0.84471217
14	14	0.85013443
15	15	1.1040033
16	16	0.95793628
17	17	1.1195857
18	18	0.76504427
19	19	2.083445
20	20	0.70962708
21	21	0.36101125
22	22	inf
23	23	inf
