0	0	1.0000042
1	1	0.99917508
2	2	1.0011539
3	3	0.99976697
4	4	0.99202107
5	5	1.0216953
6	6	0.99875046
7	7	0.99286243
8	8	0.99892865
9	9	1.018395
10	10	1.1145998
11	11	0.91971057
12	12	1.0725943
13	13	0.76907661
14	14	1.2574051
15	15	0.99939026
16	16	1.350319
17	17	0.91821866
18	18	0.83079539
19	19	0.53644586
20	20	1.5662153
21	21	0.7292173
22	22	inf
23	23	inf
