0	0	0.99993846
1	1	0.99934879
2	2	1.0014452
3	3	0.99990112
4	4	1.009931
5	5	1.0023715
6	6	0.99762872
7	7	1.0091915
8	8	0.99785917
9	9	1.0855143
10	10	1.1744946
11	11	1.0086892
12	12	1.0944562
13	13	1.1450405
14	14	0.96583164
15	15	0.93470001
16	16	0.7233134
17	17	1.4581834
18	18	1.0094584
19	19	0.70276137
20	20	1.3173459
21	21	inf
22	22	inf
23	23	inf
