0	0	1.0000441
1	1	1.0016455
2	2	0.99806839
3	3	0.99962603
4	4	1.0051056
5	5	0.99380981
6	6	1.001398
7	7	1.0015212
8	8	1.0015185
9	9	1.0128281
10	10	1.0301288
11	11	1.0264323
12	12	0.895121
13	13	0.99190054
14	14	0.99545147
15	15	1.020329
16	16	1.1305941
17	17	0.74947666
18	18	0.90193859
19	19	0.85197154
20	20	1.042366
21	21	1.2923261
22	22	inf
23	23	1.4833079
