0	0	0.99993262
1	1	1.001458
2	2	0.9999238
3	3	0.9995325
4	4	1.0150254
5	5	1.0175654
6	6	1.008355
7	7	1.0066135
8	8	1.0006374
9	9	0.99275537
10	10	0.94978329
11	11	1.055073
12	12	0.94082312
13	13	1.2267963
14	14	0.92871786
15	15	0.89263724
16	16	0.58305343
17	17	0.58514001
18	18	1.0850028
19	19	0.61294024
20	20	0.956603
21	21	1.5063473
22	22	inf
23	23	inf
