0	0	0.99990237
1	1	0.99971675
2	2	1.0003588
3	3	1.0014102
4	4	0.98139836
5	5	0.99228791
6	6	1.0010125
7	7	1.0077295
8	8	1.0002126
9	9	0.94496637
10	10	0.94949315
11	11	0.96586724
12	12	1.1803672
13	13	1.0015838
14	14	1.0564986
15	15	1.0019824
16	16	0.89740846
17	17	1.2157217
18	18	1.0486125
19	19	1.3163566
20	20	1.2582016
21	21	1.0074261
22	22	inf
23	23	1.5464391
