0	0	1.0000088
1	1	1.0043984
2	2	0.99986168
3	3	0.99810795
4	4	1.0144396
5	5	1.0121661
6	6	0.99889348
7	7	0.99939218
8	8	0.99879131
9	9	0.9779978
10	10	0.88083508
11	11	1.0056988
12	12	1.1916926
13	13	0.88835731
14	14	0.89175844
15	15	0.96980867
16	16	1.0511524
17	17	1.6949116
18	18	0.94712054
19	19	1.9460759
20	20	0.83434049
21	21	1.628531
22	22	inf
23	23	inf
