0	0	0.99999113
1	1	0.99827921
2	2	0.99913049
3	3	1.000034
4	4	1.0187205
5	5	1.0021478
6	6	1.0075533
7	7	1.0128317
8	8	1.0025935
9	9	1.0556774
10	10	0.87791367
11	11	0.92390733
12	12	0.91957228
13	13	0.99096003
14	14	1.019536
15	15	1.0016378
16	16	1.0176767
17	17	0.9439002
18	18	1.1285531
19	19	0.94839613
20	20	0.98465302
21	21	0.83661897
22	22	1.4058193
23	23	0.66876747
