0	0	0.99988322
1	1	0.99929683
2	2	1.0017977
3	3	1.001433
4	4	0.98908487
5	5	1.0091507
6	6	0.99280227
7	7	1.0017842
8	8	0.99797324
9	9	1.0343106
10	10	1.0113178
11	11	1.0648456
12	12	0.90890787
13	13	1.1710033
14	14	0.95029778
15	15	1.0842573
16	16	1.2956526
17	17	1.0107088
18	18	1.3254405
19	19	0.79618549
20	20	0.98485714
21	21	0.57383892
22	22	inf
23	23	inf
