0	0	1.0000614
1	1	1.0014118
2	2	0.99784726
3	3	0.99988488
4	4	0.99187286
5	5	1.0047387
6	6	1.0087889
7	7	0.99297734
8	8	1.0001373
9	9	1.0281413
10	10	0.94866331
11	11	0.96710648
12	12	1.0413865
13	13	0.95912876
14	14	0.99354211
15	15	1.0148435
16	16	0.92370057
17	17	0.92365794
18	18	1.1649745
19	19	0.85947427
20	20	1.1655967
21	21	0.80566747
22	22	1.5028148
23	23	0.70999056
