0	0	1.0002336
1	1	0.99793629
2	2	0.99729135
3	3	0.99861283
4	4	0.98879155
5	5	1.0261092
6	6	1.0010487
7	7	1.002637
8	8	0.99260683
9	9	0.94949398
10	10	1.0204666
11	11	0.97682706
12	12	1.0152637
13	13	0.96448515
14	14	0.99458841
15	15	0.99736519
16	16	1.0421837
17	17	0.79841269
18	18	1.0399056
19	19	1.0285888
20	20	0.82529757
21	21	1.3904778
22	22	0.61533043
23	23	0.53528019
