0	0	0.99995697
1	1	0.99839333
2	2	1.0010192
3	3	1.0000993
4	4	0.99136768
5	5	1.005249
6	6	1.0077434
7	7	1.0009427
8	8	1.0033049
9	9	1.0229974
10	10	0.94102442
11	11	1.0125926
12	12	0.96914482
13	13	0.99557369
14	14	0.99903708
15	15	1.0161168
16	16	0.97852022
17	17	0.78210751
18	18	1.0358203
19	19	0.87018604
20	20	0.99921463
21	21	0.69208345
22	22	inf
23	23	0.54803972
