0	0	1.000043
1	1	0.9979972
2	2	1.0018184
3	3	1.0002253
4	4	0.99219618
5	5	0.9953633
6	6	0.99897106
7	7	0.9948344
8	8	0.98984918
9	9	0.97274624
10	10	1.125514
11	11	1.0513629
12	12	0.86624593
13	13	0.9309409
14	14	0.98774022
15	15	1.0014477
16	16	1.2683298
17	17	1.1312549
18	18	1.2528294
19	19	1.1864945
20	20	1.1381238
21	21	1.3639347
22	22	0.83847187
23	23	0.30482492
