0	0	0.99995002
1	1	0.99794045
2	2	0.99934881
3	3	1.0022589
4	4	0.99503597
5	5	0.99135798
6	6	1.0057519
7	7	1.0008633
8	8	0.9983839
9	9	1.0290046
10	10	1.0113974
11	11	0.96893579
12	12	1.0725957
13	13	1.4313389
14	14	1.0433691
15	15	0.42825413
16	16	1.3864717
17	17	1.6517548
18	18	0.91914758
19	19	0.83162127
20	20	0.79463505
21	21	0.13714427
22	22	inf
23	23	inf
