0	0	0.99995542
1	1	0.99998993
2	2	1.0003215
3	3	1.0000639
4	4	1.0013917
5	5	1.010892
6	6	1.0026295
7	7	0.99213133
8	8	1.0064642
9	9	1.142011
10	10	0.99300346
11	11	1.1060145
12	12	0.9408688
13	13	0.99092204
14	14	1.0406332
15	15	0.79436599
16	16	3.6242457
17	17	2.7333889
18	18	0.84694868
19	19	1.2280376
20	20	0.84918828
21	21	inf
22	22	0.14540197
23	23	0.16215199
