0	0	0.99997299
1	1	1.0024786
2	2	0.99943955
3	3	1.0001879
4	4	0.99137858
5	5	0.99072528
6	6	0.99734841
7	7	1.008067
8	8	0.99866516
9	9	0.98774696
10	10	0.94974037
11	11	0.9501057
12	12	0.92456025
13	13	1.0102572
14	14	0.98667238
15	15	0.91156884
16	16	1.0208178
17	17	1.2699061
18	18	0.95681589
19	19	1.0520511
20	20	1.3233647
21	21	0.62743936
22	22	inf
23	23	inf
