0	0	0.99996739
1	1	0.99868317
2	2	1.002282
3	3	0.99944971
4	4	1.0086601
5	5	0.99657459
6	6	1.0074438
7	7	0.99565645
8	8	0.99995377
9	9	0.9976577
10	10	0.90258564
11	11	0.99397497
12	12	0.87903148
13	13	1.1448818
14	14	1.0100635
15	15	1.0163446
16	16	1.0883792
17	17	1.2197147
18	18	0.72651012
19	19	0.98707263
20	20	0.919235
21	21	2.4228924
22	22	inf
23	23	0.30235658
