0	0	0.99988451
1	1	1.000525
2	2	1.0009409
3	3	1.0016629
4	4	0.99996812
5	5	1.0064767
6	6	0.9948435
7	7	0.99814871
8	8	0.99764119
9	9	1.0025704
10	10	1.137462
11	11	0.97136543
12	12	1.0612925
13	13	0.98238211
14	14	1.0441795
15	15	0.98612213
16	16	0.77778594
17	17	0.83924377
18	18	1.0068015
19	19	0.92111557
20	20	0.7927884
21	21	0.73321411
22	22	inf
23	23	0.70064056
