0	0	1.0000108
1	1	1.0014358
2	2	0.997495
3	3	1.0008988
4	4	1.0002846
5	5	0.99425665
6	6	1.0025291
7	7	1.0058821
8	8	0.99760143
9	9	1.0131737
10	10	1.0708913
11	11	0.93470704
12	12	1.0944854
13	13	0.9201464
14	14	2.0867381
15	15	1.2847623
16	16	0.46215723
17	17	1.4657357
18	18	0.92851065
19	19	0.67595532
20	20	1.2207322
21	21	inf
22	22	inf
23	23	inf
