0	0	1.000085
1	1	0.9997978
2	2	0.99802012
3	3	1.0007856
4	4	0.97160375
5	5	0.98216849
6	6	1.0031806
7	7	0.9978019
8	8	1.0012799
9	9	0.93945978
10	10	0.98548178
11	11	0.96482014
12	12	1.0540803
13	13	1.0031387
14	14	0.98805276
15	15	0.97117226
16	16	1.1207593
17	17	0.86963065
18	18	1.0494777
19	19	0.88127721
20	20	1.0526288
21	21	1.2411912
22	22	inf
23	23	0.90290139
