0	0	1.0000622
1	1	1.0009217
2	2	1.0002749
3	3	0.99767385
4	4	0.99585396
5	5	1.0042782
6	6	1.0059639
7	7	1.0038918
8	8	1.0042401
9	9	1.0024648
10	10	0.88052304
11	11	1.0984893
12	12	0.92772268
13	13	0.98349843
14	14	0.94359121
15	15	1.0117471
16	16	0.86396212
17	17	0.83951377
18	18	0.80124617
19	19	1.0915968
20	20	0.98872378
21	21	1.146922
22	22	inf
23	23	1.7768282
