0	0	1.0000744
1	1	0.99666454
2	2	1.0016801
3	3	0.99924619
4	4	0.98672452
5	5	0.98986141
6	6	0.98402393
7	7	0.99633382
8	8	1.0085229
9	9	0.99782247
10	10	0.95816578
11	11	1.0551293
12	12	0.993144
13	13	0.95422575
14	14	2.7349849
15	15	0.94555424
16	16	0.39424303
17	17	0.71245851
18	18	2.8314207
19	19	1.4140015
20	20	0.61818951
21	21	0.60166423
22	22	inf
23	23	inf
