0	0	1.0000511
1	1	0.99948896
2	2	0.99807963
3	3	1.0009678
4	4	0.99106773
5	5	1.0137997
6	6	0.99500316
7	7	0.99549202
8	8	1.0002148
9	9	0.94530606
10	10	0.95816636
11	11	0.93981515
12	12	1.1172877
13	13	0.83110035
14	14	2.0867391
15	15	1.2847629
16	16	1.3864723
17	17	1.0761367
18	18	2.2448189
19	19	0.89718662
20	20	1.0221044
21	21	inf
22	22	inf
23	23	inf
