0	0	1.0001708
1	1	0.99732273
2	2	0.99964943
3	3	0.99872499
4	4	1.0064252
5	5	1.0014558
6	6	0.99368231
7	7	1.0031355
8	8	0.99599182
9	9	1.0395391
10	10	1.0919971
11	11	1.10216
12	12	0.9032933
13	13	0.8849882
14	14	0.91390592
15	15	0.96742716
16	16	1.6575793
17	17	1.33677
18	18	0.80718283
19	19	0.80138518
20	20	1.0160568
21	21	0.85619106
22	22	0.48022634
23	23	0.65403582
