0	0	0.99995272
1	1	1.0023233
2	2	1.0003973
3	3	0.99998228
4	4	0.97579057
5	5	1.001712
6	6	1.0018067
7	7	0.99648998
8	8	1.001158
9	9	1.0234189
10	10	0.93336586
11	11	0.99389254
12	12	0.85105514
13	13	0.85312502
14	14	1.020722
15	15	1.0429892
16	16	0.7450688
17	17	1.1944342
18	18	1.0619342
19	19	0.99132576
20	20	0.95538349
21	21	1.5710199
22	22	inf
23	23	0.39682981
