0	0	1.0000159
1	1	0.9983808
2	2	1.0035042
3	3	0.99860311
4	4	1.0046077
5	5	0.98868909
6	6	1.0035308
7	7	0.99732479
8	8	0.9940369
9	9	1.0855434
10	10	1.0021186
11	11	0.98842594
12	12	0.9408735
13	13	0.97223026
14	14	2.0867384
15	15	0.85650831
16	16	0.69323591
17	17	0.98818367
18	18	0.53662063
19	19	1.1253661
20	20	1.1246986
21	21	inf
22	22	inf
23	23	inf
