0	0	0.9998061
1	1	1.0018092
2	2	0.99991875
3	3	1.0027672
4	4	1.0031714
5	5	1.0096362
6	6	1.0000227
7	7	1.0031244
8	8	0.99882127
9	9	0.97802714
10	10	1.0208115
11	11	0.93977954
12	12	0.90894536
13	13	0.95419017
14	14	0.97084266
15	15	0.94716977
16	16	0.50460866
17	17	0.86687534
18	18	1.0087286
19	19	0.70391536
20	20	0.92467417
21	21	0.67759339
22	22	inf
23	23	0.50537979
