0	0	1.0000604
1	1	1.002006
2	2	0.99907225
3	3	0.99932933
4	4	1.0071619
5	5	0.99340473
6	6	0.98711391
7	7	0.99617019
8	8	1.0009929
9	9	0.96795944
10	10	0.90225437
11	11	0.98225462
12	12	0.94089402
13	13	0.95575452
14	14	1.0454712
15	15	1.0141132
16	16	1.124714
17	17	0.9428768
18	18	1.0336325
19	19	0.9806922
20	20	1.0300291
21	21	0.80586487
22	22	0.2900706
23	23	0.55276998
