0	0	1.0000869
1	1	0.99923958
2	2	0.99888784
3	3	0.99788277
4	4	0.99709984
5	5	1.0080098
6	6	1.0022645
7	7	1.0047611
8	8	1.0128012
9	9	1.0290032
10	10	1.0814928
11	11	1.0087147
12	12	1.0118814
13	13	1.0735027
14	14	0.82072858
15	15	0.80136597
16	16	1.3637534
17	17	0.5506008
18	18	0.91144636
19	19	0.62407718
20	20	0.78346407
21	21	inf
22	22	inf
23	23	0.27339907
