0	0	1.000007
1	1	1.0006788
2	2	1.0016337
3	3	0.9983862
4	4	0.99238311
5	5	1.0060835
6	6	0.99303793
7	7	1.0089429
8	8	0.99876176
9	9	1.0028381
10	10	0.89529109
11	11	1.0518507
12	12	1.0515124
13	13	1.1201228
14	14	0.97369172
15	15	0.96056393
16	16	1.0480968
17	17	2.1153312
18	18	0.9592632
19	19	1.0776004
20	20	0.72769185
21	21	1.4695182
22	22	0.20548473
23	23	inf
