0	0	0.99986608
1	1	1.0042542
2	2	1.0020699
3	3	0.9987995
4	4	1.0032091
5	5	1.0087866
6	6	1.0085688
7	7	0.99960722
8	8	1.000834
9	9	0.95907229
10	10	1.0814943
11	11	0.96081624
12	12	1.3751228
13	13	1.226862
14	14	0.69557943
15	15	inf
16	16	0.69323589
17	17	1.711668
18	18	0.91905137
19	19	0.57645879
20	20	1.3198287
21	21	inf
22	22	0.10129936
23	23	inf
