0	0	1.000075
1	1	0.99938678
2	2	1.0018868
3	3	0.99847209
4	4	0.98041026
5	5	0.99028385
6	6	1.0015247
7	7	0.99842298
8	8	0.99610628
9	9	0.9232146
10	10	0.92568125
11	11	0.9855889
12	12	1.1410537
13	13	0.97222546
14	14	0.64363087
15	15	0.95937613
16	16	0.90301558
17	17	1.8221445
18	18	1.6901674
19	19	0.92044352
20	20	1.695294
21	21	0.88291799
22	22	inf
23	23	inf
