0	0	0.99979674
1	1	0.99896687
2	2	1.0031591
3	3	1.0009573
4	4	0.99147667
5	5	1.0033846
6	6	1.0059642
7	7	1.0088427
8	8	1.0037039
9	9	0.99280873
10	10	0.95816622
11	11	1.0616429
12	12	0.95767501
13	13	1.1983306
14	14	1.0433694
15	15	2.5695255
16	16	0.69323605
17	17	0.84137675
18	18	1.3069638
19	19	1.160474
20	20	0.66355633
21	21	0.34245642
22	22	inf
23	23	inf
