0	0	1.0001661
1	1	0.99847485
2	2	0.99752339
3	3	0.99865194
4	4	1.0078527
5	5	1.0039029
6	6	1.0062285
7	7	1.0021769
8	8	0.99917137
9	9	1.0614697
10	10	0.91727723
11	11	0.93572593
12	12	1.0541992
13	13	0.97008729
14	14	0.96398651
15	15	1.0698658
16	16	0.9433904
17	17	0.91924512
18	18	0.95565991
19	19	0.88265435
20	20	0.98500444
21	21	2.394265
22	22	0.29426421
23	23	1.4242074
