0	0	1.000056
1	1	0.99919305
2	2	1.0021885
3	3	0.99774856
4	4	1.0045883
5	5	0.98476762
6	6	1.0002002
7	7	1.0079792
8	8	0.99933471
9	9	1.0227971
10	10	0.91262904
11	11	0.94542724
12	12	1.036736
13	13	0.97692779
14	14	1.0009249
15	15	0.98986701
16	16	1.1689423
17	17	1.2142063
18	18	0.95676078
19	19	1.1190522
20	20	0.94851234
21	21	0.69663793
22	22	0.77239268
23	23	1.2101761
