0	0	0.99996686
1	1	0.99939747
2	2	1.0004577
3	3	0.99987406
4	4	1.0190024
5	5	1.0226982
6	6	0.99192926
7	7	1.009387
8	8	0.99481679
9	9	0.97246513
10	10	1.0872566
11	11	0.94578594
12	12	1.0403129
13	13	1.006413
14	14	0.99705665
15	15	1.0376493
16	16	1.124056
17	17	1.1361563
18	18	0.84614798
19	19	0.97426678
20	20	1.0293817
21	21	0.93758013
22	22	inf
23	23	0.8434407
