0	0	1.0000377
1	1	0.99934852
2	2	0.99960424
3	3	0.99842728
4	4	1.0015358
5	5	1.0124576
6	6	1.0111336
7	7	0.99754508
8	8	1.0091529
9	9	1.056518
10	10	1.0208496
11	11	1.0423399
12	12	1.0725956
13	13	0.81790788
14	14	1.7051272
15	15	3.4604267
16	16	inf
17	17	0.96364139
18	18	0.81332615
19	19	1.4874479
20	20	1.7093914
21	21	0.56555239
22	22	inf
23	23	0.21341029
