0	0	1.0000118
1	1	0.99828458
2	2	0.99746862
3	3	1.001685
4	4	1.0019542
5	5	0.99652351
6	6	1.0011623
7	7	1.0045021
8	8	1.0023629
9	9	1.0915414
10	10	0.94983459
11	11	1.0616432
12	12	1.051565
13	13	0.84472505
14	14	0.69557978
15	15	0.85650871
16	16	0.69323624
17	17	1.2454735
18	18	0.87561312
19	19	0.71888578
20	20	1.281629
21	21	0.43159895
22	22	inf
23	23	inf
