0	0	1.0000673
1	1	0.99627498
2	2	0.99984273
3	3	1.0000562
4	4	1.0082055
5	5	1.0195334
6	6	1.0018417
7	7	0.99273872
8	8	1.0003426
9	9	0.93996149
10	10	0.92423709
11	11	0.95637869
12	12	0.97629018
13	13	1.0266609
14	14	0.99292878
15	15	1.0165166
16	16	1.0129662
17	17	1.1381929
18	18	1.0159848
19	19	1.114429
20	20	1.0928564
21	21	0.95249615
22	22	0.82310182
23	23	0.9563093
