0	0	1.0000084
1	1	0.99727001
2	2	1.0001428
3	3	1.0008345
4	4	1.0022323
5	5	0.99039549
6	6	1.0013194
7	7	0.99703097
8	8	1.0032002
9	9	1.0290046
10	10	0.90273487
11	11	0.97719375
12	12	0.89382976
13	13	1.0515959
14	14	1.0433691
15	15	1.2847624
16	16	1.3864717
17	17	2.0584015
18	18	0.49541762
19	19	0.85539737
20	20	1.0929718
21	21	0.26399446
22	22	inf
23	23	inf
