0	0	1.0002142
1	1	0.99675153
2	2	0.99883192
3	3	0.99893242
4	4	0.97832003
5	5	0.98603533
6	6	1.0074939
7	7	0.99069932
8	8	0.99707795
9	9	1.1154902
10	10	0.98342914
11	11	1.0463068
12	12	0.9893025
13	13	0.96661771
14	14	1.0248046
15	15	1.0337511
16	16	0.86399445
17	17	1.1482283
18	18	1.0078196
19	19	0.88338368
20	20	0.9539297
21	21	3.377966
22	22	1.0911169
23	23	2.6720886
