0	0	0.99968002
1	1	1.0090921
2	2	1.0002845
3	3	1.0019971
4	4	0.98682142
5	5	1.0041134
6	6	1.0029643
7	7	1.0010463
8	8	1.0026823
9	9	0.96371315
10	10	0.95812867
11	11	1.0422994
12	12	0.95763748
13	13	1.1982836
14	14	1.1296468
15	15	0.86230858
16	16	0.83218639
17	17	0.60992909
18	18	1.0785737
19	19	0.95485445
20	20	1.0468091
21	21	0.19562786
22	22	inf
23	23	inf
