0	0	0.99991143
1	1	1.0007715
2	2	0.99906937
3	3	1.0021839
4	4	0.99025014
5	5	1.0146956
6	6	0.99386279
7	7	1.0106874
8	8	0.99265091
9	9	0.902141
10	10	1.1033426
11	11	0.97167286
12	12	0.92465146
13	13	1.1201782
14	14	2.0867382
15	15	0.85650823
16	16	0.69323585
17	17	0.87944143
18	18	1.2994492
19	19	1.1790262
20	20	1.3682681
21	21	0.11507969
22	22	inf
23	23	inf
