0	0	0.99999375
1	1	1.0016313
2	2	1.0008093
3	3	0.99899055
4	4	0.99416428
5	5	1.0070997
6	6	1.0079723
7	7	0.99131179
8	8	1.0007251
9	9	1.0278994
10	10	0.95814114
11	11	0.99106253
12	12	0.97904495
13	13	1.0376285
14	14	0.97911274
15	15	1.0040447
16	16	0.92860283
17	17	0.91716379
18	18	1.0895115
19	19	1.0411818
20	20	1.0513668
21	21	0.84121575
22	22	0.4874427
23	23	1.1046799
