0	0	1.0000141
1	1	0.99958283
2	2	1.000345
3	3	0.99858798
4	4	0.98158799
5	5	1.0087567
6	6	1.00045
7	7	1.0099414
8	8	1.0064635
9	9	0.98781522
10	10	1.0922769
11	11	1.0146373
12	12	1.2768619
13	13	1.3559652
14	14	0.94558368
15	15	0.98770185
16	16	1.2001477
17	17	1.1782315
18	18	1.1077924
19	19	0.7292323
20	20	1.0316327
21	21	0.63638587
22	22	inf
23	23	inf
