0	0	0.99999479
1	1	0.99922193
2	2	0.99793247
3	3	1.0013302
4	4	1.0135063
5	5	0.99857948
6	6	1.0063854
7	7	1.0024535
8	8	0.99887956
9	9	0.92755077
10	10	1.0402915
11	11	1.0329466
12	12	1.1658615
13	13	1.2882013
14	14	0.77148216
15	15	0.92479402
16	16	1.0618834
17	17	0.91137064
18	18	0.9967036
19	19	0.9148886
20	20	1.6124743
21	21	inf
22	22	inf
23	23	inf
