0	0	0.99985508
1	1	1.0047778
2	2	0.99836019
3	3	1.0013583
4	4	0.99668362
5	5	0.99392992
6	6	1.0001611
7	7	1.0026753
8	8	1.0086887
9	9	0.8980369
10	10	0.87384397
11	11	0.96350383
12	12	1.0725916
13	13	1.1983256
14	14	0.95629472
15	15	0.75870635
16	16	0.5695213
17	17	0.6070635
18	18	1.1424055
19	19	0.6103468
20	20	0.61969584
21	21	0.85171707
22	22	inf
23	23	inf
