0	0	0.99989903
1	1	1.0012367
2	2	1.0006265
3	3	0.99971803
4	4	0.99728278
5	5	1.0081902
6	6	1.0100089
7	7	1.0016391
8	8	1.0066982
9	9	1.0561256
10	10	0.94948123
11	11	1.005393
12	12	0.90505832
13	13	0.97909086
14	14	1.0122841
15	15	1.0058548
16	16	1.2785675
17	17	0.90231606
18	18	1.1355897
19	19	0.92716193
20	20	1.1144523
21	21	1.3795981
22	22	0.60937398
23	23	0.79608016
