0	0	0.99999266
1	1	0.99681027
2	2	1.0005759
3	3	1.0004761
4	4	1.004851
5	5	1.0001776
6	6	1.0028612
7	7	0.99802332
8	8	1.0058298
9	9	0.98780826
10	10	0.99297201
11	11	1.0454699
12	12	0.86496488
13	13	0.90397042
14	14	0.8727895
15	15	0.9102716
16	16	2.1673448
17	17	1.0082382
18	18	1.0564863
19	19	0.79609148
20	20	0.83109245
21	21	1.3466618
22	22	0.19159027
23	23	inf
