0	0	0.99994455
1	1	1.0051354
2	2	0.99812112
3	3	0.99982623
4	4	1.010808
5	5	0.9992344
6	6	0.9981249
7	7	1.0160341
8	8	0.99436619
9	9	1.0976048
10	10	1.0113973
11	11	1.0267826
12	12	0.99314412
13	13	0.93687631
14	14	1.043369
15	15	inf
16	16	1.3864716
17	17	2.1986035
18	18	3.2550263
19	19	1.2004538
20	20	0.7447079
21	21	0.22380418
22	22	inf
23	23	inf
