0	0	0.99995734
1	1	1.0013533
2	2	1.0003557
3	3	0.99971063
4	4	1.0215306
5	5	0.99943812
6	6	1.0011846
7	7	0.99871563
8	8	1.0005273
9	9	1.0075516
10	10	0.77987027
11	11	0.89535844
12	12	0.94835296
13	13	0.99293946
14	14	1.0021102
15	15	1.0207204
16	16	1.1499759
17	17	1.1713283
18	18	1.2519705
19	19	1.0111256
20	20	1.0311859
21	21	2.4242237
22	22	inf
23	23	1.8809779
