0	0	1.0000727
1	1	0.99860683
2	2	1.0022637
3	3	0.99768851
4	4	1.0146513
5	5	1.0049223
6	6	1.0005849
7	7	0.99541886
8	8	0.99890664
9	9	1.0398367
10	10	0.87384774
11	11	1.0360613
12	12	0.94087385
13	13	0.93687678
14	14	1.0433696
15	15	1.2847629
16	16	1.3864723
17	17	0.71332297
18	18	1.3533129
19	19	1.033867
20	20	0.50328258
21	21	0.39482028
22	22	inf
23	23	inf
