0	0	0.9999658
1	1	0.99799981
2	2	1.0023313
3	3	0.99830089
4	4	0.99857729
5	5	1.0073848
6	6	1.0136881
7	7	1.0101259
8	8	1.0031369
9	9	0.95426484
10	10	0.9928271
11	11	1.0747169
12	12	0.83781245
13	13	1.0733082
14	14	0.95463148
15	15	1.0473569
16	16	1.0142082
17	17	0.80017674
18	18	0.80988971
19	19	1.1693196
20	20	1.0180682
21	21	0.64350358
22	22	0.34907286
23	23	0.96032071
