0	0	1.0000183
1	1	0.99875872
2	2	0.99936262
3	3	1.0017898
4	4	0.99438679
5	5	0.997614
6	6	0.98856354
7	7	0.9888846
8	8	1.0012582
9	9	1.002787
10	10	1.0813856
11	11	0.92956122
12	12	1.2187363
13	13	0.90391271
14	14	0.93930984
15	15	0.99287203
16	16	1.473482
17	17	0.76690336
18	18	1.118826
19	19	0.76241097
20	20	0.72742369
21	21	1.8971432
22	22	inf
23	23	inf
