0	0	1.0000754
1	1	1.0013353
2	2	0.99880444
3	3	0.99883045
4	4	0.99224417
5	5	1.0086234
6	6	0.99875229
7	7	0.99639236
8	8	1.0030045
9	9	1.0183436
10	10	1.0502429
11	11	0.96345765
12	12	1.1410002
13	13	0.9541765
14	14	1.0974918
15	15	1.010447
16	16	1.0683477
17	17	1.5995795
18	18	1.0215054
19	19	1.3244338
20	20	0.70277057
21	21	0.37275048
22	22	inf
23	23	0.5536594
