0	0	0.99995654
1	1	0.99661711
2	2	0.9997041
3	3	1.0017308
4	4	0.9980685
5	5	1.0070167
6	6	0.99781243
7	7	1.0039808
8	8	1.0037521
9	9	1.0565187
10	10	0.91025818
11	11	0.96893633
12	12	1.247205
13	13	1.1201789
14	14	2.0867394
15	15	0.51390524
16	16	inf
17	17	1.5425263
18	18	1.4210183
19	19	1.1180838
20	20	0.77494261
21	21	inf
22	22	inf
23	23	inf
