0	0	1.0000733
1	1	0.99799091
2	2	0.99727692
3	3	1.0010772
4	4	1.004459
5	5	0.99424814
6	6	1.0119291
7	7	0.9969857
8	8	1.000444
9	9	0.96374238
10	10	0.80911097
11	11	0.97718536
12	12	1.0725865
13	13	1.1201686
14	14	1.034348
15	15	0.87038095
16	16	1.0400817
17	17	2.7511447
18	18	1.1844003
19	19	1.9170207
20	20	0.93056247
21	21	inf
22	22	inf
23	23	inf
