0	0	0.99995479
1	1	1.0038232
2	2	0.99773626
3	3	0.99981227
4	4	1.0034581
5	5	1.0000447
6	6	0.99738203
7	7	1.0160526
8	8	1.0029583
9	9	1.0451609
10	10	1.1376292
11	11	1.0174968
12	12	0.99297587
13	13	0.97206542
14	14	0.97987986
15	15	1.0139924
16	16	0.75805769
17	17	0.99120598
18	18	1.0554528
19	19	0.820236
20	20	0.94298011
21	21	0.49175947
22	22	0.33291319
23	23	0.91992353
