0	0	1.0001682
1	1	0.99734547
2	2	0.99831949
3	3	1.0004758
4	4	0.99765381
5	5	0.99880005
6	6	0.99344935
7	7	0.98484814
8	8	0.99736502
9	9	1.0183967
10	10	0.96664571
11	11	0.93981515
12	12	1.0118832
13	13	1.9818547
14	14	1.0433695
15	15	1.5049312
16	16	1.3864723
17	17	1.0129937
18	18	1.8199736
19	19	1.0661773
20	20	0.98749016
21	21	inf
22	22	inf
23	23	0.18242138
