0	0	0.99992101
1	1	0.99911328
2	2	0.99816522
3	3	1.0022383
4	4	1.018807
5	5	1.0055783
6	6	1.0056419
7	7	1.0116651
8	8	0.99605997
9	9	0.97324191
10	10	1.0402904
11	11	0.96350378
12	12	0.95767098
13	13	0.81790472
14	14	0.79061186
15	15	0.94079563
16	16	1.7146554
17	17	0.6829248
18	18	1.144882
19	19	0.73263146
20	20	0.82749282
21	21	inf
22	22	0.1425832
23	23	inf
