0	0	0.99993991
1	1	1.0023161
2	2	1.000286
3	3	0.99932959
4	4	1.0137381
5	5	1.0080659
6	6	1.01215
7	7	1.0006228
8	8	0.99693051
9	9	1.0795515
10	10	1.0708319
11	11	1.0748535
12	12	1.051506
13	13	0.78068696
14	14	0.95246861
15	15	1.0545678
16	16	1.9253016
17	17	0.72089688
18	18	0.99991761
19	19	0.98540921
20	20	1.9601867
21	21	1.5247641
22	22	inf
23	23	0.56520465
