0	0	1.0000797
1	1	1.000603
2	2	0.99746383
3	3	0.99902161
4	4	1.0153644
5	5	0.99050109
6	6	1.0101156
7	7	1.0083153
8	8	1.0019069
9	9	0.97324451
10	10	1.0814929
11	11	0.93217281
12	12	0.86499546
13	13	1.0963433
14	14	2.8836832
15	15	0.8595857
16	16	0.67068132
17	17	1.8371715
18	18	0.90290616
19	19	0.94055656
20	20	2.3493196
21	21	inf
22	22	inf
23	23	inf
