0	0	1
1	1	0.99982783
2	2	0.99819014
3	3	1.0000149
4	4	0.99297926
5	5	0.99956083
6	6	1.005434
7	7	1.0040174
8	8	1.0111692
9	9	0.94530567
10	10	0.91790689
11	11	1.0360608
12	12	1.1658649
13	13	1.1450711
14	14	1.0433691
15	15	0.85650825
16	16	inf
17	17	0.62817247
18	18	1.622274
19	19	1.3318762
20	20	0.83112211
21	21	inf
22	22	inf
23	23	inf
