0	0	1.0000803
1	1	0.99916162
2	2	0.99922166
3	3	0.9989791
4	4	1.002528
5	5	0.99719278
6	6	1.0025703
7	7	1.0126681
8	8	0.99747576
9	9	0.99346168
10	10	0.99474842
11	11	1.0177567
12	12	0.99110667
13	13	0.99445049
14	14	0.99745288
15	15	0.97781788
16	16	0.88547187
17	17	1.0800603
18	18	0.92759219
19	19	1.1038691
20	20	1.055224
21	21	1.0245867
22	22	inf
23	23	1.0311829
