0	0	1.00008
1	1	1.0016628
2	2	0.99903028
3	3	0.99851822
4	4	0.99806786
5	5	1.0137992
6	6	0.99469152
7	7	1.0004935
8	8	0.9994052
9	9	1.0028877
10	10	0.99300829
11	11	1.0391909
12	12	1.1410592
13	13	1.145071
14	14	1.043369
15	15	2.5695246
16	16	1.3864716
17	17	0.62817242
18	18	1.0852028
19	19	0.96192144
20	20	0.69948122
21	21	inf
22	22	inf
23	23	inf
