0	0	0.99987086
1	1	0.99927145
2	2	1.0027614
3	3	1.0015353
4	4	0.99382916
5	5	1.0056925
6	6	0.99645228
7	7	0.9907209
8	8	0.99860685
9	9	0.96836888
10	10	0.99289962
11	11	1.0328364
12	12	0.87908055
13	13	1.198199
14	14	0.95499752
15	15	1.0253182
16	16	1.8084228
17	17	1.3226703
18	18	1.0033286
19	19	0.71546976
20	20	1.0446309
21	21	0.65748946
22	22	inf
23	23	inf
