0	0	0.99985954
1	1	1.0007435
2	2	1.0009715
3	3	1.0018225
4	4	1.0079683
5	5	0.99145335
6	6	0.99863547
7	7	1.00026
8	8	0.99832467
9	9	1.0737313
10	10	0.96663391
11	11	1.0028226
12	12	1.191759
13	13	0.7807211
14	14	1.0206882
15	15	1.2323107
16	16	1.5054372
17	17	0.92508897
18	18	1.0673454
19	19	1.3336947
20	20	1.2013147
21	21	1.0355553
22	22	inf
23	23	0.38445148
