0	0	0.99999805
1	1	1.0029571
2	2	1.0002845
3	3	0.99885763
4	4	1.0060104
5	5	1.0067955
6	6	0.99370782
7	7	0.99290038
8	8	1.0024822
9	9	1.1486566
10	10	0.99300861
11	11	0.99413956
12	12	0.95767499
13	13	1.3212362
14	14	0.58127543
15	15	0.79898539
16	16	0.71715641
17	17	0.74947153
18	18	1.4919309
19	19	1.694583
20	20	2.8465681
21	21	0.1632295
22	22	inf
23	23	inf
