0	0	1.0000071
1	1	0.99993669
2	2	1.0012962
3	3	0.99833203
4	4	1.0091649
5	5	0.99752089
6	6	1.0110476
7	7	1.0041926
8	8	1.0003912
9	9	1.2119759
10	10	1.0207628
11	11	0.90990191
12	12	0.86492292
13	13	0.85873023
14	14	0.94165883
15	15	0.98861202
16	16	0.9436422
17	17	0.72410972
18	18	0.83934142
19	19	0.62218585
20	20	0.81913636
21	21	inf
22	22	inf
23	23	0.65193671
