0	0	1.0001352
1	1	1.000956
2	2	0.99974096
3	3	0.99765151
4	4	0.9976848
5	5	0.99296746
6	6	0.99246443
7	7	0.99979549
8	8	1.0015143
9	9	1.0507859
10	10	0.82741845
11	11	0.97432126
12	12	1.072481
13	13	0.920048
14	14	1.0139006
15	15	1.0516456
16	16	0.89180177
17	17	1.5720118
18	18	1.0279925
19	19	0.66074001
20	20	1.0238714
21	21	inf
22	22	inf
23	23	0.72427688
