0	0	0.99990069
1	1	1.00261
2	2	1.0026412
3	3	0.99963352
4	4	0.9959986
5	5	0.99242951
6	6	0.99932694
7	7	0.99362867
8	8	1.0001666
9	9	0.96847484
10	10	1.0923091
11	11	0.94497849
12	12	0.83796533
13	13	1.1201782
14	14	1.2928209
15	15	2.3346326
16	16	0.60129817
17	17	1.1534321
18	18	0.81865314
19	19	0.73760363
20	20	1.2743333
21	21	inf
22	22	0.11915931
23	23	inf
