0	0	1.0000463
1	1	0.99698592
2	2	1.001964
3	3	0.99742392
4	4	1.0029297
5	5	1.0139111
6	6	1.0077166
7	7	1.0077161
8	8	1.0063967
9	9	0.95443896
10	10	0.91025757
11	11	1.0028343
12	12	1.0313419
13	13	1.0305639
14	14	1.7423952
15	15	1.181157
16	16	0.91649683
17	17	0.71905912
18	18	0.54932009
19	19	1.4637373
20	20	0.63370305
21	21	0.57625262
22	22	inf
23	23	inf
