0	0	1.0000415
1	1	1.0021154
2	2	0.99797935
3	3	1.0002184
4	4	1.0198328
5	5	0.99373906
6	6	1.0053901
7	7	0.9983842
8	8	0.99322736
9	9	1.0179764
10	10	1.0704498
11	11	0.91688095
12	12	1.0368876
13	13	0.9951529
14	14	0.99958949
15	15	0.97973005
16	16	1.1379348
17	17	0.76050888
18	18	1.08403
19	19	0.93780417
20	20	1.1340531
21	21	1.5003074
22	22	inf
23	23	0.87131644
