0	0	0.99994084
1	1	1.0005161
2	2	0.99898956
3	3	1.0003782
4	4	1.0071332
5	5	1.0150304
6	6	1.0041626
7	7	1.0097811
8	8	1.0012139
9	9	0.97324403
10	10	0.94164421
11	11	1.0682348
12	12	0.99314244
13	13	0.97222849
14	14	1.1357603
15	15	0.92124266
16	16	0.95184718
17	17	1.0982016
18	18	1.1435533
19	19	0.74151481
20	20	0.59056451
21	21	0.75861704
22	22	inf
23	23	inf
