0	0	0.99996489
1	1	1.0015276
2	2	1.0036104
3	3	0.99819561
4	4	1.0147388
5	5	0.99452596
6	6	0.98799514
7	7	0.99664674
8	8	0.99832984
9	9	0.90623022
10	10	0.91020837
11	11	1.0919161
12	12	1.1409975
13	13	0.87331204
14	14	1.1493618
15	15	1.0683305
16	16	0.63501655
17	17	0.64537175
18	18	1.6768794
19	19	0.97059763
20	20	1.4466497
21	21	0.50416183
22	22	inf
23	23	0.18700213
