0	0	1.0003229
1	1	0.996863
2	2	0.99672395
3	3	0.99799456
4	4	0.99147124
5	5	0.98286248
6	6	0.9961401
7	7	1.0092508
8	8	0.99612956
9	9	1.0131685
10	10	0.89533074
11	11	0.96620902
12	12	1.0944797
13	13	1.0103516
14	14	0.94254627
15	15	1.3075127
16	16	0.91824508
17	17	0.68351934
18	18	0.85440863
19	19	1.2311561
20	20	0.85535333
21	21	inf
22	22	0.14610668
23	23	inf
