0	0	0.99988105
1	1	0.99976548
2	2	1.0012882
3	3	1.0013876
4	4	0.98575759
5	5	0.99549976
6	6	0.99791374
7	7	1.00902
8	8	0.99753726
9	9	1.0130123
10	10	1.0813219
11	11	0.91224772
12	12	1.1656791
13	13	1.2879997
14	14	1.0540208
15	15	1.0135778
16	16	0.91907045
17	17	2.3861661
18	18	1.0127554
19	19	1.7941325
20	20	1.1547562
21	21	0.39573541
22	22	0.16055492
23	23	inf
