0	0	1.0002324
1	1	0.99723072
2	2	0.99989124
3	3	0.99704002
4	4	1.0050907
5	5	0.99677081
6	6	0.99420045
7	7	1.0070016
8	8	0.99596356
9	9	0.97798846
10	10	0.95809217
11	11	0.94750884
12	12	1.0312626
13	13	1.2566886
14	14	1.0578764
15	15	1.0005622
16	16	2.9905809
17	17	1.1718128
18	18	0.83201165
19	19	1.0755971
20	20	1.0401418
21	21	0.85387134
22	22	inf
23	23	0.62790034
