0	0	1.0002723
1	1	0.99806382
2	2	0.99806774
3	3	0.99763552
4	4	1.0046499
5	5	1.0030371
6	6	0.99502656
7	7	0.99419606
8	8	0.99928755
9	9	0.98269708
10	10	1.2698263
11	11	0.96327947
12	12	1.0513155
13	13	0.71157464
14	14	0.97859272
15	15	1.0045816
16	16	0.77970926
17	17	1.2666835
18	18	0.94435968
19	19	0.70601435
20	20	0.89072507
21	21	1.5269558
22	22	inf
23	23	0.38461187
