0	0	1.0000788
1	1	0.99580935
2	2	0.99958924
3	3	0.99984505
4	4	0.99098597
5	5	0.992963
6	6	1.009521
7	7	1.0054745
8	8	1.0031476
9	9	1.0077831
10	10	0.96643302
11	11	0.96600186
12	12	0.92444842
13	13	0.79256745
14	14	1.0696741
15	15	0.97488683
16	16	0.80068239
17	17	0.91906855
18	18	0.78071003
19	19	1.1629901
20	20	0.67186679
21	21	1.4535106
22	22	0.39690498
23	23	1.092743
