0	0	0.99996088
1	1	1.0019026
2	2	0.99780289
3	3	1.0010592
4	4	0.99853661
5	5	1.0001295
6	6	0.99632093
7	7	0.99944874
8	8	1.0071078
9	9	1.1161139
10	10	1.0604045
11	11	1.0206026
12	12	0.87910236
13	13	0.8587306
14	14	1.028121
15	15	0.97776248
16	16	1.0457739
17	17	3.614629
18	18	0.78678294
19	19	0.92944699
20	20	1.1931444
21	21	1.7697238
22	22	inf
23	23	0.216826
