0	0	0.99995082
1	1	0.99994781
2	2	1.0000714
3	3	1.0010622
4	4	1.0067711
5	5	1.0024611
6	6	0.99845986
7	7	0.99994244
8	8	1.0001514
9	9	0.90544545
10	10	0.98666351
11	11	1.0317817
12	12	0.92855779
13	13	0.99827003
14	14	0.99525767
15	15	0.98579493
16	16	1.1880766
17	17	0.98489155
18	18	1.0246527
19	19	0.97554895
20	20	0.95371645
21	21	0.98158725
22	22	1.7091528
23	23	1.3153637
