0	0	1.0001695
1	1	0.9978238
2	2	0.99827755
3	3	0.99933108
4	4	1.0100576
5	5	1.0078586
6	6	0.99356277
7	7	1.002118
8	8	0.99507865
9	9	0.99276717
10	10	0.84020289
11	11	0.96889547
12	12	1.1172407
13	13	1.0305211
14	14	0.93788814
15	15	0.86530965
16	16	0.97639335
17	17	0.88005251
18	18	0.99307951
19	19	1.1829212
20	20	0.97900507
21	21	1.3950214
22	22	inf
23	23	0.26003757
