0	0	0.99981249
1	1	1.001328
2	2	0.99902163
3	3	1.0026467
4	4	1.001397
5	5	1.0164935
6	6	0.99614557
7	7	1.0104991
8	8	1.0026019
9	9	1.0398365
10	10	0.96664558
11	11	0.97167316
12	12	1.0313423
13	13	0.99092721
14	14	1.3373846
15	15	0.90997551
16	16	0.71109303
17	17	1.0012515
18	18	0.82577898
19	19	5.1208185
20	20	1.1455294
21	21	inf
22	22	inf
23	23	inf
