0	0	0.99989132
1	1	1.0017218
2	2	1.0032314
3	3	0.99891139
4	4	0.99704287
5	5	1.0110033
6	6	1.0084972
7	7	0.99621991
8	8	0.99961722
9	9	0.9777359
10	10	1.0017826
11	11	0.98526329
12	12	1.0472368
13	13	0.94891175
14	14	0.97502434
15	15	1.0195384
16	16	0.72055113
17	17	0.60381827
18	18	1.0755631
19	19	1.072266
20	20	1.2342342
21	21	1.913035
22	22	inf
23	23	0.48760071
