0	0	0.99978467
1	1	1.0001293
2	2	0.99973607
3	3	1.0031188
4	4	0.98368663
5	5	1.0126043
6	6	1.008599
7	7	1.0038669
8	8	1.0076483
9	9	0.91460147
10	10	0.96657207
11	11	0.90750961
12	12	0.85120195
13	13	1.0304859
14	14	0.97576292
15	15	0.93949156
16	16	0.63559807
17	17	1.3995637
18	18	1.0330452
19	19	0.94331433
20	20	1.2003192
21	21	0.5658035
22	22	inf
23	23	inf
