0	0	1.0001248
1	1	0.99883345
2	2	0.99894106
3	3	0.99879993
4	4	1.0051478
5	5	1.0040223
6	6	1.0025615
7	7	1.0012501
8	8	0.99857728
9	9	0.93632647
10	10	0.95814656
11	11	0.91237464
12	12	0.95765536
13	13	1.2881789
14	14	0.94034813
15	15	0.92292594
16	16	1.315797
17	17	0.95022051
18	18	0.92608369
19	19	1.1256779
20	20	0.88662551
21	21	0.58002177
22	22	inf
23	23	inf
