0	0	0.99975814
1	1	0.99906878
2	2	1.0015716
3	3	1.0030967
4	4	0.99820618
5	5	1.0051419
6	6	1.0112408
7	7	1.0016407
8	8	1.0022189
9	9	1.0290046
10	10	0.84675131
11	11	0.90519
12	12	1.0725957
13	13	0.8311
14	14	1.0433691
15	15	1.2847624
16	16	0.46215724
17	17	0.87944145
18	18	0.72126941
19	19	0.93542981
20	20	0.63794308
21	21	0.11652404
22	22	inf
23	23	inf
