0	0	0.99985102
1	1	1.0022198
2	2	1.0016941
3	3	0.99975878
4	4	1.0028686
5	5	1.0195633
6	6	0.99808178
7	7	1.0064658
8	8	1.0024249
9	9	1.1352261
10	10	1.2698727
11	11	1.0265772
12	12	1.2186148
13	13	0.87318451
14	14	1.014062
15	15	0.96079852
16	16	0.85900116
17	17	1.5865075
18	18	0.96539006
19	19	1.0392494
20	20	1.3528786
21	21	0.91037704
22	22	0.18555434
23	23	inf
