0	0	0.99990231
1	1	0.99828985
2	2	1.0028863
3	3	1.0005677
4	4	0.98800899
5	5	0.9891529
6	6	1.0036721
7	7	1.0068219
8	8	0.99862304
9	9	0.98777576
10	10	0.96657811
11	11	0.96614689
12	12	1.0725212
13	13	0.85874364
14	14	1.0000813
15	15	0.94312398
16	16	1.0664389
17	17	0.62114212
18	18	0.88728763
19	19	1.3263806
20	20	1.0471574
21	21	inf
22	22	0.22588626
23	23	0.6065724
