0	0	1.0000137
1	1	1.0042048
2	2	0.99829267
3	3	0.99968169
4	4	0.9939025
5	5	0.99732421
6	6	0.9918824
7	7	1.0051474
8	8	0.9978785
9	9	1.0182195
10	10	0.93343549
11	11	0.97150416
12	12	1.0513818
13	13	0.97206137
14	14	0.96713395
15	15	1.0448736
16	16	0.58639931
17	17	1.1186722
18	18	1.2518725
19	19	1.3608138
20	20	0.8286236
21	21	1.247728
22	22	0.11268505
23	23	0.9327772
