0	0	0.99989424
1	1	1.0007068
2	2	1.0007905
3	3	1.0016118
4	4	1.0013968
5	5	1.0146957
6	6	1.01226
7	7	0.98003622
8	8	1.0001192
9	9	1.0508984
10	10	0.79730606
11	11	0.96350766
12	12	0.80044464
13	13	0.76907769
14	14	2.0867384
15	15	1.2847625
16	16	0.69323593
17	17	1.7321865
18	18	0.92076565
19	19	0.7747227
20	20	1.4719546
21	21	inf
22	22	inf
23	23	0.13132887
