0	0	0.99995707
1	1	1.0003383
2	2	1.001764
3	3	0.99910714
4	4	0.98543619
5	5	0.99329308
6	6	1.0078226
7	7	0.99330893
8	8	1.005774
9	9	0.9635465
10	10	1.0920778
11	11	1.0680104
12	12	1.0942536
13	13	1.2565191
14	14	1.0388904
15	15	1.035718
16	16	0.8543983
17	17	1.6584589
18	18	1.3119369
19	19	1.0116917
20	20	1.0608481
21	21	1.4182538
22	22	0.3858881
23	23	inf
