0	0	1.0000986
1	1	0.99994053
2	2	0.99694487
3	3	1.0005381
4	4	0.98241582
5	5	1.0023669
6	6	1.0036008
7	7	0.99334331
8	8	1.0015523
9	9	1.0027468
10	10	0.94970058
11	11	1.0175262
12	12	1.1916055
13	13	0.99078765
14	14	1.0726829
15	15	0.99369976
16	16	1.4078015
17	17	0.80988083
18	18	1.0270101
19	19	1.1864467
20	20	1.1200913
21	21	0.74150356
22	22	inf
23	23	0.41533188
