0	0	0.99997748
1	1	0.99728567
2	2	1.003857
3	3	0.99852087
4	4	1.0104372
5	5	0.99288047
6	6	1.0063544
7	7	0.99463774
8	8	1.0052983
9	9	0.92747329
10	10	0.949752
11	11	1.0145796
12	12	0.8649218
13	13	1.1449722
14	14	0.94075851
15	15	0.95965834
16	16	1.0566437
17	17	1.0396252
18	18	0.84473628
19	19	1.1809676
20	20	0.98260817
21	21	1.7834973
22	22	inf
23	23	inf
