0	0	0.99999038
1	1	0.99964426
2	2	0.99948371
3	3	0.99893284
4	4	1.0202907
5	5	0.99419359
6	6	1.0057323
7	7	1.0149922
8	8	1.0048745
9	9	0.98746082
10	10	1.0704755
11	11	1.1020469
12	12	0.98885841
13	13	0.99139342
14	14	0.99705313
15	15	1.0218175
16	16	0.84729816
17	17	0.73734284
18	18	0.94168057
19	19	0.96021656
20	20	0.87037741
21	21	0.61223836
22	22	inf
23	23	0.55124004
