0	0	1.0000074
1	1	0.99961714
2	2	1.0012604
3	3	0.99871961
4	4	0.99969931
5	5	0.99870961
6	6	0.99833997
7	7	1.0148077
8	8	0.9980767
9	9	1.012862
10	10	1.0301633
11	11	1.0580503
12	12	1.1011027
13	13	1.0486124
14	14	0.92098909
15	15	0.9795339
16	16	1.0861246
17	17	1.1985072
18	18	1.1894607
19	19	1.1290527
20	20	1.4155642
21	21	0.5988899
22	22	0.50982237
23	23	inf
