0	0	1.0001803
1	1	0.99579854
2	2	1.0014416
3	3	0.9984421
4	4	0.98414814
5	5	1.002327
6	6	0.9915613
7	7	1.0033176
8	8	0.9915435
9	9	0.95416276
10	10	0.97499374
11	11	0.96865528
12	12	1.1349843
13	13	0.99432301
14	14	0.98582195
15	15	1.0094545
16	16	1.0879264
17	17	1.23754
18	18	1.2402095
19	19	0.68887401
20	20	0.98898649
21	21	0.69048207
22	22	inf
23	23	0.65951857
