0	0	1.0000902
1	1	0.99876229
2	2	0.99924966
3	3	0.99988642
4	4	0.99765342
5	5	0.99114395
6	6	0.99220941
7	7	0.99783923
8	8	1.0006194
9	9	1.0290046
10	10	0.98406236
11	11	0.99991921
12	12	1.0944855
13	13	1.0963447
14	14	0.52168456
15	15	2.5695248
16	16	0.46215725
17	17	0.75206325
18	18	1.6076541
19	19	1.6354404
20	20	0.85169631
21	21	inf
22	22	inf
23	23	inf
