0	0	1.0000764
1	1	0.99803433
2	2	0.99914747
3	3	0.9991187
4	4	0.98438278
5	5	1.0087349
6	6	1.0099583
7	7	1.0032222
8	8	1.0032687
9	9	1.0795562
10	10	0.99295758
11	11	0.96888623
12	12	0.90893294
13	13	1.3211683
14	14	1.0065038
15	15	1.0442354
16	16	0.82643666
17	17	1.0638947
18	18	0.85408941
19	19	0.82217949
20	20	1.3937929
21	21	0.37121594
22	22	0.2071631
23	23	inf
