0	0	0.99987012
1	1	1.0031195
2	2	0.99836698
3	3	1.0013746
4	4	1.0341633
5	5	0.99728063
6	6	1.0189613
7	7	0.9990908
8	8	0.99904866
9	9	0.98784435
10	10	0.78583389
11	11	1.0267826
12	12	0.6875613
13	13	1.3212358
14	14	0.69557935
15	15	0.51390491
16	16	1.3864716
17	17	0.73286782
18	18	0.93067277
19	19	0.56858627
20	20	1.6078489
21	21	0.2214932
22	22	inf
23	23	inf
