0	0	0.99993468
1	1	0.99947627
2	2	1.0014312
3	3	1.0002104
4	4	1.0040462
5	5	1.0018499
6	6	0.99609179
7	7	0.99209838
8	8	1.0084247
9	9	0.92755205
10	10	1.0923075
11	11	1.0206875
12	12	0.90897805
13	13	0.99092543
14	14	0.62699859
15	15	0.79974861
16	16	0.92409616
17	17	1.1001003
18	18	2.529963
19	19	0.93233793
20	20	2.35463
21	21	inf
22	22	inf
23	23	inf
