0	0	0.99998816
1	1	0.9979994
2	2	0.9993367
3	3	1.0010317
4	4	0.99161276
5	5	1.0100072
6	6	1.0033196
7	7	1.0030505
8	8	0.99933387
9	9	1.0796113
10	10	0.97527599
11	11	1.0816735
12	12	1.1172871
13	13	1.1710954
14	14	0.85722211
15	15	0.58019796
16	16	0.59644831
17	17	5.7745045
18	18	1.1656995
19	19	1.4813276
20	20	1.7037292
21	21	inf
22	22	inf
23	23	0.2143005
