0	0	1.0000504
1	1	0.99939182
2	2	1.0007875
3	3	0.99915755
4	4	1.0076985
5	5	0.99522687
6	6	0.99061305
7	7	1.0019744
8	8	0.99824172
9	9	1.0028879
10	10	0.98406251
11	11	1.0146674
12	12	0.95767492
13	13	0.8884174
14	14	1.0433693
15	15	0.64238131
16	16	1.386472
17	17	0.98140116
18	18	2.1587909
19	19	0.81934879
20	20	2.0994162
21	21	inf
22	22	inf
23	23	inf
