0	0	0.99997448
1	1	0.9962473
2	2	1.0017768
3	3	1.0005936
4	4	0.9965496
5	5	0.9935035
6	6	0.99159073
7	7	1.0097076
8	8	1.0004764
9	9	1.0508983
10	10	1.0502973
11	11	0.97167285
12	12	1.191773
13	13	0.9201464
14	14	1.0433691
15	15	2.5695247
16	16	0.46215723
17	17	1.0993018
18	18	0.92884329
19	19	1.5824237
20	20	1.5752907
21	21	inf
22	22	inf
23	23	inf
