0	0	0.99996362
1	1	0.99840232
2	2	1.0007941
3	3	0.99981687
4	4	0.98698978
5	5	1.0140179
6	6	1.0087767
7	7	1.0023769
8	8	1.0040821
9	9	1.0343866
10	10	1.1033368
11	11	1.0329441
12	12	0.85126195
13	13	1.1450651
14	14	0.78383727
15	15	0.78776419
16	16	1.2283884
17	17	1.3671247
18	18	1.1987831
19	19	1.8479035
20	20	0.73448108
21	21	0.44731115
22	22	inf
23	23	inf
