0	0	1.0000151
1	1	1.0013608
2	2	1.0020537
3	3	0.99930247
4	4	0.99999685
5	5	0.99317103
6	6	0.99276705
7	7	0.99314495
8	8	0.99053424
9	9	1.1354418
10	10	1.2412478
11	11	0.9855837
12	12	0.9089702
13	13	0.87335046
14	14	1.6608077
15	15	1.1742972
16	16	0.72384682
17	17	1.3812986
18	18	1.1214273
19	19	1.9563279
20	20	1.9306735
21	21	inf
22	22	inf
23	23	inf
