0	0	1.0000182
1	1	0.99731827
2	2	0.99947204
3	3	1.0012666
4	4	0.99270569
5	5	1.0093411
6	6	1.00777
7	7	1.0047998
8	8	0.99138589
9	9	0.88994995
10	10	1.0113974
11	11	0.94497859
12	12	1.1410593
13	13	0.95422594
14	14	1.0433691
15	15	0.51390496
16	16	0.46215725
17	17	1.3393539
18	18	0.91887641
19	19	0.91535762
20	20	1.1803581
21	21	inf
22	22	inf
23	23	inf
