0	0	1.0000337
1	1	1.0008356
2	2	0.99910684
3	3	0.99985917
4	4	1.0072044
5	5	0.99096682
6	6	0.98497018
7	7	1.0075699
8	8	0.99959616
9	9	1.0343189
10	10	0.97520706
11	11	1.098875
12	12	0.97501803
13	13	1.0304911
14	14	1.0528357
15	15	1.0051687
16	16	0.71707384
17	17	1.1442691
18	18	1.0965463
19	19	1.0078339
20	20	0.86070028
21	21	0.55202716
22	22	inf
23	23	0.61010485
