0	0	1.0000355
1	1	1.0006691
2	2	1.0007016
3	3	0.99860052
4	4	1.0011928
5	5	1.0304605
6	6	0.99338474
7	7	0.99454983
8	8	1.0018673
9	9	1.0183305
10	10	0.85331141
11	11	0.94752059
12	12	1.0944147
13	13	0.90394509
14	14	0.96582338
15	15	0.9211874
16	16	0.91535364
17	17	0.83896247
18	18	0.89568298
19	19	0.8413345
20	20	1.4422691
21	21	0.80221293
22	22	0.2208877
23	23	0.59244225
