0	0	0.99999852
1	1	0.99683799
2	2	0.99992571
3	3	1.0005757
4	4	0.99986482
5	5	1.0185195
6	6	0.9852399
7	7	1.000601
8	8	1.0105333
9	9	0.87808092
10	10	1.0208462
11	11	1.1277738
12	12	0.9089763
13	13	1.2882006
14	14	1.0514704
15	15	0.77013177
16	16	0.5532773
17	17	1.0929913
18	18	1.6037042
19	19	0.60962861
20	20	1.632815
21	21	inf
22	22	inf
23	23	0.30729004
