0	0	0.99999279
1	1	0.99855306
2	2	1.0005407
3	3	1.0014728
4	4	1.004468
5	5	0.99728111
6	6	0.99812537
7	7	0.99714151
8	8	0.98979781
9	9	0.92321946
10	10	1.1033431
11	11	1.0519032
12	12	0.99314458
13	13	0.80512845
14	14	2.086739
15	15	0.8565086
16	16	inf
17	17	1.082289
18	18	0.51556526
19	19	0.57794641
20	20	0.51882181
21	21	inf
22	22	inf
23	23	inf
