0	0	0.99981192
1	1	1.0047127
2	2	1.0009863
3	3	1.0011179
4	4	0.99343714
5	5	0.98668712
6	6	1.010293
7	7	0.99844809
8	8	0.99888723
9	9	1.0678435
10	10	1.0207575
11	11	0.9371693
12	12	0.95758825
13	13	0.90392186
14	14	0.93832979
15	15	1.0760486
16	16	1.6218732
17	17	0.82069048
18	18	1.1603707
19	19	1.3989428
20	20	0.9527168
21	21	1.8144886
22	22	inf
23	23	0.22314707
