0	0	0.99981782
1	1	0.99889465
2	2	1.0022409
3	3	1.0019674
4	4	0.99704666
5	5	1.0039227
6	6	1.0012739
7	7	0.99905454
8	8	1.0019296
9	9	1.0227671
10	10	1.0085727
11	11	0.98721443
12	12	1.0151718
13	13	0.99616713
14	14	1.0220196
15	15	0.98783756
16	16	1.0133652
17	17	0.94429649
18	18	1.0519325
19	19	1.0140136
20	20	1.0870349
21	21	1.0439619
22	22	0.53940869
23	23	0.94288168
