0	0	1.0000285
1	1	0.99951467
2	2	0.99916877
3	3	1.0008827
4	4	1.0211082
5	5	1.0007687
6	6	0.99982612
7	7	1.0010358
8	8	0.99151346
9	9	0.98699226
10	10	0.95208348
11	11	0.9927598
12	12	0.9788305
13	13	0.938809
14	14	1.0040263
15	15	1.0048315
16	16	0.95453766
17	17	1.1233664
18	18	0.93242312
19	19	0.84137656
20	20	0.99277749
21	21	1.0152326
22	22	0.5207572
23	23	0.73282019
