0	0	0.9999804
1	1	1.0044252
2	2	1.0007562
3	3	0.99798405
4	4	1.0119567
5	5	0.99456078
6	6	1.0040364
7	7	1.0000704
8	8	1.0007779
9	9	0.90616377
10	10	0.92556777
11	11	0.9743013
12	12	0.86488629
13	13	1.0962049
14	14	1.0205879
15	15	0.95491019
16	16	1.3214898
17	17	0.94271374
18	18	0.97767895
19	19	0.92514923
20	20	0.97520887
21	21	0.70649795
22	22	inf
23	23	0.78974583
