0	0	1.000052
1	1	0.9979798
2	2	0.99922591
3	3	1.0001475
4	4	0.99924624
5	5	0.99267065
6	6	1.000854
7	7	0.9979907
8	8	1.0063011
9	9	1.0446877
10	10	1.1139078
11	11	0.93937669
12	12	1.0515448
13	13	0.94843855
14	14	1.0017413
15	15	0.98331986
16	16	1.1254951
17	17	0.97424262
18	18	1.04522
19	19	1.0439381
20	20	1.0004836
21	21	1.3087826
22	22	0.34947831
23	23	2.5845124
