0	0	1.0000623
1	1	0.99848426
2	2	0.99988617
3	3	0.99896806
4	4	0.99864828
5	5	0.9972667
6	6	1.0163837
7	7	0.99362345
8	8	1.004836
9	9	1.0283195
10	10	0.90213384
11	11	1.0071079
12	12	1.0074728
13	13	1.0069302
14	14	1.0150357
15	15	0.99149882
16	16	1.0757509
17	17	1.0326316
18	18	0.823763
19	19	0.88896225
20	20	0.89386858
21	21	0.63452015
22	22	1.1361707
23	23	2.7645239
