0	0	1.0000295
1	1	0.9966336
2	2	0.99932338
3	3	1.0006905
4	4	0.99208001
5	5	1.0053922
6	6	1.0025021
7	7	1.0097026
8	8	0.99949221
9	9	1.0621138
10	10	0.95808973
11	11	0.9346327
12	12	1.340638
13	13	0.74672609
14	14	1.0679352
15	15	0.94569059
16	16	1.0131646
17	17	1.7742511
18	18	1.0539529
19	19	0.88346718
20	20	1.1444841
21	21	0.86420175
22	22	0.23589182
23	23	inf
