0	0	1.0000313
1	1	0.99912116
2	2	0.9980598
3	3	1.0014668
4	4	1.0029283
5	5	0.98858114
6	6	0.99713272
7	7	1.002752
8	8	0.99726847
9	9	1.0028863
10	10	0.98406093
11	11	1.0057652
12	12	1.0515629
13	13	1.1983285
14	14	1.0198667
15	15	0.52617293
16	16	inf
17	17	1.1007611
18	18	1.1181652
19	19	1.8686789
20	20	0.78402911
21	21	inf
22	22	inf
23	23	inf
