0	0	1.0000338
1	1	0.99929498
2	2	0.99782182
3	3	1.0008035
4	4	1.0095287
5	5	1.0052034
6	6	1.0035089
7	7	1.0021946
8	8	0.9997946
9	9	0.93127144
10	10	0.81458121
11	11	0.99364056
12	12	0.96873297
13	13	0.95558388
14	14	1.0053353
15	15	1.0095489
16	16	1.0740099
17	17	0.88905596
18	18	1.1336919
19	19	0.89175377
20	20	0.99350345
21	21	1.0544269
22	22	0.60848041
23	23	2.93029
