0	0	0.99999826
1	1	0.99901524
2	2	1.0000106
3	3	1.0004113
4	4	0.97629755
5	5	1.002508
6	6	1.0051165
7	7	1.0098585
8	8	0.9955212
9	9	0.91467099
10	10	1.0708916
11	11	1.0028346
12	12	0.86499676
13	13	1.0515962
14	14	0.29810553
15	15	1.2847627
16	16	0.46215736
17	17	1.3546727
18	18	0.93090641
19	19	1.0112947
20	20	0.80869763
21	21	0.16782605
22	22	inf
23	23	inf
