0	0	0.99997051
1	1	1.0014374
2	2	0.99539709
3	3	1.002354
4	4	1.0058969
5	5	1.0117561
6	6	1.003436
7	7	1.0027605
8	8	1.0034985
9	9	0.88573575
10	10	0.85986912
11	11	0.9853452
12	12	1.031082
13	13	0.90109146
14	14	1.0032623
15	15	1.0194192
16	16	0.89051642
17	17	0.9501051
18	18	0.89804785
19	19	1.432494
20	20	0.85623422
21	21	1.5857078
22	22	inf
23	23	0.40090218
