0	0	0.99999443
1	1	1.0012117
2	2	1.0004552
3	3	0.99960241
4	4	1.0160625
5	5	1.0005224
6	6	1.000251
7	7	0.99248122
8	8	1.0001956
9	9	0.9146536
10	10	1.0604745
11	11	0.93979712
12	12	0.92463413
13	13	0.92012916
14	14	0.99247632
15	15	0.87951617
16	16	1.2846333
17	17	0.63030704
18	18	0.85495046
19	19	1.1027813
20	20	1.3810251
21	21	inf
22	22	inf
23	23	0.42561338
