0	0	0.99987332
1	1	1.0001859
2	2	1.0014112
3	3	1.0011665
4	4	1.0033611
5	5	1.0021617
6	6	0.99529154
7	7	1.0074758
8	8	0.99622091
9	9	1.0914022
10	10	1.0303496
11	11	0.99689431
12	12	0.9245341
13	13	1.0962055
14	14	1.0497434
15	15	1.0256768
16	16	0.74145116
17	17	1.2097581
18	18	1.3575298
19	19	1.6136382
20	20	0.89074937
21	21	0.52882333
22	22	inf
23	23	0.78810935
