0	0	0.99995573
1	1	1.0016956
2	2	1.0007752
3	3	0.9997862
4	4	1.0108737
5	5	0.98872101
6	6	0.99888562
7	7	1.0057316
8	8	0.99594162
9	9	0.92748357
10	10	1.1145172
11	11	1.091893
12	12	0.89376243
13	13	0.88835031
14	14	0.90273276
15	15	0.99796099
16	16	1.1092395
17	17	1.1644669
18	18	1.3019647
19	19	0.93905699
20	20	1.3046466
21	21	inf
22	22	inf
23	23	0.62310776
