0	0	1.0000968
1	1	0.99834865
2	2	0.99963753
3	3	0.99998604
4	4	1.0188112
5	5	0.98836986
6	6	1.0027927
7	7	0.98714549
8	8	0.99696236
9	9	1.0343922
10	10	1.0021187
11	11	0.90519014
12	12	1.0118829
13	13	0.88841738
14	14	0.92689697
15	15	1.480935
16	16	inf
17	17	2.977059
18	18	0.75635436
19	19	2.4755701
20	20	2.7895679
21	21	0.50280387
22	22	inf
23	23	inf
