0	0	0.99995948
1	1	1.0003566
2	2	1.0006597
3	3	0.99997151
4	4	0.98251739
5	5	0.99930607
6	6	1.0022286
7	7	1.0100467
8	8	0.99685416
9	9	1.0183584
10	10	1.0020813
11	11	1.0423012
12	12	1.2768522
13	13	1.1201366
14	14	0.9633722
15	15	1.0296852
16	16	0.93437427
17	17	1.5154737
18	18	1.006113
19	19	2.805881
20	20	1.3159762
21	21	1.3523451
22	22	inf
23	23	inf
