0	0	0.99992316
1	1	1.0005615
2	2	1.0024361
3	3	0.99931722
4	4	0.99380138
5	5	0.98698887
6	6	1.0116165
7	7	1.0057331
8	8	0.99665516
9	9	0.98784488
10	10	1.0604949
11	11	1.0782833
12	12	1.1658655
13	13	1.0103573
14	14	inf
15	15	0.64238149
16	16	0.69323619
17	17	0.90959586
18	18	0.75795553
19	19	1.0155101
20	20	1.1484332
21	21	0.40377849
22	22	inf
23	23	inf
