0	0	1.0000111
1	1	1.0010069
2	2	0.99959184
3	3	0.99966397
4	4	1.0013257
5	5	1.0004894
6	6	0.99363681
7	7	0.99358163
8	8	1.004967
9	9	0.93147419
10	10	0.94937083
11	11	0.95501234
12	12	1.0956117
13	13	1.0099901
14	14	0.9998236
15	15	1.0324395
16	16	1.0916044
17	17	1.1661377
18	18	1.157694
19	19	1.0157643
20	20	1.1170217
21	21	0.57909924
22	22	inf
23	23	1.0160256
