0	0	1.0000687
1	1	0.99701813
2	2	0.99970049
3	3	0.99988221
4	4	0.9977915
5	5	0.99501093
6	6	0.98994485
7	7	1.009068
8	8	1.000977
9	9	1.2046883
10	10	1.1146012
11	11	1.04234
12	12	1.2188587
13	13	0.8588033
14	14	inf
15	15	1.3483411
16	16	1.7020475
17	17	0.83122394
18	18	1.1428695
19	19	0.75902474
20	20	inf
21	21	inf
22	22	inf
23	23	inf
