0	0	1.0000646
1	1	1.0008938
2	2	0.99951655
3	3	0.99876494
4	4	0.99525315
5	5	0.99697688
6	6	1.003545
7	7	1.0027796
8	8	0.99825932
9	9	1.1287437
10	10	1.0206496
11	11	1.0055695
12	12	0.87900444
13	13	1.1980953
14	14	1.0212088
15	15	0.98298791
16	16	0.76485129
17	17	0.99417094
18	18	0.95107956
19	19	0.72450485
20	20	0.94423477
21	21	1.347236
22	22	inf
23	23	1.0049751
