0	0	1.0000244
1	1	1.0021391
2	2	0.99867319
3	3	0.99977252
4	4	1.0005625
5	5	1.0141353
6	6	0.99360421
7	7	1.0080915
8	8	0.99258068
9	9	1.1162085
10	10	1.1146013
11	11	1.0237269
12	12	0.92465158
13	13	0.95422603
14	14	0.52168461
15	15	0.51390501
16	16	0.69323594
17	17	0.69253079
18	18	0.92105623
19	19	0.85597576
20	20	1.2539284
21	21	inf
22	22	inf
23	23	inf
