0	0	1.0000194
1	1	0.99972127
2	2	0.99910016
3	3	1.000295
4	4	0.99240865
5	5	0.99201488
6	6	1.0063819
7	7	0.99920003
8	8	1.0006746
9	9	0.92243427
10	10	1.0395141
11	11	0.95911043
12	12	0.98411725
13	13	0.99755964
14	14	1.0208138
15	15	1.0101964
16	16	1.3291341
17	17	1.0348196
18	18	0.85705356
19	19	1.0375346
20	20	1.072578
21	21	1.1239556
22	22	1.5307953
23	23	1.2012232
