0	0	0.99999447
1	1	1.001344
2	2	0.99732445
3	3	1.0013435
4	4	0.97563646
5	5	0.98964824
6	6	1.00676
7	7	1.005434
8	8	1.0016454
9	9	0.94985046
10	10	0.95816601
11	11	1.0267827
12	12	0.86499659
13	13	0.92014648
14	14	1.0433692
15	15	0.8565083
16	16	1.3864718
17	17	1.0993019
18	18	0.80895396
19	19	0.90901809
20	20	0.80906386
21	21	inf
22	22	inf
23	23	inf
