0	0	0.9999077
1	1	0.99976786
2	2	1.0029159
3	3	0.99965153
4	4	1.0025105
5	5	1.0015228
6	6	1.0064406
7	7	0.9961134
8	8	1.0008332
9	9	1.0565173
10	10	0.9256851
11	11	1.0087154
12	12	0.78867276
13	13	1.1201775
14	14	0.77298376
15	15	0.62599116
16	16	0.80883069
17	17	0.69548974
18	18	1.1742178
19	19	0.55485116
20	20	1.5730038
21	21	0.34074598
22	22	inf
23	23	0.2537302
