0	0	1.0000087
1	1	1.0001892
2	2	0.99713913
3	3	1.0012045
4	4	1.0079805
5	5	1.0093413
6	6	1.0131199
7	7	1.000346
8	8	0.99753065
9	9	0.914671
10	10	1.0708916
11	11	1.0146675
12	12	0.85126667
13	13	0.78073051
14	14	1.0433694
15	15	2.5695254
16	16	0.69323605
17	17	0.74906681
18	18	3.2643506
19	19	0.69918989
20	20	0.61490393
21	21	inf
22	22	inf
23	23	inf
