0	0	1.0000684
1	1	0.99630586
2	2	1.0012574
3	3	0.99979903
4	4	1.0078389
5	5	0.99576608
6	6	0.99713383
7	7	1.0029759
8	8	0.99253335
9	9	1.1553732
10	10	1.0208494
11	11	1.0329492
12	12	0.9750867
13	13	0.93687607
14	14	1.4587815
15	15	1.1953141
16	16	2.1347003
17	17	0.80588475
18	18	0.97963706
19	19	0.68201823
20	20	0.80548645
21	21	0.31554432
22	22	inf
23	23	0.23521905
