0	0	0.99997967
1	1	0.99941258
2	2	0.99915353
3	3	1.0011629
4	4	0.99723324
5	5	0.9899624
6	6	1.0008408
7	7	1.003937
8	8	1.000971
9	9	0.85527144
10	10	1.0021125
11	11	1.064923
12	12	0.82506869
13	13	0.81790305
14	14	0.70704323
15	15	0.97045599
16	16	0.54211828
17	17	1.8247305
18	18	1.2222817
19	19	inf
20	20	1.3068261
21	21	inf
22	22	inf
23	23	inf
