0	0	1.0000925
1	1	1.0018377
2	2	0.99859654
3	3	0.99866115
4	4	1.0113062
5	5	0.99190065
6	6	0.99640529
7	7	1.002544
8	8	0.99898262
9	9	0.95887194
10	10	1.0019092
11	11	1.0421223
12	12	0.86481588
13	13	0.87317691
14	14	0.96157958
15	15	1.0299617
16	16	1.1258312
17	17	1.1480385
18	18	0.87418207
19	19	1.3672376
20	20	0.86570034
21	21	1.4048423
22	22	inf
23	23	1.052262
