0	0	1.0000843
1	1	0.99875432
2	2	0.99788939
3	3	1.000354
4	4	0.97683955
5	5	0.99726786
6	6	1.0068344
7	7	1.0004939
8	8	1.0010035
9	9	0.94017893
10	10	1.0014525
11	11	1.0506642
12	12	1.0382185
13	13	1.0483271
14	14	1.0086411
15	15	0.98170988
16	16	0.84765845
17	17	1.1239879
18	18	1.1012788
19	19	0.93167239
20	20	0.94648384
21	21	0.77421603
22	22	inf
23	23	1.3798294
