0	0	0.99986512
1	1	1.0009768
2	2	1.0025779
3	3	1.0001436
4	4	1.0079803
5	5	1.0108971
6	6	0.9965615
7	7	1.0145497
8	8	0.99091825
9	9	1.1901741
10	10	0.93359769
11	11	0.99127445
12	12	0.82507371
13	13	1.1710956
14	14	0.5216846
15	15	0.42825417
16	16	inf
17	17	0.57749101
18	18	0.58588014
19	19	0.77617088
20	20	0.98331152
21	21	inf
22	22	inf
23	23	inf
