0	0	1.0001181
1	1	0.99888408
2	2	0.99903667
3	3	0.99842829
4	4	0.97985103
5	5	0.99871398
6	6	1.0057118
7	7	1.0128379
8	8	0.9978202
9	9	1.0395208
10	10	0.821036
11	11	1.0451911
12	12	1.0613097
13	13	0.93073659
14	14	1.0093764
15	15	1.023788
16	16	1.3262405
17	17	0.90576866
18	18	1.0453031
19	19	0.92545644
20	20	0.91285733
21	21	0.88927982
22	22	inf
23	23	1.360159
