0	0	1.0000147
1	1	1.0033151
2	2	0.99893156
3	3	0.99896319
4	4	0.99586135
5	5	0.98794459
6	6	1.006654
7	7	0.99920178
8	8	1.0050968
9	9	0.8859594
10	10	0.98406265
11	11	0.94758212
12	12	0.8791771
13	13	0.92014672
14	14	0.69557962
15	15	0.85650852
16	16	0.69323608
17	17	2.2173112
18	18	0.94069277
19	19	0.84311856
20	20	0.55211508
21	21	inf
22	22	inf
23	23	inf
