0	0	0.99983643
1	1	1.0062749
2	2	0.99927385
3	3	1.0017616
4	4	0.98470234
5	5	0.9795122
6	6	1.0050635
7	7	1.002234
8	8	0.99599321
9	9	1.0679401
10	10	0.93359777
11	11	1.0028346
12	12	0.9408736
13	13	1.1450713
14	14	2.0867386
15	15	1.2847626
16	16	1.386472
17	17	2.2911927
18	18	0.58860827
19	19	1.0553346
20	20	0.70095895
21	21	inf
22	22	inf
23	23	inf
