0	0	1.0001269
1	1	1.0009986
2	2	0.99549038
3	3	1.0010072
4	4	1.015366
5	5	0.97462518
6	6	0.9991704
7	7	0.99662767
8	8	0.99819443
9	9	1.1037371
10	10	1.0814946
11	11	0.9799781
12	12	0.97508734
13	13	1.0305643
14	14	2.0867389
15	15	0.85650853
16	16	0.46215739
17	17	0.6630846
18	18	2.1995105
19	19	0.95526368
20	20	1.0953515
21	21	inf
22	22	inf
23	23	inf
