0	0	0.9999899
1	1	1.0012455
2	2	1.0007586
3	3	0.9988407
4	4	1.001486
5	5	1.0026768
6	6	0.99614765
7	7	1.0048243
8	8	1.0031263
9	9	0.83358245
10	10	1.030429
11	11	0.94753461
12	12	1.218798
13	13	0.85876055
14	14	0.99517168
15	15	1.0040266
16	16	0.66881152
17	17	0.70594096
18	18	1.057674
19	19	1.6219923
20	20	1.0962371
21	21	0.73629367
22	22	inf
23	23	inf
