0	0	0.99991857
1	1	1.0020007
2	2	0.9971539
3	3	1.001925
4	4	0.98976132
5	5	0.98921823
6	6	0.99994595
7	7	1.0183716
8	8	1.0034598
9	9	1.0451091
10	10	1.1375729
11	11	0.94737434
12	12	1.0513342
13	13	0.80495183
14	14	0.99948134
15	15	0.94302573
16	16	1.255078
17	17	0.91689746
18	18	0.94467928
19	19	0.8913945
20	20	1.1360781
21	21	0.96704833
22	22	0.19798055
23	23	0.3634331
