0	0	0.99982968
1	1	1.0048904
2	2	1.0034036
3	3	0.99982512
4	4	0.98532729
5	5	0.97956869
6	6	0.99010196
7	7	1.0101479
8	8	0.99464731
9	9	1.1419609
10	10	0.97522843
11	11	1.0422891
12	12	1.0515131
13	13	0.99087852
14	14	0.93261784
15	15	0.97123054
16	16	0.66328906
17	17	0.79138048
18	18	1.0002101
19	19	1.6052173
20	20	1.0821391
21	21	inf
22	22	0.10240669
23	23	0.54421416
