0	0	1.0000604
1	1	1.0032852
2	2	1.000421
3	3	0.99809707
4	4	0.98926399
5	5	1.0115299
6	6	0.98955103
7	7	0.99534708
8	8	0.99991753
9	9	0.96371701
10	10	0.91022588
11	11	0.91722718
12	12	0.97505297
13	13	0.95419261
14	14	0.96128543
15	15	0.96955062
16	16	1.0643796
17	17	0.75150405
18	18	1.701689
19	19	0.90922856
20	20	0.81205151
21	21	inf
22	22	inf
23	23	inf
