0	0	0.99989396
1	1	1.0024886
2	2	1.0012919
3	3	1.0006835
4	4	1.0064642
5	5	0.99708076
6	6	0.99510162
7	7	1.0024855
8	8	0.99356069
9	9	1.1031559
10	10	0.96613656
11	11	0.98507498
12	12	0.92265447
13	13	0.97740416
14	14	1.0222839
15	15	1.0040795
16	16	1.1804679
17	17	0.90088672
18	18	0.97854333
19	19	0.80442354
20	20	1.0248389
21	21	0.79750475
22	22	inf
23	23	0.54666714
