0	0	1.0000223
1	1	0.9957337
2	2	1.0000422
3	3	0.99978939
4	4	1.0067834
5	5	1.001799
6	6	1.0011977
7	7	1.0095906
8	8	1.0065802
9	9	0.97758577
10	10	0.85966562
11	11	1.1054794
12	12	0.98745133
13	13	0.97001591
14	14	1.0723862
15	15	0.98316303
16	16	0.72926377
17	17	0.98903214
18	18	0.98871434
19	19	1.1753409
20	20	0.9903089
21	21	0.74594963
22	22	inf
23	23	2.0361201
