0	0	1.0000865
1	1	1.0002262
2	2	0.99642093
3	3	1.0000696
4	4	1.0112338
5	5	0.99048089
6	6	1.0011252
7	7	1.0025249
8	8	1.0044604
9	9	0.94027635
10	10	1.0108299
11	11	0.94966631
12	12	1.0215682
13	13	1.043596
14	14	1.0690638
15	15	0.97633342
16	16	1.0945042
17	17	0.93814128
18	18	0.99674596
19	19	1.0257242
20	20	1.1373905
21	21	0.65961901
22	22	inf
23	23	0.77789264
