0	0	1.0000729
1	1	0.99743137
2	2	0.99820867
3	3	1.0006087
4	4	1.0123707
5	5	1.0075693
6	6	0.99640586
7	7	1.0039063
8	8	0.99831326
9	9	0.95443958
10	10	1.0304809
11	11	0.99127489
12	12	1.051565
13	13	1.1450717
14	14	2.0867393
15	15	2.5695262
16	16	1.3864725
17	17	1.5534944
18	18	1.1710764
19	19	0.95233558
20	20	3.1799861
21	21	inf
22	22	inf
23	23	0.17186433
