0	0	0.99997757
1	1	1.0026119
2	2	0.99851582
3	3	0.99932429
4	4	1.0101002
5	5	1.0036998
6	6	0.99304759
7	7	1.0088036
8	8	1.004822
9	9	0.95853509
10	10	1.1491552
11	11	1.0231534
12	12	0.97669805
13	13	1.1722421
14	14	1.0208665
15	15	0.99306523
16	16	0.85997551
17	17	0.9664749
18	18	0.95694321
19	19	1.0677203
20	20	1.1463014
21	21	1.4815476
22	22	0.92404273
23	23	1.1646828
