0	0	1.0002133
1	1	0.99452896
2	2	0.99928087
3	3	1.0002982
4	4	0.97841921
5	5	0.9971191
6	6	1.0002947
7	7	0.99227412
8	8	0.99332201
9	9	0.96296646
10	10	0.89559875
11	11	0.99779613
12	12	0.97616625
13	13	0.96505974
14	14	0.96869369
15	15	1.0070561
16	16	1.1016597
17	17	1.2483719
18	18	1.0992523
19	19	0.9542862
20	20	1.0609089
21	21	0.8571396
22	22	1.4443963
23	23	3.4290887
