0	0	0.99982351
1	1	1.0033345
2	2	0.99954904
3	3	1.0018869
4	4	1.0051107
5	5	1.0030773
6	6	0.99346042
7	7	0.99948439
8	8	1.003866
9	9	0.89786378
10	10	0.99281308
11	11	1.0987366
12	12	0.95748642
13	13	0.972039
14	14	1.1004595
15	15	1.0339933
16	16	1.6098898
17	17	0.84308611
18	18	0.91076287
19	19	1.4541
20	20	0.78949411
21	21	1.3498545
22	22	0.36670138
23	23	0.33570147
