0	0	0.99988771
1	1	1.0044485
2	2	1.0018155
3	3	1.0001411
4	4	0.9793553
5	5	0.99815442
6	6	1.0046821
7	7	0.99444497
8	8	0.9937144
9	9	1.0503337
10	10	0.87337787
11	11	0.9822497
12	12	0.95828356
13	13	1.0090959
14	14	1.0129228
15	15	1.0079443
16	16	1.0730362
17	17	0.7522451
18	18	0.98016192
19	19	1.0379964
20	20	0.92485376
21	21	0.94830346
22	22	0.43969224
23	23	0.74380748
