0	0	0.99986332
1	1	0.99740272
2	2	0.99934159
3	3	1.0032559
4	4	0.99246626
5	5	1.0027326
6	6	1.0023728
7	7	1.0049941
8	8	1.0048242
9	9	1.1829248
10	10	0.95806685
11	11	1.0056626
12	12	0.83787872
13	13	1.0733931
14	14	0.97740433
15	15	0.9900449
16	16	0.80716186
17	17	0.96921383
18	18	0.94486491
19	19	0.64303968
20	20	1.3774279
21	21	inf
22	22	inf
23	23	0.35641011
