0	0	1.0000405
1	1	0.99765303
2	2	1.0021179
3	3	0.99942884
4	4	1.0056449
5	5	1.0082287
6	6	0.98987768
7	7	1.0006766
8	8	0.9929453
9	9	1.0619609
10	10	1.103096
11	11	0.96871923
12	12	0.90877628
13	13	0.81772515
14	14	1.0044393
15	15	1.0145912
16	16	0.99325216
17	17	1.1015668
18	18	0.92146671
19	19	0.91388709
20	20	1.0386032
21	21	0.58845563
22	22	inf
23	23	0.55370261
