0	0	0.99993159
1	1	0.99959764
2	2	0.99829328
3	3	1.0029434
4	4	1.0083016
5	5	0.98773827
6	6	1.0087869
7	7	0.99491566
8	8	0.99754814
9	9	1.0452325
10	10	1.0813851
11	11	0.97432714
12	12	0.97498859
13	13	0.88832757
14	14	0.92894349
15	15	0.99413254
16	16	0.86201353
17	17	1.5365891
18	18	1.0782
19	19	1.0716741
20	20	0.92278427
21	21	0.63376722
22	22	0.25789109
23	23	0.70463616
