0	0	0.99993598
1	1	1.0011439
2	2	1.0015502
3	3	1.0002013
4	4	1.003628
5	5	0.99814789
6	6	1.003425
7	7	0.99703076
8	8	0.9936369
9	9	1.1225503
10	10	1.0021183
11	11	1.0391907
12	12	0.92465129
13	13	0.84472442
14	14	0.41734756
15	15	0.85650808
16	16	0.69323572
17	17	1.0993016
18	18	2.1809315
19	19	0.63892815
20	20	1.9921345
21	21	inf
22	22	inf
23	23	inf
