0	0	0.99985818
1	1	0.99883239
2	2	1.0022091
3	3	1.0026779
4	4	0.9882134
5	5	0.99447231
6	6	1.0001128
7	7	0.99986577
8	8	0.99105865
9	9	0.95443928
10	10	1.0208499
11	11	0.91971198
12	12	1.340745
13	13	0.93687658
14	14	2.0867387
15	15	inf
16	16	inf
17	17	1.132423
18	18	0.65081073
19	19	1.4274344
20	20	0.74082969
21	21	inf
22	22	inf
23	23	inf
