0	0	0.99991431
1	1	1.0021911
2	2	1.0011878
3	3	0.99935937
4	4	1.0073425
5	5	0.99519896
6	6	1.0106696
7	7	1.0035513
8	8	0.99845855
9	9	0.89772332
10	10	0.99265776
11	11	1.0264202
12	12	1.0421824
13	13	0.93927663
14	14	1.0348953
15	15	1.0054272
16	16	0.77696243
17	17	1.1935467
18	18	1.001362
19	19	0.97460309
20	20	1.1037785
21	21	1.3262651
22	22	inf
23	23	0.50836764
