0	0	0.99981107
1	1	1.0018858
2	2	1.0006433
3	3	1.0028275
4	4	1.0197656
5	5	0.97754917
6	6	0.99802836
7	7	0.99814029
8	8	1.0032494
9	9	0.92697862
10	10	1.0014975
11	11	0.88518594
12	12	0.98633573
13	13	0.90965757
14	14	1.0058777
15	15	0.97670094
16	16	1.042777
17	17	0.84830502
18	18	0.89839196
19	19	0.98987586
20	20	0.95832685
21	21	2.1734532
22	22	0.52184625
23	23	0.8582604
