0	0	0.99994447
1	1	1.0002332
2	2	1.0004643
3	3	1.0008919
4	4	1.0110167
5	5	0.99576888
6	6	0.99984569
7	7	1.0019818
8	8	0.99779038
9	9	0.98271901
10	10	1.0019036
11	11	0.9499957
12	12	1.1170476
13	13	0.88822674
14	14	0.9177892
15	15	0.98383681
16	16	1.2331177
17	17	0.68953513
18	18	0.97102456
19	19	1.0268829
20	20	0.85052961
21	21	0.57200229
22	22	0.3893539
23	23	inf
