0	0	0.99992547
1	1	1.0015005
2	2	0.99869984
3	3	1.0012642
4	4	1.0011182
5	5	0.99879938
6	6	1.0053807
7	7	1.0022707
8	8	1.0014541
9	9	0.95907201
10	10	0.93359737
11	11	1.0206888
12	12	1.0313418
13	13	0.97222995
14	14	1.0433688
15	15	2.5695241
16	16	1.3864714
17	17	0.87944123
18	18	0.50367535
19	19	0.86945992
20	20	1.2223208
21	21	inf
22	22	inf
23	23	inf
