0	0	1.0000458
1	1	1.0011329
2	2	0.99841895
3	3	0.99949613
4	4	1.006561
5	5	1.0151331
6	6	1.0041003
7	7	0.9964329
8	8	0.99858639
9	9	1.073732
10	10	1.0021074
11	11	1.1204182
12	12	0.99313313
13	13	0.9909159
14	14	1.2754482
15	15	0.83629777
16	16	0.63542477
17	17	0.69248093
18	18	1.1425366
19	19	0.99154946
20	20	5.9207616
21	21	1.0236863
22	22	inf
23	23	0.37977354
