0	0	1.0000299
1	1	0.99580407
2	2	1.0011225
3	3	1.0010427
4	4	0.98862039
5	5	1.0101189
6	6	1.003162
7	7	0.99148286
8	8	0.99731773
9	9	0.85159044
10	10	0.96664578
11	11	0.90757881
12	12	0.83796582
13	13	0.9542264
14	14	2.0867392
15	15	0.6423815
16	16	0.6932362
17	17	1.5774827
18	18	0.98309695
19	19	0.99558679
20	20	1.3443944
21	21	inf
22	22	inf
23	23	inf
