0	0	1.0000667
1	1	1.0034227
2	2	0.99699467
3	3	0.99946724
4	4	0.99473379
5	5	0.99996872
6	6	1.0127153
7	7	0.99869484
8	8	0.99807168
9	9	0.8980156
10	10	0.91023254
11	11	0.95280528
12	12	1.0313136
13	13	0.97220335
14	14	1.0560828
15	15	0.96994356
16	16	1.46298
17	17	0.58510886
18	18	0.91252358
19	19	1.6591812
20	20	0.80127386
21	21	inf
22	22	inf
23	23	inf
