0	0	1.00006
1	1	0.99511385
2	2	0.99974821
3	3	1.0001061
4	4	1.0324479
5	5	0.99673045
6	6	0.99649222
7	7	1.0100066
8	8	0.99839548
9	9	0.96825598
10	10	1.2847791
11	11	1.0987043
12	12	0.80026361
13	13	0.81772304
14	14	1.02861
15	15	1.0310343
16	16	0.95022221
17	17	1.11183
18	18	0.99101873
19	19	0.80317458
20	20	0.92771824
21	21	1.4828911
22	22	inf
23	23	inf
