0	0	1.0001031
1	1	1.0022135
2	2	0.99601628
3	3	0.99954603
4	4	1.0069848
5	5	1.0054513
6	6	0.9917486
7	7	1.0022948
8	8	1.0038527
9	9	1.1283234
10	10	1.0397032
11	11	0.96566491
12	12	0.9532373
13	13	1.0249174
14	14	1.0183928
15	15	0.99902991
16	16	1.0807836
17	17	1.3247294
18	18	1.173426
19	19	0.87411491
20	20	0.97903566
21	21	0.75173422
22	22	inf
23	23	inf
