0	0	1.0000837
1	1	1.0001269
2	2	0.9985674
3	3	0.99886438
4	4	1.0188666
5	5	1.0066265
6	6	0.99740022
7	7	1.0037111
8	8	1.0011622
9	9	0.9095889
10	10	0.87509553
11	11	1.04816
12	12	0.96434641
13	13	0.99998238
14	14	0.99085677
15	15	1.0086405
16	16	0.94054409
17	17	1.1907358
18	18	0.97647434
19	19	1.0625792
20	20	1.0346525
21	21	0.58786078
22	22	0.87381088
23	23	0.66999024
