0	0	0.99987556
1	1	0.99965346
2	2	1.0009622
3	3	1.0013941
4	4	1.0082162
5	5	1.0131855
6	6	0.99637432
7	7	1.0129866
8	8	0.99409371
9	9	0.88542277
10	10	1.0396647
11	11	0.91928908
12	12	0.96641576
13	13	0.90983589
14	14	1.0273255
15	15	1.0262902
16	16	0.85834689
17	17	1.062401
18	18	0.97997008
19	19	1.1181098
20	20	0.92422377
21	21	2.1263452
22	22	1.0152375
23	23	0.83879815
