0	0	1.0000188
1	1	0.99922992
2	2	1.0019321
3	3	0.99872232
4	4	1.0074256
5	5	1.0148334
6	6	0.9924857
7	7	0.99405135
8	8	0.99933974
9	9	1.0365266
10	10	0.98013754
11	11	0.97873315
12	12	0.97347642
13	13	1.0269235
14	14	1.0330936
15	15	1.0154292
16	16	1.0980891
17	17	0.90911286
18	18	0.93751477
19	19	1.0258328
20	20	0.8875993
21	21	1.1545558
22	22	0.61119903
23	23	1.0469181
