0	0	1.0001026
1	1	1.0008523
2	2	0.9991834
3	3	0.99948227
4	4	0.98161688
5	5	0.98911495
6	6	1.0006368
7	7	0.9981333
8	8	0.99321409
9	9	1.2120789
10	10	0.97527593
11	11	1.0237267
12	12	0.76613969
13	13	0.81790783
14	14	1.043369
15	15	1.2847622
16	16	inf
17	17	2.1986033
18	18	1.3059332
19	19	0.90109832
20	20	0.72319703
21	21	inf
22	22	inf
23	23	inf
