0	0	1.0000796
1	1	0.99840749
2	2	1.0018317
3	3	0.99774121
4	4	0.99770371
5	5	0.99165521
6	6	0.99849497
7	7	1.0057697
8	8	1.0020824
9	9	1.0335849
10	10	0.89245437
11	11	0.98235082
12	12	0.95592594
13	13	1.0037307
14	14	1.0009335
15	15	1.0107784
16	16	0.99504809
17	17	0.76564088
18	18	0.93143883
19	19	0.87464442
20	20	1.0362623
21	21	1.1704731
22	22	0.45796738
23	23	1.0906725
