0	0	0.99998145
1	1	1.002527
2	2	0.99819922
3	3	1.0005818
4	4	0.9896349
5	5	0.99515504
6	6	1.0087094
7	7	1.0017168
8	8	0.9974112
9	9	0.90621404
10	10	0.99293687
11	11	1.1388988
12	12	0.9576058
13	13	0.92008019
14	14	0.98305597
15	15	1.0485831
16	16	0.96425121
17	17	0.7665184
18	18	1.0561428
19	19	1.3611764
20	20	1.2663057
21	21	inf
22	22	inf
23	23	inf
