0	0	0.999786
1	1	1.0018901
2	2	1.0013604
3	3	1.0012147
4	4	0.99613646
5	5	1.0064643
6	6	0.99267395
7	7	1.0048744
8	8	1.0119732
9	9	1.0508984
10	10	0.91790697
11	11	0.93981485
12	12	1.1172873
13	13	1.051596
14	14	2.0425658
15	15	2.0615676
16	16	1.5244312
17	17	1.4811665
18	18	1.2763087
19	19	2.4264896
20	20	1.0982738
21	21	inf
22	22	inf
23	23	0.19659421
