0	0	0.99971484
1	1	1.003269
2	2	1.0013751
3	3	1.0026835
4	4	1.0098925
5	5	1.002554
6	6	1.0038535
7	7	0.99933633
8	8	0.99912063
9	9	1.140802
10	10	1.0518084
11	11	0.99588386
12	12	0.9701387
13	13	1.026836
14	14	0.99469376
15	15	1.0101945
16	16	1.0252151
17	17	0.77821432
18	18	1.0609571
19	19	1.0392768
20	20	1.0098348
21	21	0.94557583
22	22	inf
23	23	0.91726915
