0	0	1.0000969
1	1	0.9979481
2	2	0.99837496
3	3	1.0003248
4	4	0.99418038
5	5	0.9943222
6	6	0.99468102
7	7	1.0035428
8	8	1.0012753
9	9	0.99724
10	10	1.1139504
11	11	0.98022119
12	12	1.0047992
13	13	1.0285671
14	14	0.98264414
15	15	0.9936043
16	16	0.95919254
17	17	0.95363634
18	18	0.95357502
19	19	0.93793475
20	20	0.92521847
21	21	1.233401
22	22	0.97255535
23	23	1.2144069
