0	0	0.99994596
1	1	1.0034723
2	2	0.99933689
3	3	0.99996942
4	4	0.9859148
5	5	0.9790943
6	6	0.99350076
7	7	1.0062186
8	8	1.0072415
9	9	0.94080432
10	10	1.1620312
11	11	1.0551296
12	12	1.0725958
13	13	0.99092704
14	14	2.0867384
15	15	2.569525
16	16	1.3864719
17	17	1.3848324
18	18	0.58618833
19	19	1.2815503
20	20	1.4599038
21	21	0.30404318
22	22	inf
23	23	inf
