0	0	1.0001026
1	1	1.002816
2	2	1.0004764
3	3	0.99710381
4	4	1.0288604
5	5	0.99148076
6	6	1.0017962
7	7	1.0005208
8	8	0.9906694
9	9	0.92283492
10	10	0.94943884
11	11	1.0677921
12	12	0.87469852
13	13	1.0434326
14	14	1.018124
15	15	1.018128
16	16	0.8290703
17	17	0.76812477
18	18	0.95327284
19	19	0.91379396
20	20	1.0821495
21	21	0.64794695
22	22	inf
23	23	1.7563111
