0	0	0.99995753
1	1	1.0032061
2	2	1.0011187
3	3	0.99890471
4	4	1.0122277
5	5	1.0007591
6	6	1.0005842
7	7	0.99166368
8	8	1.0006191
9	9	1.0621981
10	10	0.95816573
11	11	1.0298566
12	12	1.0118825
13	13	1.2882047
14	14	2.0867377
15	15	2.5695242
16	16	1.3864714
17	17	1.0993016
18	18	1.0911446
19	19	1.7272157
20	20	1.1030068
21	21	inf
22	22	inf
23	23	inf
