0	0	0.99986228
1	1	0.9991491
2	2	1.0018188
3	3	1.0008133
4	4	0.99613598
5	5	1.0269533
6	6	1.0038471
7	7	1.0031245
8	8	1.0011198
9	9	0.96847455
10	10	0.88805592
11	11	0.92217713
12	12	1.2472038
13	13	1.171095
14	14	1.0049918
15	15	1.2443862
16	16	2.1964028
17	17	0.93713056
18	18	1.2766401
19	19	0.80837259
20	20	0.59991104
21	21	inf
22	22	inf
23	23	inf
