0	0	1.0000989
1	1	0.99627241
2	2	1.0015808
3	3	0.9979686
4	4	0.99721128
5	5	1.0047774
6	6	1.0065992
7	7	1.0022445
8	8	0.99977552
9	9	1.084912
10	10	1.0496865
11	11	0.9455098
12	12	1.0090978
13	13	1.0191257
14	14	0.97468396
15	15	1.0342031
16	16	1.1060501
17	17	0.97862395
18	18	1.0241343
19	19	0.98012009
20	20	1.1782592
21	21	1.2286893
22	22	inf
23	23	0.60477064
