0	0	1.0000655
1	1	0.99896038
2	2	0.99902001
3	3	1.0007913
4	4	0.9962518
5	5	0.99834284
6	6	0.99151707
7	7	1.0014701
8	8	0.9945088
9	9	0.96372909
10	10	0.91788635
11	11	0.95017819
12	12	0.92463079
13	13	0.95420458
14	14	1.0667771
15	15	0.96827923
16	16	0.90718049
17	17	1.1487817
18	18	0.77288676
19	19	0.66225902
20	20	0.92021474
21	21	inf
22	22	inf
23	23	inf
