0	0	1.0000809
1	1	0.99985555
2	2	1.0009931
3	3	0.99807094
4	4	1.0114152
5	5	1.0019062
6	6	0.99394919
7	7	0.9997791
8	8	0.99745746
9	9	0.90593327
10	10	0.90991013
11	11	1.045109
12	12	0.99491494
13	13	1.0473263
14	14	1.049636
15	15	0.98963594
16	16	1.1011521
17	17	1.0852824
18	18	1.0558997
19	19	0.86598942
20	20	0.95954302
21	21	1.4095171
22	22	0.62575484
23	23	0.54326027
