0	0	0.99993937
1	1	0.99750606
2	2	1.0014842
3	3	1.0006914
4	4	0.99806809
5	5	1.0098963
6	6	1.0008994
7	7	0.99861208
8	8	1.0021473
9	9	1.1225507
10	10	0.99300851
11	11	0.96081635
12	12	1.3407449
13	13	1.1710956
14	14	1.0433693
15	15	inf
16	16	0.69323597
17	17	1.1499945
18	18	1.2925837
19	19	0.93582583
20	20	1.0635507
21	21	inf
22	22	0.10279477
23	23	inf
