0	0	1.0000019
1	1	0.997583
2	2	1.0017609
3	3	0.99903867
4	4	1.0072019
5	5	0.99753274
6	6	1.0118637
7	7	0.9956383
8	8	1.003702
9	9	0.96368007
10	10	0.92561796
11	11	1.0422637
12	12	0.8250132
13	13	0.9039373
14	14	1.0786333
15	15	1.0446732
16	16	1.4586055
17	17	0.86646458
18	18	1.0634153
19	19	0.82714453
20	20	1.0836554
21	21	1.6767461
22	22	inf
23	23	inf
