0	0	0.999875
1	1	1.0014035
2	2	0.99868517
3	3	1.0029154
4	4	0.99765347
5	5	0.97961662
6	6	1.0097962
7	7	0.98804583
8	8	1.0061799
9	9	0.94985048
10	10	0.92568583
11	11	0.96350764
12	12	1.3080437
13	13	1.1450712
14	14	0.52168459
15	15	1.2847625
16	16	0.69323592
17	17	0.76979437
18	18	1.0734356
19	19	0.65404993
20	20	0.99560876
21	21	inf
22	22	inf
23	23	inf
