0	0	0.99999093
1	1	0.99610431
2	2	1.0014309
3	3	1.0011768
4	4	0.98444816
5	5	1.0012088
6	6	0.99274009
7	7	1.0019696
8	8	0.9966921
9	9	0.93110726
10	10	0.85411471
11	11	0.97527909
12	12	1.0785021
13	13	1.0072123
14	14	1.0051298
15	15	1.0033811
16	16	0.96707965
17	17	1.2420016
18	18	0.99199423
19	19	1.1374228
20	20	1.0283797
21	21	1.9596659
22	22	1.0647341
23	23	0.79232717
