0	0	0.99986635
1	1	1.001099
2	2	1.0007719
3	3	1.0008084
4	4	1.0152519
5	5	1.0232538
6	6	1.0052485
7	7	0.99875413
8	8	1.0037715
9	9	0.93116778
10	10	1.139655
11	11	0.93900369
12	12	0.93939204
13	13	1.0382432
14	14	1.0009428
15	15	0.96481254
16	16	0.96568245
17	17	0.67946493
18	18	1.0148302
19	19	0.95878635
20	20	0.90583113
21	21	0.86037245
22	22	1.4505221
23	23	0.68850384
