0	0	1.000074
1	1	0.9951594
2	2	0.99986696
3	3	1.0008465
4	4	0.9825529
5	5	0.99964116
6	6	1.0033401
7	7	0.99935917
8	8	0.99838909
9	9	1.1035851
10	10	1.0707442
11	11	1.0549845
12	12	1.0117437
13	13	0.92002001
14	14	0.99178515
15	15	1.0000618
16	16	1.7830991
17	17	1.4671691
18	18	0.81186399
19	19	0.92792765
20	20	0.92102194
21	21	0.73310193
22	22	inf
23	23	inf
