0	0	0.99998779
1	1	1.0003974
2	2	1.0016631
3	3	0.99923653
4	4	0.99957679
5	5	1.0059796
6	6	0.99226414
7	7	0.9964384
8	8	1.0009911
9	9	1.0974372
10	10	0.99285664
11	11	0.97704446
12	12	1.1408849
13	13	0.97208165
14	14	0.99991229
15	15	0.99732035
16	16	0.95698171
17	17	0.84689589
18	18	0.95776438
19	19	0.67315424
20	20	1.2738282
21	21	0.77387832
22	22	inf
23	23	0.43425384
