0	0	0.99997982
1	1	1.0000956
2	2	1.0010016
3	3	0.99937965
4	4	1.0103648
5	5	1.003915
6	6	0.9993615
7	7	0.99492521
8	8	1.0046699
9	9	1.0398177
10	10	1.1497786
11	11	0.98276016
12	12	0.92463496
13	13	0.99090923
14	14	1.0623175
15	15	0.82074072
16	16	0.7233052
17	17	0.70686416
18	18	0.79854894
19	19	0.72575358
20	20	0.48483581
21	21	1.1281347
22	22	inf
23	23	0.42093617
