0	0	0.9998271
1	1	0.9994785
2	2	1.0037693
3	3	1.0015301
4	4	0.99352225
5	5	0.98783338
6	6	0.99230794
7	7	0.99651268
8	8	1.0009962
9	9	0.997818
10	10	1.0021139
11	11	1.0583711
12	12	1.0515595
13	13	1.0305592
14	14	0.79787047
15	15	0.97923092
16	16	0.51078744
17	17	1.3663502
18	18	0.97940351
19	19	0.61267925
20	20	1.0116279
21	21	0.43853291
22	22	inf
23	23	0.32123106
