0	0	0.99998588
1	1	1.0015607
2	2	0.99995957
3	3	0.99923771
4	4	0.99076487
5	5	0.99048088
6	6	1.0032732
7	7	1.0080288
8	8	0.99969758
9	9	1.0505052
10	10	0.9154454
11	11	1.0522308
12	12	0.96605591
13	13	1.0326936
14	14	1.0312848
15	15	0.98872212
16	16	0.97308956
17	17	1.0303769
18	18	1.0162277
19	19	1.051879
20	20	1.02302
21	21	1.3329357
22	22	1.8924421
23	23	1.0767412
