0	0	0.99978591
1	1	1.0019918
2	2	1.0018091
3	3	1.0009601
4	4	1.0214094
5	5	1.003164
6	6	1.0018966
7	7	1.0027895
8	8	1.0037985
9	9	1.056517
10	10	1.0304793
11	11	1.0391899
12	12	0.86499567
13	13	0.93687542
14	14	0.71403786
15	15	1.2324816
16	16	inf
17	17	2.7654114
18	18	1.0785039
19	19	1.9027371
20	20	0.78309981
21	21	inf
22	22	inf
23	23	inf
