0	0	0.99990247
1	1	1.0013014
2	2	1.0007959
3	3	1.0014482
4	4	1.01367
5	5	0.99774482
6	6	0.99206639
7	7	0.99538213
8	8	0.99897772
9	9	0.94946664
10	10	1.0109888
11	11	0.98519549
12	12	0.9600263
13	13	0.91561188
14	14	0.99314472
15	15	0.99369985
16	16	1.2617779
17	17	1.0407242
18	18	0.9033902
19	19	0.81849687
20	20	0.88179801
21	21	2.2121826
22	22	0.66149491
23	23	inf
