0	0	0.99984439
1	1	1.0031119
2	2	1.0025572
3	3	1.0006652
4	4	0.97834207
5	5	1.0031965
6	6	0.99192585
7	7	1.0010814
8	8	0.99752378
9	9	0.95436474
10	10	1.0304001
11	11	0.97434963
12	12	1.0944002
13	13	1.120091
14	14	1.0038543
15	15	1.0182591
16	16	0.60137704
17	17	2.3509731
18	18	0.96430228
19	19	0.72345073
20	20	1.1282632
21	21	1.71463
22	22	inf
23	23	inf
