0	0	0.99990613
1	1	1.0002857
2	2	1.0007268
3	3	1.0004855
4	4	0.98241971
5	5	1.0153687
6	6	1.0020552
7	7	1.0085416
8	8	1.0001188
9	9	1.085543
10	10	1.0304801
11	11	1.091975
12	12	0.83796519
13	13	0.85880311
14	14	2.0867377
15	15	inf
16	16	0.69323568
17	17	1.0993015
18	18	0.81826635
19	19	0.95169404
20	20	0.61341374
21	21	inf
22	22	inf
23	23	inf
