0	0	0.99992161
1	1	1.000414
2	2	1.0012992
3	3	1.0006512
4	4	0.99406833
5	5	0.99468078
6	6	0.9958786
7	7	0.9988998
8	8	1.0022121
9	9	1.0679326
10	10	0.88088851
11	11	1.0146603
12	12	0.92464518
13	13	0.93686998
14	14	0.87051825
15	15	0.94619316
16	16	0.97916824
17	17	1.8272531
18	18	0.89170801
19	19	0.93762217
20	20	0.53387281
21	21	0.93237372
22	22	inf
23	23	0.34341212
