0	0	0.99994894
1	1	0.99830548
2	2	1.0007481
3	3	1.0005376
4	4	1.0004234
5	5	1.0180712
6	6	0.99927465
7	7	1.0093312
8	8	0.99573329
9	9	0.98784437
10	10	1.2412604
11	11	1.020689
12	12	1.1658648
13	13	1.0305639
14	14	1.0433691
15	15	inf
16	16	0.46215722
17	17	1.4657357
18	18	1.301312
19	19	0.73514447
20	20	1.5868464
21	21	inf
22	22	0.09846871
23	23	inf
