0	0	1.0001136
1	1	0.9987944
2	2	1.000498
3	3	0.99793356
4	4	1.0105244
5	5	1.0009774
6	6	1.0002172
7	7	1.0020483
8	8	0.99790942
9	9	1.0290045
10	10	0.94164573
11	11	0.95813971
12	12	0.94087331
13	13	1.1710953
14	14	1.3324475
15	15	0.80589234
16	16	inf
17	17	1.1459719
18	18	1.0433588
19	19	1.0819184
20	20	1.0028414
21	21	inf
22	22	inf
23	23	inf
