0	0	0.99992444
1	1	0.99648067
2	2	1.0029352
3	3	1.0003281
4	4	0.99647264
5	5	1.0159648
6	6	0.99629734
7	7	1.007006
8	8	1.0004175
9	9	1.0022555
10	10	0.90216579
11	11	0.984479
12	12	0.95170413
13	13	1.0811497
14	14	1.0087413
15	15	0.96271334
16	16	1.0375264
17	17	0.88924369
18	18	0.96077379
19	19	1.0889535
20	20	1.0940862
21	21	1.3252706
22	22	1.0650336
23	23	0.87285701
