0	0	1.0000281
1	1	1.0018895
2	2	1.0004554
3	3	0.99823878
4	4	0.99174877
5	5	0.99793057
6	6	1.0008987
7	7	1.0010107
8	8	1.003703
9	9	1.029004
10	10	0.87384688
11	11	0.96350704
12	12	1.1917724
13	13	1.0515953
14	14	1.0787089
15	15	0.74379132
16	16	0.77394297
17	17	1.1174562
18	18	0.76506861
19	19	1.3168024
20	20	0.67837337
21	21	0.33174223
22	22	inf
23	23	inf
