0	0	1.0000914
1	1	1.0008147
2	2	0.99710061
3	3	0.99957646
4	4	0.99833913
5	5	0.99705876
6	6	1.0011039
7	7	1.0064001
8	8	1.0010671
9	9	1.0453324
10	10	1.1260859
11	11	1.095447
12	12	0.7886691
13	13	0.87335464
14	14	0.67449853
15	15	0.76407101
16	16	0.92433747
17	17	1.3672108
18	18	1.0011617
19	19	0.61635763
20	20	1.2876538
21	21	inf
22	22	inf
23	23	inf
