0	0	1.0001414
1	1	0.99996186
2	2	0.99910181
3	3	0.99769243
4	4	1.0008223
5	5	1.0043244
6	6	0.99765525
7	7	1.008872
8	8	0.9994862
9	9	0.95892172
10	10	1.0501325
11	11	0.94224168
12	12	1.0724274
13	13	0.95407616
14	14	1.0362167
15	15	0.96557022
16	16	0.80263839
17	17	0.78828688
18	18	0.85597156
19	19	0.88363914
20	20	0.72679005
21	21	inf
22	22	inf
23	23	0.88136188
