0	0	1.0000402
1	1	1.0042371
2	2	0.99960714
3	3	0.99845407
4	4	0.98198566
5	5	0.99057627
6	6	0.99104288
7	7	1.0129978
8	8	0.99544067
9	9	0.99277545
10	10	0.91787636
11	11	0.95544656
12	12	1.0118491
13	13	1.145033
14	14	0.95420574
15	15	0.97273431
16	16	0.8957886
17	17	1.9918832
18	18	1.5350338
19	19	1.3373715
20	20	0.79334809
21	21	1.3125596
22	22	0.18793158
23	23	0.24481816
