0	0	1.000082
1	1	0.99845105
2	2	0.99795681
3	3	1.0002829
4	4	0.99093152
5	5	1.0047024
6	6	1.0018981
7	7	0.99199133
8	8	1.006542
9	9	1.0976054
10	10	1.002119
11	11	1.0455087
12	12	1.2769003
13	13	1.0305645
14	14	2.0867392
15	15	0.72304464
16	16	1.3864724
17	17	0.61218436
18	18	0.59943894
19	19	0.90907682
20	20	1.00736
21	21	0.15190882
22	22	inf
23	23	inf
