0	0	0.99985076
1	1	1.0019542
2	2	1.0006778
3	3	1.0012807
4	4	0.9916548
5	5	1.0084408
6	6	1.0115412
7	7	0.99551591
8	8	1.0022485
9	9	1.0234346
10	10	1.2552354
11	11	0.92444109
12	12	0.95745169
13	13	0.76322885
14	14	0.96032708
15	15	0.99293415
16	16	1.232895
17	17	1.0434343
18	18	0.77790522
19	19	0.75662356
20	20	1.033427
21	21	1.5122681
22	22	inf
23	23	inf
