0	0	0.99986613
1	1	1.0016922
2	2	1.0000793
3	3	1.0003343
4	4	1.0057362
5	5	1.007435
6	6	1.0028176
7	7	1.0026575
8	8	1.010889
9	9	0.94518025
10	10	0.9177851
11	11	0.94226456
12	12	0.90885882
13	13	1.1200296
14	14	1.1075574
15	15	1.0021303
16	16	0.76268961
17	17	0.78596295
18	18	1.2764456
19	19	0.89692205
20	20	0.74270143
21	21	1.0807494
22	22	inf
23	23	0.80611062
