0	0	1.0000726
1	1	0.99542187
2	2	1.0028076
3	3	0.99737248
4	4	1.0116091
5	5	1.0241236
6	6	0.98257042
7	7	0.99827474
8	8	1.014616
9	9	0.92304349
10	10	1.255289
11	11	0.93452929
12	12	1.2766568
13	13	0.97204527
14	14	0.99917195
15	15	1.0389649
16	16	0.87180968
17	17	1.0693489
18	18	1.0530898
19	19	0.97958903
20	20	1.0307071
21	21	0.88070037
22	22	0.35862127
23	23	0.49209588
