0	0	1.0000827
1	1	0.99956841
2	2	1.0011401
3	3	0.99893893
4	4	1.0001075
5	5	1.0047654
6	6	0.98303466
7	7	0.99665945
8	8	0.99523679
9	9	0.93137565
10	10	0.91736215
11	11	0.95994166
12	12	1.0436988
13	13	1.0361497
14	14	0.99545102
15	15	1.0202178
16	16	0.95339477
17	17	1.0700977
18	18	1.1589048
19	19	0.91407996
20	20	1.0327874
21	21	0.89446316
22	22	0.99152516
23	23	2.4677389
