0	0	0.99990303
1	1	1.0019168
2	2	1.0013909
3	3	1.0009856
4	4	1.0083808
5	5	0.98916766
6	6	1.0043184
7	7	0.99628224
8	8	0.98963675
9	9	1.0974267
10	10	0.90258833
11	11	1.026616
12	12	1.0311746
13	13	1.5612071
14	14	0.9840859
15	15	1.0271916
16	16	1.1639483
17	17	1.3787416
18	18	1.157612
19	19	1.1758982
20	20	1.4246433
21	21	2.3986525
22	22	inf
23	23	inf
