0	0	1.0001703
1	1	0.99747417
2	2	1.0014965
3	3	0.99818193
4	4	1.0078397
5	5	0.97909462
6	6	0.99890903
7	7	0.98905661
8	8	0.99500263
9	9	1.0343925
10	10	0.9930088
11	11	1.0176697
12	12	0.97508745
13	13	0.97223062
14	14	2.0867391
15	15	0.8375271
16	16	inf
17	17	0.67727943
18	18	2.4150812
19	19	0.76861663
20	20	0.74657857
21	21	inf
22	22	inf
23	23	inf
