0	0	1.0001922
1	1	0.99483465
2	2	1.0018997
3	3	0.99765217
4	4	1.0154641
5	5	1.0041865
6	6	0.98899237
7	7	0.99949615
8	8	0.99850781
9	9	0.98274804
10	10	0.93342499
11	11	0.98259601
12	12	0.80029657
13	13	1.0514015
14	14	0.94762319
15	15	0.97318332
16	16	1.3964224
17	17	0.65571412
18	18	0.98065775
19	19	1.2653803
20	20	0.91105459
21	21	0.64874108
22	22	inf
23	23	0.96766569
