0	0	0.99985825
1	1	1.0010091
2	2	1.0018525
3	3	1.0015099
4	4	0.98645463
5	5	1.0069058
6	6	0.99541799
7	7	1.0026792
8	8	0.99460177
9	9	0.94530574
10	10	1.0502974
11	11	1.0749132
12	12	1.0313421
13	13	0.9201465
14	14	0.60303094
15	15	2.0813209
16	16	0.77006782
17	17	0.98567498
18	18	0.59168045
19	19	0.80293289
20	20	5.4597337
21	21	inf
22	22	0.057697055
23	23	inf
