0	0	0.99990653
1	1	0.99943513
2	2	1.0015452
3	3	1.0006597
4	4	0.99895597
5	5	1.0016523
6	6	1.0078217
7	7	0.99680141
8	8	1.0023955
9	9	0.98230547
10	10	1.1370994
11	11	0.98127785
12	12	1.0451965
13	13	0.97091554
14	14	1.010824
15	15	0.98116289
16	16	0.86814974
17	17	0.94629941
18	18	0.89288451
19	19	0.86866364
20	20	1.0429831
21	21	0.60667937
22	22	0.53725927
23	23	inf
