0	0	0.99973544
1	1	1.0037401
2	2	1.0022332
3	3	1.0017815
4	4	0.98449237
5	5	0.98674936
6	6	1.0048177
7	7	1.0017351
8	8	1.0027057
9	9	1.0733685
10	10	1.1741153
11	11	0.97408476
12	12	1.0803624
13	13	1.1137902
14	14	1.0133935
15	15	1.0005705
16	16	1.0591546
17	17	0.8856567
18	18	0.82542287
19	19	0.89763344
20	20	0.91489783
21	21	1.3165683
22	22	inf
23	23	1.5129107
