0	0	1.0000004
1	1	1.00095
2	2	1.0002094
3	3	1.0003907
4	4	0.98524106
5	5	0.98392129
6	6	1.0042704
7	7	1.0035713
8	8	0.99244023
9	9	0.92321942
10	10	0.91025799
11	11	0.92965494
12	12	1.1172876
13	13	1.2268624
14	14	1.0433695
15	15	2.5695257
16	16	inf
17	17	1.093715
18	18	0.83098725
19	19	0.59220725
20	20	1.8663728
21	21	0.37063019
22	22	inf
23	23	inf
