0	0	1.0001217
1	1	0.99647497
2	2	1.0018327
3	3	0.9977518
4	4	0.98880919
5	5	0.99600786
6	6	1.0065171
7	7	1.0089843
8	8	0.99515534
9	9	0.97798263
10	10	0.99292596
11	11	0.99693814
12	12	1.0514772
13	13	1.3558927
14	14	1.0220735
15	15	0.99538958
16	16	1.1642671
17	17	0.8981467
18	18	0.85802829
19	19	1.3058854
20	20	0.76500116
21	21	inf
22	22	inf
23	23	inf
