0	0	1.0000595
1	1	0.9985419
2	2	1.0006081
3	3	0.99993228
4	4	0.99237761
5	5	0.97210464
6	6	1.0029554
7	7	0.99374695
8	8	0.99934155
9	9	0.94486309
10	10	0.9331605
11	11	0.96576168
12	12	0.91246048
13	13	1.0282062
14	14	0.98116685
15	15	1.0494967
16	16	1.0480708
17	17	0.94302629
18	18	1.0171965
19	19	0.84823704
20	20	1.172221
21	21	1.2566409
22	22	0.7649631
23	23	0.97736906
