0	0	0.99975811
1	1	0.99907916
2	2	1.0048582
3	3	1.0022526
4	4	0.97177492
5	5	0.9904824
6	6	0.99138064
7	7	1.0030224
8	8	0.99839102
9	9	0.99149526
10	10	0.85991269
11	11	0.97209931
12	12	0.99409385
13	13	0.99979815
14	14	1.0213423
15	15	1.0325508
16	16	0.74492381
17	17	1.0120014
18	18	1.059385
19	19	0.92152998
20	20	1.0980559
21	21	0.6261953
22	22	0.62950639
23	23	0.85979645
