0	0	1.0000975
1	1	0.99505289
2	2	1.0000485
3	3	0.9997735
4	4	1.0081672
5	5	1.0018663
6	6	1.0054981
7	7	1.0156335
8	8	0.99019409
9	9	1.0235765
10	10	1.2700073
11	11	0.96884445
12	12	1.2767793
13	13	0.99083353
14	14	0.91183999
15	15	0.99109162
16	16	0.9051344
17	17	0.93693041
18	18	0.75528372
19	19	0.53354778
20	20	1.0420907
21	21	0.61515986
22	22	inf
23	23	inf
