0	0	0.9999753
1	1	0.99736583
2	2	1.0015365
3	3	1.000177
4	4	0.98770791
5	5	0.99801515
6	6	1.0129154
7	7	1.0012243
8	8	1.001599
9	9	1.044517
10	10	0.90534331
11	11	0.91369972
12	12	1.021606
13	13	0.96650618
14	14	0.99664562
15	15	0.9824925
16	16	1.076772
17	17	1.3634504
18	18	0.86544607
19	19	1.0802431
20	20	1.0912125
21	21	1.3751564
22	22	inf
23	23	1.6479785
