0	0	0.99990169
1	1	1.0001556
2	2	1.0017264
3	3	1.0007674
4	4	0.98240309
5	5	0.99241255
6	6	1.0071145
7	7	1.0040002
8	8	0.99770279
9	9	0.94078805
10	10	0.93358156
11	11	1.0116656
12	12	1.0313243
13	13	0.9909099
14	14	0.81889537
15	15	0.93370385
16	16	1.0005637
17	17	0.7050982
18	18	0.93990073
19	19	0.53935679
20	20	0.95680895
21	21	inf
22	22	0.16777348
23	23	inf
