0	0	0.99999822
1	1	1.0011988
2	2	0.99872545
3	3	0.9998972
4	4	1.0139769
5	5	1.0126593
6	6	0.99929441
7	7	0.99789181
8	8	1.0008778
9	9	1.1483782
10	10	0.97503997
11	11	1.0420877
12	12	0.90875938
13	13	0.82063625
14	14	1.0298829
15	15	1.0416456
16	16	0.82697633
17	17	0.67781364
18	18	1.1157934
19	19	1.0016779
20	20	0.97467769
21	21	0.51583964
22	22	inf
23	23	0.58547063
