0	0	0.99995662
1	1	1.0003559
2	2	1.0006964
3	3	1.002272
4	4	0.99957845
5	5	0.98875256
6	6	0.99335051
7	7	0.98778832
8	8	0.99130624
9	9	0.97791598
10	10	1.0401373
11	11	1.0453502
12	12	0.94073125
13	13	0.95408172
14	14	0.91754786
15	15	0.97649177
16	16	0.94996554
17	17	0.92608815
18	18	1.0374221
19	19	0.9008483
20	20	1.0081253
21	21	2.3085214
22	22	inf
23	23	0.86339806
