0	0	1.0000812
1	1	1.0019539
2	2	0.99686863
3	3	1.0011012
4	4	0.96587835
5	5	0.9827595
6	6	0.99468309
7	7	0.99655776
8	8	1.0018819
9	9	1.0026701
10	10	0.80299422
11	11	1.0452813
12	12	0.99292865
13	13	0.78056087
14	14	1.0506658
15	15	0.96692913
16	16	0.87196645
17	17	0.69617615
18	18	0.84804402
19	19	1.1462812
20	20	0.97601804
21	21	0.7208791
22	22	inf
23	23	1.0829681
