0	0	0.99997519
1	1	0.99709595
2	2	1.0003991
3	3	1.000508
4	4	1.0048852
5	5	1.0001027
6	6	1.0151648
7	7	1.0092158
8	8	0.99549479
9	9	1.0621956
10	10	1.0708886
11	11	1.0206864
12	12	1.0725929
13	13	0.85880111
14	14	0.68312689
15	15	0.68777802
16	16	1.035664
17	17	0.68388964
18	18	0.90105658
19	19	inf
20	20	1.600536
21	21	0.40103765
22	22	0.13801229
23	23	inf
