0	0	0.99978654
1	1	0.99849903
2	2	1.0031361
3	3	1.0027775
4	4	1.0158301
5	5	1.0078258
6	6	1.0040004
7	7	0.99780808
8	8	0.99473789
9	9	0.89133773
10	10	0.8949786
11	11	0.93893694
12	12	1.0189979
13	13	0.95122549
14	14	0.99343879
15	15	1.0087767
16	16	0.98720543
17	17	1.1533288
18	18	0.87754133
19	19	0.83004546
20	20	1.1063508
21	21	0.78395984
22	22	1.7904386
23	23	1.025534
