0	0	1.000041
1	1	1.002677
2	2	1.0013044
3	3	0.99853773
4	4	1.023667
5	5	0.97259881
6	6	0.99654166
7	7	0.99314212
8	8	0.99465624
9	9	1.0231716
10	10	0.97479842
11	11	0.95236493
12	12	0.97066287
13	13	1.0441175
14	14	1.0189858
15	15	0.97236723
16	16	1.1315478
17	17	1.4319245
18	18	1.1036288
19	19	1.0752561
20	20	0.93394916
21	21	1.3078504
22	22	inf
23	23	2.0401891
