0	0	0.99988566
1	1	1.0016143
2	2	1.0002332
3	3	1.0001746
4	4	1.0053084
5	5	1.0101185
6	6	1.011348
7	7	1.0051728
8	8	1.0019082
9	9	0.98292984
10	10	0.96664537
11	11	0.97997785
12	12	1.0313421
13	13	1.1201783
14	14	0.86307047
15	15	0.78561944
16	16	1.5509991
17	17	0.49222553
18	18	2.5717868
19	19	1.5977074
20	20	1.3599092
21	21	0.52007579
22	22	inf
23	23	inf
