0	0	0.9998822
1	1	1.0020577
2	2	1.0003746
3	3	1.0008324
4	4	1.0001458
5	5	0.98868899
6	6	0.99076712
7	7	1.0061811
8	8	1.006445
9	9	0.94080419
10	10	0.94983406
11	11	1.0519027
12	12	0.80044454
13	13	0.9909269
14	14	0.81873086
15	15	0.83623263
16	16	1.6812151
17	17	0.97159746
18	18	1.1377177
19	19	1.1454697
20	20	1.7471298
21	21	inf
22	22	inf
23	23	inf
