0	0	1.0000485
1	1	1.000977
2	2	0.99876767
3	3	0.99967491
4	4	0.98983172
5	5	0.98391062
6	6	1.0052645
7	7	1.000483
8	8	1.002304
9	9	0.93191893
10	10	0.97526584
11	11	0.91970213
12	12	1.3080298
13	13	0.97222
14	14	0.97637067
15	15	1.0084755
16	16	1.4598772
17	17	1.10606
18	18	0.96752778
19	19	3.9313114
20	20	0.97281294
21	21	inf
22	22	inf
23	23	inf
