0	0	1.0000607
1	1	1.0029367
2	2	1.0000241
3	3	0.9985506
4	4	0.98177584
5	5	0.99841569
6	6	0.99164935
7	7	0.99904818
8	8	1.0028918
9	9	0.96285616
10	10	0.87969233
11	11	1.038142
12	12	0.99643688
13	13	0.93918424
14	14	0.97222628
15	15	1.0082085
16	16	0.75374361
17	17	1.0331163
18	18	1.0063716
19	19	1.0596181
20	20	0.95195152
21	21	0.90116682
22	22	1.7301363
23	23	0.79727503
