0	0	1.0000275
1	1	1.0005297
2	2	1.0006168
3	3	0.99985745
4	4	0.98212633
5	5	1.0036071
6	6	1.0037609
7	7	0.99814824
8	8	0.99163093
9	9	1.0573288
10	10	0.97831434
11	11	0.97534964
12	12	0.96834998
13	13	0.99446735
14	14	0.99724965
15	15	0.99901861
16	16	1.1645951
17	17	1.0450566
18	18	1.0690831
19	19	0.97011846
20	20	1.0112899
21	21	0.65738516
22	22	1.8610586
23	23	1.0608292
