0	0	0.99999371
1	1	1.0050229
2	2	0.9977379
3	3	0.99893121
4	4	1.0173913
5	5	1.0075556
6	6	0.99203596
7	7	1.0135137
8	8	0.99859356
9	9	0.9636323
10	10	1.2001924
11	11	1.0781503
12	12	0.8511619
13	13	1.09621
14	14	1.0252683
15	15	1.0336017
16	16	1.2916577
17	17	0.833937
18	18	0.83034581
19	19	0.78532713
20	20	1.038255
21	21	1.0408443
22	22	inf
23	23	0.77501738
