0	0	1.0000793
1	1	0.99955532
2	2	0.99960759
3	3	0.99918005
4	4	1.0057611
5	5	0.98938393
6	6	1.0004075
7	7	1.0015745
8	8	0.99838613
9	9	1.1820939
10	10	0.98680043
11	11	0.98839464
12	12	0.96841656
13	13	1.0268409
14	14	0.99412335
15	15	0.9908202
16	16	1.0509614
17	17	1.044189
18	18	0.99929053
19	19	0.92725737
20	20	0.98958281
21	21	0.70678676
22	22	0.71367542
23	23	3.391718
