0	0	1.000005
1	1	0.99831665
2	2	0.99687901
3	3	1.0023072
4	4	1.0025116
5	5	1.0017425
6	6	1.00793
7	7	1.0006048
8	8	0.99916794
9	9	1.1420171
10	10	0.96664567
11	11	1.0455086
12	12	1.0944858
13	13	0.81790825
14	14	0.69557967
15	15	0.62688992
16	16	inf
17	17	2.0129354
18	18	1.8395736
19	19	0.86994502
20	20	1.1639351
21	21	0.47667924
22	22	inf
23	23	inf
