0	0	0.99996736
1	1	0.99838131
2	2	1.0003879
3	3	1.000371
4	4	1.0273761
5	5	1.0007545
6	6	1.0073928
7	7	1.0046086
8	8	0.99603549
9	9	1.0796062
10	10	0.98405762
11	11	0.99991439
12	12	0.90897506
13	13	0.84472054
14	14	0.56610313
15	15	0.97494221
16	16	0.71997578
17	17	1.8220298
18	18	1.1805062
19	19	1.8397176
20	20	1.6922115
21	21	0.88096726
22	22	0.14504961
23	23	inf
