0	0	1.0000127
1	1	0.9972506
2	2	0.9978505
3	3	1.0028159
4	4	0.98893937
5	5	1.0099189
6	6	0.9923507
7	7	1.0024853
8	8	0.99545248
9	9	0.97262528
10	10	1.0014797
11	11	0.89181648
12	12	0.99363573
13	13	0.99614
14	14	1.010134
15	15	1.0129353
16	16	1.0742869
17	17	1.1348182
18	18	1.0065722
19	19	1.1335829
20	20	1.0314505
21	21	1.6742582
22	22	1.079261
23	23	inf
