0	0	0.99988904
1	1	0.99949778
2	2	1.0024209
3	3	1.0002938
4	4	0.99159529
5	5	0.99499337
6	6	1.0068483
7	7	1.0044466
8	8	1.0007924
9	9	0.88993419
10	10	0.88087893
11	11	0.97717647
12	12	0.87916126
13	13	1.2567631
14	14	0.81393584
15	15	1.2344487
16	16	1.0096114
17	17	2.8256716
18	18	1.0092617
19	19	0.48273386
20	20	0.84552705
21	21	inf
22	22	inf
23	23	inf
