0	0	0.99995658
1	1	1.0039445
2	2	1.0005855
3	3	0.99907465
4	4	0.99366393
5	5	0.99825668
6	6	1.003267
7	7	0.99260903
8	8	1.0032721
9	9	0.93634548
10	10	0.92568581
11	11	0.98842592
12	12	0.92465153
13	13	1.0305641
14	14	inf
15	15	inf
16	16	0.6932359
17	17	0.68792629
18	18	0.71512994
19	19	0.99736683
20	20	1.8254945
21	21	inf
22	22	inf
23	23	inf
