0	0	0.9999248
1	1	0.9988271
2	2	1.0022938
3	3	0.99965048
4	4	1.0105248
5	5	1.0111199
6	6	0.99076745
7	7	1.0120097
8	8	0.99973857
9	9	1.0290049
10	10	0.98406264
11	11	0.9744258
12	12	1.0118831
13	13	0.81790819
14	14	inf
15	15	0.85650852
16	16	0.69323608
17	17	1.6656194
18	18	0.93973981
19	19	0.61581817
20	20	1.9401716
21	21	0.3536079
22	22	inf
23	23	inf
