0	0	0.9999192
1	1	0.9991701
2	2	1.0013081
3	3	1.0004184
4	4	0.97418466
5	5	0.98826242
6	6	1.011776
7	7	1.00357
8	8	1.0060825
9	9	0.96847404
10	10	1.0923082
11	11	0.96621317
12	12	0.87917602
13	13	0.87335853
14	14	0.68872086
15	15	0.73366167
16	16	2.5319268
17	17	0.79150806
18	18	0.87387353
19	19	0.76571156
20	20	0.67158089
21	21	inf
22	22	inf
23	23	inf
