0	0	0.99998627
1	1	1.0015528
2	2	1.0048069
3	3	0.99757676
4	4	0.98375922
5	5	0.99060727
6	6	1.0042152
7	7	0.99581911
8	8	0.99157114
9	9	1.0915387
10	10	1.0604923
11	11	0.97997585
12	12	0.95767287
13	13	1.2268595
14	14	0.90969789
15	15	0.63531125
16	16	1.4604402
17	17	0.68551059
18	18	1.1597471
19	19	3.6906358
20	20	0.79013458
21	21	0.77078544
22	22	inf
23	23	inf
