0	0	1.0000237
1	1	0.99978047
2	2	0.99950001
3	3	1.0000087
4	4	1.0009338
5	5	1.0065507
6	6	1.011631
7	7	0.99084268
8	8	0.99749566
9	9	1.1094245
10	10	1.0398136
11	11	0.92922487
12	12	1.0474554
13	13	0.98899261
14	14	1.0479676
15	15	0.9920426
16	16	1.0034624
17	17	0.8633157
18	18	0.83202086
19	19	1.15686
20	20	1.1532349
21	21	2.4850797
22	22	0.75530333
23	23	0.48280191
