0	0	1.0000506
1	1	1.0038012
2	2	1.0003574
3	3	0.9981915
4	4	0.99460593
5	5	0.99385658
6	6	0.99403634
7	7	0.99798696
8	8	0.99591258
9	9	1.1550337
10	10	1.0919879
11	11	0.89549744
12	12	0.85600088
13	13	0.98270645
14	14	0.96465102
15	15	1.0642569
16	16	2.4467815
17	17	1.3666372
18	18	0.90457664
19	19	0.78612073
20	20	1.0909387
21	21	1.7436567
22	22	inf
23	23	1.3327439
