0	0	0.99987688
1	1	1.0024899
2	2	0.9985414
3	3	1.0009761
4	4	1.00432
5	5	0.99713423
6	6	1.0199008
7	7	1.0010863
8	8	1.0071176
9	9	0.85886898
10	10	1.0813354
11	11	1.095292
12	12	0.85114141
13	13	0.95408577
14	14	0.96049861
15	15	0.97967946
16	16	1.1861643
17	17	1.013335
18	18	0.96125263
19	19	0.99224007
20	20	0.7907953
21	21	0.75830609
22	22	0.30735989
23	23	inf
