0	0	0.99999427
1	1	0.99726471
2	2	0.99787341
3	3	1.001952
4	4	1.0268811
5	5	1.0035444
6	6	1.0003156
7	7	1.0066079
8	8	0.99744779
9	9	0.99274983
10	10	1.1032775
11	11	1.026722
12	12	1.0312811
13	13	0.79269472
14	14	1.0329294
15	15	1.0697531
16	16	0.87904801
17	17	0.82200665
18	18	0.90028883
19	19	1.4326782
20	20	0.87445661
21	21	1.5562108
22	22	inf
23	23	0.57595626
