0	0	1.0001422
1	1	0.99787183
2	2	0.99711733
3	3	0.99909605
4	4	1.0067032
5	5	1.0102199
6	6	1.0036794
7	7	0.9999667
8	8	1.0065318
9	9	1.1621588
10	10	1.1378112
11	11	1.0816632
12	12	0.94086441
13	13	0.87335094
14	14	0.99857219
15	15	1.114893
16	16	0.85643261
17	17	1.838895
18	18	0.73944585
19	19	0.27737199
20	20	0.81675122
21	21	0.33163056
22	22	inf
23	23	0.36842491
