0	0	1.0000049
1	1	0.99894834
2	2	0.99920545
3	3	1.0011439
4	4	1.0079781
5	5	0.98975277
6	6	1.0044793
7	7	0.99097232
8	8	1.0018343
9	9	0.94080221
10	10	1.0502951
11	11	1.0298547
12	12	0.90897749
13	13	0.97222812
14	14	0.87788221
15	15	0.98725534
16	16	1.4837755
17	17	0.60879326
18	18	1.1713141
19	19	1.8412488
20	20	0.47573307
21	21	0.38973856
22	22	inf
23	23	0.28843987
