0	0	1.0000471
1	1	1.0028561
2	2	0.99754699
3	3	0.99996157
4	4	1.0092367
5	5	1.0041385
6	6	1.0014105
7	7	0.99157746
8	8	1.0008915
9	9	0.90626664
10	10	1.0502826
11	11	0.97165933
12	12	0.86498448
13	13	1.1201626
14	14	0.94661314
15	15	0.87212276
16	16	2.3606672
17	17	0.79771892
18	18	0.84532823
19	19	0.82493682
20	20	0.78599333
21	21	0.35705471
22	22	0.16290349
23	23	inf
