0	0	1.0001583
1	1	0.99788959
2	2	1.0011453
3	3	0.99734493
4	4	0.99118676
5	5	0.9943388
6	6	1.0059235
7	7	1.0016283
8	8	0.9968462
9	9	1.1753382
10	10	0.96609699
11	11	1.0231461
12	12	0.92572953
13	13	1.0078356
14	14	1.0240239
15	15	0.98671966
16	16	1.1384023
17	17	0.98044857
18	18	0.81497813
19	19	0.84238823
20	20	0.9765028
21	21	0.75026171
22	22	0.93935515
23	23	0.78689811
