0	0	0.99988358
1	1	1.0016755
2	2	1.0008199
3	3	1.001238
4	4	1.0076947
5	5	0.98202302
6	6	1.0008432
7	7	0.99417236
8	8	1.0019284
9	9	1.0796075
10	10	0.99300479
11	11	0.99127079
12	12	1.3080389
13	13	1.0515921
14	14	1.0875016
15	15	0.84880392
16	16	0.8390532
17	17	1.0928874
18	18	1.6143181
19	19	3.6572854
20	20	2.4603078
21	21	0.42098401
22	22	inf
23	23	inf
