0	0	1.0001821
1	1	0.99889869
2	2	0.99936345
3	3	0.99745365
4	4	0.99875622
5	5	0.9818132
6	6	1.0099531
7	7	1.0080504
8	8	0.99610776
9	9	0.96847165
10	10	0.93359445
11	11	0.99991581
12	12	1.0944817
13	13	0.83109719
14	14	0.62367598
15	15	0.92520992
16	16	1.1024936
17	17	inf
18	18	0.62228688
19	19	0.73158674
20	20	1.223224
21	21	0.83416818
22	22	inf
23	23	inf
