0	0	1.0001165
1	1	0.99825572
2	2	0.99946475
3	3	0.99813582
4	4	1.0108178
5	5	1.0076583
6	6	0.99951054
7	7	1.0014358
8	8	1.0028058
9	9	1.0563801
10	10	0.89521848
11	11	1.0266486
12	12	0.83785598
13	13	1.0304294
14	14	1.0319653
15	15	1.0760594
16	16	1.509898
17	17	2.1452813
18	18	1.0213218
19	19	1.0190096
20	20	0.91458953
21	21	1.0723485
22	22	inf
23	23	0.79956471
