0	0	1.0000616
1	1	0.99914541
2	2	0.99930181
3	3	0.99811994
4	4	0.99647582
5	5	1.0049574
6	6	1.0144986
7	7	1.0041664
8	8	1.0089813
9	9	0.97799133
10	10	1.030404
11	11	1.0175938
12	12	0.99307061
13	13	1.051518
14	14	1.0266197
15	15	0.919502
16	16	0.62861045
17	17	2.3179169
18	18	0.98280252
19	19	0.92678183
20	20	0.78849763
21	21	inf
22	22	0.23047208
23	23	inf
