0	0	1.0000144
1	1	0.99907218
2	2	1.0015629
3	3	0.99948444
4	4	1.0105344
5	5	0.99738107
6	6	0.99331501
7	7	0.99750975
8	8	0.99944887
9	9	1.002335
10	10	1.0599098
11	11	0.93166019
12	12	1.0183576
13	13	0.95571891
14	14	1.0220358
15	15	0.97391166
16	16	0.92368791
17	17	0.9807509
18	18	1.1482358
19	19	0.88960242
20	20	1.0575473
21	21	1.458191
22	22	0.90574336
23	23	1.1452775
