0	0	0.99994534
1	1	0.99730948
2	2	0.99954663
3	3	1.0013101
4	4	0.99878155
5	5	1.0083022
6	6	1.0175931
7	7	1.0072002
8	8	1.0007151
9	9	0.97245777
10	10	0.98904205
11	11	1.0511729
12	12	0.97070216
13	13	1.0308475
14	14	0.98874485
15	15	0.96338789
16	16	1.1154561
17	17	1.0072255
18	18	0.97216009
19	19	0.90505149
20	20	1.0358159
21	21	1.0655826
22	22	0.71777023
23	23	0.85241828
