0	0	1.0001081
1	1	0.99807761
2	2	0.99947651
3	3	0.99853871
4	4	0.99435056
5	5	0.99964169
6	6	1.0040797
7	7	1.0010593
8	8	1.005416
9	9	1.1418604
10	10	0.91013307
11	11	0.97153989
12	12	1.1657053
13	13	1.0733572
14	14	1.0004455
15	15	0.95744665
16	16	1.2450731
17	17	0.67580018
18	18	1.2004246
19	19	0.9244826
20	20	1.0925155
21	21	2.195105
22	22	inf
23	23	inf
