0	0	1.0001084
1	1	0.99963286
2	2	1.0010998
3	3	0.99730747
4	4	1.0093911
5	5	1.0019597
6	6	1.0068119
7	7	0.99388297
8	8	0.99831165
9	9	1.1037356
10	10	1.1033414
11	11	1.0885185
12	12	1.117286
13	13	1.0963435
14	14	0.66845906
15	15	0.84546367
16	16	2.6023239
17	17	1.1049965
18	18	1.0847657
19	19	0.75883997
20	20	2.3493045
21	21	inf
22	22	inf
23	23	0.26529988
