0	0	0.99997225
1	1	0.9988112
2	2	0.9988087
3	3	1.0004821
4	4	1.0102418
5	5	1.0087871
6	6	0.99974636
7	7	1.0065556
8	8	1.0074594
9	9	1.0131743
10	10	1.0021191
11	11	0.95019997
12	12	1.094486
13	13	1.0963453
14	14	0.69557978
15	15	0.47533446
16	16	inf
17	17	3.0784717
18	18	0.89108518
19	19	1.3883349
20	20	1.0252352
21	21	0.44768583
22	22	inf
23	23	inf
