0	0	0.99998906
1	1	0.99812068
2	2	0.99874069
3	3	1.0016065
4	4	1.0082113
5	5	0.98409103
6	6	0.99246515
7	7	1.0117225
8	8	1.0032076
9	9	1.0970888
10	10	0.90231036
11	11	0.95502902
12	12	0.9723879
13	13	1.0303881
14	14	0.9640668
15	15	0.99029295
16	16	1.2030325
17	17	0.98553203
18	18	0.83769836
19	19	0.70760859
20	20	0.96331036
21	21	inf
22	22	inf
23	23	0.98143828
