0	0	1.0001233
1	1	1.0006783
2	2	0.99741451
3	3	1.0001872
4	4	0.98074332
5	5	1.0074193
6	6	0.98867265
7	7	0.98988509
8	8	0.99980694
9	9	1.0358525
10	10	1.0110166
11	11	0.94416336
12	12	0.98087785
13	13	1.025338
14	14	0.99595916
15	15	1.044381
16	16	1.0540377
17	17	1.1950563
18	18	1.0364802
19	19	0.95467399
20	20	0.99351937
21	21	0.73949422
22	22	0.99172956
23	23	1.1206445
