0	0	1.000081
1	1	1.0001351
2	2	0.99992622
3	3	0.99815886
4	4	1.0145081
5	5	0.99082312
6	6	0.99645743
7	7	1.0098583
8	8	0.99878753
9	9	1.0398363
10	10	1.0502974
11	11	0.97442559
12	12	0.9750871
13	13	0.97223028
14	14	2.0867384
15	15	inf
16	16	1.3864719
17	17	0.86652302
18	18	0.92047507
19	19	0.77906722
20	20	1.7772519
21	21	inf
22	22	inf
23	23	inf
