0	0	1.0000067
1	1	0.99912129
2	2	1.0010263
3	3	0.99935937
4	4	1.0034439
5	5	0.98790044
6	6	1.0085774
7	7	0.99808914
8	8	1.0025332
9	9	1.0343462
10	10	1.3003104
11	11	0.95809732
12	12	1.0118379
13	13	0.78069566
14	14	0.80157672
15	15	0.91469548
16	16	1.001813
17	17	0.69188102
18	18	1.2692993
19	19	1.5277532
20	20	1.272175
21	21	inf
22	22	0.20011391
23	23	inf
