0	0	0.99985215
1	1	1.0005929
2	2	1.0002291
3	3	1.0015945
4	4	0.98617748
5	5	1.0190283
6	6	0.99784462
7	7	0.99418868
8	8	1.010569
9	9	1.0026061
10	10	1.020563
11	11	1.0204023
12	12	0.86031391
13	13	1.1859947
14	14	1.0070065
15	15	1.0219728
16	16	0.96645787
17	17	0.90658181
18	18	0.79724793
19	19	1.1792987
20	20	1.0189857
21	21	1.694399
22	22	0.47443677
23	23	0.64655678
