0	0	0.99995799
1	1	0.99913334
2	2	1.0028289
3	3	0.99935816
4	4	0.99079478
5	5	1.0023983
6	6	0.99355237
7	7	1.0047252
8	8	0.99947661
9	9	0.97806378
10	10	0.91790688
11	11	0.93217398
12	12	1.2472043
13	13	1.030564
14	14	2.0867382
15	15	0.85650825
16	16	1.3864717
17	17	0.77683719
18	18	0.64399035
19	19	1.4230205
20	20	0.89239219
21	21	inf
22	22	inf
23	23	inf
