0	0	0.99997767
1	1	0.99901971
2	2	0.99902367
3	3	1.0013885
4	4	1.0205418
5	5	0.99793044
6	6	1.0117226
7	7	0.99177221
8	8	0.99779036
9	9	0.97806313
10	10	1.0604937
11	11	1.0237261
12	12	1.0313413
13	13	0.92014582
14	14	0.68357038
15	15	1.2959582
16	16	0.80010876
17	17	0.79567982
18	18	1.0378347
19	19	1.9498712
20	20	0.94469956
21	21	inf
22	22	inf
23	23	inf
