0	0	1.0001866
1	1	0.99731489
2	2	1.0018146
3	3	0.99784118
4	4	0.99100005
5	5	0.98830262
6	6	0.99607767
7	7	0.99392601
8	8	0.99434584
9	9	1.0621262
10	10	1.0207804
11	11	0.96075099
12	12	1.031272
13	13	0.85874505
14	14	0.96169568
15	15	0.89187882
16	16	0.76669795
17	17	1.3578706
18	18	1.1301792
19	19	0.97738746
20	20	0.7883628
21	21	inf
22	22	inf
23	23	0.60186243
