0	0	1.000094
1	1	1.0009119
2	2	0.99985698
3	3	0.9983654
4	4	0.99434949
5	5	1.0070162
6	6	0.99666554
7	7	0.99931213
8	8	0.99658381
9	9	0.9544391
10	10	1.126092
11	11	1.1240922
12	12	1.165865
13	13	1.0735042
14	14	2.0867383
15	15	0.85650829
16	16	1.3864718
17	17	0.68703004
18	18	0.9230219
19	19	0.81376428
20	20	0.47042173
21	21	0.24807006
22	22	inf
23	23	inf
