0	0	1.0000349
1	1	1.0041735
2	2	0.99801082
3	3	0.99950743
4	4	0.99383891
5	5	0.99573645
6	6	0.98808726
7	7	1.0014057
8	8	1.002576
9	9	1.0020962
10	10	1.0235703
11	11	0.96814727
12	12	0.98470463
13	13	0.99742507
14	14	1.0082273
15	15	1.0018339
16	16	0.87276902
17	17	0.83341878
18	18	0.96898602
19	19	1.038765
20	20	1.0708815
21	21	0.69117982
22	22	inf
23	23	1.1046372
