0	0	0.99997433
1	1	0.99806885
2	2	1.0004317
3	3	1.0009015
4	4	0.99222898
5	5	0.98625614
6	6	0.98825558
7	7	1.0013985
8	8	1.0101111
9	9	1.0129663
10	10	1.0206406
11	11	0.96873733
12	12	0.90879325
13	13	1.2266106
14	14	0.95678519
15	15	0.99628034
16	16	1.2782451
17	17	1.1304323
18	18	1.0553757
19	19	0.92848263
20	20	0.9916491
21	21	2.7730265
22	22	inf
23	23	0.51850778
