0	0	0.99996976
1	1	0.99917583
2	2	1.0012284
3	3	0.99931832
4	4	0.99787927
5	5	1.0020994
6	6	1.0036049
7	7	1.0037904
8	8	1.0010264
9	9	1.0563184
10	10	1.174304
11	11	1.0680347
12	12	1.072393
13	13	1.2879615
14	14	1.0371704
15	15	1.0431313
16	16	1.2014471
17	17	1.06474
18	18	0.79683226
19	19	1.0239993
20	20	0.88152824
21	21	2.6316266
22	22	0.35715215
23	23	inf
