0	0	1.0000428
1	1	0.99749397
2	2	1.0005021
3	3	1.000002
4	4	1.0099684
5	5	0.99269819
6	6	1.0071256
7	7	0.99503994
8	8	0.99937321
9	9	1.1756878
10	10	0.99274026
11	11	1.0084438
12	12	0.96174707
13	13	0.86980844
14	14	0.96210993
15	15	0.98417949
16	16	1.0309279
17	17	1.0807571
18	18	1.1531872
19	19	0.75187589
20	20	0.86868882
21	21	3.3065472
22	22	0.46119685
23	23	1.2589057
