0	0	0.99996485
1	1	1.0018101
2	2	1.0006576
3	3	0.99926078
4	4	1.0096586
5	5	1.0003691
6	6	0.99725302
7	7	1.0037071
8	8	1.000188
9	9	1.0968181
10	10	1.0014002
11	11	1.0307544
12	12	1.0402162
13	13	1.0003069
14	14	0.99393308
15	15	0.98647058
16	16	0.92077328
17	17	1.0213005
18	18	0.98810431
19	19	0.928003
20	20	0.98181948
21	21	1.2499872
22	22	0.62045179
23	23	1.4898693
