0	0	1.0000778
1	1	1.001893
2	2	0.998117
3	3	0.99795974
4	4	1.0047344
5	5	1.0217969
6	6	0.99504148
7	7	1.0027773
8	8	1.0080015
9	9	1.1420016
10	10	1.1620157
11	11	1.0360472
12	12	1.1410442
13	13	1.17108
14	14	0.67187387
15	15	0.98978353
16	16	0.5169986
17	17	0.6966083
18	18	0.74766057
19	19	0.68041301
20	20	0.8848794
21	21	inf
22	22	inf
23	23	inf
