0	0	1.0001423
1	1	0.99958298
2	2	0.99868004
3	3	0.99807149
4	4	1.0136784
5	5	1.014182
6	6	1.0030809
7	7	0.99203436
8	8	0.99977093
9	9	1.0971706
10	10	1.102906
11	11	0.97958998
12	12	1.0310665
13	13	1.0056838
14	14	1.0062358
15	15	1.0317514
16	16	1.0944411
17	17	1.129707
18	18	1.1435036
19	19	1.0050566
20	20	1.2889429
21	21	1.0877346
22	22	inf
23	23	0.84053935
