0	0	0.99997808
1	1	0.99578896
2	2	1.0006799
3	3	1.0015459
4	4	1.0139167
5	5	0.99412909
6	6	1.0154171
7	7	0.9891086
8	8	1.0004563
9	9	0.98291007
10	10	1.0502762
11	11	0.95281248
12	12	0.97506746
13	13	0.92012798
14	14	0.90928104
15	15	0.88808931
16	16	0.52468337
17	17	0.47481276
18	18	1.1213667
19	19	1.4970878
20	20	3.5347597
21	21	1.1575799
22	22	inf
23	23	inf
