0	0	0.99998412
1	1	1.0006135
2	2	0.99992996
3	3	1.0003705
4	4	1.009575
5	5	0.98928347
6	6	1.0028338
7	7	0.99880795
8	8	0.99796514
9	9	0.97246758
10	10	0.95526053
11	11	1.0222738
12	12	0.95541406
13	13	0.9867112
14	14	0.99495532
15	15	1.0117453
16	16	1.0233634
17	17	1.0557587
18	18	1.0174503
19	19	0.91749438
20	20	0.99067128
21	21	0.84094083
22	22	0.70689924
23	23	1.6808963
