0	0	0.99979896
1	1	1.0048969
2	2	1.0027782
3	3	1.0002156
4	4	0.99960054
5	5	0.99477478
6	6	0.99275232
7	7	0.99682893
8	8	1.0039339
9	9	1.0342586
10	10	0.85325645
11	11	1.0056369
12	12	1.0943442
13	13	1.030431
14	14	0.97161932
15	15	0.98076393
16	16	1.7123281
17	17	1.2189678
18	18	0.8992386
19	19	0.93514968
20	20	1.0334275
21	21	2.1320954
22	22	inf
23	23	inf
