0	0	1.0001235
1	1	0.99977902
2	2	0.99834408
3	3	0.99909867
4	4	0.98858229
5	5	1.0056542
6	6	0.99217164
7	7	1.0065916
8	8	0.9998906
9	9	0.94076842
10	10	0.86005326
11	11	0.97715658
12	12	0.73462665
13	13	0.93684072
14	14	0.97281274
15	15	1.0003591
16	16	1.3196996
17	17	0.76007411
18	18	1.3760883
19	19	1.8901482
20	20	0.66546843
21	21	inf
22	22	inf
23	23	0.50747892
