0	0	0.99998432
1	1	1.0004909
2	2	1.0001007
3	3	0.99968541
4	4	1.0135092
5	5	0.99082305
6	6	1.006123
7	7	1.0020855
8	8	0.99964312
9	9	0.96375068
10	10	1.1378221
11	11	0.96350758
12	12	0.9931442
13	13	0.93687638
14	14	2.0867383
15	15	0.51390496
16	16	inf
17	17	1.6831673
18	18	3.2156878
19	19	1.17253
20	20	1.1757202
21	21	0.27914968
22	22	inf
23	23	inf
