0	0	1.0001708
1	1	0.99796874
2	2	0.99839229
3	3	0.99920917
4	4	1.0048511
5	5	1.0051851
6	6	1.0045161
7	7	0.98790789
8	8	0.99742586
9	9	0.92305658
10	10	1.0921169
11	11	1.026602
12	12	1.0724069
13	13	0.97205906
14	14	1.0623002
15	15	1.0049654
16	16	1.4807487
17	17	1.0157187
18	18	1.1149349
19	19	0.81646324
20	20	0.84025512
21	21	0.83880118
22	22	inf
23	23	0.31337404
