0	0	0.99997065
1	1	1.001484
2	2	0.9995283
3	3	1.0008522
4	4	1.0106435
5	5	1.0021887
6	6	1.0087102
7	7	0.99811714
8	8	0.99022546
9	9	0.92242138
10	10	0.97430616
11	11	0.93425026
12	12	1.0277186
13	13	0.97956628
14	14	1.0181636
15	15	0.99022127
16	16	0.95635161
17	17	1.1503411
18	18	0.97358562
19	19	0.99654311
20	20	0.96530525
21	21	1.3076076
22	22	0.7828844
23	23	1.8354077
