0	0	1.0000227
1	1	0.99978016
2	2	0.99961301
3	3	0.99979229
4	4	0.99667218
5	5	0.99575111
6	6	1.0047833
7	7	0.99859659
8	8	1.0016538
9	9	1.045322
10	10	0.97526109
11	11	1.0087006
12	12	1.0725792
13	13	0.99091171
14	14	0.98934414
15	15	0.96149701
16	16	2.4221794
17	17	0.6232619
18	18	1.0478472
19	19	2.1028846
20	20	0.71884248
21	21	inf
22	22	inf
23	23	inf
