0	0	0.99996977
1	1	1.0027635
2	2	0.99991659
3	3	1.0000304
4	4	0.98965885
5	5	1.019099
6	6	1.0050568
7	7	0.99065487
8	8	0.99694831
9	9	1.0792633
10	10	0.91761089
11	11	0.99669937
12	12	1.0213866
13	13	1.0288696
14	14	0.97994803
15	15	0.97197832
16	16	0.94804122
17	17	1.2462428
18	18	1.3182499
19	19	1.1547254
20	20	0.96081
21	21	inf
22	22	inf
23	23	1.4204707
