0	0	1.0000643
1	1	1.0016958
2	2	0.99853848
3	3	0.99964439
4	4	1.0048882
5	5	0.98986201
6	6	1.002319
7	7	1.0057705
8	8	0.99070825
9	9	1.0343925
10	10	0.933598
11	11	1.0616431
12	12	1.0313425
13	13	1.0515964
14	14	1.0433696
15	15	0.85650862
16	16	inf
17	17	0.80446585
18	18	1.688201
19	19	0.89089239
20	20	1.1820956
21	21	0.39213282
22	22	inf
23	23	inf
