0	0	0.9998426
1	1	1.0044507
2	2	1.0012198
3	3	1.0012852
4	4	0.99957134
5	5	1.0004622
6	6	0.99689013
7	7	0.9988679
8	8	0.99214517
9	9	0.90187314
10	10	1.0301744
11	11	1.014366
12	12	0.99009934
13	13	0.91872308
14	14	0.95328223
15	15	1.0301762
16	16	1.3046206
17	17	1.0816091
18	18	0.95767494
19	19	1.4155041
20	20	1.0152079
21	21	1.7541276
22	22	inf
23	23	0.67048419
