0	0	1.0000695
1	1	1.0000489
2	2	1.0012663
3	3	0.99897969
4	4	0.99414269
5	5	0.98296269
6	6	0.99083738
7	7	0.99601676
8	8	0.9992165
9	9	0.92684872
10	10	1.0090712
11	11	0.99436144
12	12	1.0363672
13	13	0.99604801
14	14	1.0376441
15	15	0.97628261
16	16	0.93348956
17	17	0.77654336
18	18	0.92202519
19	19	0.8503688
20	20	1.0077429
21	21	0.88475726
22	22	0.66567133
23	23	1.0587521
