0	0	0.99987522
1	1	0.99863047
2	2	1.0030893
3	3	1.0006309
4	4	1.001594
5	5	1.000043
6	6	1.0005583
7	7	0.99624109
8	8	1.0016004
9	9	0.93146467
10	10	1.0703581
11	11	1.0293441
12	12	0.94972565
13	13	1.0219529
14	14	1.0422252
15	15	0.99639127
16	16	1.0189872
17	17	1.3817415
18	18	0.94282061
19	19	0.92155196
20	20	0.9262288
21	21	0.75849068
22	22	inf
23	23	1.0363702
