0	0	1.0000749
1	1	1.0009874
2	2	0.99788432
3	3	1.00055
4	4	0.99558577
5	5	0.97794689
6	6	0.98483646
7	7	1.0058447
8	8	0.99916746
9	9	1.0080044
10	10	0.95816587
11	11	1.0237267
12	12	1.0944853
13	13	0.95422584
14	14	0.64990434
15	15	0.704542
16	16	0.90922204
17	17	1.1519634
18	18	0.91257404
19	19	0.73454347
20	20	1.0166958
21	21	inf
22	22	inf
23	23	inf
