0	0	0.99979982
1	1	1.0018626
2	2	1.0020151
3	3	1.0011457
4	4	1.0019533
5	5	1.0055819
6	6	1.0018447
7	7	0.99242674
8	8	1.0072169
9	9	1.079611
10	10	1.1146008
11	11	0.98842551
12	12	0.85126614
13	13	1.0515955
14	14	1.4892229
15	15	1.0727361
16	16	inf
17	17	2.8148217
18	18	1.1114348
19	19	0.58010076
20	20	0.96237994
21	21	inf
22	22	inf
23	23	0.23756689
