0	0	0.99988346
1	1	1.0021715
2	2	1.0019824
3	3	1.0001249
4	4	0.9876715
5	5	0.98213171
6	6	1.00554
7	7	0.99549172
8	8	1.0052169
9	9	0.92755356
10	10	0.98406245
11	11	0.99702099
12	12	1.0313422
13	13	0.73611723
14	14	2.0867385
15	15	2.5695251
16	16	inf
17	17	1.3846032
18	18	1.0747916
19	19	0.8527582
20	20	1.4568911
21	21	inf
22	22	inf
23	23	inf
