0	0	1.0001061
1	1	0.99979895
2	2	0.99705695
3	3	1.0007213
4	4	0.98704318
5	5	1.0185462
6	6	0.99315457
7	7	0.99661284
8	8	0.99801125
9	9	0.94072128
10	10	0.87377032
11	11	0.91963069
12	12	0.9407905
13	13	0.95414181
14	14	1.0779494
15	15	0.98615283
16	16	0.80063504
17	17	0.73257491
18	18	1.5535181
19	19	1.2001265
20	20	1.0621722
21	21	0.89863562
22	22	inf
23	23	inf
