0	0	1.0002286
1	1	0.99837999
2	2	0.99841995
3	3	0.99765346
4	4	1.0070854
5	5	1.0011467
6	6	0.99760633
7	7	0.99837874
8	8	1.0002366
9	9	0.94525919
10	10	0.95811885
11	11	0.93976855
12	12	1.1917144
13	13	0.97218239
14	14	0.97209927
15	15	0.94800763
16	16	0.91455359
17	17	1.5846297
18	18	0.87725423
19	19	1.2886472
20	20	0.98803495
21	21	0.73322456
22	22	inf
23	23	0.54526359
