0	0	0.99975446
1	1	1.003746
2	2	0.99983682
3	3	1.0030965
4	4	1.0131991
5	5	1.0002351
6	6	1.0086867
7	7	0.99292401
8	8	1.0009809
9	9	1.0180847
10	10	0.88062501
11	11	1.0548066
12	12	0.9817082
13	13	0.93825527
14	14	0.99606404
15	15	0.97637119
16	16	1.0319821
17	17	0.81618866
18	18	1.2630003
19	19	0.8411354
20	20	0.89084476
21	21	1.192931
22	22	inf
23	23	1.3683836
