0	0	1.0000293
1	1	1.0000346
2	2	0.99808492
3	3	1.0010091
4	4	1.0075968
5	5	0.99186921
6	6	0.99559387
7	7	1.0018074
8	8	0.99902225
9	9	0.99256964
10	10	1.0018775
11	11	1.0452567
12	12	0.7148918
13	13	0.74833225
14	14	0.99195863
15	15	1.002824
16	16	1.0518121
17	17	1.1648527
18	18	1.6469535
19	19	0.76071919
20	20	1.0156841
21	21	3.0832872
22	22	inf
23	23	1.1660539
