0	0	0.99996815
1	1	1.0022477
2	2	0.99785494
3	3	1.0004779
4	4	0.98997857
5	5	1.0079011
6	6	1.0060174
7	7	1.0027168
8	8	1.00428
9	9	1.0796119
10	10	0.87384779
11	11	0.96081668
12	12	1.0725962
13	13	0.83110041
14	14	0.69557975
15	15	1.1732737
16	16	1.3864724
17	17	3.0631158
18	18	1.0263721
19	19	1.8222734
20	20	1.2112164
21	21	0.45472139
22	22	inf
23	23	inf
