0	0	0.9998761
1	1	1.0002093
2	2	1.0007204
3	3	1.0017113
4	4	0.98264755
5	5	1.0118052
6	6	1.0058603
7	7	1.00755
8	8	0.99426603
9	9	1.0972605
10	10	1.0919664
11	11	0.9768871
12	12	1.056526
13	13	0.95474025
14	14	0.9374363
15	15	0.99792933
16	16	0.96567075
17	17	1.4396473
18	18	1.1836927
19	19	0.99037572
20	20	1.1221238
21	21	0.91106283
22	22	inf
23	23	0.46435232
