0	0	1.0000924
1	1	0.99904742
2	2	1.001273
3	3	0.9984151
4	4	1.0072759
5	5	0.98720081
6	6	1.004006
7	7	0.99454119
8	8	0.99599318
9	9	1.0976051
10	10	0.92568589
11	11	0.97167303
12	12	1.0118829
13	13	1.0735043
14	14	1.0433693
15	15	1.2847626
16	16	0.69323597
17	17	2.3037588
18	18	0.80723412
19	19	0.83667127
20	20	1.426764
21	21	inf
22	22	inf
23	23	inf
