0	0	0.99996021
1	1	1.0038584
2	2	1.0001938
3	3	0.99884751
4	4	0.99231047
5	5	1.0033906
6	6	0.99433626
7	7	1.0072959
8	8	0.99846182
9	9	1.03864
10	10	1.0150708
11	11	0.98981333
12	12	1.0158701
13	13	0.96604811
14	14	1.0564715
15	15	1.0170252
16	16	0.98832915
17	17	1.0604866
18	18	0.90450598
19	19	0.98052933
20	20	0.9959301
21	21	1.1875445
22	22	1.0776476
23	23	0.96037008
