0	0	1.0000774
1	1	1.0030559
2	2	0.99576417
3	3	0.99973614
4	4	1.0298178
5	5	1.0285132
6	6	0.99446846
7	7	0.99899207
8	8	1.0012302
9	9	1.0290431
10	10	0.96921962
11	11	0.96633048
12	12	0.99027766
13	13	0.99156327
14	14	1.0114325
15	15	0.98473053
16	16	1.1717292
17	17	0.84835837
18	18	0.94768675
19	19	1.036568
20	20	0.98880015
21	21	0.884886
22	22	0.41470142
23	23	1.1625503
