0	0	0.99986286
1	1	1.0025259
2	2	1.0009589
3	3	0.99957662
4	4	1.0087308
5	5	1.0076635
6	6	1.0090248
7	7	1.0086052
8	8	1.002629
9	9	1.1286995
10	10	1.1143391
11	11	0.93448722
12	12	1.1655907
13	13	0.86131137
14	14	0.97924168
15	15	1.0200213
16	16	0.71635321
17	17	0.90061329
18	18	0.97917742
19	19	0.76476792
20	20	0.94663894
21	21	1.5210807
22	22	inf
23	23	1.1489482
