0	0	1.0000822
1	1	0.99706154
2	2	0.99972211
3	3	0.9996507
4	4	1.0025117
5	5	0.98858308
6	6	0.9953146
7	7	0.99861245
8	8	1.0064697
9	9	1.0679405
10	10	0.95816646
11	11	0.99413983
12	12	1.2769003
13	13	1.0963453
14	14	1.0433697
15	15	1.2847631
16	16	0.69323623
17	17	0.89282101
18	18	1.1617591
19	19	0.96881237
20	20	1.0825532
21	21	inf
22	22	inf
23	23	0.16927901
