0	0	0.99986997
1	1	0.9994663
2	2	0.99942906
3	3	1.001196
4	4	1.0111678
5	5	1.0064781
6	6	1.0103907
7	7	1.0118015
8	8	1.0018218
9	9	1.0234627
10	10	0.97507575
11	11	1.0026284
12	12	1.1408249
13	13	1.4310449
14	14	1.1071536
15	15	1.0300791
16	16	0.97965917
17	17	0.80924817
18	18	1.2442039
19	19	0.89287516
20	20	0.99485726
21	21	1.3891317
22	22	0.37771918
23	23	inf
