0	0	0.99989304
1	1	1.0018701
2	2	1.0020518
3	3	0.99936219
4	4	1.0151826
5	5	1.0021221
6	6	1.0021352
7	7	1.0009627
8	8	1.0000637
9	9	1.0177822
10	10	1.2265736
11	11	1.0378792
12	12	0.98986465
13	13	0.97910063
14	14	1.0016431
15	15	0.99456391
16	16	0.94785019
17	17	1.3107253
18	18	1.1169608
19	19	1.0024993
20	20	1.1103069
21	21	1.2710955
22	22	inf
23	23	0.50133269
