0	0	0.99993322
1	1	0.99861347
2	2	1.0013695
3	3	1.0010506
4	4	0.99334143
5	5	0.9866981
6	6	1.0007125
7	7	1.0070784
8	8	0.99691807
9	9	1.091337
10	10	0.94965678
11	11	1.0296647
12	12	1.0942811
13	13	1.1708769
14	14	0.96045421
15	15	1.0033211
16	16	0.8595161
17	17	0.75416229
18	18	0.85847852
19	19	0.91354273
20	20	0.92062386
21	21	1.3053384
22	22	inf
23	23	0.9731744
