0	0	1.0000909
1	1	0.99444178
2	2	1.001836
3	3	0.99919713
4	4	1.0264637
5	5	1.0088507
6	6	0.9938172
7	7	0.99129068
8	8	1.0022095
9	9	0.97104042
10	10	1.0055549
11	11	1.064629
12	12	0.96107332
13	13	1.0084577
14	14	0.98069984
15	15	1.008152
16	16	1.038315
17	17	1.0145901
18	18	1.0815767
19	19	0.9497687
20	20	1.008969
21	21	1.1209875
22	22	inf
23	23	1.5101571
