0	0	1.0001823
1	1	1.0003176
2	2	0.99645173
3	3	0.99894095
4	4	1.0025851
5	5	1.011722
6	6	0.99608011
7	7	1.0018716
8	8	0.99867461
9	9	1.0508296
10	10	1.0304129
11	11	0.98552921
12	12	0.95761209
13	13	1.0515271
14	14	0.93908778
15	15	0.96871942
16	16	0.82869262
17	17	1.3462226
18	18	0.77997532
19	19	0.84782287
20	20	0.8178659
21	21	1.6113131
22	22	inf
23	23	inf
