0	0	0.9999445
1	1	0.99740939
2	2	1.0020487
3	3	1.0002223
4	4	0.98456763
5	5	0.99318112
6	6	0.99635331
7	7	1.0113291
8	8	1.0025298
9	9	1.0398362
10	10	0.92568576
11	11	1.0885196
12	12	0.80044457
13	13	0.95422593
14	14	2.0867382
15	15	0.85650826
16	16	1.3864717
17	17	1.6382923
18	18	2.1450573
19	19	2.0909412
20	20	1.3702237
21	21	inf
22	22	inf
23	23	inf
