0	0	0.99977692
1	1	1.0016927
2	2	1.0039579
3	3	1.0007666
4	4	1.0189061
5	5	1.0171392
6	6	1.0024242
7	7	0.99817707
8	8	0.99354382
9	9	0.97760183
10	10	1.0599935
11	11	0.97951492
12	12	1.119217
13	13	0.92443111
14	14	0.99238193
15	15	0.98906252
16	16	1.2530204
17	17	1.2378959
18	18	0.9245006
19	19	1.3573881
20	20	1.1403409
21	21	0.84426341
22	22	inf
23	23	0.98550748
