0	0	1.0000338
1	1	0.99979611
2	2	0.99957578
3	3	0.99943655
4	4	1.0099207
5	5	0.98498102
6	6	1.0049561
7	7	1.0053762
8	8	0.99782996
9	9	1.0395063
10	10	0.87357009
11	11	1.0357321
12	12	1.2027969
13	13	1.0384821
14	14	1.0002078
15	15	1.0136313
16	16	0.93544286
17	17	0.79910676
18	18	1.2193101
19	19	1.1327572
20	20	1.2370125
21	21	3.6733436
22	22	inf
23	23	1.4040225
