0	0	1.0001169
1	1	0.99736102
2	2	1.0013692
3	3	0.99970392
4	4	1.0055888
5	5	0.98582252
6	6	0.99313864
7	7	0.99010475
8	8	0.99110507
9	9	1.0453379
10	10	0.97527595
11	11	1.0237267
12	12	0.9750869
13	13	1.0963446
14	14	1.3228898
15	15	0.79897197
16	16	0.93468388
17	17	1.9126977
18	18	0.69222271
19	19	0.48350005
20	20	1.0069977
21	21	inf
22	22	inf
23	23	inf
