0	0	0.99981739
1	1	1.0005527
2	2	0.9996611
3	3	1.0032913
4	4	1.0080693
5	5	0.99184245
6	6	1.0071331
7	7	1.0066904
8	8	0.99443277
9	9	1.0736887
10	10	1.0708362
11	11	1.0086642
12	12	1.218796
13	13	0.72571194
14	14	1.0236808
15	15	0.9343379
16	16	1.0654546
17	17	1.2781686
18	18	0.85607696
19	19	1.0999671
20	20	0.69983351
21	21	0.49597762
22	22	inf
23	23	0.55260983
