0	0	1.0000208
1	1	0.99595382
2	2	1.0019555
3	3	0.99992939
4	4	1.0046722
5	5	0.98572806
6	6	0.9977021
7	7	0.99530074
8	8	1.00362
9	9	0.95846538
10	10	0.97465894
11	11	0.94153121
12	12	1.0955749
13	13	1.00417
14	14	1.0130093
15	15	1.0042549
16	16	1.0416261
17	17	0.79197253
18	18	1.0163322
19	19	1.2528528
20	20	1.1180005
21	21	0.9499876
22	22	inf
23	23	2.628302
