0	0	1.0000516
1	1	0.99942394
2	2	1.0007663
3	3	0.99852242
4	4	1.0180913
5	5	0.99103694
6	6	0.9967696
7	7	1.0042036
8	8	1.0016931
9	9	0.88994993
10	10	1.0021185
11	11	0.9296546
12	12	1.0944854
13	13	0.88841725
14	14	2.0867382
15	15	0.42825413
16	16	0.69323587
17	17	0.95679692
18	18	0.80577622
19	19	0.87283362
20	20	0.77416597
21	21	inf
22	22	inf
23	23	inf
