0	0	0.99985816
1	1	1.0018989
2	2	1.0003027
3	3	1.0006055
4	4	1.0291239
5	5	1.0092021
6	6	1.0126806
7	7	1.0059053
8	8	1.0018928
9	9	1.0021623
10	10	0.92100076
11	11	0.94957021
12	12	0.95935742
13	13	0.99027115
14	14	0.9679261
15	15	0.99161293
16	16	1.1317879
17	17	0.96063246
18	18	0.93286779
19	19	1.0322483
20	20	0.97819835
21	21	1.8291595
22	22	inf
23	23	0.55433552
