0	0	0.99997898
1	1	0.99860155
2	2	1.0007698
3	3	1.0010468
4	4	0.96894639
5	5	0.99103747
6	6	1.0076641
7	7	0.9881905
8	8	1.0046403
9	9	0.93634592
10	10	1.0113979
11	11	0.98277824
12	12	0.90897991
13	13	1.0963453
14	14	0.41734786
15	15	1.0142703
16	16	inf
17	17	2.0493896
18	18	1.1907347
19	19	1.1057239
20	20	1.5298312
21	21	0.44969599
22	22	inf
23	23	0.1767658
