0	0	0.99999801
1	1	0.99556611
2	2	1.000445
3	3	1.0012557
4	4	1.0059543
5	5	1.0126703
6	6	1.0009503
7	7	0.99595724
8	8	1.0030709
9	9	0.93109645
10	10	0.99468755
11	11	1.0289098
12	12	1.0186781
13	13	0.96682634
14	14	0.9848469
15	15	0.98897071
16	16	1.0733666
17	17	1.1329683
18	18	0.99432795
19	19	0.9298066
20	20	0.99777684
21	21	0.86296688
22	22	inf
23	23	1.2706032
