0	0	0.99981302
1	1	1.0027251
2	2	0.99944305
3	3	1.0030334
4	4	0.99578931
5	5	0.99014386
6	6	1.0095272
7	7	1.0038198
8	8	0.99438818
9	9	0.90132806
10	10	1.0129236
11	11	0.9599388
12	12	1.0154352
13	13	1.0106049
14	14	1.0001458
15	15	0.99436657
16	16	0.8138334
17	17	0.84016163
18	18	1.017231
19	19	1.1328847
20	20	1.0147756
21	21	1.0655125
22	22	1.6601922
23	23	1.2840308
