0	0	0.99981861
1	1	1.000151
2	2	1.0030708
3	3	1.0021483
4	4	0.97735642
5	5	0.99803937
6	6	0.99614507
7	7	0.99725105
8	8	0.99738806
9	9	0.96847471
10	10	1.0113972
11	11	0.96350735
12	12	1.117287
13	13	0.87335913
14	14	0.69557925
15	15	0.85650806
16	16	0.34661786
17	17	1.0993016
18	18	1.3089662
19	19	1.0293072
20	20	0.92638004
21	21	inf
22	22	inf
23	23	inf
