0	0	1.0000585
1	1	0.99877637
2	2	1.0003422
3	3	1.0008919
4	4	1.0120347
5	5	0.98810707
6	6	0.99365741
7	7	0.98261816
8	8	0.99539994
9	9	0.95439088
10	10	0.92563903
11	11	0.94753399
12	12	0.87913244
13	13	1.2567219
14	14	1.0347206
15	15	1.0813017
16	16	0.56903273
17	17	1.2736837
18	18	0.92403729
19	19	1.0887838
20	20	0.69102232
21	21	0.73936278
22	22	inf
23	23	0.5494613
