0	0	0.99994637
1	1	1.0023261
2	2	1.0016822
3	3	0.99880937
4	4	1.0112254
5	5	0.99189658
6	6	0.99204155
7	7	1.0032519
8	8	1.002028
9	9	0.99739453
10	10	1.0300382
11	11	1.0611871
12	12	0.94186601
13	13	1.0234117
14	14	1.0137593
15	15	1.0030377
16	16	0.8544869
17	17	1.1712547
18	18	0.99480027
19	19	0.88582124
20	20	1.0501494
21	21	0.66531128
22	22	inf
23	23	0.90209177
