0	0	1.000023
1	1	1.0005367
2	2	1.0014195
3	3	0.99918123
4	4	1.009683
5	5	0.98291561
6	6	0.99884567
7	7	0.9902697
8	8	1.001922
9	9	0.940548
10	10	0.97501047
11	11	0.99964688
12	12	0.89691191
13	13	0.91745821
14	14	0.98949265
15	15	0.99160362
16	16	0.7156681
17	17	1.5719389
18	18	0.7459944
19	19	0.72193563
20	20	1.2457431
21	21	1.1080575
22	22	inf
23	23	0.31655902
