0	0	1.0000213
1	1	1.0028933
2	2	0.99915349
3	3	0.99968345
4	4	1.0006891
5	5	0.98735249
6	6	0.99114764
7	7	1.0095212
8	8	0.9933815
9	9	1.1478447
10	10	1.16121
11	11	0.96594802
12	12	0.98372179
13	13	0.9665675
14	14	1.0022683
15	15	1.0027896
16	16	1.0990637
17	17	1.0838054
18	18	1.0107501
19	19	1.5169832
20	20	0.93395797
21	21	0.49294691
22	22	0.60981057
23	23	0.73393707
