0	0	0.99996928
1	1	0.99775261
2	2	0.99981876
3	3	1.0012015
4	4	0.98005435
5	5	1.00925
6	6	0.99478095
7	7	1.0049772
8	8	1.0061385
9	9	1.0125254
10	10	1.0396288
11	11	0.96891845
12	12	0.91328421
13	13	1.0223409
14	14	0.99397793
15	15	0.9844803
16	16	0.98678476
17	17	1.1401823
18	18	1.0972309
19	19	1.1390311
20	20	1.0526624
21	21	1.6801482
22	22	inf
23	23	0.88583111
