0	0	0.999863
1	1	1.0037655
2	2	1.0027353
3	3	0.99933561
4	4	1.0016753
5	5	0.99242982
6	6	1.0101171
7	7	0.99530888
8	8	0.99843157
9	9	1.0290048
10	10	0.93359781
11	11	0.93981496
12	12	1.3080438
13	13	1.1983305
14	14	0.52168467
15	15	2.5695253
16	16	1.386472
17	17	1.3620838
18	18	0.72243656
19	19	1.4363115
20	20	0.91063769
21	21	inf
22	22	inf
23	23	0.13990592
