0	0	1.0002939
1	1	0.99933077
2	2	0.99594235
3	3	0.9979585
4	4	1.0126376
5	5	1.0131617
6	6	0.99279126
7	7	0.99136852
8	8	1.0032368
9	9	0.92727715
10	10	0.9333195
11	11	0.93189631
12	12	1.0459032
13	13	0.95331618
14	14	0.95166684
15	15	1.0089449
16	16	0.82337242
17	17	1.0842166
18	18	0.83088178
19	19	0.88284171
20	20	0.99889929
21	21	0.87880893
22	22	0.49586074
23	23	0.67185494
