0	0	1.0000029
1	1	1.0017971
2	2	0.9989303
3	3	1.0000824
4	4	0.9991741
5	5	1.0055813
6	6	0.98768977
7	7	1.0130305
8	8	0.99488342
9	9	1.0028868
10	10	1.16203
11	11	1.0329486
12	12	1.0313411
13	13	0.78072956
14	14	1.9218311
15	15	0.85483408
16	16	0.84984204
17	17	1.1073326
18	18	0.80418162
19	19	3.8193244
20	20	1.5661963
21	21	0.70260637
22	22	inf
23	23	inf
