0	0	0.99995565
1	1	1.0004806
2	2	1.0013397
3	3	1.0005962
4	4	1.0115179
5	5	0.98455448
6	6	0.99334599
7	7	0.99104742
8	8	1.0015025
9	9	0.88595954
10	10	0.86691247
11	11	0.94758227
12	12	0.99314465
13	13	0.97223065
14	14	1.0433696
15	15	1.284763
16	16	0.69323619
17	17	3.1756751
18	18	0.75980057
19	19	6.0600205
20	20	0.97771317
21	21	inf
22	22	inf
23	23	inf
