0	0	1.0000777
1	1	0.99922132
2	2	0.99850492
3	3	1.0010471
4	4	1.0097314
5	5	0.9801615
6	6	0.98806769
7	7	0.99838051
8	8	0.99782546
9	9	0.99272481
10	10	0.99292468
11	11	0.96342638
12	12	0.97500485
13	13	1.2267585
14	14	0.94227588
15	15	0.91311413
16	16	1.5645846
17	17	2.406079
18	18	1.2954045
19	19	0.84146836
20	20	0.59454477
21	21	1.7662804
22	22	inf
23	23	0.64901927
