0	0	0.99997699
1	1	1.0002336
2	2	0.99864096
3	3	1.0004019
4	4	1.0128871
5	5	0.99803305
6	6	1.0036719
7	7	0.99927464
8	8	1.0096177
9	9	0.96815274
10	10	1.2408475
11	11	0.99958654
12	12	0.99025908
13	13	0.97320472
14	14	0.95430559
15	15	0.96782914
16	16	1.0581874
17	17	0.88238227
18	18	1.0685956
19	19	0.8647151
20	20	1.0876326
21	21	3.8042524
22	22	0.54831724
23	23	1.4540139
