0	0	0.99989451
1	1	1.0000374
2	2	0.99977218
3	3	1.0023375
4	4	1.0116589
5	5	1.0010862
6	6	0.99169329
7	7	1.0008998
8	8	0.99812242
9	9	0.9878439
10	10	0.9179064
11	11	0.99991866
12	12	0.86499609
13	13	1.0735036
14	14	2.1439567
15	15	2.4003858
16	16	0.77103566
17	17	1.1178456
18	18	3.05436
19	19	1.9780183
20	20	2.3758881
21	21	inf
22	22	inf
23	23	inf
