0	0	0.99995371
1	1	1.0026703
2	2	0.99956628
3	3	0.99981197
4	4	1.0070859
5	5	0.99763463
6	6	1.0004483
7	7	0.99647622
8	8	1.0045225
9	9	1.079408
10	10	0.94146842
11	11	0.97700962
12	12	0.99295704
13	13	0.97204699
14	14	1.0324955
15	15	1.0027284
16	16	0.8656629
17	17	0.66406987
18	18	1.0744247
19	19	0.92324235
20	20	1.2164064
21	21	0.65659728
22	22	0.17820883
23	23	inf
