0	0	1.0001186
1	1	0.99941325
2	2	0.99835012
3	3	0.99948794
4	4	0.99670387
5	5	1.0000335
6	6	0.99871962
7	7	1.0059296
8	8	0.99317067
9	9	0.99742502
10	10	0.94945558
11	11	1.0024348
12	12	0.92675845
13	13	0.9297798
14	14	0.98877584
15	15	1.0634966
16	16	0.79566509
17	17	0.70671195
18	18	0.90319038
19	19	0.84810931
20	20	1.0401554
21	21	1.0938535
22	22	0.65256058
23	23	0.84566904
