0	0	1.0001245
1	1	0.99920255
2	2	1.0007065
3	3	0.99745512
4	4	1.0000929
5	5	1.0028039
6	6	0.99035367
7	7	0.99495135
8	8	1.0073485
9	9	0.98246856
10	10	0.94120401
11	11	0.89070156
12	12	1.0737743
13	13	0.98305372
14	14	1.0181112
15	15	1.0147456
16	16	0.96033111
17	17	1.0241038
18	18	1.0071081
19	19	1.0518548
20	20	1.0894918
21	21	1.6787726
22	22	0.25554453
23	23	0.65293578
