0	0	0.99982086
1	1	1.0024588
2	2	1.0009777
3	3	1.0006418
4	4	1.0053088
5	5	1.027874
6	6	1.0041648
7	7	1.0018635
8	8	1.0034882
9	9	0.89397726
10	10	0.96664574
11	11	0.95547877
12	12	0.83796579
13	13	0.97223063
14	14	2.0867392
15	15	0.79936628
16	16	0.34661809
17	17	0.50869092
18	18	0.90348977
19	19	1.3512578
20	20	5.9964724
21	21	inf
22	22	0.11164814
23	23	inf
