0	0	0.99988549
1	1	1.0073213
2	2	0.99953764
3	3	0.99976823
4	4	0.99279713
5	5	1.0052061
6	6	1.005971
7	7	0.99194557
8	8	1.0019819
9	9	1.0079585
10	10	0.95812223
11	11	1.0298099
12	12	0.99309886
13	13	1.3211756
14	14	0.8613363
15	15	0.95647147
16	16	0.70936879
17	17	1.2513024
18	18	0.75953844
19	19	0.61983041
20	20	0.86262137
21	21	0.71671235
22	22	inf
23	23	0.5337198
