0	0	0.99995467
1	1	1.0018762
2	2	1.0012733
3	3	0.99913336
4	4	1.0021211
5	5	0.97846375
6	6	0.99937306
7	7	1.006032
8	8	1.0021076
9	9	1.1098143
10	10	1.0921879
11	11	0.94228496
12	12	0.82498203
13	13	0.93677235
14	14	1.0267186
15	15	1.0005678
16	16	0.72932541
17	17	1.5963199
18	18	0.88739917
19	19	0.64313841
20	20	1.3591119
21	21	0.99253493
22	22	inf
23	23	inf
