0	0	1.0000602
1	1	0.99891842
2	2	0.99902157
3	3	1.0005212
4	4	0.99325322
5	5	0.99890853
6	6	0.9981252
7	7	0.99699449
8	8	0.99807574
9	9	1.0855436
10	10	0.89533561
11	11	0.98842609
12	12	0.87917702
13	13	0.97223041
14	14	0.78449625
15	15	1.8943758
16	16	1.4464396
17	17	0.59840357
18	18	2.4957661
19	19	1.6822266
20	20	2.8293127
21	21	0.49326541
22	22	inf
23	23	0.1905704
