0	0	1.0000193
1	1	1.0006271
2	2	1.0005
3	3	0.99744191
4	4	0.99646991
5	5	1.0017929
6	6	1.0092431
7	7	1.0080428
8	8	1.0085567
9	9	1.0448207
10	10	1.0599696
11	11	1.0324384
12	12	0.92705212
13	13	1.0305293
14	14	1.009131
15	15	0.99849666
16	16	1.0127026
17	17	0.93120256
18	18	0.93708209
19	19	1.3223177
20	20	1.0502908
21	21	1.0560345
22	22	0.8084024
23	23	inf
