0	0	1.0000598
1	1	1.0012935
2	2	1.0007457
3	3	0.99785139
4	4	1.0042011
5	5	1.0187338
6	6	1.000406
7	7	0.99121238
8	8	0.99975515
9	9	1.0914034
10	10	1.1496544
11	11	0.93969643
12	12	1.191623
13	13	0.90388969
14	14	1.0561742
15	15	1.0309961
16	16	1.311516
17	17	0.70300605
18	18	1.072348
19	19	1.2823138
20	20	0.92281582
21	21	inf
22	22	0.28409323
23	23	0.78483637
