0	0	0.99989946
1	1	1.0030814
2	2	1.0000222
3	3	1.0009485
4	4	0.97642942
5	5	1.0228347
6	6	1.0031613
7	7	0.98822585
8	8	1.0015974
9	9	1.1621697
10	10	0.94164568
11	11	1.0206888
12	12	1.0118826
13	13	0.93687619
14	14	2.0867378
15	15	0.42825405
16	16	1.3864715
17	17	1.4657355
18	18	0.934394
19	19	1.0152629
20	20	0.98885453
21	21	inf
22	22	inf
23	23	inf
