0	0	1.0000714
1	1	0.99602237
2	2	0.99763457
3	3	1.0023028
4	4	0.98563658
5	5	1.0011596
6	6	0.9893392
7	7	1.0036111
8	8	0.99812022
9	9	1.0507456
10	10	0.94969607
11	11	1.0085696
12	12	1.2470231
13	13	0.95408728
14	14	0.99839021
15	15	1.0655901
16	16	1.2953409
17	17	1.5111982
18	18	0.90402604
19	19	0.98146945
20	20	0.93332583
21	21	inf
22	22	inf
23	23	inf
