0	0	0.99999753
1	1	1.0005969
2	2	1.0002824
3	3	1.0005831
4	4	0.98633971
5	5	0.99429947
6	6	0.99208014
7	7	1.0045568
8	8	0.99240434
9	9	1.017999
10	10	1.3155217
11	11	0.98520915
12	12	1.0182676
13	13	0.90704359
14	14	1.0286793
15	15	0.99817963
16	16	1.2210555
17	17	1.0534146
18	18	0.97204971
19	19	1.1074582
20	20	0.99888212
21	21	0.47799851
22	22	inf
23	23	1.6605598
