0	0	1.0000756
1	1	0.99922325
2	2	0.99956172
3	3	0.99918356
4	4	1.016279
5	5	0.99202084
6	6	1.0048693
7	7	1.0015528
8	8	0.99618911
9	9	1.0621051
10	10	0.86001053
11	11	0.9911874
12	12	1.011794
13	13	1.1982251
14	14	0.98212931
15	15	1.0054233
16	16	1.064796
17	17	0.914207
18	18	0.97607646
19	19	1.0625216
20	20	0.88221501
21	21	inf
22	22	inf
23	23	inf
