0	0	0.99991713
1	1	0.99750678
2	2	1.0007607
3	3	1.0017221
4	4	1.0110708
5	5	0.99445157
6	6	1.0022979
7	7	1.0011016
8	8	1.0018397
9	9	0.92320005
10	10	0.94162644
11	11	0.97995757
12	12	0.86497871
13	13	1.0305427
14	14	0.94724889
15	15	0.87266463
16	16	0.4814451
17	17	0.51895118
18	18	1.3193334
19	19	2.2628041
20	20	1.7849934
21	21	inf
22	22	inf
23	23	inf
