0	0	1.0001484
1	1	0.99887229
2	2	0.99844291
3	3	0.99947208
4	4	1.0059747
5	5	1.0051065
6	6	0.98678779
7	7	0.99927692
8	8	0.9956511
9	9	1.0975663
10	10	1.0208138
11	11	0.97439121
12	12	1.072558
13	13	0.92011405
14	14	1.04322
15	15	1.057296
16	16	1.2811141
17	17	1.2036531
18	18	0.98780393
19	19	0.91247265
20	20	1.4945792
21	21	inf
22	22	inf
23	23	0.4969833
