0	0	1.0003749
1	1	0.99870895
2	2	0.99832826
3	3	0.99614228
4	4	0.98047498
5	5	0.97393151
6	6	0.99560297
7	7	0.99754391
8	8	0.99469204
9	9	1.0343146
10	10	1.3825663
11	11	1.0988704
12	12	1.0118069
13	13	1.1449853
14	14	1.1210344
15	15	0.95677321
16	16	1.7698919
17	17	1.1626307
18	18	1.2340787
19	19	1.2018853
20	20	0.89364963
21	21	0.56350746
22	22	0.23130589
23	23	inf
