0	0	0.99994558
1	1	1.0027536
2	2	0.99919025
3	3	0.99961358
4	4	1.008713
5	5	1.0001951
6	6	0.98845852
7	7	1.0123121
8	8	1.0058884
9	9	0.99214051
10	10	1.0107169
11	11	1.0884855
12	12	0.98282432
13	13	0.99333018
14	14	1.020167
15	15	0.99560929
16	16	0.84417834
17	17	0.91886693
18	18	0.98901998
19	19	0.96659088
20	20	0.88871559
21	21	0.88129816
22	22	0.57519896
23	23	0.93123797
