0	0	0.99984395
1	1	1.0010635
2	2	1.0025785
3	3	1.00079
4	4	1.0000137
5	5	1.0094826
6	6	0.99464706
7	7	0.99967747
8	8	1.0023824
9	9	0.96807826
10	10	1.2407521
11	11	1.0294351
12	12	0.93187936
13	13	1.0020646
14	14	0.98763161
15	15	0.95028765
16	16	1.2781668
17	17	1.1741288
18	18	0.90411235
19	19	1.2718821
20	20	0.7848257
21	21	0.63927028
22	22	inf
23	23	inf
