0	0	1.0001094
1	1	1.0017767
2	2	1.0002242
3	3	0.9975754
4	4	0.99611831
5	5	0.98271391
6	6	0.99500278
7	7	0.99336405
8	8	1.0068908
9	9	0.93178299
10	10	0.83369344
11	11	0.99686498
12	12	0.85113334
13	13	1.1981429
14	14	1.009148
15	15	1.0068216
16	16	0.85059697
17	17	0.85801245
18	18	0.92123505
19	19	1.2188525
20	20	1.1848261
21	21	1.1750861
22	22	inf
23	23	inf
