0	0	1.0001262
1	1	0.99774149
2	2	0.99940845
3	3	0.99905272
4	4	0.98706529
5	5	0.993697
6	6	0.99844001
7	7	1.004206
8	8	0.99877957
9	9	0.97719564
10	10	1.056557
11	11	0.96470452
12	12	0.9630308
13	13	1.0231359
14	14	0.98621225
15	15	1.0281247
16	16	1.0488874
17	17	0.87330075
18	18	1.0234193
19	19	1.109396
20	20	1.1947698
21	21	0.62853224
22	22	inf
23	23	1.2616515
