0	0	1.0000361
1	1	0.99862569
2	2	0.99954108
3	3	0.99904131
4	4	1.0135543
5	5	1.0183039
6	6	1.001553
7	7	0.99964975
8	8	1.0036899
9	9	0.94018443
10	10	0.9660085
11	11	1.0075129
12	12	0.94944767
13	13	1.0483752
14	14	1.0350984
15	15	1.001047
16	16	1.1129121
17	17	0.89453446
18	18	1.0615118
19	19	1.3404857
20	20	1.0665212
21	21	1.3818114
22	22	0.56097157
23	23	1.3676668
