0	0	0.99994876
1	1	1.0002306
2	2	1.001461
3	3	1.000025
4	4	1.0010269
5	5	1.0022172
6	6	0.98892887
7	7	0.99887798
8	8	1.0026425
9	9	0.97275116
10	10	0.9097951
11	11	1.0141516
12	12	0.94274603
13	13	0.97338282
14	14	0.98231952
15	15	1.0326483
16	16	1.3481288
17	17	1.074045
18	18	0.95271227
19	19	1.2878663
20	20	1.0299917
21	21	0.90116191
22	22	0.83011931
23	23	1.0567149
