0	0	1.0000464
1	1	1.0016771
2	2	1.0003732
3	3	0.99805225
4	4	1.009102
5	5	1.0174995
6	6	0.98676419
7	7	1.0077088
8	8	0.99825788
9	9	0.95443199
10	10	0.93359069
11	11	1.0057592
12	12	1.0118753
13	13	1.1450626
14	14	0.88392066
15	15	1.0582163
16	16	1.3339839
17	17	0.78401885
18	18	1.2666678
19	19	1.887926
20	20	0.67709055
21	21	inf
22	22	inf
23	23	inf
