0	0	1.0000836
1	1	1.0010072
2	2	0.99697906
3	3	0.99982185
4	4	1.0131031
5	5	1.0013091
6	6	1.0033041
7	7	1.004405
8	8	1.0013181
9	9	0.99227109
10	10	0.85290466
11	11	0.92664695
12	12	0.93681273
13	13	0.97746638
14	14	0.96913917
15	15	0.98081791
16	16	0.99847491
17	17	0.87347029
18	18	1.1129331
19	19	1.0183114
20	20	1.0633109
21	21	0.95482582
22	22	inf
23	23	0.44953926
