0	0	1.0000944
1	1	0.9960852
2	2	0.99927455
3	3	1.0010792
4	4	1.0100762
5	5	0.99272853
6	6	1.0006662
7	7	0.99433541
8	8	0.99453154
9	9	1.0079812
10	10	1.0020953
11	11	0.94755986
12	12	1.4112774
13	13	1.0963193
14	14	1.0050444
15	15	0.84257835
16	16	1.3771247
17	17	1.4399752
18	18	0.96516484
19	19	0.93766031
20	20	0.74613794
21	21	inf
22	22	inf
23	23	inf
