0	0	0.99988962
1	1	1.0003183
2	2	1.0025052
3	3	0.99856787
4	4	1.001675
5	5	1.0153689
6	6	0.99953635
7	7	1.0114801
8	8	1.0077005
9	9	1.1690466
10	10	1.174526
11	11	0.90997934
12	12	1.031342
13	13	1.1201782
14	14	0.41734763
15	15	0.85650823
16	16	1.3864717
17	17	1.4657357
18	18	0.64984103
19	19	1.3496846
20	20	0.84356672
21	21	inf
22	22	inf
23	23	inf
