0	0	0.99997993
1	1	1.0037548
2	2	0.99892033
3	3	0.99957864
4	4	1.0062765
5	5	1.007323
6	6	1.0011658
7	7	0.99678993
8	8	1.0001889
9	9	0.94930611
10	10	1.1027104
11	11	0.96051511
12	12	0.97716276
13	13	1.0055459
14	14	1.008412
15	15	0.99721241
16	16	1.0899716
17	17	0.83180677
18	18	0.98048783
19	19	1.0854168
20	20	1.0426353
21	21	0.67344357
22	22	inf
23	23	0.79500778
