0	0	0.99997341
1	1	0.99960163
2	2	0.9978245
3	3	1.0012666
4	4	1.013937
5	5	1.0250046
6	6	1.0101703
7	7	0.99424895
8	8	1.0009771
9	9	1.1354534
10	10	0.92568578
11	11	1.0237268
12	12	0.97508704
13	13	1.1450711
14	14	0.69557942
15	15	2.5695248
16	16	inf
17	17	0.62817248
18	18	0.92618208
19	19	0.92452217
20	20	0.89209244
21	21	inf
22	22	inf
23	23	inf
