0	0	1.0001004
1	1	0.99852399
2	2	0.99877138
3	3	1.0000772
4	4	0.9879744
5	5	0.99803891
6	6	1.0110627
7	7	1.00299
8	8	0.99233109
9	9	0.97742518
10	10	1.0701921
11	11	0.96232701
12	12	0.92213692
13	13	0.99874239
14	14	0.97949082
15	15	0.99933373
16	16	1.1284255
17	17	0.90650523
18	18	0.93443864
19	19	0.8417801
20	20	1.1431037
21	21	1.3700338
22	22	inf
23	23	1.3555043
