0	0	0.99982922
1	1	1.0003038
2	2	1.0008684
3	3	1.0024777
4	4	1.0050736
5	5	1.0105122
6	6	1.006566
7	7	0.9987872
8	8	0.99362872
9	9	1.0178083
10	10	0.96015848
11	11	0.95539903
12	12	0.98561514
13	13	0.98690282
14	14	0.99285814
15	15	1.0243415
16	16	1.061249
17	17	1.2070876
18	18	0.99301319
19	19	1.1754434
20	20	1.0000484
21	21	1.4207364
22	22	1.7371305
23	23	1.999901
