0	0	1.0001048
1	1	0.99787516
2	2	1.0013465
3	3	0.99837626
4	4	0.99458205
5	5	1.0028458
6	6	0.98978394
7	7	0.99671375
8	8	1.0022109
9	9	1.0972557
10	10	1.0017997
11	11	0.93951574
12	12	1.0919497
13	13	1.1556225
14	14	0.97839491
15	15	1.0088946
16	16	1.1719282
17	17	0.94227286
18	18	0.826187
19	19	1.0361339
20	20	0.9795778
21	21	1.2268722
22	22	inf
23	23	1.4067639
