0	0	1.000109
1	1	1.0003984
2	2	0.99810676
3	3	0.99985129
4	4	0.97864075
5	5	1.0155331
6	6	0.98938286
7	7	0.99770571
8	8	1.0003484
9	9	0.94012377
10	10	1.0297351
11	11	1.0465633
12	12	1.01116
13	13	0.97826557
14	14	0.99508676
15	15	0.98845547
16	16	0.81540945
17	17	1.1168428
18	18	0.86657938
19	19	1.1229209
20	20	0.98062587
21	21	0.84066636
22	22	1.2542047
23	23	0.50122544
