0	0	1.0000024
1	1	0.99926995
2	2	1.0008241
3	3	0.99952887
4	4	0.99793028
5	5	1.0030267
6	6	0.99704871
7	7	1.0036557
8	8	1.0005767
9	9	0.91879831
10	10	0.90261036
11	11	0.94745113
12	12	1.2767236
13	13	1.1449132
14	14	1.0325971
15	15	0.99079134
16	16	0.96252929
17	17	4.4103136
18	18	0.83434668
19	19	0.9313727
20	20	1.650591
21	21	0.73450221
22	22	inf
23	23	inf
