0	0	1.0000332
1	1	0.99921446
2	2	1.0012008
3	3	0.99845049
4	4	0.99779194
5	5	1.0180716
6	6	1.0032146
7	7	0.99864916
8	8	1.0013831
9	9	0.97324613
10	10	0.94983447
11	11	0.96893617
12	12	1.0118832
13	13	0.81790827
14	14	2.0867391
15	15	0.8565086
16	16	1.3864723
17	17	0.64831871
18	18	2.2371741
19	19	2.1117936
20	20	0.90405336
21	21	inf
22	22	inf
23	23	inf
