0	0	1.000035
1	1	0.9977633
2	2	0.99960488
3	3	0.99913125
4	4	0.99806251
5	5	1.0191959
6	6	1.009951
7	7	1.0098904
8	8	1.0013534
9	9	0.92321407
10	10	1.0708855
11	11	0.98842049
12	12	1.1658586
13	13	1.0515902
14	14	1.128473
15	15	0.7142272
16	16	1.2365115
17	17	5.4691872
18	18	1.204005
19	19	0.74009691
20	20	0.73712323
21	21	0.44926187
22	22	0.14663521
23	23	inf
