0	0	0.99997982
1	1	1.0023376
2	2	0.99797625
3	3	1.0014237
4	4	0.99806088
5	5	0.99977146
6	6	0.99817012
7	7	0.99566758
8	8	0.99911297
9	9	0.92321256
10	10	0.94982737
11	11	0.97718685
12	12	1.1658567
13	13	0.99091992
14	14	0.77832051
15	15	0.69872695
16	16	0.56474586
17	17	0.60933661
18	18	0.89730289
19	19	3.7613587
20	20	0.76745073
21	21	0.46921709
22	22	inf
23	23	inf
