0	0	1.0000065
1	1	1.0001879
2	2	1.0012257
3	3	1.0004173
4	4	0.99331856
5	5	0.99479278
6	6	0.98991034
7	7	0.99400318
8	8	0.99703165
9	9	0.92251647
10	10	0.87049395
11	11	1.0139198
12	12	0.99377951
13	13	1.0101587
14	14	0.99709243
15	15	0.97458883
16	16	1.0587894
17	17	0.83712623
18	18	0.92377017
19	19	1.0355127
20	20	0.96294746
21	21	0.99715266
22	22	1.3340027
23	23	1.5911208
