0	0	0.8895483
1	1	0.0184744
2	2	0.0331859
3	3	0.0482373
4	4	0.0007246
5	5	0.000916
6	6	0.0018991
7	7	0.0027197
8	8	0.0042132
9	9	2.05e-05
10	10	1.26e-05
11	11	3.63e-05
12	12	3.9e-06
13	13	4.7e-06
14	14	4e-07
15	15	1.2e-06
16	16	0
17	17	7e-07
18	18	7e-07
19	19	1e-07
20	20	3e-07
21	21	1e-07
22	22	0
23	23	0
