0	0	0.8887511
1	1	0.0185441
2	2	0.0332409
3	3	0.0482855
4	4	0.000711
5	5	0.0009361
6	6	0.0018994
7	7	0.0027255
8	8	0.0041842
9	9	1.9e-05
10	10	1.18e-05
11	11	3.93e-05
12	12	4.97e-05
13	13	7.83e-05
14	14	0.0002078
15	15	0.0002716
16	16	4.7e-06
17	17	4e-06
18	18	1.41e-05
19	19	8.6e-06
20	20	1.27e-05
21	21	3e-07
22	22	0
23	23	3e-07
