0	0	0.8891565
1	1	0.0185754
2	2	0.0332728
3	3	0.0483014
4	4	0.0007194
5	5	0.0009149
6	6	0.0018967
7	7	0.0026803
8	8	0.004178
9	9	1.87e-05
10	10	1.14e-05
11	11	3.09e-05
12	12	4.4e-06
13	13	7.6e-06
14	14	8.98e-05
15	15	0.0001268
16	16	1.4e-06
17	17	1.5e-06
18	18	4.5e-06
19	19	2.7e-06
20	20	4.3e-06
21	21	2e-07
22	22	2e-07
23	23	2e-07
