0	0	0.8894169
1	1	0.0186483
2	2	0.0331853
3	3	0.0481694
4	4	0.0007169
5	5	0.000933
6	6	0.0019261
7	7	0.00272
8	8	0.004207
9	9	1.99e-05
10	10	1.2e-05
11	11	3.44e-05
12	12	3.6e-06
13	13	4.4e-06
14	14	1e-07
15	15	3e-07
16	16	3e-07
17	17	0
18	18	3e-07
19	19	9e-07
20	20	8e-07
21	21	1e-07
22	22	0
23	23	0
