0	0	0.8892462
1	1	0.018627
2	2	0.0333063
3	3	0.04812
4	4	0.000731
5	5	0.0009169
6	6	0.0019288
7	7	0.0026979
8	8	0.004208
9	9	1.88e-05
10	10	1.15e-05
11	11	3.41e-05
12	12	4.3e-06
13	13	5.4e-06
14	14	5.88e-05
15	15	7.56e-05
16	16	1e-06
17	17	6e-07
18	18	3.7e-06
19	19	1.5e-06
20	20	2.6e-06
21	21	0
22	22	0
23	23	0
