0	0	0.8891454
1	1	0.018608
2	2	0.0333065
3	3	0.0482238
4	4	0.0007326
5	5	0.0009161
6	6	0.0019109
7	7	0.0027034
8	8	0.0041785
9	9	1.86e-05
10	10	1.11e-05
11	11	3.65e-05
12	12	4.7e-06
13	13	4.3e-06
14	14	7.8e-05
15	15	0.0001084
16	16	1.2e-06
17	17	1.4e-06
18	18	4.4e-06
19	19	2.7e-06
20	20	3.1e-06
21	21	4e-07
22	22	0
23	23	0
