0	0	0.8894695
1	1	0.0184776
2	2	0.0332664
3	3	0.0482565
4	4	0.0007028
5	5	0.0009231
6	6	0.0019076
7	7	0.0027035
8	8	0.0042105
9	9	2.15e-05
10	10	1.08e-05
11	11	3.63e-05
12	12	5.4e-06
13	13	4.8e-06
14	14	3e-07
15	15	1e-06
16	16	1e-07
17	17	6e-07
18	18	6e-07
19	19	3e-07
20	20	8e-07
21	21	0
22	22	0
23	23	0
