0	0	0.8886822
1	1	0.0185628
2	2	0.0332425
3	3	0.0482574
4	4	0.0007315
5	5	0.0009053
6	6	0.0018829
7	7	0.002706
8	8	0.0041918
9	9	1.85e-05
10	10	1.2e-05
11	11	5.45e-05
12	12	6.3e-05
13	13	0.0001103
14	14	0.0002297
15	15	0.0002948
16	16	5.4e-06
17	17	4.1e-06
18	18	1.35e-05
19	19	1.17e-05
20	20	1.85e-05
21	21	1e-06
22	22	2e-07
23	23	4e-07
