0	0	0.8893551
1	1	0.0184918
2	2	0.0333316
3	3	0.0482622
4	4	0.0007244
5	5	0.0009181
6	6	0.0018845
7	7	0.0027115
8	8	0.0042087
9	9	2.2e-05
10	10	1.2e-05
11	11	3.61e-05
12	12	5.2e-06
13	13	5.3e-06
14	14	1.01e-05
15	15	1.68e-05
16	16	4e-07
17	17	1e-06
18	18	1.9e-06
19	19	3e-07
20	20	1e-06
21	21	0
22	22	0
23	23	0
