0	0	0.8893201
1	1	0.018528
2	2	0.0332133
3	3	0.0483464
4	4	0.0007256
5	5	0.0009155
6	6	0.0019337
7	7	0.0026857
8	8	0.0042096
9	9	1.86e-05
10	10	1.02e-05
11	11	3.3e-05
12	12	5.8e-06
13	13	4.9e-06
14	14	1.84e-05
15	15	2.63e-05
16	16	4e-07
17	17	4e-07
18	18	2.3e-06
19	19	2e-07
20	20	1.4e-06
21	21	0
22	22	0
23	23	2e-07
