0	0	0.8893308
1	1	0.018595
2	2	0.0332468
3	3	0.0483207
4	4	0.0007125
5	5	0.0009213
6	6	0.0018996
7	7	0.0027074
8	8	0.0041843
9	9	1.88e-05
10	10	1.22e-05
11	11	3.7e-05
12	12	4.8e-06
13	13	5.2e-06
14	14	7e-07
15	15	7e-07
16	16	3e-07
17	17	6e-07
18	18	5e-07
19	19	1e-07
20	20	6e-07
21	21	1e-07
22	22	0
23	23	0
