0	0	0.8888138
1	1	0.0185597
2	2	0.0331287
3	3	0.0481005
4	4	0.0007221
5	5	0.0009137
6	6	0.0019044
7	7	0.0027082
8	8	0.0041889
9	9	1.93e-05
10	10	1.52e-05
11	11	6.73e-05
12	12	8.81e-05
13	13	0.0001414
14	14	0.0002427
15	15	0.0003243
16	16	6.6e-06
17	17	5.8e-06
18	18	1.58e-05
19	19	1.34e-05
20	20	1.85e-05
21	21	9e-07
22	22	3e-07
23	23	4e-07
