0	0	0.8887112
1	1	0.0185091
2	2	0.033239
3	3	0.048292
4	4	0.0007101
5	5	0.0009216
6	6	0.0019027
7	7	0.0026801
8	8	0.004185
9	9	1.95e-05
10	10	1.3e-05
11	11	5.72e-05
12	12	7.07e-05
13	13	0.0001132
14	14	0.0002248
15	15	0.0002979
16	16	6.5e-06
17	17	5e-06
18	18	1.51e-05
19	19	1.03e-05
20	20	1.49e-05
21	21	4e-07
22	22	4e-07
23	23	3e-07
