0	0	0.8892023
1	1	0.018541
2	2	0.0332231
3	3	0.0481998
4	4	0.0007245
5	5	0.0009132
6	6	0.0019252
7	7	0.0027209
8	8	0.0041872
9	9	2.07e-05
10	10	1.19e-05
11	11	3.56e-05
12	12	6e-06
13	13	1.25e-05
14	14	0.0001125
15	15	0.000145
16	16	3.3e-06
17	17	2.3e-06
18	18	4.5e-06
19	19	2.8e-06
20	20	5.2e-06
21	21	1e-07
22	22	1e-07
23	23	3e-07
