0	0	0.8893179
1	1	0.0185102
2	2	0.0333282
3	3	0.0481333
4	4	0.0007097
5	5	0.00093
6	6	0.0019333
7	7	0.0027269
8	8	0.0042007
9	9	1.97e-05
10	10	1.1e-05
11	11	3.32e-05
12	12	4.9e-06
13	13	5.3e-06
14	14	5.08e-05
15	15	7.55e-05
16	16	1.1e-06
17	17	6e-07
18	18	3.5e-06
19	19	1.2e-06
20	20	2.3e-06
21	21	3e-07
22	22	1e-07
23	23	3e-07
