0	0	0.8892052
1	1	0.0186374
2	2	0.033133
3	3	0.0483557
4	4	0.0007122
5	5	0.0008963
6	6	0.001942
7	7	0.0027122
8	8	0.0041394
9	9	2.14e-05
10	10	8.7e-06
11	11	3.68e-05
12	12	4.2e-06
13	13	5.3e-06
14	14	7.73e-05
15	15	0.0001006
16	16	1.8e-06
17	17	1e-06
18	18	3.8e-06
19	19	2e-06
20	20	3.1e-06
21	21	3e-07
22	22	1e-07
23	23	2e-07
