0	0	0.8887059
1	1	0.0184639
2	2	0.0332723
3	3	0.0482235
4	4	0.0007245
5	5	0.0009213
6	6	0.00193
7	7	0.0027021
8	8	0.0041866
9	9	1.97e-05
10	10	1.18e-05
11	11	5.78e-05
12	12	7.34e-05
13	13	0.000116
14	14	0.0002323
15	15	0.0003027
16	16	6.7e-06
17	17	5.6e-06
18	18	1.5e-05
19	19	1.12e-05
20	20	1.62e-05
21	21	1.2e-06
22	22	0
23	23	3e-07
