0	0	0.8893557
1	1	0.0186084
2	2	0.0331935
3	3	0.048167
4	4	0.0007108
5	5	0.0009258
6	6	0.0019141
7	7	0.0027205
8	8	0.0041842
9	9	1.9e-05
10	10	1.14e-05
11	11	3.31e-05
12	12	5.3e-06
13	13	5.3e-06
14	14	5.83e-05
15	15	7.83e-05
16	16	1.3e-06
17	17	7e-07
18	18	3.1e-06
19	19	1.3e-06
20	20	2.7e-06
21	21	2e-07
22	22	0
23	23	0
