0	0	0.8889907
1	1	0.018539
2	2	0.0332729
3	3	0.0483616
4	4	0.0007252
5	5	0.0009155
6	6	0.0019038
7	7	0.0027342
8	8	0.0042035
9	9	1.98e-05
10	10	9.8e-06
11	11	3.28e-05
12	12	6.2e-06
13	13	1.52e-05
14	14	0.0001102
15	15	0.0001428
16	16	2.5e-06
17	17	9e-07
18	18	5.2e-06
19	19	3e-06
20	20	4.4e-06
21	21	5e-07
22	22	0
23	23	3e-07
