0	0	0.8889344
1	1	0.0184907
2	2	0.0332822
3	3	0.0483818
4	4	0.0007117
5	5	0.0009145
6	6	0.0019138
7	7	0.0026991
8	8	0.0042297
9	9	2.04e-05
10	10	1.07e-05
11	11	3.43e-05
12	12	1.74e-05
13	13	2.72e-05
14	14	0.0001369
15	15	0.0001738
16	16	2.1e-06
17	17	2.4e-06
18	18	6.7e-06
19	19	3.6e-06
20	20	5.6e-06
21	21	9e-07
22	22	0
23	23	1e-07
