0	0	0.8887447
1	1	0.0186377
2	2	0.0331613
3	3	0.0482874
4	4	0.000706
5	5	0.0009185
6	6	0.0019195
7	7	0.0027215
8	8	0.0041957
9	9	2.11e-05
10	10	1.19e-05
11	11	4.15e-05
12	12	4.74e-05
13	13	7.31e-05
14	14	0.0001992
15	15	0.0002701
16	16	4.9e-06
17	17	3.9e-06
18	18	1.21e-05
19	19	8.5e-06
20	20	1.27e-05
21	21	8e-07
22	22	3e-07
23	23	2e-07
