0	0	0.889242
1	1	0.0185302
2	2	0.03327
3	3	0.0483503
4	4	0.0007193
5	5	0.0009391
6	6	0.001934
7	7	0.002732
8	8	0.0042024
9	9	2.16e-05
10	10	1.06e-05
11	11	3.6e-05
12	12	4.8e-06
13	13	4.6e-06
14	14	2e-07
15	15	2e-07
16	16	2e-07
17	17	5e-07
18	18	2e-07
19	19	4e-07
20	20	1.1e-06
21	21	2e-07
22	22	0
23	23	1e-07
