0	0	0.8890692
1	1	0.0186245
2	2	0.0333184
3	3	0.0482519
4	4	0.0007242
5	5	0.0009077
6	6	0.0018989
7	7	0.0027106
8	8	0.0042066
9	9	2.02e-05
10	10	1.02e-05
11	11	3.56e-05
12	12	4e-06
13	13	6e-06
14	14	8.49e-05
15	15	0.0001128
16	16	1.9e-06
17	17	1.6e-06
18	18	3.7e-06
19	19	1.7e-06
20	20	5.2e-06
21	21	2e-07
22	22	0
23	23	0
