0	0	0.8886326
1	1	0.0184512
2	2	0.033214
3	3	0.0481941
4	4	0.0007137
5	5	0.0009084
6	6	0.0019027
7	7	0.0027094
8	8	0.0041869
9	9	2.39e-05
10	10	2.1e-05
11	11	8.18e-05
12	12	0.0001138
13	13	0.0001732
14	14	0.0002605
15	15	0.0003373
16	16	6.9e-06
17	17	7e-06
18	18	2.06e-05
19	19	1.74e-05
20	20	2.27e-05
21	21	3e-07
22	22	2e-07
23	23	4e-07
