0	0	0.889503
1	1	0.0184628
2	2	0.033136
3	3	0.0482212
4	4	0.0007208
5	5	0.0009228
6	6	0.0019222
7	7	0.0027163
8	8	0.0041837
9	9	1.91e-05
10	10	1.28e-05
11	11	3.42e-05
12	12	4.9e-06
13	13	5e-06
14	14	5.35e-05
15	15	7.32e-05
16	16	7e-07
17	17	7e-07
18	18	3.5e-06
19	19	1.4e-06
20	20	2.1e-06
21	21	1e-07
22	22	0
23	23	0
