0	0	0.8890576
1	1	0.0185185
2	2	0.0332769
3	3	0.0482091
4	4	0.00072
5	5	0.0009232
6	6	0.0019087
7	7	0.0026985
8	8	0.0041838
9	9	2.26e-05
10	10	9.3e-06
11	11	3.44e-05
12	12	1.77e-05
13	13	3.22e-05
14	14	0.0001568
15	15	0.000204
16	16	3.2e-06
17	17	2.6e-06
18	18	8.5e-06
19	19	4e-06
20	20	7.8e-06
21	21	2e-07
22	22	1e-07
23	23	3e-07
