0	0	0.8891003
1	1	0.0185201
2	2	0.0331961
3	3	0.0482054
4	4	0.00074
5	5	0.0009171
6	6	0.0019309
7	7	0.002688
8	8	0.0041912
9	9	1.92e-05
10	10	1.19e-05
11	11	3.61e-05
12	12	2.21e-05
13	13	3.72e-05
14	14	0.0001546
15	15	0.0002059
16	16	3.4e-06
17	17	1.8e-06
18	18	6.5e-06
19	19	4.9e-06
20	20	6.8e-06
21	21	3e-07
22	22	0
23	23	2e-07
