0	0	0.8894112
1	1	0.0185759
2	2	0.0331813
3	3	0.0482893
4	4	0.000702
5	5	0.0009295
6	6	0.0019233
7	7	0.00271
8	8	0.0042017
9	9	1.77e-05
10	10	1.11e-05
11	11	3.24e-05
12	12	5.7e-06
13	13	4.7e-06
14	14	3e-07
15	15	3e-07
16	16	2e-07
17	17	8e-07
18	18	5e-07
19	19	8e-07
20	20	1.1e-06
21	21	1e-07
22	22	0
23	23	1e-07
