0	0	0.8892696
1	1	0.0186235
2	2	0.0332816
3	3	0.0480952
4	4	0.0007411
5	5	0.0009139
6	6	0.0019167
7	7	0.0027
8	8	0.0042445
9	9	1.75e-05
10	10	1.06e-05
11	11	3.38e-05
12	12	6e-06
13	13	6.6e-06
14	14	5.23e-05
15	15	7.48e-05
16	16	1.8e-06
17	17	1.4e-06
18	18	3.6e-06
19	19	1.9e-06
20	20	3e-06
21	21	4e-07
22	22	0
23	23	2e-07
