0	0	0.88887
1	1	0.0184926
2	2	0.0332823
3	3	0.0481989
4	4	0.0007118
5	5	0.000916
6	6	0.0019084
7	7	0.0026884
8	8	0.0041932
9	9	2.09e-05
10	10	1.1e-05
11	11	4.24e-05
12	12	5.46e-05
13	13	8.57e-05
14	14	0.0002098
15	15	0.0002706
16	16	3.7e-06
17	17	3.7e-06
18	18	1.05e-05
19	19	1e-05
20	20	1.48e-05
21	21	5e-07
22	22	0
23	23	2e-07
