0	0	0.8891331
1	1	0.0185638
2	2	0.0332309
3	3	0.0481676
4	4	0.0007144
5	5	0.0009224
6	6	0.0019255
7	7	0.0026829
8	8	0.0041862
9	9	2.17e-05
10	10	8.8e-06
11	11	3.46e-05
12	12	1.66e-05
13	13	2.88e-05
14	14	0.0001462
15	15	0.0001944
16	16	2.8e-06
17	17	1.9e-06
18	18	5.3e-06
19	19	5.5e-06
20	20	6.2e-06
21	21	1e-07
22	22	0
23	23	3e-07
