0	0	0.8884402
1	1	0.0185957
2	2	0.0332261
3	3	0.0481379
4	4	0.0007154
5	5	0.0009012
6	6	0.0019121
7	7	0.0027315
8	8	0.0041804
9	9	2.46e-05
10	10	2.44e-05
11	11	8.91e-05
12	12	0.0001251
13	13	0.0001925
14	14	0.0002709
15	15	0.000348
16	16	9.7e-06
17	17	8.4e-06
18	18	2.01e-05
19	19	1.72e-05
20	20	2.77e-05
21	21	1.3e-06
22	22	3e-07
23	23	2e-07
