0	0	0.8896409
1	1	0.018583
2	2	0.0331381
3	3	0.0480897
4	4	0.0007242
5	5	0.0009129
6	6	0.0018808
7	7	0.0026988
8	8	0.0042375
9	9	1.9e-05
10	10	1.02e-05
11	11	3.56e-05
12	12	7.2e-06
13	13	5.2e-06
14	14	5.4e-06
15	15	7.6e-06
16	16	7e-07
17	17	4e-07
18	18	1e-06
19	19	4e-07
20	20	1e-06
21	21	2e-07
22	22	1e-07
23	23	1e-07
