0	0	0.8893209
1	1	0.018577
2	2	0.0331512
3	3	0.0482564
4	4	0.0007143
5	5	0.0009211
6	6	0.0018941
7	7	0.0027194
8	8	0.0042002
9	9	1.98e-05
10	10	1.21e-05
11	11	3.46e-05
12	12	6.1e-06
13	13	4.5e-06
14	14	6.63e-05
15	15	8.98e-05
16	16	1.3e-06
17	17	8e-07
18	18	5e-06
19	19	1.7e-06
20	20	3e-06
21	21	1e-07
22	22	0
23	23	3e-07
