0	0	0.8895372
1	1	0.018545
2	2	0.033173
3	3	0.0482036
4	4	0.0007266
5	5	0.0009024
6	6	0.0018962
7	7	0.0027304
8	8	0.0042062
9	9	2.07e-05
10	10	1.11e-05
11	11	3.42e-05
12	12	4.6e-06
13	13	5.1e-06
14	14	2e-07
15	15	3e-07
16	16	3e-07
17	17	6e-07
18	18	7e-07
19	19	2e-07
20	20	1.3e-06
21	21	0
22	22	0
23	23	1e-07
