0	0	0.8892189
1	1	0.0185791
2	2	0.0331996
3	3	0.0482602
4	4	0.0007283
5	5	0.0009147
6	6	0.0019073
7	7	0.0027311
8	8	0.0041829
9	9	1.71e-05
10	10	1.1e-05
11	11	3.38e-05
12	12	5.4e-06
13	13	6.4e-06
14	14	8.33e-05
15	15	0.0001089
16	16	1.2e-06
17	17	1.4e-06
18	18	3.7e-06
19	19	2.4e-06
20	20	3e-06
21	21	2e-07
22	22	1e-07
23	23	0
