0	0	0.8884846
1	1	0.0185424
2	2	0.033234
3	3	0.0481494
4	4	0.0007073
5	5	0.0009122
6	6	0.0019315
7	7	0.0027076
8	8	0.0041932
9	9	2.67e-05
10	10	2.02e-05
11	11	8.4e-05
12	12	0.0001233
13	13	0.0001915
14	14	0.0002773
15	15	0.0003325
16	16	8.6e-06
17	17	7.7e-06
18	18	2.06e-05
19	19	1.68e-05
20	20	2.7e-05
21	21	8e-07
22	22	4e-07
23	23	4e-07
