0	0	0.8891127
1	1	0.0185031
2	2	0.0332259
3	3	0.0482699
4	4	0.0007149
5	5	0.0009031
6	6	0.0019104
7	7	0.0027132
8	8	0.0042079
9	9	1.91e-05
10	10	1.09e-05
11	11	3.17e-05
12	12	1.54e-05
13	13	2.79e-05
14	14	0.0001355
15	15	0.0001803
16	16	1.4e-06
17	17	2.1e-06
18	18	5.7e-06
19	19	3.8e-06
20	20	4.6e-06
21	21	5e-07
22	22	0
23	23	0
