0	0	0.8892887
1	1	0.0185454
2	2	0.0331668
3	3	0.0482707
4	4	0.0007311
5	5	0.0009241
6	6	0.0018933
7	7	0.0027257
8	8	0.0041757
9	9	2.05e-05
10	10	1e-05
11	11	3.22e-05
12	12	4.9e-06
13	13	4.1e-06
14	14	8.29e-05
15	15	0.000112
16	16	2e-06
17	17	7e-07
18	18	3.3e-06
19	19	2.2e-06
20	20	3.4e-06
21	21	2e-07
22	22	1e-07
23	23	0
