0	0	0.8894358
1	1	0.0186485
2	2	0.0332458
3	3	0.0481113
4	4	0.000735
5	5	0.000921
6	6	0.0019199
7	7	0.0027149
8	8	0.0041915
9	9	1.94e-05
10	10	1e-05
11	11	3.32e-05
12	12	5.6e-06
13	13	5.3e-06
14	14	1e-07
15	15	3e-07
16	16	0
17	17	6e-07
18	18	6e-07
19	19	5e-07
20	20	7e-07
21	21	0
22	22	0
23	23	0
