0	0	0.8894405
1	1	0.018548
2	2	0.0332678
3	3	0.048215
4	4	0.000729
5	5	0.0009145
6	6	0.0018853
7	7	0.0027366
8	8	0.004182
9	9	2.05e-05
10	10	1.12e-05
11	11	3.39e-05
12	12	5.5e-06
13	13	6.5e-06
14	14	9e-07
15	15	1e-06
16	16	2e-07
17	17	6e-07
18	18	4e-07
19	19	1e-07
20	20	4e-07
21	21	0
22	22	0
23	23	1e-07
