0	0	0.8894055
1	1	0.0185994
2	2	0.0332314
3	3	0.0482183
4	4	0.00073
5	5	0.0009095
6	6	0.0019166
7	7	0.0027176
8	8	0.0041927
9	9	1.97e-05
10	10	1.16e-05
11	11	3.29e-05
12	12	5.2e-06
13	13	5.2e-06
14	14	5e-07
15	15	1.3e-06
16	16	1e-07
17	17	6e-07
18	18	7e-07
19	19	6e-07
20	20	5e-07
21	21	0
22	22	0
23	23	1e-07
