0	0	0.8894324
1	1	0.0185706
2	2	0.0332135
3	3	0.0482565
4	4	0.0007083
5	5	0.0009245
6	6	0.0019015
7	7	0.0027183
8	8	0.0041956
9	9	1.89e-05
10	10	1.03e-05
11	11	3.54e-05
12	12	4.5e-06
13	13	6.5e-06
14	14	4e-07
15	15	3e-07
16	16	0
17	17	4e-07
18	18	1e-06
19	19	5e-07
20	20	6e-07
21	21	0
22	22	0
23	23	0
