0	0	0.8891454
1	1	0.018516
2	2	0.0332526
3	3	0.0482498
4	4	0.000713
5	5	0.0009219
6	6	0.0018879
7	7	0.0027249
8	8	0.0041936
9	9	1.94e-05
10	10	1.14e-05
11	11	3.57e-05
12	12	8e-06
13	13	1.79e-05
14	14	0.0001206
15	15	0.0001616
16	16	2.7e-06
17	17	2e-06
18	18	6.2e-06
19	19	3.2e-06
20	20	5.4e-06
21	21	2e-07
22	22	2e-07
23	23	4e-07
