0	0	0.8888667
1	1	0.0185378
2	2	0.033162
3	3	0.0481173
4	4	0.0007243
5	5	0.0009231
6	6	0.0019269
7	7	0.0026846
8	8	0.0042172
9	9	1.77e-05
10	10	1.28e-05
11	11	5.36e-05
12	12	6.64e-05
13	13	0.0001134
14	14	0.0002254
15	15	0.0002976
16	16	6.8e-06
17	17	5.1e-06
18	18	1.15e-05
19	19	1.25e-05
20	20	1.58e-05
21	21	1.3e-06
22	22	2e-07
23	23	0
