0	0	0.8892961
1	1	0.0185861
2	2	0.0332958
3	3	0.048211
4	4	0.0007207
5	5	0.0009183
6	6	0.0019417
7	7	0.0027101
8	8	0.0041793
9	9	2.1e-05
10	10	9.2e-06
11	11	3.32e-05
12	12	5.2e-06
13	13	4.3e-06
14	14	2.84e-05
15	15	3.38e-05
16	16	7e-07
17	17	8e-07
18	18	2e-06
19	19	9e-07
20	20	1.3e-06
21	21	0
22	22	1e-07
23	23	0
