0	0	0.8884361
1	1	0.0185747
2	2	0.0332103
3	3	0.0481775
4	4	0.0007091
5	5	0.0009195
6	6	0.0019063
7	7	0.0027397
8	8	0.0041794
9	9	2.45e-05
10	10	2.31e-05
11	11	9.28e-05
12	12	0.0001218
13	13	0.0001931
14	14	0.0002629
15	15	0.0003452
16	16	8.3e-06
17	17	7.9e-06
18	18	2.2e-05
19	19	1.84e-05
20	20	2.52e-05
21	21	1.4e-06
22	22	2e-07
23	23	6e-07
