0	0	0.8894866
1	1	0.0184965
2	2	0.0332402
3	3	0.0482156
4	4	0.0007195
5	5	0.0009173
6	6	0.0019157
7	7	0.0027253
8	8	0.0042042
9	9	2.01e-05
10	10	1.18e-05
11	11	3.29e-05
12	12	5.2e-06
13	13	5.6e-06
14	14	1e-07
15	15	8e-07
16	16	2e-07
17	17	4e-07
18	18	6e-07
19	19	3e-07
20	20	1e-06
21	21	0
22	22	0
23	23	1e-07
