0	0	0.8886742
1	1	0.0185214
2	2	0.0332886
3	3	0.0482015
4	4	0.0007112
5	5	0.0009132
6	6	0.0019028
7	7	0.0027193
8	8	0.0042008
9	9	1.76e-05
10	10	1.29e-05
11	11	5.44e-05
12	12	7.01e-05
13	13	0.0001152
14	14	0.0002321
15	15	0.0003061
16	16	6.2e-06
17	17	5.5e-06
18	18	1.52e-05
19	19	1.26e-05
20	20	1.77e-05
21	21	1e-06
22	22	1e-07
23	23	3e-07
