0	0	0.8895053
1	1	0.0185705
2	2	0.0331921
3	3	0.0481362
4	4	0.0007068
5	5	0.0009289
6	6	0.0019178
7	7	0.0027156
8	8	0.0042482
9	9	1.97e-05
10	10	1.11e-05
11	11	3.56e-05
12	12	4.6e-06
13	13	4.7e-06
14	14	2e-07
15	15	3e-07
16	16	1e-07
17	17	5e-07
18	18	3e-07
19	19	5e-07
20	20	9e-07
21	21	0
22	22	0
23	23	1e-07
