0	0	0.8894867
1	1	0.0185285
2	2	0.0332502
3	3	0.0481794
4	4	0.0007171
5	5	0.0009164
6	6	0.0019088
7	7	0.00273
8	8	0.0042019
9	9	2.11e-05
10	10	9.6e-06
11	11	3.55e-05
12	12	4.7e-06
13	13	5.2e-06
14	14	4e-07
15	15	7e-07
16	16	1e-07
17	17	8e-07
18	18	1.1e-06
19	19	7e-07
20	20	1e-06
21	21	0
22	22	0
23	23	1e-07
