0	0	0.8892486
1	1	0.0185668
2	2	0.0331781
3	3	0.0482582
4	4	0.0007128
5	5	0.0009219
6	6	0.0019111
7	7	0.0027007
8	8	0.004193
9	9	1.87e-05
10	10	9.2e-06
11	11	3.58e-05
12	12	4.5e-06
13	13	8.3e-06
14	14	8.59e-05
15	15	0.0001291
16	16	1.4e-06
17	17	1.2e-06
18	18	6.3e-06
19	19	3.6e-06
20	20	3.9e-06
21	21	5e-07
22	22	3e-07
23	23	1e-07
