0	0	0.8893311
1	1	0.0185314
2	2	0.0332583
3	3	0.0483407
4	4	0.000717
5	5	0.000933
6	6	0.0018966
7	7	0.0027206
8	8	0.0041869
9	9	1.9e-05
10	10	6.9e-06
11	11	3.39e-05
12	12	4.8e-06
13	13	5.2e-06
14	14	4.1e-06
15	15	6.5e-06
16	16	2e-07
17	17	5e-07
18	18	2e-06
19	19	6e-07
20	20	6e-07
21	21	0
22	22	0
23	23	1e-07
