0	0	0.8892049
1	1	0.0185743
2	2	0.0333227
3	3	0.0482961
4	4	0.0007227
5	5	0.0009081
6	6	0.0019021
7	7	0.002723
8	8	0.004155
9	9	2.01e-05
10	10	9.7e-06
11	11	3.62e-05
12	12	5.5e-06
13	13	4.4e-06
14	14	4.34e-05
15	15	6.34e-05
16	16	1.4e-06
17	17	9e-07
18	18	2.9e-06
19	19	1.2e-06
20	20	1.7e-06
21	21	2e-07
22	22	0
23	23	1e-07
