0	0	0.8891787
1	1	0.0184641
2	2	0.0332876
3	3	0.0483811
4	4	0.0007515
5	5	0.0009185
6	6	0.0019043
7	7	0.0027246
8	8	0.0042479
9	9	1.75e-05
10	10	1.11e-05
11	11	3.19e-05
12	12	4.6e-06
13	13	3.2e-06
14	14	2.58e-05
15	15	4.16e-05
16	16	1.3e-06
17	17	6e-07
18	18	1.9e-06
19	19	6e-07
20	20	1.4e-06
21	21	1e-07
22	22	0
23	23	1e-07
