0	0	0.8894637
1	1	0.0185856
2	2	0.0332193
3	3	0.0482197
4	4	0.0007014
5	5	0.0009174
6	6	0.0018945
7	7	0.0026956
8	8	0.0042174
9	9	1.83e-05
10	10	1.11e-05
11	11	3.44e-05
12	12	5.9e-06
13	13	6.1e-06
14	14	3.6e-06
15	15	3.5e-06
16	16	5e-07
17	17	3e-07
18	18	1e-06
19	19	2e-07
20	20	3e-07
21	21	1e-07
22	22	1e-07
23	23	0
