0	0	0.8892212
1	1	0.018588
2	2	0.0333155
3	3	0.0483225
4	4	0.0007095
5	5	0.0009309
6	6	0.0019274
7	7	0.0027157
8	8	0.0041896
9	9	1.97e-05
10	10	1.15e-05
11	11	3.63e-05
12	12	5.1e-06
13	13	4.7e-06
14	14	0
15	15	2e-07
16	16	2e-07
17	17	6e-07
18	18	2e-07
19	19	5e-07
20	20	7e-07
21	21	0
22	22	0
23	23	0
