0	0	0.8893486
1	1	0.0185755
2	2	0.0332682
3	3	0.048249
4	4	0.0007192
5	5	0.0009166
6	6	0.0018929
7	7	0.0027394
8	8	0.0041716
9	9	1.86e-05
10	10	1.11e-05
11	11	3.45e-05
12	12	6e-06
13	13	5.6e-06
14	14	1.59e-05
15	15	2.13e-05
16	16	9e-07
17	17	8e-07
18	18	1.5e-06
19	19	8e-07
20	20	1.2e-06
21	21	7e-07
22	22	0
23	23	1e-07
