0	0	0.889272
1	1	0.0185884
2	2	0.0331676
3	3	0.0481379
4	4	0.0007203
5	5	0.0009209
6	6	0.0019152
7	7	0.0027178
8	8	0.0042433
9	9	1.88e-05
10	10	1.07e-05
11	11	3.74e-05
12	12	5.9e-06
13	13	6.1e-06
14	14	9.38e-05
15	15	0.0001285
16	16	1.4e-06
17	17	9e-07
18	18	4.7e-06
19	19	3e-06
20	20	4.9e-06
21	21	4e-07
22	22	0
23	23	1e-07
