0	0	0.8894843
1	1	0.0185567
2	2	0.0332167
3	3	0.0481544
4	4	0.0007396
5	5	0.0009243
6	6	0.0018966
7	7	0.0027208
8	8	0.0042258
9	9	2.02e-05
10	10	1.23e-05
11	11	3.62e-05
12	12	3.9e-06
13	13	4.3e-06
14	14	1e-07
15	15	6e-07
16	16	0
17	17	5e-07
18	18	1.4e-06
19	19	6e-07
20	20	6e-07
21	21	0
22	22	1e-07
23	23	0
