0	0	0.8888338
1	1	0.0186142
2	2	0.0331606
3	3	0.0483079
4	4	0.0007222
5	5	0.0009132
6	6	0.0018949
7	7	0.0027004
8	8	0.0041992
9	9	1.82e-05
10	10	1.04e-05
11	11	3.75e-05
12	12	3.92e-05
13	13	6.51e-05
14	14	0.0002006
15	15	0.0002466
16	16	3.8e-06
17	17	3.2e-06
18	18	1.02e-05
19	19	7.9e-06
20	20	1e-05
21	21	5e-07
22	22	0
23	23	4e-07
