0	0	0.8893909
1	1	0.018538
2	2	0.0333381
3	3	0.0482255
4	4	0.0007109
5	5	0.0009168
6	6	0.0019255
7	7	0.0027078
8	8	0.004168
9	9	1.84e-05
10	10	1.04e-05
11	11	3.48e-05
12	12	5.6e-06
13	13	5.5e-06
14	14	2e-07
15	15	4e-07
16	16	3e-07
17	17	7e-07
18	18	9e-07
19	19	4e-07
20	20	9e-07
21	21	0
22	22	0
23	23	0
