0	0	0.8885887
1	1	0.0185234
2	2	0.0332669
3	3	0.048091
4	4	0.000713
5	5	0.000924
6	6	0.0019031
7	7	0.0026959
8	8	0.0041828
9	9	2.3e-05
10	10	2.09e-05
11	11	8.58e-05
12	12	0.0001151
13	13	0.0001808
14	14	0.0002667
15	15	0.0003423
16	16	6.6e-06
17	17	6.6e-06
18	18	2.08e-05
19	19	1.59e-05
20	20	2.47e-05
21	21	1.5e-06
22	22	0
23	23	5e-07
