0	0	0.8893042
1	1	0.0185769
2	2	0.0333081
3	3	0.0482791
4	4	0.0007199
5	5	0.0009213
6	6	0.0019185
7	7	0.0027145
8	8	0.004178
9	9	2.01e-05
10	10	1.24e-05
11	11	3.43e-05
12	12	5.6e-06
13	13	3.6e-06
14	14	5e-07
15	15	6e-07
16	16	3e-07
17	17	4e-07
18	18	7e-07
19	19	4e-07
20	20	2e-07
21	21	3e-07
22	22	0
23	23	1e-07
