0	0	0.8894666
1	1	0.0185852
2	2	0.0332058
3	3	0.0482464
4	4	0.0007301
5	5	0.0009054
6	6	0.0018919
7	7	0.0027016
8	8	0.0041836
9	9	1.91e-05
10	10	9.9e-06
11	11	3.33e-05
12	12	6.3e-06
13	13	4.5e-06
14	14	2.8e-06
15	15	4.7e-06
16	16	3e-07
17	17	4e-07
18	18	1e-06
19	19	2e-07
20	20	7e-07
21	21	2e-07
22	22	0
23	23	0
