0	0	0.8894312
1	1	0.0185448
2	2	0.0332897
3	3	0.0482778
4	4	0.0007083
5	5	0.0009001
6	6	0.0019042
7	7	0.0026815
8	8	0.0041812
9	9	1.94e-05
10	10	1.16e-05
11	11	3.54e-05
12	12	5.9e-06
13	13	5.4e-06
14	14	1e-07
15	15	3e-07
16	16	0
17	17	3e-07
18	18	6e-07
19	19	1.2e-06
20	20	1e-06
21	21	0
22	22	0
23	23	0
