0	0	0.8891768
1	1	0.0185071
2	2	0.033209
3	3	0.0482832
4	4	0.0007221
5	5	0.0009247
6	6	0.0018675
7	7	0.0026877
8	8	0.0041812
9	9	1.89e-05
10	10	1.21e-05
11	11	3.72e-05
12	12	1.08e-05
13	13	2.23e-05
14	14	0.0001323
15	15	0.0001825
16	16	2.7e-06
17	17	2.1e-06
18	18	7.2e-06
19	19	5.2e-06
20	20	6.6e-06
21	21	7e-07
22	22	1e-07
23	23	0
