0	0	0.8894577
1	1	0.0185848
2	2	0.0332026
3	3	0.048232
4	4	0.0007224
5	5	0.0009089
6	6	0.0018944
7	7	0.0026973
8	8	0.004221
9	9	2.12e-05
10	10	1.04e-05
11	11	3.38e-05
12	12	4.6e-06
13	13	4.4e-06
14	14	6e-07
15	15	8e-07
16	16	2e-07
17	17	6e-07
18	18	8e-07
19	19	7e-07
20	20	7e-07
21	21	1e-07
22	22	0
23	23	0
