0	0	0.8887217
1	1	0.0185628
2	2	0.0332387
3	3	0.0481767
4	4	0.0007101
5	5	0.0009243
6	6	0.0018879
7	7	0.0026811
8	8	0.0042227
9	9	1.87e-05
10	10	1.3e-05
11	11	5.58e-05
12	12	7.14e-05
13	13	0.0001202
14	14	0.0002335
15	15	0.0003038
16	16	5.9e-06
17	17	5e-06
18	18	1.6e-05
19	19	1.04e-05
20	20	1.88e-05
21	21	1e-06
22	22	2e-07
23	23	3e-07
