0	0	0.8897167
1	1	0.0185085
2	2	0.0331589
3	3	0.0481184
4	4	0.0007136
5	5	0.0009163
6	6	0.0019071
7	7	0.002708
8	8	0.0041717
9	9	1.87e-05
10	10	1.05e-05
11	11	3.36e-05
12	12	6e-06
13	13	5.1e-06
14	14	1.3e-06
15	15	2.3e-06
16	16	2e-07
17	17	3e-07
18	18	1.8e-06
19	19	3e-07
20	20	6e-07
21	21	1e-07
22	22	0
23	23	0
