0	0	0.8893393
1	1	0.0185748
2	2	0.0332395
3	3	0.0483227
4	4	0.0007179
5	5	0.0009177
6	6	0.0019018
7	7	0.0027045
8	8	0.0042032
9	9	1.92e-05
10	10	1.04e-05
11	11	3.34e-05
12	12	5e-06
13	13	3.9e-06
14	14	1e-06
15	15	2.7e-06
16	16	2e-07
17	17	8e-07
18	18	1e-06
19	19	4e-07
20	20	3e-07
21	21	3e-07
22	22	0
23	23	0
