0	0	0.8883969
1	1	0.0185564
2	2	0.0332963
3	3	0.0482753
4	4	0.0007149
5	5	0.0009194
6	6	0.0019023
7	7	0.0027464
8	8	0.0042246
9	9	1.87e-05
10	10	1.4e-05
11	11	6.37e-05
12	12	9.35e-05
13	13	0.0001431
14	14	0.0002465
15	15	0.0003248
16	16	6.6e-06
17	17	5e-06
18	18	1.54e-05
19	19	1.49e-05
20	20	2.04e-05
21	21	8e-07
22	22	1e-07
23	23	0
