0	0	0.8893914
1	1	0.0185075
2	2	0.0332899
3	3	0.0482063
4	4	0.0007281
5	5	0.0009225
6	6	0.0018919
7	7	0.0027032
8	8	0.0042113
9	9	2.18e-05
10	10	1.1e-05
11	11	3.02e-05
12	12	5.6e-06
13	13	5.6e-06
14	14	2.9e-05
15	15	3.89e-05
16	16	9e-07
17	17	9e-07
18	18	2.3e-06
19	19	6e-07
20	20	1.1e-06
21	21	0
22	22	0
23	23	0
