0	0	0.8893189
1	1	0.0186171
2	2	0.0332596
3	3	0.0482442
4	4	0.0007277
5	5	0.0009173
6	6	0.0018827
7	7	0.0026844
8	8	0.004215
9	9	2.02e-05
10	10	1.13e-05
11	11	3.09e-05
12	12	5.9e-06
13	13	4.4e-06
14	14	2.29e-05
15	15	3.2e-05
16	16	8e-07
17	17	7e-07
18	18	1.6e-06
19	19	6e-07
20	20	1.4e-06
21	21	4e-07
22	22	0
23	23	0
