0	0	0.8894632
1	1	0.018524
2	2	0.0332264
3	3	0.04818
4	4	0.0007327
5	5	0.0009158
6	6	0.0018834
7	7	0.0026911
8	8	0.0041933
9	9	1.97e-05
10	10	1.1e-05
11	11	3.54e-05
12	12	4.7e-06
13	13	4.9e-06
14	14	4.46e-05
15	15	6.06e-05
16	16	1e-06
17	17	7e-07
18	18	3.5e-06
19	19	1.4e-06
20	20	2.1e-06
21	21	4e-07
22	22	1e-07
23	23	0
