0	0	0.8889605
1	1	0.018556
2	2	0.0332631
3	3	0.0483119
4	4	0.0007106
5	5	0.0009049
6	6	0.0019019
7	7	0.0027287
8	8	0.0042
9	9	1.8e-05
10	10	9.9e-06
11	11	3.51e-05
12	12	1.62e-05
13	13	2.95e-05
14	14	0.0001454
15	15	0.0001869
16	16	2.6e-06
17	17	1.8e-06
18	18	6.2e-06
19	19	4.6e-06
20	20	5.6e-06
21	21	4e-07
22	22	0
23	23	2e-07
