0	0	0.8891541
1	1	0.0185517
2	2	0.033175
3	3	0.0482595
4	4	0.0007175
5	5	0.0009092
6	6	0.0019054
7	7	0.0027255
8	8	0.0042134
9	9	1.97e-05
10	10	1.23e-05
11	11	3.35e-05
12	12	8.8e-06
13	13	1.75e-05
14	14	0.0001187
15	15	0.0001603
16	16	1.7e-06
17	17	1.4e-06
18	18	5.9e-06
19	19	3.8e-06
20	20	5e-06
21	21	1e-07
22	22	0
23	23	0
