0	0	0.8893605
1	1	0.0186348
2	2	0.0332015
3	3	0.0482471
4	4	0.0007356
5	5	0.0009201
6	6	0.0019079
7	7	0.0026924
8	8	0.0041958
9	9	1.82e-05
10	10	1.13e-05
11	11	3.37e-05
12	12	6.3e-06
13	13	5e-06
14	14	9.7e-06
15	15	1.53e-05
16	16	4e-07
17	17	7e-07
18	18	1.5e-06
19	19	7e-07
20	20	1.3e-06
21	21	1e-07
22	22	0
23	23	1e-07
