0	0	0.8884971
1	1	0.0185787
2	2	0.0331734
3	3	0.0481948
4	4	0.0007227
5	5	0.0009367
6	6	0.0019059
7	7	0.0026969
8	8	0.0042015
9	9	2.55e-05
10	10	2.02e-05
11	11	8.22e-05
12	12	0.000117
13	13	0.0001757
14	14	0.0002635
15	15	0.0003329
16	16	6.4e-06
17	17	6.8e-06
18	18	2.18e-05
19	19	1.59e-05
20	20	2.28e-05
21	21	1.1e-06
22	22	2e-07
23	23	3e-07
