0	0	0.8885598
1	1	0.0185519
2	2	0.0331361
3	3	0.0482527
4	4	0.0007146
5	5	0.0009038
6	6	0.0019211
7	7	0.0027216
8	8	0.0041994
9	9	2.06e-05
10	10	1.89e-05
11	11	7.79e-05
12	12	0.0001082
13	13	0.0001597
14	14	0.0002501
15	15	0.000328
16	16	6.8e-06
17	17	6.9e-06
18	18	1.98e-05
19	19	1.5e-05
20	20	2.55e-05
21	21	9e-07
22	22	3e-07
23	23	4e-07
