0	0	0.8885535
1	1	0.0185971
2	2	0.0330844
3	3	0.0482132
4	4	0.0007178
5	5	0.0009145
6	6	0.0019225
7	7	0.0027105
8	8	0.0042192
9	9	2.09e-05
10	10	1.77e-05
11	11	7.11e-05
12	12	0.000108
13	13	0.0001659
14	14	0.0002635
15	15	0.0003443
16	16	6.7e-06
17	17	6.9e-06
18	18	2.13e-05
19	19	1.67e-05
20	20	2.27e-05
21	21	1e-06
22	22	4e-07
23	23	2e-07
