0	0	0.8894487
1	1	0.018543
2	2	0.033186
3	3	0.0481741
4	4	0.0007352
5	5	0.0008991
6	6	0.001896
7	7	0.002705
8	8	0.0042069
9	9	2.18e-05
10	10	1.25e-05
11	11	3.74e-05
12	12	4.7e-06
13	13	4.3e-06
14	14	4.82e-05
15	15	6.8e-05
16	16	1.2e-06
17	17	8e-07
18	18	2.9e-06
19	19	1.6e-06
20	20	2.2e-06
21	21	1e-07
22	22	1e-07
23	23	2e-07
