0	0	0.8889886
1	1	0.0185293
2	2	0.0332164
3	3	0.0482411
4	4	0.0007248
5	5	0.0009229
6	6	0.0018796
7	7	0.0027163
8	8	0.0041736
9	9	1.96e-05
10	10	1.07e-05
11	11	3.33e-05
12	12	3.11e-05
13	13	5.38e-05
14	14	0.0001862
15	15	0.000238
16	16	4.1e-06
17	17	3.3e-06
18	18	8e-06
19	19	7.8e-06
20	20	1.07e-05
21	21	6e-07
22	22	1e-07
23	23	1e-07
