0	0	0.8892403
1	1	0.0185374
2	2	0.0333096
3	3	0.0482977
4	4	0.0007171
5	5	0.000924
6	6	0.001924
7	7	0.0027316
8	8	0.0042053
9	9	2.07e-05
10	10	1.26e-05
11	11	3.5e-05
12	12	5.6e-06
13	13	5.8e-06
14	14	1.25e-05
15	15	1.74e-05
16	16	4e-07
17	17	4e-07
18	18	1.3e-06
19	19	3e-07
20	20	7e-07
21	21	3e-07
22	22	0
23	23	0
