0	0	0.8895438
1	1	0.0185319
2	2	0.0331612
3	3	0.0482154
4	4	0.0007189
5	5	0.0009275
6	6	0.0019176
7	7	0.0026886
8	8	0.0042171
9	9	2.13e-05
10	10	1e-05
11	11	3.22e-05
12	12	4.5e-06
13	13	5.7e-06
14	14	5e-07
15	15	7e-07
16	16	1e-07
17	17	1e-06
18	18	7e-07
19	19	5e-07
20	20	6e-07
21	21	1e-07
22	22	0
23	23	1e-07
