0	0	0.8892432
1	1	0.0185704
2	2	0.0332691
3	3	0.0483683
4	4	0.0007117
5	5	0.00092
6	6	0.0019264
7	7	0.002702
8	8	0.0042091
9	9	2.02e-05
10	10	1.12e-05
11	11	3.27e-05
12	12	5e-06
13	13	5.3e-06
14	14	9e-07
15	15	1.3e-06
16	16	4e-07
17	17	8e-07
18	18	1e-06
19	19	4e-07
20	20	4e-07
21	21	0
22	22	1e-07
23	23	1e-07
