0	0	0.8890588
1	1	0.0186302
2	2	0.0332273
3	3	0.0480604
4	4	0.0007276
5	5	0.0009265
6	6	0.0018954
7	7	0.0026949
8	8	0.0041724
9	9	2.11e-05
10	10	1.04e-05
11	11	3.51e-05
12	12	3.05e-05
13	13	5.19e-05
14	14	0.0001831
15	15	0.0002395
16	16	2.8e-06
17	17	3.7e-06
18	18	9e-06
19	19	6.8e-06
20	20	1.12e-05
21	21	8e-07
22	22	0
23	23	6e-07
