0	0	0.8893018
1	1	0.0185807
2	2	0.0332948
3	3	0.0482856
4	4	0.000721
5	5	0.0009095
6	6	0.0019143
7	7	0.0026889
8	8	0.0042038
9	9	1.95e-05
10	10	1.25e-05
11	11	3.61e-05
12	12	4.5e-06
13	13	6.5e-06
14	14	6.3e-06
15	15	1.13e-05
16	16	5e-07
17	17	8e-07
18	18	9e-07
19	19	1e-07
20	20	3e-07
21	21	2e-07
22	22	1e-07
23	23	0
