0	0	0.889352
1	1	0.0184962
2	2	0.0332608
3	3	0.0483307
4	4	0.0007134
5	5	0.0009314
6	6	0.0019042
7	7	0.0027176
8	8	0.0042175
9	9	1.87e-05
10	10	9.5e-06
11	11	3.38e-05
12	12	6.3e-06
13	13	5.2e-06
14	14	4e-07
15	15	4e-07
16	16	2e-07
17	17	3e-07
18	18	4e-07
19	19	4e-07
20	20	6e-07
21	21	0
22	22	0
23	23	0
