0	0	0.8894952
1	1	0.0185454
2	2	0.0332085
3	3	0.0481327
4	4	0.0007162
5	5	0.0009217
6	6	0.001894
7	7	0.0026802
8	8	0.0042044
9	9	2.05e-05
10	10	1.16e-05
11	11	3.5e-05
12	12	4.4e-06
13	13	5.1e-06
14	14	5.04e-05
15	15	6.6e-05
16	16	8e-07
17	17	1.1e-06
18	18	1.7e-06
19	19	1.6e-06
20	20	2.9e-06
21	21	3e-07
22	22	1e-07
23	23	2e-07
