0	0	0.8894901
1	1	0.0185277
2	2	0.0332521
3	3	0.0481882
4	4	0.0007332
5	5	0.0009151
6	6	0.0018765
7	7	0.0027257
8	8	0.0042133
9	9	2.08e-05
10	10	1.08e-05
11	11	3.35e-05
12	12	5.6e-06
13	13	4.3e-06
14	14	2e-07
15	15	6e-07
16	16	2e-07
17	17	7e-07
18	18	7e-07
19	19	2e-07
20	20	4e-07
21	21	1e-07
22	22	0
23	23	0
