0	0	0.889026
1	1	0.0185776
2	2	0.0331653
3	3	0.0482023
4	4	0.0007024
5	5	0.0009353
6	6	0.0019088
7	7	0.0027006
8	8	0.004184
9	9	2.01e-05
10	10	9.6e-06
11	11	3.51e-05
12	12	2.88e-05
13	13	5.68e-05
14	14	0.0001757
15	15	0.0002356
16	16	3.6e-06
17	17	3.8e-06
18	18	9e-06
19	19	7.4e-06
20	20	1.02e-05
21	21	1.5e-06
22	22	0
23	23	5e-07
