0	0	0.8894289
1	1	0.0185875
2	2	0.0333167
3	3	0.0481567
4	4	0.0007192
5	5	0.0009213
6	6	0.0019063
7	7	0.0026959
8	8	0.0041908
9	9	1.81e-05
10	10	1.15e-05
11	11	3.24e-05
12	12	5.1e-06
13	13	6.1e-06
14	14	3e-07
15	15	3e-07
16	16	2e-07
17	17	5e-07
18	18	8e-07
19	19	8e-07
20	20	5e-07
21	21	1e-07
22	22	0
23	23	0
