0	0	0.8894273
1	1	0.0185291
2	2	0.0333266
3	3	0.0482117
4	4	0.0007266
5	5	0.0009102
6	6	0.0018713
7	7	0.0026887
8	8	0.0042339
9	9	1.69e-05
10	10	1.05e-05
11	11	3.57e-05
12	12	4.4e-06
13	13	4.2e-06
14	14	2e-07
15	15	2e-07
16	16	2e-07
17	17	5e-07
18	18	7e-07
19	19	9e-07
20	20	1e-07
21	21	1e-07
22	22	0
23	23	0
