0	0	0.8894758
1	1	0.0185426
2	2	0.0332329
3	3	0.0482716
4	4	0.0007169
5	5	0.0009279
6	6	0.001875
7	7	0.0027008
8	8	0.0041738
9	9	2.2e-05
10	10	1.11e-05
11	11	3.41e-05
12	12	5.3e-06
13	13	6.3e-06
14	14	1e-07
15	15	5e-07
16	16	0
17	17	5e-07
18	18	1e-06
19	19	1.1e-06
20	20	6e-07
21	21	0
22	22	1e-07
23	23	0
