0	0	0.8889454
1	1	0.0186094
2	2	0.0331142
3	3	0.0481916
4	4	0.0007227
5	5	0.0009031
6	6	0.0019144
7	7	0.0026875
8	8	0.0041963
9	9	1.97e-05
10	10	1.21e-05
11	11	4.07e-05
12	12	4.89e-05
13	13	7.13e-05
14	14	0.0002039
15	15	0.000278
16	16	4.4e-06
17	17	3.9e-06
18	18	1.18e-05
19	19	7.9e-06
20	20	1.19e-05
21	21	5e-07
22	22	1e-07
23	23	3e-07
