0	0	0.889547
1	1	0.0185369
2	2	0.0332271
3	3	0.0481702
4	4	0.0007116
5	5	0.0009269
6	6	0.001902
7	7	0.0026982
8	8	0.0041968
9	9	2.06e-05
10	10	1.2e-05
11	11	3.73e-05
12	12	5.1e-06
13	13	5.1e-06
14	14	3e-07
15	15	0
16	16	0
17	17	4e-07
18	18	7e-07
19	19	7e-07
20	20	1.1e-06
21	21	0
22	22	0
23	23	0
