0	0	0.8890984
1	1	0.0185425
2	2	0.0332481
3	3	0.0483332
4	4	0.0007236
5	5	0.0009214
6	6	0.0019145
7	7	0.0027464
8	8	0.0041865
9	9	1.87e-05
10	10	1.11e-05
11	11	3.76e-05
12	12	4.6e-06
13	13	5.7e-06
14	14	8.42e-05
15	15	0.0001109
16	16	1.4e-06
17	17	1.5e-06
18	18	4.2e-06
19	19	2.3e-06
20	20	2.8e-06
21	21	2e-07
22	22	0
23	23	2e-07
