0	0	0.8894051
1	1	0.0185594
2	2	0.0332447
3	3	0.0482471
4	4	0.000723
5	5	0.000922
6	6	0.0018994
7	7	0.0027118
8	8	0.0041937
9	9	1.89e-05
10	10	1.12e-05
11	11	3.41e-05
12	12	5e-06
13	13	5.2e-06
14	14	6e-06
15	15	9.8e-06
16	16	2e-07
17	17	9e-07
18	18	1.4e-06
19	19	2e-07
20	20	9e-07
21	21	0
22	22	0
23	23	0
