0	0	0.8888966
1	1	0.0185116
2	2	0.0332963
3	3	0.0481625
4	4	0.0007229
5	5	0.0009257
6	6	0.0019013
7	7	0.002727
8	8	0.0041828
9	9	2.02e-05
10	10	1.18e-05
11	11	3.48e-05
12	12	4.1e-05
13	13	6.79e-05
14	14	0.0002006
15	15	0.0002571
16	16	3.8e-06
17	17	4e-06
18	18	1.03e-05
19	19	9.1e-06
20	20	1.23e-05
21	21	2e-07
22	22	1e-07
23	23	1e-07
