0	0	0.8893225
1	1	0.018603
2	2	0.0332203
3	3	0.0482519
4	4	0.00072
5	5	0.0009133
6	6	0.0019261
7	7	0.0027085
8	8	0.0041889
9	9	2.09e-05
10	10	1.19e-05
11	11	3.55e-05
12	12	5.5e-06
13	13	4.3e-06
14	14	2.35e-05
15	15	3.59e-05
16	16	1e-06
17	17	5e-07
18	18	3.2e-06
19	19	1e-06
20	20	2.1e-06
21	21	0
22	22	1e-07
23	23	1e-07
