0	0	0.8887317
1	1	0.0185632
2	2	0.0332514
3	3	0.0484393
4	4	0.0007273
5	5	0.0009191
6	6	0.0019074
7	7	0.0027103
8	8	0.0042199
9	9	1.55e-05
10	10	1.2e-05
11	11	3.49e-05
12	12	2.52e-05
13	13	4.06e-05
14	14	0.0001585
15	15	0.0002145
16	16	2.9e-06
17	17	2.6e-06
18	18	7.7e-06
19	19	6.2e-06
20	20	9.1e-06
21	21	4e-07
22	22	1e-07
23	23	2e-07
