0	0	0.8894202
1	1	0.0185946
2	2	0.0331512
3	3	0.0482192
4	4	0.0007319
5	5	0.000919
6	6	0.001927
7	7	0.0027057
8	8	0.0042127
9	9	1.86e-05
10	10	9.5e-06
11	11	3.54e-05
12	12	5.6e-06
13	13	4.5e-06
14	14	1.5e-05
15	15	2.48e-05
16	16	7e-07
17	17	8e-07
18	18	1.7e-06
19	19	4e-07
20	20	1.1e-06
21	21	2e-07
22	22	1e-07
23	23	1e-07
