0	0	0.8894298
1	1	0.0185238
2	2	0.0332438
3	3	0.0482586
4	4	0.000731
5	5	0.0009221
6	6	0.0019069
7	7	0.0026967
8	8	0.0042078
9	9	2.11e-05
10	10	9.4e-06
11	11	3.42e-05
12	12	5.3e-06
13	13	6.1e-06
14	14	3e-07
15	15	1e-07
16	16	0
17	17	3e-07
18	18	6e-07
19	19	1e-06
20	20	1.1e-06
21	21	0
22	22	0
23	23	0
