0	0	0.8890704
1	1	0.0185947
2	2	0.033178
3	3	0.0484064
4	4	0.0007197
5	5	0.0009211
6	6	0.0019072
7	7	0.0027202
8	8	0.0042073
9	9	2.03e-05
10	10	1.09e-05
11	11	3.84e-05
12	12	4.4e-06
13	13	4.9e-06
14	14	8.03e-05
15	15	0.0001056
16	16	1e-06
17	17	7e-07
18	18	3.3e-06
19	19	1.7e-06
20	20	3.2e-06
21	21	2e-07
22	22	0
23	23	1e-07
