0	0	0.8893357
1	1	0.018536
2	2	0.0332718
3	3	0.0483416
4	4	0.0007191
5	5	0.000912
6	6	0.001904
7	7	0.0026989
8	8	0.0041984
9	9	1.97e-05
10	10	1.21e-05
11	11	3.36e-05
12	12	6.9e-06
13	13	6.7e-06
14	14	2e-07
15	15	4e-07
16	16	4e-07
17	17	3e-07
18	18	5e-07
19	19	5e-07
20	20	9e-07
21	21	3e-07
22	22	0
23	23	0
