0	0	0.8893001
1	1	0.0186279
2	2	0.0332306
3	3	0.0482326
4	4	0.0007157
5	5	0.0009286
6	6	0.0019289
7	7	0.0027049
8	8	0.0042077
9	9	2.03e-05
10	10	1.2e-05
11	11	3.62e-05
12	12	5.7e-06
13	13	5.7e-06
14	14	1.6e-05
15	15	2.29e-05
16	16	7e-07
17	17	5e-07
18	18	1.7e-06
19	19	3e-07
20	20	7e-07
21	21	3e-07
22	22	0
23	23	0
