0	0	0.8889267
1	1	0.0185114
2	2	0.0331913
3	3	0.0482507
4	4	0.0007269
5	5	0.0009185
6	6	0.0019217
7	7	0.0027023
8	8	0.0042087
9	9	1.99e-05
10	10	1.02e-05
11	11	3.39e-05
12	12	3.94e-05
13	13	6.33e-05
14	14	0.0001921
15	15	0.0002466
16	16	3.9e-06
17	17	3.5e-06
18	18	9.4e-06
19	19	6.6e-06
20	20	1.23e-05
21	21	5e-07
22	22	1e-07
23	23	1e-07
