0	0	0.8890628
1	1	0.0185892
2	2	0.0331771
3	3	0.0483009
4	4	0.0007243
5	5	0.0009152
6	6	0.0019276
7	7	0.0027161
8	8	0.0041901
9	9	1.8e-05
10	10	1.09e-05
11	11	3.66e-05
12	12	9e-06
13	13	1.6e-05
14	14	0.000125
15	15	0.0001609
16	16	2e-06
17	17	1.7e-06
18	18	7.1e-06
19	19	3.4e-06
20	20	5.7e-06
21	21	3e-07
22	22	0
23	23	1e-07
