0	0	0.8895173
1	1	0.0186126
2	2	0.0332047
3	3	0.0481373
4	4	0.0007284
5	5	0.0009106
6	6	0.0019144
7	7	0.0027174
8	8	0.0041823
9	9	1.89e-05
10	10	1.13e-05
11	11	3.15e-05
12	12	5.7e-06
13	13	3.7e-06
14	14	5e-07
15	15	9e-07
16	16	2e-07
17	17	5e-07
18	18	7e-07
19	19	8e-07
20	20	2e-07
21	21	1e-07
22	22	0
23	23	0
