0	0	0.8894241
1	1	0.0185321
2	2	0.033174
3	3	0.0483028
4	4	0.0007235
5	5	0.0009013
6	6	0.0019105
7	7	0.0027182
8	8	0.0042093
9	9	1.97e-05
10	10	1.09e-05
11	11	3.64e-05
12	12	5e-06
13	13	4.9e-06
14	14	9.4e-06
15	15	1.3e-05
16	16	6e-07
17	17	8e-07
18	18	1.6e-06
19	19	8e-07
20	20	1.1e-06
21	21	0
22	22	0
23	23	0
