0	0	0.8884521
1	1	0.0185635
2	2	0.0332539
3	3	0.0482687
4	4	0.000713
5	5	0.0009199
6	6	0.0018912
7	7	0.0027405
8	8	0.0042113
9	9	1.84e-05
10	10	1.39e-05
11	11	6.89e-05
12	12	9.64e-05
13	13	0.000148
14	14	0.000256
15	15	0.0003177
16	16	7.5e-06
17	17	5.3e-06
18	18	1.61e-05
19	19	1.45e-05
20	20	2.18e-05
21	21	1.2e-06
22	22	1e-07
23	23	1e-07
