0	0	0.8895383
1	1	0.0185016
2	2	0.0332957
3	3	0.0481257
4	4	0.0007168
5	5	0.0009159
6	6	0.0019145
7	7	0.0026994
8	8	0.004205
9	9	2.13e-05
10	10	1.1e-05
11	11	3.57e-05
12	12	5.5e-06
13	13	5.5e-06
14	14	1.3e-06
15	15	2.9e-06
16	16	8e-07
17	17	2e-07
18	18	1.4e-06
19	19	7e-07
20	20	8e-07
21	21	0
22	22	0
23	23	0
