0	0	0.8890466
1	1	0.0185839
2	2	0.0332796
3	3	0.0482441
4	4	0.0007346
5	5	0.0009146
6	6	0.0019189
7	7	0.0027151
8	8	0.0042137
9	9	2.19e-05
10	10	1.08e-05
11	11	3.55e-05
12	12	6.2e-06
13	13	1.23e-05
14	14	0.0001075
15	15	0.0001362
16	16	2.4e-06
17	17	1e-06
18	18	5.1e-06
19	19	3.8e-06
20	20	5.6e-06
21	21	5e-07
22	22	0
23	23	1e-07
