0	0	0.8891139
1	1	0.0185672
2	2	0.0332058
3	3	0.0480607
4	4	0.0007122
5	5	0.0009204
6	6	0.0018855
7	7	0.0026922
8	8	0.0042254
9	9	2.05e-05
10	10	9e-06
11	11	3.1e-05
12	12	3.4e-05
13	13	5.78e-05
14	14	0.0001897
15	15	0.0002396
16	16	3.9e-06
17	17	3.3e-06
18	18	9.7e-06
19	19	6.9e-06
20	20	1.01e-05
21	21	9e-07
22	22	0
23	23	3e-07
