0	0	0.8892481
1	1	0.018613
2	2	0.0333187
3	3	0.0483042
4	4	0.0007214
5	5	0.0009309
6	6	0.0018905
7	7	0.0027198
8	8	0.004169
9	9	2.21e-05
10	10	1.27e-05
11	11	3.64e-05
12	12	4.1e-06
13	13	4.5e-06
14	14	7e-07
15	15	1.8e-06
16	16	2e-07
17	17	2e-07
18	18	1.2e-06
19	19	2e-07
20	20	3e-07
21	21	0
22	22	0
23	23	0
