0	0	0.8894162
1	1	0.0185605
2	2	0.0332833
3	3	0.0482416
4	4	0.000718
5	5	0.0008897
6	6	0.0019144
7	7	0.0027256
8	8	0.0041753
9	9	1.9e-05
10	10	9.5e-06
11	11	3.48e-05
12	12	4.1e-06
13	13	4.9e-06
14	14	2e-07
15	15	4e-07
16	16	0
17	17	6e-07
18	18	4e-07
19	19	6e-07
20	20	9e-07
21	21	0
22	22	0
23	23	0
