0	0	0.8888975
1	1	0.018587
2	2	0.0333101
3	3	0.0482867
4	4	0.0007285
5	5	0.0008944
6	6	0.0019058
7	7	0.0026999
8	8	0.0042304
9	9	2.08e-05
10	10	1.07e-05
11	11	3.52e-05
12	12	1.46e-05
13	13	2.74e-05
14	14	0.0001409
15	15	0.0001855
16	16	2.6e-06
17	17	2.4e-06
18	18	6.5e-06
19	19	4.2e-06
20	20	8.2e-06
21	21	3e-07
22	22	1e-07
23	23	3e-07
