0	0	0.8893867
1	1	0.0186382
2	2	0.0332569
3	3	0.0482003
4	4	0.0007117
5	5	0.0009146
6	6	0.0019116
7	7	0.0027229
8	8	0.0041799
9	9	1.96e-05
10	10	9.9e-06
11	11	3.52e-05
12	12	5.2e-06
13	13	3.4e-06
14	14	7e-07
15	15	5e-07
16	16	1e-07
17	17	6e-07
18	18	1.2e-06
19	19	4e-07
20	20	3e-07
21	21	0
22	22	0
23	23	1e-07
