0	0	0.8889471
1	1	0.01847
2	2	0.0331791
3	3	0.0481017
4	4	0.0007268
5	5	0.0009036
6	6	0.0019084
7	7	0.0027306
8	8	0.0041458
9	9	2.09e-05
10	10	1.32e-05
11	11	5.37e-05
12	12	7.82e-05
13	13	0.0001214
14	14	0.0002388
15	15	0.000301
16	16	6.8e-06
17	17	4.5e-06
18	18	1.62e-05
19	19	1.28e-05
20	20	1.79e-05
21	21	9e-07
22	22	3e-07
23	23	3e-07
