0	0	0.8896266
1	1	0.0186119
2	2	0.033158
3	3	0.0480869
4	4	0.0007187
5	5	0.0009198
6	6	0.0019031
7	7	0.0026855
8	8	0.0042084
9	9	1.98e-05
10	10	1.05e-05
11	11	3.26e-05
12	12	5.1e-06
13	13	5.5e-06
14	14	1.8e-06
15	15	3.9e-06
16	16	4e-07
17	17	4e-07
18	18	2e-07
19	19	4e-07
20	20	4e-07
21	21	1e-07
22	22	0
23	23	0
