0	0	0.8891735
1	1	0.0186296
2	2	0.0332387
3	3	0.0482347
4	4	0.000727
5	5	0.0009244
6	6	0.0018901
7	7	0.0026927
8	8	0.0041866
9	9	1.96e-05
10	10	1.13e-05
11	11	3.56e-05
12	12	5.8e-06
13	13	6.5e-06
14	14	8.35e-05
15	15	0.0001232
16	16	2.2e-06
17	17	1.3e-06
18	18	5.7e-06
19	19	2e-06
20	20	5.6e-06
21	21	2e-07
22	22	1e-07
23	23	1e-07
