0	0	0.8893258
1	1	0.0184598
2	2	0.0332016
3	3	0.0482774
4	4	0.000733
5	5	0.0009173
6	6	0.0019078
7	7	0.0027165
8	8	0.0041935
9	9	2.09e-05
10	10	1.01e-05
11	11	3.61e-05
12	12	4.9e-06
13	13	4.6e-06
14	14	7.18e-05
15	15	0.0001066
16	16	1.4e-06
17	17	1e-06
18	18	3.9e-06
19	19	2.3e-06
20	20	3.3e-06
21	21	2e-07
22	22	0
23	23	2e-07
