0	0	0.8890212
1	1	0.0186285
2	2	0.0331749
3	3	0.0482991
4	4	0.000732
5	5	0.0009157
6	6	0.0019242
7	7	0.0026983
8	8	0.0042353
9	9	2.07e-05
10	10	1.12e-05
11	11	3.55e-05
12	12	5.9e-06
13	13	1.5e-05
14	14	0.000115
15	15	0.0001495
16	16	2e-06
17	17	1.2e-06
18	18	4.4e-06
19	19	4.6e-06
20	20	5.1e-06
21	21	5e-07
22	22	0
23	23	2e-07
