0	0	0.8895092
1	1	0.018503
2	2	0.0331317
3	3	0.0482774
4	4	0.0007165
5	5	0.0009288
6	6	0.0019001
7	7	0.002716
8	8	0.0042173
9	9	1.74e-05
10	10	1.1e-05
11	11	3.31e-05
12	12	5.4e-06
13	13	4.6e-06
14	14	9.5e-06
15	15	1.44e-05
16	16	3e-07
17	17	2e-07
18	18	2.6e-06
19	19	5e-07
20	20	9e-07
21	21	0
22	22	0
23	23	1e-07
