0	0	0.8892709
1	1	0.0186236
2	2	0.0331307
3	3	0.0483024
4	4	0.0007126
5	5	0.0009086
6	6	0.0018944
7	7	0.0027039
8	8	0.0042331
9	9	1.92e-05
10	10	8.7e-06
11	11	3.34e-05
12	12	5.2e-06
13	13	5.8e-06
14	14	5.7e-05
15	15	8.21e-05
16	16	1e-06
17	17	6e-07
18	18	2.6e-06
19	19	1.6e-06
20	20	2.3e-06
21	21	2e-07
22	22	1e-07
23	23	0
