0	0	0.889349
1	1	0.0185316
2	2	0.0332454
3	3	0.0481472
4	4	0.0007195
5	5	0.0009378
6	6	0.0018944
7	7	0.0027031
8	8	0.0041792
9	9	2.17e-05
10	10	1.07e-05
11	11	3.41e-05
12	12	4.7e-06
13	13	5e-06
14	14	8.83e-05
15	15	0.0001157
16	16	1.2e-06
17	17	1e-06
18	18	4.2e-06
19	19	2.4e-06
20	20	3.7e-06
21	21	1e-07
22	22	0
23	23	0
