0	0	0.8893587
1	1	0.01853
2	2	0.0331734
3	3	0.0480401
4	4	0.0007361
5	5	0.0009092
6	6	0.0018948
7	7	0.0027106
8	8	0.0041864
9	9	2.12e-05
10	10	1.02e-05
11	11	3.42e-05
12	12	1.48e-05
13	13	2.59e-05
14	14	0.0001396
15	15	0.0001925
16	16	2.3e-06
17	17	1.6e-06
18	18	7e-06
19	19	4.5e-06
20	20	6.2e-06
21	21	4e-07
22	22	1e-07
23	23	2e-07
