0	0	0.8885612
1	1	0.0185616
2	2	0.0332698
3	3	0.0481406
4	4	0.0007235
5	5	0.0009216
6	6	0.0018968
7	7	0.0026998
8	8	0.0041945
9	9	2.03e-05
10	10	1.84e-05
11	11	7.18e-05
12	12	0.0001048
13	13	0.0001612
14	14	0.0002503
15	15	0.0003273
16	16	1.06e-05
17	17	7e-06
18	18	1.83e-05
19	19	1.73e-05
20	20	2.06e-05
21	21	1.7e-06
22	22	4e-07
23	23	6e-07
