0	0	0.889434
1	1	0.0185709
2	2	0.033194
3	3	0.048249
4	4	0.0007264
5	5	0.0008986
6	6	0.0019109
7	7	0.0027275
8	8	0.0042052
9	9	1.94e-05
10	10	9.8e-06
11	11	3.74e-05
12	12	5e-06
13	13	6.7e-06
14	14	7e-07
15	15	1.4e-06
16	16	2e-07
17	17	6e-07
18	18	1.2e-06
19	19	7e-07
20	20	3e-07
21	21	1e-07
22	22	0
23	23	0
