0	0	0.8895327
1	1	0.018559
2	2	0.0331654
3	3	0.0481858
4	4	0.0007322
5	5	0.0008855
6	6	0.0019179
7	7	0.0027147
8	8	0.0042199
9	9	2.13e-05
10	10	1.23e-05
11	11	3.68e-05
12	12	5.5e-06
13	13	6.5e-06
14	14	3e-07
15	15	0
16	16	1e-07
17	17	5e-07
18	18	7e-07
19	19	1.2e-06
20	20	1.6e-06
21	21	1e-07
22	22	0
23	23	0
