0	0	0.8893196
1	1	0.018577
2	2	0.0333377
3	3	0.0482383
4	4	0.0007211
5	5	0.0009157
6	6	0.0019026
7	7	0.0027201
8	8	0.0041767
9	9	2.21e-05
10	10	1.12e-05
11	11	3.83e-05
12	12	5e-06
13	13	5.5e-06
14	14	1.9e-06
15	15	3e-06
16	16	5e-07
17	17	8e-07
18	18	1.8e-06
19	19	5e-07
20	20	4e-07
21	21	1e-07
22	22	0
23	23	1e-07
