0	0	0.8891709
1	1	0.0185177
2	2	0.0332721
3	3	0.0482924
4	4	0.0007124
5	5	0.0009254
6	6	0.001915
7	7	0.0027006
8	8	0.0042041
9	9	2.06e-05
10	10	1.09e-05
11	11	3.3e-05
12	12	6.2e-06
13	13	5.9e-06
14	14	8.83e-05
15	15	0.0001111
16	16	1.5e-06
17	17	1e-06
18	18	4.9e-06
19	19	1.6e-06
20	20	4.1e-06
21	21	2e-07
22	22	0
23	23	1e-07
