0	0	0.8894286
1	1	0.0185914
2	2	0.0332438
3	3	0.0482347
4	4	0.0007032
5	5	0.0009165
6	6	0.0019032
7	7	0.002687
8	8	0.0041891
9	9	1.95e-05
10	10	9.2e-06
11	11	3.4e-05
12	12	5.1e-06
13	13	5.6e-06
14	14	1.15e-05
15	15	1.38e-05
16	16	4e-07
17	17	4e-07
18	18	1.5e-06
19	19	5e-07
20	20	7e-07
21	21	2e-07
22	22	0
23	23	1e-07
