0	0	0.8892633
1	1	0.0185761
2	2	0.0331654
3	3	0.0482439
4	4	0.0007182
5	5	0.0009143
6	6	0.0018971
7	7	0.0026718
8	8	0.0042317
9	9	2.2e-05
10	10	1.11e-05
11	11	3.56e-05
12	12	7e-06
13	13	8.4e-06
14	14	9.05e-05
15	15	0.0001287
16	16	2e-06
17	17	1.5e-06
18	18	4.9e-06
19	19	2.6e-06
20	20	3.8e-06
21	21	1e-07
22	22	0
23	23	0
