0	0	0.8888128
1	1	0.0186423
2	2	0.0331713
3	3	0.0482305
4	4	0.0007277
5	5	0.0009136
6	6	0.0018878
7	7	0.0026908
8	8	0.0041954
9	9	1.9e-05
10	10	1.29e-05
11	11	4.41e-05
12	12	4.84e-05
13	13	8.52e-05
14	14	0.0002091
15	15	0.0002687
16	16	4.5e-06
17	17	3.3e-06
18	18	1.16e-05
19	19	7.7e-06
20	20	1.24e-05
21	21	4e-07
22	22	2e-07
23	23	3e-07
