0	0	0.8895062
1	1	0.0185075
2	2	0.0332886
3	3	0.0481506
4	4	0.0007241
5	5	0.0009165
6	6	0.0019107
7	7	0.0027208
8	8	0.0041948
9	9	2.2e-05
10	10	1.16e-05
11	11	3.28e-05
12	12	5e-06
13	13	5.1e-06
14	14	2e-07
15	15	4e-07
16	16	1e-07
17	17	1.1e-06
18	18	7e-07
19	19	7e-07
20	20	4e-07
21	21	1e-07
22	22	0
23	23	0
