0	0	0.8893821
1	1	0.018614
2	2	0.0332203
3	3	0.0482853
4	4	0.0007028
5	5	0.0009377
6	6	0.0018884
7	7	0.0026724
8	8	0.0042172
9	9	1.87e-05
10	10	1.08e-05
11	11	3.5e-05
12	12	6e-06
13	13	4.7e-06
14	14	2e-07
15	15	4e-07
16	16	1e-07
17	17	7e-07
18	18	7e-07
19	19	1.2e-06
20	20	1.3e-06
21	21	0
22	22	0
23	23	0
