0	0	0.8895959
1	1	0.0185505
2	2	0.0331809
3	3	0.0481199
4	4	0.0007162
5	5	0.0009234
6	6	0.0018795
7	7	0.0026862
8	8	0.004229
9	9	2.16e-05
10	10	1.21e-05
11	11	3.1e-05
12	12	6e-06
13	13	4.9e-06
14	14	1.62e-05
15	15	2.18e-05
16	16	1e-06
17	17	8e-07
18	18	2e-06
19	19	1e-07
20	20	9e-07
21	21	1e-07
22	22	0
23	23	0
