0	0	0.8892808
1	1	0.0185455
2	2	0.0332004
3	3	0.04829
4	4	0.0007364
5	5	0.000933
6	6	0.0019252
7	7	0.0027357
8	8	0.0042125
9	9	2e-05
10	10	1.21e-05
11	11	3.8e-05
12	12	5.6e-06
13	13	4.2e-06
14	14	2.13e-05
15	15	3.4e-05
16	16	9e-07
17	17	3e-07
18	18	1.8e-06
19	19	1e-06
20	20	1.2e-06
21	21	1e-07
22	22	0
23	23	0
