0	0	0.8894762
1	1	0.0185547
2	2	0.0332722
3	3	0.0481902
4	4	0.0007107
5	5	0.0009233
6	6	0.0018913
7	7	0.00272
8	8	0.0041819
9	9	2.22e-05
10	10	1.07e-05
11	11	3.29e-05
12	12	5.1e-06
13	13	4.5e-06
14	14	1e-07
15	15	6e-07
16	16	4e-07
17	17	3e-07
18	18	8e-07
19	19	9e-07
20	20	9e-07
21	21	1e-07
22	22	0
23	23	0
