0	0	0.8887486
1	1	0.0184552
2	2	0.0331801
3	3	0.0482888
4	4	0.000723
5	5	0.0009138
6	6	0.0019156
7	7	0.0027155
8	8	0.0042079
9	9	1.8e-05
10	10	1.22e-05
11	11	5.69e-05
12	12	7.29e-05
13	13	0.0001083
14	14	0.0002259
15	15	0.0003017
16	16	6.3e-06
17	17	5.1e-06
18	18	1.36e-05
19	19	9.9e-06
20	20	1.91e-05
21	21	1.1e-06
22	22	1e-07
23	23	4e-07
