0	0	0.8886487
1	1	0.0185559
2	2	0.0331903
3	3	0.0483144
4	4	0.0007192
5	5	0.0009206
6	6	0.0019123
7	7	0.0027094
8	8	0.0041847
9	9	1.96e-05
10	10	1.27e-05
11	11	5.33e-05
12	12	7.08e-05
13	13	0.0001053
14	14	0.0002284
15	15	0.0003043
16	16	6.2e-06
17	17	3.8e-06
18	18	1.44e-05
19	19	1.02e-05
20	20	1.46e-05
21	21	5e-07
22	22	1e-07
23	23	3e-07
