0	0	0.8896541
1	1	0.0185729
2	2	0.0331802
3	3	0.0480889
4	4	0.0007219
5	5	0.0009134
6	6	0.0018873
7	7	0.0027036
8	8	0.0041914
9	9	1.92e-05
10	10	1.29e-05
11	11	3.8e-05
12	12	5e-06
13	13	6.2e-06
14	14	2e-07
15	15	2e-07
16	16	3e-07
17	17	5e-07
18	18	9e-07
19	19	1e-06
20	20	1.7e-06
21	21	2e-07
22	22	0
23	23	0
