0	0	0.8894259
1	1	0.018573
2	2	0.0331812
3	3	0.0482699
4	4	0.0007349
5	5	0.0009235
6	6	0.001938
7	7	0.0026881
8	8	0.0041835
9	9	2.02e-05
10	10	1.24e-05
11	11	3.24e-05
12	12	6.8e-06
13	13	5.8e-06
14	14	4e-07
15	15	1e-07
16	16	1e-07
17	17	1.1e-06
18	18	9e-07
19	19	5e-07
20	20	1.3e-06
21	21	0
22	22	0
23	23	0
