0	0	0.8887787
1	1	0.0184923
2	2	0.0332011
3	3	0.0482256
4	4	0.0007236
5	5	0.0009264
6	6	0.0019221
7	7	0.0027066
8	8	0.0041856
9	9	2.12e-05
10	10	1e-05
11	11	5.28e-05
12	12	6.73e-05
13	13	0.0001132
14	14	0.0002255
15	15	0.0002934
16	16	5.6e-06
17	17	4.8e-06
18	18	1.44e-05
19	19	1.09e-05
20	20	1.77e-05
21	21	8e-07
22	22	1e-07
23	23	3e-07
