0	0	0.8893584
1	1	0.0185257
2	2	0.0331663
3	3	0.04825
4	4	0.0007239
5	5	0.0009139
6	6	0.0019074
7	7	0.0027197
8	8	0.0042153
9	9	2.05e-05
10	10	9.2e-06
11	11	3.41e-05
12	12	5.3e-06
13	13	3.8e-06
14	14	5.75e-05
15	15	7.96e-05
16	16	9e-07
17	17	9e-07
18	18	3.4e-06
19	19	2.2e-06
20	20	1.5e-06
21	21	4e-07
22	22	0
23	23	1e-07
