0	0	0.8889431
1	1	0.018621
2	2	0.0331345
3	3	0.0481086
4	4	0.0007153
5	5	0.0009142
6	6	0.0018775
7	7	0.0027034
8	8	0.0041754
9	9	1.89e-05
10	10	1.22e-05
11	11	4.85e-05
12	12	6.29e-05
13	13	9.97e-05
14	14	0.0002212
15	15	0.0002931
16	16	5.4e-06
17	17	3.5e-06
18	18	1.26e-05
19	19	1.12e-05
20	20	1.64e-05
21	21	1e-06
22	22	1e-07
23	23	3e-07
