0	0	0.8892695
1	1	0.0185449
2	2	0.0332865
3	3	0.0481828
4	4	0.0007317
5	5	0.0009131
6	6	0.0019211
7	7	0.0027269
8	8	0.0041919
9	9	1.79e-05
10	10	1.03e-05
11	11	3.8e-05
12	12	6e-06
13	13	4.4e-06
14	14	5.86e-05
15	15	8.68e-05
16	16	1.2e-06
17	17	1.1e-06
18	18	3.2e-06
19	19	1.8e-06
20	20	2.1e-06
21	21	1e-07
22	22	0
23	23	1e-07
