0	0	0.8886917
1	1	0.018596
2	2	0.0332381
3	3	0.0482403
4	4	0.0007349
5	5	0.000917
6	6	0.0019159
7	7	0.0027139
8	8	0.0041692
9	9	2.18e-05
10	10	1.17e-05
11	11	4.82e-05
12	12	5.59e-05
13	13	9.48e-05
14	14	0.0002167
15	15	0.0002849
16	16	5.5e-06
17	17	4e-06
18	18	1.33e-05
19	19	9.4e-06
20	20	1.6e-05
21	21	7e-07
22	22	0
23	23	1e-07
