0	0	0.8895215
1	1	0.0185214
2	2	0.0332101
3	3	0.0482023
4	4	0.0007186
5	5	0.0009147
6	6	0.0019052
7	7	0.0026929
8	8	0.0042341
9	9	1.8e-05
10	10	1.16e-05
11	11	3.21e-05
12	12	5.2e-06
13	13	5.7e-06
14	14	1.3e-06
15	15	2.3e-06
16	16	5e-07
17	17	7e-07
18	18	8e-07
19	19	3e-07
20	20	6e-07
21	21	1e-07
22	22	0
23	23	0
