0	0	0.8893437
1	1	0.0185801
2	2	0.0332206
3	3	0.048309
4	4	0.0007115
5	5	0.0009363
6	6	0.001932
7	7	0.0026982
8	8	0.0041959
9	9	1.64e-05
10	10	1.01e-05
11	11	3.06e-05
12	12	5.7e-06
13	13	4.7e-06
14	14	1.4e-06
15	15	1.1e-06
16	16	2e-07
17	17	3e-07
18	18	6e-07
19	19	9e-07
20	20	5e-07
21	21	2e-07
22	22	0
23	23	0
