0	0	0.8894546
1	1	0.0185019
2	2	0.0332722
3	3	0.0482166
4	4	0.0007243
5	5	0.0009049
6	6	0.0019164
7	7	0.0027128
8	8	0.0042169
9	9	2.15e-05
10	10	9e-06
11	11	3.24e-05
12	12	6.2e-06
13	13	5.7e-06
14	14	1.1e-06
15	15	1.1e-06
16	16	2e-07
17	17	3e-07
18	18	1e-06
19	19	4e-07
20	20	4e-07
21	21	1e-07
22	22	0
23	23	0
