0	0	0.8889578
1	1	0.0185484
2	2	0.0331851
3	3	0.0482843
4	4	0.0007087
5	5	0.0009165
6	6	0.0018954
7	7	0.0027054
8	8	0.0041865
9	9	2.24e-05
10	10	1.15e-05
11	11	3.43e-05
12	12	3.35e-05
13	13	5.79e-05
14	14	0.0001797
15	15	0.0002369
16	16	3.7e-06
17	17	2.5e-06
18	18	9.5e-06
19	19	6.4e-06
20	20	1.26e-05
21	21	7e-07
22	22	2e-07
23	23	1e-07
