0	0	0.8889184
1	1	0.018533
2	2	0.0333052
3	3	0.0482245
4	4	0.0007308
5	5	0.0009125
6	6	0.0018986
7	7	0.0027173
8	8	0.0041783
9	9	1.75e-05
10	10	1.02e-05
11	11	3.67e-05
12	12	3.24e-05
13	13	5.37e-05
14	14	0.0001712
15	15	0.0002284
16	16	3e-06
17	17	1.7e-06
18	18	1.11e-05
19	19	5.5e-06
20	20	9.3e-06
21	21	6e-07
22	22	0
23	23	1e-07
