0	0	0.8893677
1	1	0.0185184
2	2	0.033277
3	3	0.0482874
4	4	0.0007197
5	5	0.0009077
6	6	0.0019047
7	7	0.0027251
8	8	0.004211
9	9	2.06e-05
10	10	1.07e-05
11	11	3.68e-05
12	12	5.3e-06
13	13	3.8e-06
14	14	7e-07
15	15	3e-07
16	16	0
17	17	1e-06
18	18	1e-06
19	19	7e-07
20	20	4e-07
21	21	0
22	22	0
23	23	0
