0	0	0.889504
1	1	0.0185613
2	2	0.0332056
3	3	0.0482076
4	4	0.0007229
5	5	0.0009171
6	6	0.0019081
7	7	0.0026827
8	8	0.0041871
9	9	1.92e-05
10	10	1.1e-05
11	11	3.5e-05
12	12	4.9e-06
13	13	5.4e-06
14	14	1.05e-05
15	15	1.4e-05
16	16	6e-07
17	17	7e-07
18	18	1e-06
19	19	4e-07
20	20	7e-07
21	21	0
22	22	0
23	23	2e-07
