0	0	0.8894587
1	1	0.0185702
2	2	0.0332456
3	3	0.0481765
4	4	0.0007216
5	5	0.0009392
6	6	0.0019176
7	7	0.0027037
8	8	0.0041875
9	9	1.92e-05
10	10	1.13e-05
11	11	3.44e-05
12	12	6.1e-06
13	13	5.1e-06
14	14	1e-07
15	15	2e-07
16	16	0
17	17	1e-06
18	18	1e-06
19	19	4e-07
20	20	5e-07
21	21	1e-07
22	22	0
23	23	0
