0	0	0.88949
1	1	0.018546
2	2	0.0332659
3	3	0.0482195
4	4	0.0007155
5	5	0.0009045
6	6	0.0019006
7	7	0.0026818
8	8	0.0041956
9	9	2.03e-05
10	10	1.16e-05
11	11	3.22e-05
12	12	5.4e-06
13	13	5.3e-06
14	14	9e-07
15	15	1.8e-06
16	16	3e-07
17	17	5e-07
18	18	9e-07
19	19	5e-07
20	20	8e-07
21	21	1e-07
22	22	0
23	23	0
