0	0	0.8893444
1	1	0.0186281
2	2	0.0331741
3	3	0.048214
4	4	0.0007156
5	5	0.0009165
6	6	0.0019205
7	7	0.0026929
8	8	0.0041649
9	9	1.97e-05
10	10	9.2e-06
11	11	3.4e-05
12	12	4.9e-06
13	13	4.6e-06
14	14	6e-05
15	15	8.57e-05
16	16	4e-07
17	17	1.5e-06
18	18	3.9e-06
19	19	1.3e-06
20	20	3.2e-06
21	21	3e-07
22	22	0
23	23	3e-07
