0	0	0.8895205
1	1	0.0184747
2	2	0.0331226
3	3	0.0482086
4	4	0.0007159
5	5	0.0009229
6	6	0.0019283
7	7	0.0027212
8	8	0.0042195
9	9	2.22e-05
10	10	1.03e-05
11	11	3.85e-05
12	12	4.3e-06
13	13	5.6e-06
14	14	3.36e-05
15	15	4.37e-05
16	16	1.4e-06
17	17	7e-07
18	18	3.4e-06
19	19	7e-07
20	20	1e-06
21	21	3e-07
22	22	1e-07
23	23	0
