0	0	0.8889339
1	1	0.0185988
2	2	0.0331158
3	3	0.0483417
4	4	0.0007315
5	5	0.0009188
6	6	0.0019008
7	7	0.0027107
8	8	0.0042077
9	9	1.81e-05
10	10	1.06e-05
11	11	3.53e-05
12	12	2.37e-05
13	13	4.05e-05
14	14	0.0001616
15	15	0.0002198
16	16	3.5e-06
17	17	2.3e-06
18	18	9.1e-06
19	19	5.5e-06
20	20	9.6e-06
21	21	5e-07
22	22	0
23	23	2e-07
