0	0	0.8892777
1	1	0.0186431
2	2	0.033164
3	3	0.0481307
4	4	0.0007202
5	5	0.0009294
6	6	0.0018815
7	7	0.0027279
8	8	0.0041667
9	9	2.17e-05
10	10	1.03e-05
11	11	3.4e-05
12	12	4.9e-06
13	13	1.42e-05
14	14	0.0001084
15	15	0.0001462
16	16	1.8e-06
17	17	1.6e-06
18	18	5.4e-06
19	19	4.3e-06
20	20	5.3e-06
21	21	6e-07
22	22	0
23	23	1e-07
