0	0	0.8894129
1	1	0.0186143
2	2	0.033212
3	3	0.0482131
4	4	0.0007171
5	5	0.0009179
6	6	0.001903
7	7	0.0027133
8	8	0.0041762
9	9	2e-05
10	10	1.1e-05
11	11	3.29e-05
12	12	6.2e-06
13	13	5.7e-06
14	14	1.63e-05
15	15	2.34e-05
16	16	3e-07
17	17	6e-07
18	18	1.8e-06
19	19	7e-07
20	20	1.1e-06
21	21	1e-07
22	22	1e-07
23	23	0
