0	0	0.8894893
1	1	0.0185917
2	2	0.0332011
3	3	0.048186
4	4	0.0007218
5	5	0.0009125
6	6	0.0018985
7	7	0.0027073
8	8	0.0041953
9	9	1.9e-05
10	10	1.25e-05
11	11	3.62e-05
12	12	3.7e-06
13	13	4.5e-06
14	14	7.5e-06
15	15	9.4e-06
16	16	1e-07
17	17	9e-07
18	18	1.7e-06
19	19	4e-07
20	20	5e-07
21	21	1e-07
22	22	0
23	23	0
