0	0	0.888652
1	1	0.0185622
2	2	0.0332532
3	3	0.0481297
4	4	0.0007272
5	5	0.0009191
6	6	0.0019221
7	7	0.0026991
8	8	0.0041663
9	9	2.15e-05
10	10	1.51e-05
11	11	6.62e-05
12	12	8.84e-05
13	13	0.0001389
14	14	0.0002557
15	15	0.00032
16	16	7.6e-06
17	17	5.2e-06
18	18	1.54e-05
19	19	1.3e-05
20	20	2e-05
21	21	1.2e-06
22	22	3e-07
23	23	6e-07
