0	0	0.889441
1	1	0.01857
2	2	0.0333011
3	3	0.0481736
4	4	0.000711
5	5	0.0009194
6	6	0.0018964
7	7	0.0027014
8	8	0.0042054
9	9	2.13e-05
10	10	1.05e-05
11	11	3.33e-05
12	12	4.6e-06
13	13	4e-06
14	14	1.8e-06
15	15	2.5e-06
16	16	3e-07
17	17	6e-07
18	18	1.1e-06
19	19	4e-07
20	20	3e-07
21	21	0
22	22	0
23	23	0
