0	0	0.8894765
1	1	0.0184963
2	2	0.0331952
3	3	0.0482907
4	4	0.0007119
5	5	0.0009174
6	6	0.0019074
7	7	0.0027308
8	8	0.0041981
9	9	1.86e-05
10	10	1.14e-05
11	11	3.34e-05
12	12	5.3e-06
13	13	4e-06
14	14	1e-07
15	15	1e-07
16	16	1e-07
17	17	4e-07
18	18	6e-07
19	19	6e-07
20	20	1.1e-06
21	21	0
22	22	0
23	23	0
