0	0	0.8890409
1	1	0.0184932
2	2	0.0331859
3	3	0.0482203
4	4	0.0007286
5	5	0.0009279
6	6	0.0019096
7	7	0.0026981
8	8	0.0041963
9	9	2.01e-05
10	10	1.08e-05
11	11	3.63e-05
12	12	3.34e-05
13	13	5.46e-05
14	14	0.0001788
15	15	0.0002318
16	16	3.1e-06
17	17	2.8e-06
18	18	1.16e-05
19	19	6.1e-06
20	20	8.7e-06
21	21	8e-07
22	22	0
23	23	3e-07
