0	0	0.8892697
1	1	0.0185384
2	2	0.0331819
3	3	0.048157
4	4	0.0007118
5	5	0.0009109
6	6	0.0019106
7	7	0.0027389
8	8	0.0041686
9	9	1.96e-05
10	10	8.2e-06
11	11	3.53e-05
12	12	1.21e-05
13	13	2.26e-05
14	14	0.0001267
15	15	0.0001652
16	16	3.3e-06
17	17	1.7e-06
18	18	6.6e-06
19	19	3.5e-06
20	20	7.3e-06
21	21	1e-07
22	22	0
23	23	0
