0	0	0.8895407
1	1	0.0185257
2	2	0.0332246
3	3	0.0482294
4	4	0.0007168
5	5	0.0009089
6	6	0.0018871
7	7	0.0026941
8	8	0.0041927
9	9	2.01e-05
10	10	1.13e-05
11	11	3.51e-05
12	12	5.2e-06
13	13	4.6e-06
14	14	5e-07
15	15	8e-07
16	16	1e-07
17	17	1.2e-06
18	18	3e-07
19	19	3e-07
20	20	4e-07
21	21	1e-07
22	22	0
23	23	0
