0	0	0.8894315
1	1	0.0186064
2	2	0.0332276
3	3	0.0481976
4	4	0.000719
5	5	0.000927
6	6	0.001906
7	7	0.0027161
8	8	0.0041873
9	9	1.92e-05
10	10	1.21e-05
11	11	3.52e-05
12	12	6e-06
13	13	4.9e-06
14	14	2e-07
15	15	2e-07
16	16	1e-07
17	17	3e-07
18	18	1.3e-06
19	19	1e-06
20	20	9e-07
21	21	1e-07
22	22	0
23	23	0
