0	0	0.889557
1	1	0.0184958
2	2	0.0331842
3	3	0.0482314
4	4	0.0007166
5	5	0.0009258
6	6	0.0019053
7	7	0.0027119
8	8	0.004195
9	9	2.09e-05
10	10	1.04e-05
11	11	3.03e-05
12	12	5e-06
13	13	6.2e-06
14	14	0
15	15	4e-07
16	16	4e-07
17	17	1e-07
18	18	8e-07
19	19	1.1e-06
20	20	1.4e-06
21	21	0
22	22	0
23	23	0
