0	0	0.8890196
1	1	0.0185699
2	2	0.0331857
3	3	0.0481149
4	4	0.0007217
5	5	0.0009311
6	6	0.0019101
7	7	0.0027078
8	8	0.0042337
9	9	1.96e-05
10	10	1.07e-05
11	11	3.54e-05
12	12	3.23e-05
13	13	5.6e-05
14	14	0.0001792
15	15	0.0002372
16	16	4e-06
17	17	3.1e-06
18	18	9.6e-06
19	19	7.3e-06
20	20	1.03e-05
21	21	6e-07
22	22	0
23	23	2e-07
