0	0	0.8886965
1	1	0.0185121
2	2	0.0332193
3	3	0.0481551
4	4	0.0007124
5	5	0.0009153
6	6	0.0018904
7	7	0.0027108
8	8	0.0042385
9	9	2.14e-05
10	10	1.5e-05
11	11	6.86e-05
12	12	8.33e-05
13	13	0.0001381
14	14	0.0002408
15	15	0.0003199
16	16	6.8e-06
17	17	4.6e-06
18	18	1.66e-05
19	19	1.32e-05
20	20	2.02e-05
21	21	7e-07
22	22	2e-07
23	23	2e-07
