0	0	0.8891559
1	1	0.0185281
2	2	0.0334056
3	3	0.0483375
4	4	0.0007227
5	5	0.0009287
6	6	0.0019146
7	7	0.0026926
8	8	0.0042361
9	9	2e-05
10	10	1.02e-05
11	11	3.52e-05
12	12	4.4e-06
13	13	4.9e-06
14	14	1e-07
15	15	1e-07
16	16	1e-07
17	17	8e-07
18	18	9e-07
19	19	5e-07
20	20	1e-06
21	21	0
22	22	0
23	23	0
