0	0	0.889244
1	1	0.0185046
2	2	0.0331427
3	3	0.0481132
4	4	0.0007138
5	5	0.0009274
6	6	0.0019044
7	7	0.0027273
8	8	0.004227
9	9	1.94e-05
10	10	1.09e-05
11	11	3.62e-05
12	12	1.95e-05
13	13	3.14e-05
14	14	0.0001488
15	15	0.0002039
16	16	3e-06
17	17	2e-06
18	18	6.8e-06
19	19	5.1e-06
20	20	7.9e-06
21	21	3e-07
22	22	1e-07
23	23	3e-07
