0	0	0.8894718
1	1	0.0185825
2	2	0.0332254
3	3	0.048177
4	4	0.0007232
5	5	0.0009209
6	6	0.0018938
7	7	0.0027279
8	8	0.0041965
9	9	1.97e-05
10	10	1e-05
11	11	3.72e-05
12	12	4.5e-06
13	13	5.3e-06
14	14	6e-07
15	15	9e-07
16	16	1e-07
17	17	6e-07
18	18	1e-06
19	19	5e-07
20	20	6e-07
21	21	0
22	22	0
23	23	0
