0	0	0.8893587
1	1	0.0185903
2	2	0.0331227
3	3	0.0482033
4	4	0.0007131
5	5	0.000899
6	6	0.0018968
7	7	0.0026926
8	8	0.004186
9	9	2.06e-05
10	10	1.1e-05
11	11	3.35e-05
12	12	5.6e-06
13	13	1.2e-05
14	14	0.0001032
15	15	0.0001362
16	16	1.8e-06
17	17	1e-06
18	18	4.1e-06
19	19	2.4e-06
20	20	5e-06
21	21	5e-07
22	22	2e-07
23	23	4e-07
