0	0	0.8892569
1	1	0.0186197
2	2	0.0331688
3	3	0.0483425
4	4	0.0007287
5	5	0.0009217
6	6	0.001896
7	7	0.0026837
8	8	0.0042208
9	9	2.02e-05
10	10	1.1e-05
11	11	3.45e-05
12	12	5.1e-06
13	13	3.8e-06
14	14	3.23e-05
15	15	4.7e-05
16	16	8e-07
17	17	8e-07
18	18	3e-06
19	19	7e-07
20	20	2e-06
21	21	0
22	22	0
23	23	0
