0	0	0.8890261
1	1	0.018637
2	2	0.0332722
3	3	0.0482253
4	4	0.0007156
5	5	0.0009015
6	6	0.0019325
7	7	0.0026653
8	8	0.0041947
9	9	1.68e-05
10	10	1e-05
11	11	3.48e-05
12	12	1.39e-05
13	13	2.38e-05
14	14	0.0001354
15	15	0.0001736
16	16	2.6e-06
17	17	1.2e-06
18	18	6e-06
19	19	3.5e-06
20	20	7.8e-06
21	21	1e-07
22	22	0
23	23	3e-07
