0	0	0.889505
1	1	0.0185278
2	2	0.0332756
3	3	0.0481769
4	4	0.0007198
5	5	0.0009192
6	6	0.0018983
7	7	0.0027019
8	8	0.0041946
9	9	2.06e-05
10	10	1.17e-05
11	11	3.37e-05
12	12	5.2e-06
13	13	5.3e-06
14	14	2e-07
15	15	1e-07
16	16	1e-07
17	17	5e-07
18	18	1.3e-06
19	19	1.2e-06
20	20	1e-06
21	21	0
22	22	0
23	23	0
