0	0	0.8892383
1	1	0.0185398
2	2	0.0332408
3	3	0.0481409
4	4	0.0007119
5	5	0.0009257
6	6	0.0019373
7	7	0.0026876
8	8	0.0041854
9	9	1.92e-05
10	10	1.2e-05
11	11	3.61e-05
12	12	8.7e-06
13	13	1.86e-05
14	14	0.0001164
15	15	0.0001609
16	16	1.8e-06
17	17	1.7e-06
18	18	6e-06
19	19	3.7e-06
20	20	6.5e-06
21	21	4e-07
22	22	1e-07
23	23	2e-07
