0	0	0.8888037
1	1	0.0185013
2	2	0.0332899
3	3	0.0481098
4	4	0.0007222
5	5	0.0009277
6	6	0.0019097
7	7	0.0027189
8	8	0.0041935
9	9	1.67e-05
10	10	1.09e-05
11	11	5.19e-05
12	12	6.78e-05
13	13	0.000104
14	14	0.0002295
15	15	0.0002934
16	16	5.6e-06
17	17	3.9e-06
18	18	1.32e-05
19	19	1.02e-05
20	20	1.5e-05
21	21	6e-07
22	22	1e-07
23	23	5e-07
