0	0	0.8895376
1	1	0.0185016
2	2	0.0332639
3	3	0.0481784
4	4	0.0007282
5	5	0.0009072
6	6	0.0018911
7	7	0.002721
8	8	0.0041947
9	9	2.01e-05
10	10	1.11e-05
11	11	3.1e-05
12	12	4.9e-06
13	13	5.3e-06
14	14	1e-06
15	15	8e-07
16	16	0
17	17	3e-07
18	18	6e-07
19	19	7e-07
20	20	4e-07
21	21	1e-07
22	22	0
23	23	0
