0	0	0.888801
1	1	0.0185137
2	2	0.0332094
3	3	0.0482025
4	4	0.000706
5	5	0.0009099
6	6	0.0019156
7	7	0.0026985
8	8	0.0042073
9	9	1.98e-05
10	10	1.4e-05
11	11	4.94e-05
12	12	7.03e-05
13	13	0.0001054
14	14	0.0002314
15	15	0.0002917
16	16	5.2e-06
17	17	5.2e-06
18	18	1.32e-05
19	19	1.09e-05
20	20	1.8e-05
21	21	7e-07
22	22	2e-07
23	23	7e-07
