0	0	0.8892736
1	1	0.0185613
2	2	0.0333106
3	3	0.0482886
4	4	0.0007319
5	5	0.0009177
6	6	0.0019276
7	7	0.002704
8	8	0.0041736
9	9	1.88e-05
10	10	1.13e-05
11	11	3.41e-05
12	12	5.4e-06
13	13	5.4e-06
14	14	1.28e-05
15	15	1.8e-05
16	16	6e-07
17	17	7e-07
18	18	2.4e-06
19	19	9e-07
20	20	5e-07
21	21	1e-07
22	22	0
23	23	1e-07
