0	0	0.8892049
1	1	0.018575
2	2	0.0331563
3	3	0.0480687
4	4	0.0007047
5	5	0.0009255
6	6	0.0019108
7	7	0.0027369
8	8	0.0042337
9	9	1.92e-05
10	10	1.4e-05
11	11	3.73e-05
12	12	1.91e-05
13	13	3.06e-05
14	14	0.0001438
15	15	0.0001953
16	16	2.1e-06
17	17	2.2e-06
18	18	8.1e-06
19	19	5e-06
20	20	6e-06
21	21	5e-07
22	22	0
23	23	3e-07
