0	0	0.8893934
1	1	0.0185108
2	2	0.0331695
3	3	0.0482398
4	4	0.0007184
5	5	0.0009003
6	6	0.0019118
7	7	0.0026901
8	8	0.0041897
9	9	1.74e-05
10	10	8.6e-06
11	11	3.35e-05
12	12	4.4e-06
13	13	5.9e-06
14	14	8.02e-05
15	15	0.0001143
16	16	1.9e-06
17	17	7e-07
18	18	4.3e-06
19	19	2e-06
20	20	2.5e-06
21	21	3e-07
22	22	2e-07
23	23	0
