0	0	0.8892794
1	1	0.0185498
2	2	0.0332474
3	3	0.0482948
4	4	0.0007358
5	5	0.0009296
6	6	0.0019015
7	7	0.0027039
8	8	0.0042666
9	9	1.98e-05
10	10	1.31e-05
11	11	3.29e-05
12	12	5.1e-06
13	13	5.7e-06
14	14	4.4e-06
15	15	6.7e-06
16	16	9e-07
17	17	3e-07
18	18	1.3e-06
19	19	6e-07
20	20	3e-07
21	21	0
22	22	1e-07
23	23	0
