0	0	0.8895403
1	1	0.0185633
2	2	0.0332132
3	3	0.0481432
4	4	0.0007386
5	5	0.0009086
6	6	0.0019349
7	7	0.0026914
8	8	0.004189
9	9	1.84e-05
10	10	1.14e-05
11	11	3.21e-05
12	12	6.2e-06
13	13	5.8e-06
14	14	1e-07
15	15	2e-07
16	16	2e-07
17	17	7e-07
18	18	7e-07
19	19	9e-07
20	20	8e-07
21	21	0
22	22	0
23	23	0
