0	0	0.8885695
1	1	0.0185308
2	2	0.0331951
3	3	0.0481964
4	4	0.0007296
5	5	0.0009025
6	6	0.0019028
7	7	0.0027191
8	8	0.0042122
9	9	2.18e-05
10	10	1.7e-05
11	11	7.78e-05
12	12	0.0001046
13	13	0.0001671
14	14	0.0002573
15	15	0.0003253
16	16	7.5e-06
17	17	6.1e-06
18	18	1.66e-05
19	19	1.57e-05
20	20	2.35e-05
21	21	1.1e-06
22	22	0
23	23	6e-07
