0	0	0.8894726
1	1	0.0185045
2	2	0.0332612
3	3	0.0482461
4	4	0.0007321
5	5	0.0009202
6	6	0.0018881
7	7	0.0026968
8	8	0.0042015
9	9	2e-05
10	10	9.3e-06
11	11	3.25e-05
12	12	5.8e-06
13	13	6.8e-06
14	14	1e-07
15	15	7e-07
16	16	4e-07
17	17	2e-07
18	18	6e-07
19	19	4e-07
20	20	1e-07
21	21	0
22	22	0
23	23	0
