0	0	0.8890086
1	1	0.0185307
2	2	0.0332092
3	3	0.0483299
4	4	0.0007233
5	5	0.0009138
6	6	0.0018964
7	7	0.0026964
8	8	0.0041812
9	9	1.97e-05
10	10	1.24e-05
11	11	3.13e-05
12	12	2.07e-05
13	13	3.46e-05
14	14	0.0001631
15	15	0.0002002
16	16	3.5e-06
17	17	2.6e-06
18	18	9.4e-06
19	19	4.6e-06
20	20	7.9e-06
21	21	4e-07
22	22	0
23	23	1e-07
