0	0	0.8890159
1	1	0.0185149
2	2	0.0332308
3	3	0.0482339
4	4	0.000735
5	5	0.0009073
6	6	0.0019054
7	7	0.0027016
8	8	0.0042192
9	9	2.08e-05
10	10	1.17e-05
11	11	3.53e-05
12	12	2.08e-05
13	13	4.21e-05
14	14	0.0001607
15	15	0.0002144
16	16	3.5e-06
17	17	3e-06
18	18	8.1e-06
19	19	5.9e-06
20	20	9.3e-06
21	21	2e-07
22	22	0
23	23	2e-07
