0	0	0.88951
1	1	0.018571
2	2	0.0331889
3	3	0.0482176
4	4	0.0007397
5	5	0.000929
6	6	0.0018863
7	7	0.0026984
8	8	0.0041753
9	9	2.04e-05
10	10	1e-05
11	11	3.56e-05
12	12	6.1e-06
13	13	5.9e-06
14	14	1.1e-06
15	15	1.6e-06
16	16	1e-07
17	17	7e-07
18	18	1.1e-06
19	19	5e-07
20	20	7e-07
21	21	0
22	22	0
23	23	0
