0	0	0.8893177
1	1	0.0184728
2	2	0.0332454
3	3	0.0480974
4	4	0.0007221
5	5	0.000921
6	6	0.0019127
7	7	0.0026952
8	8	0.0041866
9	9	2.05e-05
10	10	1.14e-05
11	11	3.47e-05
12	12	1.07e-05
13	13	2.24e-05
14	14	0.0001316
15	15	0.0001775
16	16	2.5e-06
17	17	1.9e-06
18	18	5.5e-06
19	19	3.6e-06
20	20	5.8e-06
21	21	5e-07
22	22	3e-07
23	23	2e-07
