0	0	0.8886965
1	1	0.0185311
2	2	0.033228
3	3	0.0481413
4	4	0.0007174
5	5	0.0009198
6	6	0.0019204
7	7	0.0027289
8	8	0.0042096
9	9	1.91e-05
10	10	1.5e-05
11	11	6.22e-05
12	12	8.19e-05
13	13	0.0001265
14	14	0.0002432
15	15	0.0003022
16	16	5.5e-06
17	17	4.6e-06
18	18	1.51e-05
19	19	1.17e-05
20	20	1.89e-05
21	21	1e-06
22	22	0
23	23	1e-07
