0	0	0.8892949
1	1	0.0185685
2	2	0.0332793
3	3	0.0481833
4	4	0.0007136
5	5	0.0009366
6	6	0.0019314
7	7	0.0027122
8	8	0.0042095
9	9	1.99e-05
10	10	1.1e-05
11	11	3.57e-05
12	12	5.5e-06
13	13	4.2e-06
14	14	3.56e-05
15	15	5.2e-05
16	16	6e-07
17	17	3e-07
18	18	2e-06
19	19	1.1e-06
20	20	2.6e-06
21	21	1e-07
22	22	0
23	23	1e-07
