0	0	0.8893669
1	1	0.0185444
2	2	0.0333168
3	3	0.048285
4	4	0.0007097
5	5	0.0009269
6	6	0.0018894
7	7	0.0026857
8	8	0.0041927
9	9	2.03e-05
10	10	1.01e-05
11	11	3.69e-05
12	12	6.2e-06
13	13	4.7e-06
14	14	3e-07
15	15	1.6e-06
16	16	4e-07
17	17	3e-07
18	18	1.1e-06
19	19	4e-07
20	20	2e-07
21	21	0
22	22	0
23	23	0
