0	0	0.8893836
1	1	0.0185597
2	2	0.0332383
3	3	0.0482592
4	4	0.0007157
5	5	0.0009252
6	6	0.0018875
7	7	0.0027127
8	8	0.0041899
9	9	1.93e-05
10	10	1.01e-05
11	11	3.52e-05
12	12	6.9e-06
13	13	4.8e-06
14	14	1.72e-05
15	15	2.93e-05
16	16	5e-07
17	17	4e-07
18	18	2e-06
19	19	9e-07
20	20	1.3e-06
21	21	3e-07
22	22	0
23	23	0
