0	0	0.8894054
1	1	0.0185713
2	2	0.033274
3	3	0.0482058
4	4	0.0007122
5	5	0.0009199
6	6	0.0018947
7	7	0.002709
8	8	0.0042035
9	9	1.81e-05
10	10	1.27e-05
11	11	3.37e-05
12	12	5.4e-06
13	13	5e-06
14	14	1.03e-05
15	15	1.53e-05
16	16	0
17	17	6e-07
18	18	1.5e-06
19	19	5e-07
20	20	1e-06
21	21	0
22	22	0
23	23	1e-07
