0	0	0.889532
1	1	0.0185275
2	2	0.0331357
3	3	0.0482059
4	4	0.0007127
5	5	0.0009038
6	6	0.0019314
7	7	0.0026943
8	8	0.0041939
9	9	1.99e-05
10	10	1.03e-05
11	11	3.67e-05
12	12	4.1e-06
13	13	5e-06
14	14	3.32e-05
15	15	4.62e-05
16	16	5e-07
17	17	7e-07
18	18	2.7e-06
19	19	1.2e-06
20	20	2.2e-06
21	21	1e-07
22	22	0
23	23	0
