0	0	0.889351
1	1	0.0185607
2	2	0.0332534
3	3	0.0482949
4	4	0.0007049
5	5	0.0009332
6	6	0.001914
7	7	0.0027108
8	8	0.0041994
9	9	1.92e-05
10	10	1.15e-05
11	11	3.27e-05
12	12	6.2e-06
13	13	5.1e-06
14	14	4e-07
15	15	8e-07
16	16	1e-07
17	17	1.1e-06
18	18	4e-07
19	19	2e-07
20	20	0
21	21	0
22	22	0
23	23	0
