0	0	0.8893056
1	1	0.0185864
2	2	0.0332196
3	3	0.0482731
4	4	0.0007235
5	5	0.0009157
6	6	0.0019205
7	7	0.0026777
8	8	0.0041773
9	9	2.03e-05
10	10	1.15e-05
11	11	3.63e-05
12	12	4.6e-06
13	13	4.6e-06
14	14	4.67e-05
15	15	6.8e-05
16	16	1.6e-06
17	17	1e-06
18	18	3.3e-06
19	19	9e-07
20	20	1.5e-06
21	21	1e-07
22	22	0
23	23	2e-07
