0	0	0.8894122
1	1	0.0185591
2	2	0.033234
3	3	0.0483033
4	4	0.0007148
5	5	0.0009187
6	6	0.0018919
7	7	0.0026944
8	8	0.0041866
9	9	2.07e-05
10	10	1.13e-05
11	11	3.57e-05
12	12	7e-06
13	13	5.7e-06
14	14	5e-07
15	15	7e-07
16	16	2e-07
17	17	3e-07
18	18	4e-07
19	19	1.7e-06
20	20	7e-07
21	21	0
22	22	1e-07
23	23	0
