0	0	0.8893969
1	1	0.018544
2	2	0.0331584
3	3	0.0483027
4	4	0.0007127
5	5	0.0009183
6	6	0.0019003
7	7	0.0026819
8	8	0.0042145
9	9	2.08e-05
10	10	1.05e-05
11	11	3.23e-05
12	12	5.6e-06
13	13	5.4e-06
14	14	3.45e-05
15	15	5.27e-05
16	16	1e-06
17	17	1.2e-06
18	18	3.3e-06
19	19	1.1e-06
20	20	1.6e-06
21	21	1e-07
22	22	0
23	23	2e-07
