0	0	0.8894188
1	1	0.0185948
2	2	0.0332641
3	3	0.0482064
4	4	0.0007351
5	5	0.0009143
6	6	0.0019091
7	7	0.0027178
8	8	0.0041589
9	9	1.87e-05
10	10	1.08e-05
11	11	3.53e-05
12	12	6.7e-06
13	13	5.2e-06
14	14	0
15	15	0
16	16	1e-07
17	17	7e-07
18	18	1.1e-06
19	19	1.3e-06
20	20	8e-07
21	21	0
22	22	0
23	23	0
