0	0	0.8890163
1	1	0.0185381
2	2	0.0332482
3	3	0.0482125
4	4	0.0007123
5	5	0.0009079
6	6	0.0019007
7	7	0.0027203
8	8	0.004199
9	9	2.05e-05
10	10	1.27e-05
11	11	3.62e-05
12	12	2.26e-05
13	13	4.33e-05
14	14	0.0001672
15	15	0.000213
16	16	1.8e-06
17	17	3.6e-06
18	18	7.4e-06
19	19	6.4e-06
20	20	9.7e-06
21	21	2e-07
22	22	0
23	23	1e-07
