0	0	0.8892684
1	1	0.0186461
2	2	0.0332276
3	3	0.0482442
4	4	0.0007147
5	5	0.0009163
6	6	0.0018979
7	7	0.0026661
8	8	0.0042419
9	9	1.93e-05
10	10	8.6e-06
11	11	3.55e-05
12	12	4.2e-06
13	13	5.2e-06
14	14	4.13e-05
15	15	5.34e-05
16	16	1.1e-06
17	17	8e-07
18	18	3.6e-06
19	19	1.9e-06
20	20	1.6e-06
21	21	3e-07
22	22	0
23	23	0
