0	0	0.8888771
1	1	0.0184651
2	2	0.0332382
3	3	0.0483493
4	4	0.0007225
5	5	0.0009073
6	6	0.001901
7	7	0.0026787
8	8	0.0041944
9	9	2.01e-05
10	10	9.4e-06
11	11	3.7e-05
12	12	4.06e-05
13	13	6.62e-05
14	14	0.0002008
15	15	0.0002508
16	16	5.3e-06
17	17	2.7e-06
18	18	1.07e-05
19	19	7.4e-06
20	20	1.5e-05
21	21	2e-07
22	22	1e-07
23	23	1e-07
