0	0	0.889346
1	1	0.0185388
2	2	0.0332597
3	3	0.0482412
4	4	0.0007154
5	5	0.0009264
6	6	0.0019375
7	7	0.0026875
8	8	0.0042021
9	9	1.91e-05
10	10	1.12e-05
11	11	3.13e-05
12	12	5.5e-06
13	13	5e-06
14	14	2.66e-05
15	15	3.99e-05
16	16	1.2e-06
17	17	6e-07
18	18	2.2e-06
19	19	8e-07
20	20	1.6e-06
21	21	3e-07
22	22	0
23	23	1e-07
