0	0	0.8896685
1	1	0.0185064
2	2	0.0332246
3	3	0.0481056
4	4	0.0007153
5	5	0.0009044
6	6	0.0019231
7	7	0.0026838
8	8	0.004194
9	9	1.8e-05
10	10	1.05e-05
11	11	3.14e-05
12	12	5.2e-06
13	13	6.1e-06
14	14	2e-07
15	15	0
16	16	2e-07
17	17	7e-07
18	18	9e-07
19	19	5e-07
20	20	6e-07
21	21	0
22	22	0
23	23	0
