0	0	0.8894656
1	1	0.0185354
2	2	0.0332798
3	3	0.0482166
4	4	0.0007113
5	5	0.0009137
6	6	0.0019006
7	7	0.0026877
8	8	0.0042089
9	9	1.87e-05
10	10	1.11e-05
11	11	3.71e-05
12	12	5.1e-06
13	13	4.2e-06
14	14	3e-07
15	15	5e-07
16	16	1e-07
17	17	8e-07
18	18	9e-07
19	19	8e-07
20	20	8e-07
21	21	0
22	22	0
23	23	0
