0	0	0.88882
1	1	0.0185032
2	2	0.0332072
3	3	0.0481811
4	4	0.0007381
5	5	0.0009104
6	6	0.0019216
7	7	0.002691
8	8	0.0041605
9	9	1.98e-05
10	10	1.12e-05
11	11	5.27e-05
12	12	7.26e-05
13	13	0.0001184
14	14	0.0002313
15	15	0.0003041
16	16	6.2e-06
17	17	6.1e-06
18	18	1.3e-05
19	19	1.32e-05
20	20	1.77e-05
21	21	4e-07
22	22	1e-07
23	23	1e-07
