0	0	0.8895378
1	1	0.018573
2	2	0.0331985
3	3	0.0481566
4	4	0.0007218
5	5	0.0009142
6	6	0.0019119
7	7	0.0026864
8	8	0.0042177
9	9	2.03e-05
10	10	1.03e-05
11	11	3.7e-05
12	12	5.7e-06
13	13	5.3e-06
14	14	1e-07
15	15	1e-07
16	16	1e-07
17	17	9e-07
18	18	7e-07
19	19	9e-07
20	20	7e-07
21	21	0
22	22	0
23	23	0
