0	0	0.8893569
1	1	0.0185537
2	2	0.0332362
3	3	0.0482255
4	4	0.0007471
5	5	0.0009312
6	6	0.0019369
7	7	0.0027177
8	8	0.0041991
9	9	2.13e-05
10	10	1.17e-05
11	11	3.92e-05
12	12	5.5e-06
13	13	6.2e-06
14	14	3.6e-06
15	15	4.1e-06
16	16	7e-07
17	17	5e-07
18	18	1.7e-06
19	19	5e-07
20	20	3e-07
21	21	4e-07
22	22	0
23	23	0
