0	0	0.8891349
1	1	0.0185175
2	2	0.0332224
3	3	0.0482259
4	4	0.0007084
5	5	0.0009025
6	6	0.0018922
7	7	0.0027194
8	8	0.004201
9	9	2.01e-05
10	10	1.05e-05
11	11	3.6e-05
12	12	1.8e-05
13	13	2.82e-05
14	14	0.0001413
15	15	0.0001971
16	16	3.3e-06
17	17	2e-06
18	18	7.8e-06
19	19	4.2e-06
20	20	6.4e-06
21	21	6e-07
22	22	1e-07
23	23	2e-07
