0	0	0.8893537
1	1	0.0185241
2	2	0.0331582
3	3	0.0480741
4	4	0.000724
5	5	0.0009273
6	6	0.0019059
7	7	0.0027165
8	8	0.0042315
9	9	1.97e-05
10	10	1.04e-05
11	11	3.27e-05
12	12	7.8e-06
13	13	1.67e-05
14	14	0.0001173
15	15	0.000161
16	16	2e-06
17	17	1.5e-06
18	18	5.1e-06
19	19	3.9e-06
20	20	5.8e-06
21	21	6e-07
22	22	0
23	23	2e-07
