0	0	0.8894852
1	1	0.0185086
2	2	0.0332028
3	3	0.0482754
4	4	0.0007164
5	5	0.0009395
6	6	0.0019231
7	7	0.0026782
8	8	0.0041889
9	9	1.66e-05
10	10	1e-05
11	11	3.39e-05
12	12	6e-06
13	13	4.7e-06
14	14	2.6e-06
15	15	5.1e-06
16	16	3e-07
17	17	3e-07
18	18	1.6e-06
19	19	2e-07
20	20	4e-07
21	21	1e-07
22	22	1e-07
23	23	0
