0	0	0.8885426
1	1	0.0185066
2	2	0.0331718
3	3	0.0482376
4	4	0.0007241
5	5	0.0009107
6	6	0.0018915
7	7	0.002729
8	8	0.0041934
9	9	2.25e-05
10	10	2.13e-05
11	11	8.24e-05
12	12	0.0001163
13	13	0.00017
14	14	0.0002687
15	15	0.0003371
16	16	8.5e-06
17	17	7.3e-06
18	18	1.8e-05
19	19	1.57e-05
20	20	2.28e-05
21	21	1.3e-06
22	22	4e-07
23	23	4e-07
