0	0	0.8884979
1	1	0.0185075
2	2	0.0331454
3	3	0.0482708
4	4	0.0007296
5	5	0.0009231
6	6	0.0019081
7	7	0.0027248
8	8	0.0042335
9	9	2.27e-05
10	10	1.92e-05
11	11	7.91e-05
12	12	0.0001058
13	13	0.0001586
14	14	0.0002625
15	15	0.0003388
16	16	7.8e-06
17	17	7.4e-06
18	18	1.69e-05
19	19	1.56e-05
20	20	2.29e-05
21	21	1.6e-06
22	22	2e-07
23	23	2e-07
