0	0	0.8894228
1	1	0.0186055
2	2	0.0332499
3	3	0.0481768
4	4	0.0007259
5	5	0.0009096
6	6	0.0018938
7	7	0.0026951
8	8	0.0042372
9	9	2.22e-05
10	10	1.08e-05
11	11	3.64e-05
12	12	4.7e-06
13	13	5.4e-06
14	14	2e-07
15	15	5e-07
16	16	3e-07
17	17	5e-07
18	18	7e-07
19	19	9e-07
20	20	8e-07
21	21	0
22	22	0
23	23	0
