0	0	0.8888066
1	1	0.01856
2	2	0.0332472
3	3	0.0482005
4	4	0.0007219
5	5	0.0009283
6	6	0.0019218
7	7	0.0027385
8	8	0.0041882
9	9	2e-05
10	10	1.05e-05
11	11	4.13e-05
12	12	4.23e-05
13	13	7.02e-05
14	14	0.0001993
15	15	0.0002643
16	16	3.5e-06
17	17	2.7e-06
18	18	1.2e-05
19	19	8.9e-06
20	20	1.15e-05
21	21	3e-07
22	22	1e-07
23	23	1e-07
