0	0	0.88927
1	1	0.0185459
2	2	0.033198
3	3	0.0481403
4	4	0.0007331
5	5	0.0009071
6	6	0.0018968
7	7	0.0026869
8	8	0.0042236
9	9	1.8e-05
10	10	1e-05
11	11	3.52e-05
12	12	8.9e-06
13	13	1.88e-05
14	14	0.000129
15	15	0.0001609
16	16	2.4e-06
17	17	1.1e-06
18	18	4.9e-06
19	19	3.5e-06
20	20	4.9e-06
21	21	4e-07
22	22	0
23	23	3e-07
