0	0	0.8892509
1	1	0.0186433
2	2	0.0332322
3	3	0.0481904
4	4	0.0007333
5	5	0.0009183
6	6	0.0019019
7	7	0.0027094
8	8	0.0042069
9	9	1.79e-05
10	10	1.02e-05
11	11	3.26e-05
12	12	5.3e-06
13	13	5.6e-06
14	14	5.59e-05
15	15	7.63e-05
16	16	7e-07
17	17	6e-07
18	18	4e-06
19	19	1.5e-06
20	20	2.5e-06
21	21	3e-07
22	22	0
23	23	0
