0	0	0.8893558
1	1	0.018575
2	2	0.0332016
3	3	0.0482653
4	4	0.0007458
5	5	0.0009276
6	6	0.0019007
7	7	0.0027212
8	8	0.0042131
9	9	2.06e-05
10	10	1.14e-05
11	11	3.57e-05
12	12	7e-06
13	13	6.3e-06
14	14	3.3e-06
15	15	6.2e-06
16	16	2e-07
17	17	5e-07
18	18	1e-06
19	19	8e-07
20	20	9e-07
21	21	0
22	22	0
23	23	0
