0	0	0.8892456
1	1	0.0184684
2	2	0.0332243
3	3	0.0482593
4	4	0.0007002
5	5	0.0009112
6	6	0.0019077
7	7	0.0027224
8	8	0.0042259
9	9	1.96e-05
10	10	1.14e-05
11	11	3.53e-05
12	12	5.5e-06
13	13	1.04e-05
14	14	0.000101
15	15	0.0001353
16	16	2.1e-06
17	17	2.3e-06
18	18	4.4e-06
19	19	3.1e-06
20	20	3.8e-06
21	21	4e-07
22	22	0
23	23	4e-07
