0	0	0.8894529
1	1	0.0185077
2	2	0.0332517
3	3	0.0482013
4	4	0.0007082
5	5	0.000919
6	6	0.0019137
7	7	0.0027177
8	8	0.0041884
9	9	2.29e-05
10	10	1.03e-05
11	11	3.59e-05
12	12	5.6e-06
13	13	5.4e-06
14	14	2.19e-05
15	15	3.2e-05
16	16	8e-07
17	17	8e-07
18	18	2.2e-06
19	19	5e-07
20	20	8e-07
21	21	3e-07
22	22	0
23	23	0
