0	0	0.8886125
1	1	0.018547
2	2	0.0332768
3	3	0.0483146
4	4	0.0007141
5	5	0.0009251
6	6	0.0019234
7	7	0.0027253
8	8	0.004217
9	9	2.03e-05
10	10	1.27e-05
11	11	3.96e-05
12	12	4.83e-05
13	13	8.33e-05
14	14	0.000215
15	15	0.0002826
16	16	4.5e-06
17	17	3.5e-06
18	18	1.11e-05
19	19	8.4e-06
20	20	1.38e-05
21	21	7e-07
22	22	1e-07
23	23	3e-07
