0	0	0.8896794
1	1	0.0185183
2	2	0.0331621
3	3	0.0480777
4	4	0.0007225
5	5	0.000929
6	6	0.0019199
7	7	0.0027098
8	8	0.0042076
9	9	1.88e-05
10	10	1.13e-05
11	11	2.94e-05
12	12	5.4e-06
13	13	5.6e-06
14	14	1e-07
15	15	4e-07
16	16	1e-07
17	17	7e-07
18	18	5e-07
19	19	4e-07
20	20	1e-06
21	21	0
22	22	0
23	23	0
