0	0	0.8893721
1	1	0.0185992
2	2	0.0331715
3	3	0.0482807
4	4	0.0007154
5	5	0.0009203
6	6	0.001886
7	7	0.0027197
8	8	0.0041849
9	9	2.05e-05
10	10	1.18e-05
11	11	3.3e-05
12	12	6.5e-06
13	13	5.7e-06
14	14	2.69e-05
15	15	3.97e-05
16	16	6e-07
17	17	8e-07
18	18	2.3e-06
19	19	1e-06
20	20	1.3e-06
21	21	1e-07
22	22	0
23	23	0
