0	0	0.8895115
1	1	0.0185098
2	2	0.033206
3	3	0.0482392
4	4	0.0007389
5	5	0.0009034
6	6	0.0018991
7	7	0.0026785
8	8	0.0042333
9	9	2.12e-05
10	10	1.04e-05
11	11	3.45e-05
12	12	5.6e-06
13	13	4.4e-06
14	14	9e-07
15	15	5e-07
16	16	4e-07
17	17	2e-07
18	18	1.1e-06
19	19	5e-07
20	20	6e-07
21	21	0
22	22	0
23	23	0
