0	0	0.8891736
1	1	0.0185534
2	2	0.033257
3	3	0.0483418
4	4	0.0007199
5	5	0.000914
6	6	0.0019127
7	7	0.0026838
8	8	0.0042022
9	9	2.06e-05
10	10	1.04e-05
11	11	3.65e-05
12	12	5e-06
13	13	5.4e-06
14	14	6.13e-05
15	15	8.99e-05
16	16	1.7e-06
17	17	1.2e-06
18	18	4.1e-06
19	19	1.8e-06
20	20	3.6e-06
21	21	0
22	22	0
23	23	1e-07
