0	0	0.8896001
1	1	0.0185528
2	2	0.0331306
3	3	0.0481344
4	4	0.0007373
5	5	0.0009199
6	6	0.0019159
7	7	0.0027155
8	8	0.0042117
9	9	2.04e-05
10	10	1.08e-05
11	11	3.57e-05
12	12	4.8e-06
13	13	5.9e-06
14	14	3e-07
15	15	3e-07
16	16	4e-07
17	17	4e-07
18	18	5e-07
19	19	1e-06
20	20	1.3e-06
21	21	0
22	22	0
23	23	0
