0	0	0.8888187
1	1	0.0184742
2	2	0.0332512
3	3	0.0481594
4	4	0.0007089
5	5	0.000927
6	6	0.001919
7	7	0.0027074
8	8	0.0042364
9	9	2.01e-05
10	10	1.26e-05
11	11	4.71e-05
12	12	6.41e-05
13	13	0.000103
14	14	0.0002225
15	15	0.0002776
16	16	6.1e-06
17	17	4.7e-06
18	18	1.26e-05
19	19	9.2e-06
20	20	1.66e-05
21	21	8e-07
22	22	3e-07
23	23	5e-07
