0	0	0.8893401
1	1	0.0184949
2	2	0.0334242
3	3	0.0481889
4	4	0.0007149
5	5	0.0009204
6	6	0.0018983
7	7	0.0027205
8	8	0.0042146
9	9	2.25e-05
10	10	1.28e-05
11	11	3.34e-05
12	12	6.2e-06
13	13	4.8e-06
14	14	1e-07
15	15	1e-07
16	16	2e-07
17	17	7e-07
18	18	4e-07
19	19	1e-06
20	20	9e-07
21	21	1e-07
22	22	0
23	23	0
