0	0	0.889422
1	1	0.0185263
2	2	0.033111
3	3	0.0483224
4	4	0.0007101
5	5	0.0009231
6	6	0.0019316
7	7	0.002717
8	8	0.0042075
9	9	2.18e-05
10	10	1.2e-05
11	11	3.15e-05
12	12	4.7e-06
13	13	5.9e-06
14	14	1.85e-05
15	15	2.9e-05
16	16	1.2e-06
17	17	1e-06
18	18	1.3e-06
19	19	7e-07
20	20	8e-07
21	21	3e-07
22	22	0
23	23	3e-07
