0	0	0.8888944
1	1	0.0185038
2	2	0.0332428
3	3	0.0482129
4	4	0.0007207
5	5	0.0009301
6	6	0.0019112
7	7	0.0027111
8	8	0.0042391
9	9	2.01e-05
10	10	8.7e-06
11	11	3.88e-05
12	12	3.52e-05
13	13	6.26e-05
14	14	0.0001839
15	15	0.0002499
16	16	4e-06
17	17	2.5e-06
18	18	9.7e-06
19	19	7.7e-06
20	20	1.01e-05
21	21	5e-07
22	22	0
23	23	2e-07
