0	0	0.889386
1	1	0.018552
2	2	0.0330894
3	3	0.0482569
4	4	0.0007195
5	5	0.000911
6	6	0.0018887
7	7	0.0026976
8	8	0.0041831
9	9	1.88e-05
10	10	1.05e-05
11	11	3.02e-05
12	12	5.8e-06
13	13	8.7e-06
14	14	9.74e-05
15	15	0.0001283
16	16	1.9e-06
17	17	1.1e-06
18	18	5.6e-06
19	19	2.5e-06
20	20	4.9e-06
21	21	0
22	22	0
23	23	1e-07
