0	0	0.8891066
1	1	0.0185445
2	2	0.0333226
3	3	0.0482573
4	4	0.0007253
5	5	0.0009036
6	6	0.0018952
7	7	0.0027002
8	8	0.0042052
9	9	2.01e-05
10	10	1.04e-05
11	11	3.15e-05
12	12	5.7e-06
13	13	1.25e-05
14	14	0.0001025
15	15	0.0001416
16	16	1.5e-06
17	17	1.1e-06
18	18	5.4e-06
19	19	2.3e-06
20	20	4.4e-06
21	21	3e-07
22	22	0
23	23	2e-07
