0	0	0.8891978
1	1	0.018553
2	2	0.0332464
3	3	0.0482269
4	4	0.0007201
5	5	0.0009293
6	6	0.0018918
7	7	0.002725
8	8	0.0042275
9	9	1.82e-05
10	10	9.3e-06
11	11	3.54e-05
12	12	4.7e-06
13	13	4.8e-06
14	14	8.54e-05
15	15	0.0001136
16	16	1.9e-06
17	17	1.3e-06
18	18	3.6e-06
19	19	1.6e-06
20	20	2.4e-06
21	21	0
22	22	0
23	23	0
