0	0	0.8893661
1	1	0.0185928
2	2	0.0333228
3	3	0.0481855
4	4	0.0007174
5	5	0.0009234
6	6	0.001886
7	7	0.0027162
8	8	0.0041988
9	9	2.05e-05
10	10	1.35e-05
11	11	3.52e-05
12	12	5e-06
13	13	4.6e-06
14	14	3.3e-06
15	15	6.4e-06
16	16	4e-07
17	17	2e-07
18	18	1.1e-06
19	19	2e-07
20	20	6e-07
21	21	0
22	22	0
23	23	0
