0	0	0.8893645
1	1	0.0185151
2	2	0.0332021
3	3	0.0481649
4	4	0.0007265
5	5	0.0009102
6	6	0.0018863
7	7	0.0027196
8	8	0.0041903
9	9	1.93e-05
10	10	8.7e-06
11	11	3.72e-05
12	12	5.6e-06
13	13	7.3e-06
14	14	9.85e-05
15	15	0.0001278
16	16	1.5e-06
17	17	1.2e-06
18	18	6e-06
19	19	3.3e-06
20	20	3.9e-06
21	21	2e-07
22	22	0
23	23	0
