0	0	0.889301
1	1	0.0185862
2	2	0.0332701
3	3	0.0481935
4	4	0.0007244
5	5	0.0009283
6	6	0.0019164
7	7	0.0027135
8	8	0.0042221
9	9	2.02e-05
10	10	1.11e-05
11	11	3.86e-05
12	12	6.3e-06
13	13	6.2e-06
14	14	2.21e-05
15	15	3.38e-05
16	16	6e-07
17	17	7e-07
18	18	2.3e-06
19	19	9e-07
20	20	1.4e-06
21	21	2e-07
22	22	1e-07
23	23	0
