0	0	0.8894395
1	1	0.0185617
2	2	0.0331731
3	3	0.0482052
4	4	0.0007078
5	5	0.0009144
6	6	0.0019039
7	7	0.0026887
8	8	0.004263
9	9	1.84e-05
10	10	1.22e-05
11	11	3.51e-05
12	12	7.1e-06
13	13	5.3e-06
14	14	2.62e-05
15	15	3.28e-05
16	16	5e-07
17	17	4e-07
18	18	2.9e-06
19	19	5e-07
20	20	1.2e-06
21	21	1e-07
22	22	0
23	23	0
