0	0	0.889342
1	1	0.0185774
2	2	0.0332193
3	3	0.0481924
4	4	0.000712
5	5	0.0009291
6	6	0.0019206
7	7	0.0027558
8	8	0.0042199
9	9	2.07e-05
10	10	1.18e-05
11	11	3.63e-05
12	12	6.1e-06
13	13	4.1e-06
14	14	1.91e-05
15	15	2.68e-05
16	16	1.3e-06
17	17	5e-07
18	18	2.3e-06
19	19	6e-07
20	20	1.6e-06
21	21	2e-07
22	22	0
23	23	1e-07
