0	0	0.8890118
1	1	0.0185489
2	2	0.0331816
3	3	0.0482277
4	4	0.0007247
5	5	0.0009375
6	6	0.0019077
7	7	0.0027291
8	8	0.0041999
9	9	1.67e-05
10	10	1.24e-05
11	11	3.4e-05
12	12	2.05e-05
13	13	3.93e-05
14	14	0.0001629
15	15	0.0002159
16	16	3.3e-06
17	17	2.5e-06
18	18	8.1e-06
19	19	5.7e-06
20	20	9.3e-06
21	21	2e-07
22	22	0
23	23	3e-07
