0	0	0.8891904
1	1	0.018579
2	2	0.0332677
3	3	0.0481412
4	4	0.0007314
5	5	0.0009154
6	6	0.0019001
7	7	0.0027217
8	8	0.0042038
9	9	2.06e-05
10	10	9.7e-06
11	11	3.68e-05
12	12	5.8e-06
13	13	1.28e-05
14	14	0.0001044
15	15	0.0001427
16	16	2.1e-06
17	17	1.2e-06
18	18	6e-06
19	19	2.9e-06
20	20	4e-06
21	21	3e-07
22	22	0
23	23	0
