0	0	0.8887054
1	1	0.0186205
2	2	0.0331658
3	3	0.0481296
4	4	0.0007126
5	5	0.0009043
6	6	0.0019051
7	7	0.0026878
8	8	0.0041718
9	9	1.77e-05
10	10	1.65e-05
11	11	7.09e-05
12	12	9.76e-05
13	13	0.0001563
14	14	0.000245
15	15	0.0003248
16	16	8e-06
17	17	4.8e-06
18	18	1.86e-05
19	19	1.38e-05
20	20	2.14e-05
21	21	1.1e-06
22	22	1e-07
23	23	5e-07
