0	0	0.8889571
1	1	0.0185543
2	2	0.03316
3	3	0.0481754
4	4	0.0007209
5	5	0.000916
6	6	0.0018925
7	7	0.002715
8	8	0.004188
9	9	2.01e-05
10	10	9.6e-06
11	11	4.13e-05
12	12	4.52e-05
13	13	8.05e-05
14	14	0.0002044
15	15	0.000274
16	16	5.3e-06
17	17	3.7e-06
18	18	1.28e-05
19	19	1e-05
20	20	1.26e-05
21	21	1.1e-06
22	22	2e-07
23	23	0
