0	0	0.8892757
1	1	0.0185759
2	2	0.033283
3	3	0.0482616
4	4	0.0007163
5	5	0.0009134
6	6	0.001934
7	7	0.0027099
8	8	0.0042189
9	9	1.8e-05
10	10	1.07e-05
11	11	3.53e-05
12	12	5e-06
13	13	5.6e-06
14	14	1.31e-05
15	15	1.94e-05
16	16	5e-07
17	17	5e-07
18	18	1.9e-06
19	19	6e-07
20	20	6e-07
21	21	0
22	22	0
23	23	1e-07
