0	0	0.8889975
1	1	0.0185362
2	2	0.0331091
3	3	0.0482081
4	4	0.0007166
5	5	0.0009113
6	6	0.0019079
7	7	0.0027334
8	8	0.0041836
9	9	2.32e-05
10	10	1.2e-05
11	11	3.82e-05
12	12	4.48e-05
13	13	7.4e-05
14	14	0.0002101
15	15	0.0002565
16	16	4e-06
17	17	3.1e-06
18	18	1.02e-05
19	19	8e-06
20	20	1.13e-05
21	21	6e-07
22	22	1e-07
23	23	2e-07
