0	0	0.8890962
1	1	0.0185188
2	2	0.0332853
3	3	0.0482394
4	4	0.0007167
5	5	0.0009235
6	6	0.0019052
7	7	0.002703
8	8	0.0041929
9	9	1.95e-05
10	10	1.06e-05
11	11	3.35e-05
12	12	1.32e-05
13	13	2.17e-05
14	14	0.0001302
15	15	0.0001682
16	16	2.2e-06
17	17	2.3e-06
18	18	6.9e-06
19	19	4.5e-06
20	20	5.8e-06
21	21	3e-07
22	22	0
23	23	1e-07
