0	0	0.8892316
1	1	0.0186033
2	2	0.033226
3	3	0.0483481
4	4	0.0007278
5	5	0.000918
6	6	0.0019309
7	7	0.0027213
8	8	0.0042142
9	9	2.04e-05
10	10	1.07e-05
11	11	3.32e-05
12	12	5.1e-06
13	13	4.8e-06
14	14	6e-07
15	15	1.5e-06
16	16	2e-07
17	17	1e-07
18	18	8e-07
19	19	5e-07
20	20	9e-07
21	21	0
22	22	0
23	23	0
