0	0	0.8891021
1	1	0.018614
2	2	0.0331922
3	3	0.04826
4	4	0.0007128
5	5	0.0009292
6	6	0.0019145
7	7	0.0026904
8	8	0.0042272
9	9	2.17e-05
10	10	1.16e-05
11	11	3.41e-05
12	12	5.4e-06
13	13	1.52e-05
14	14	0.0001069
15	15	0.0001453
16	16	2.2e-06
17	17	8e-07
18	18	6.2e-06
19	19	2.8e-06
20	20	4.9e-06
21	21	4e-07
22	22	0
23	23	1e-07
