0	0	0.8894577
1	1	0.0185946
2	2	0.0331576
3	3	0.0482583
4	4	0.0007231
5	5	0.0009169
6	6	0.0018995
7	7	0.0027194
8	8	0.0041937
9	9	2.06e-05
10	10	1.15e-05
11	11	3.18e-05
12	12	5.3e-06
13	13	4.3e-06
14	14	1.3e-06
15	15	2e-06
16	16	1e-07
17	17	4e-07
18	18	1.1e-06
19	19	5e-07
20	20	3e-07
21	21	0
22	22	0
23	23	0
