0	0	0.8895058
1	1	0.0185201
2	2	0.0332231
3	3	0.0481812
4	4	0.0007035
5	5	0.0009115
6	6	0.0019143
7	7	0.0027034
8	8	0.0042312
9	9	2e-05
10	10	1.06e-05
11	11	3.41e-05
12	12	5e-06
13	13	5.4e-06
14	14	1.09e-05
15	15	1.62e-05
16	16	6e-07
17	17	8e-07
18	18	9e-07
19	19	5e-07
20	20	8e-07
21	21	1e-07
22	22	0
23	23	0
