0	0	0.8893901
1	1	0.0185726
2	2	0.0331282
3	3	0.048135
4	4	0.0007254
5	5	0.0009241
6	6	0.0019377
7	7	0.0027084
8	8	0.0041808
9	9	1.89e-05
10	10	1.09e-05
11	11	3.49e-05
12	12	6.2e-06
13	13	6.5e-06
14	14	8.91e-05
15	15	0.0001175
16	16	2.3e-06
17	17	1e-06
18	18	4.1e-06
19	19	2.7e-06
20	20	3.1e-06
21	21	5e-07
22	22	0
23	23	0
