0	0	0.8894778
1	1	0.018522
2	2	0.0331944
3	3	0.0482995
4	4	0.0007171
5	5	0.0009075
6	6	0.0018991
7	7	0.0027242
8	8	0.0041789
9	9	2.06e-05
10	10	9.6e-06
11	11	3.6e-05
12	12	5.7e-06
13	13	4.7e-06
14	14	4e-07
15	15	6e-07
16	16	1e-07
17	17	3e-07
18	18	8e-07
19	19	2e-07
20	20	5e-07
21	21	0
22	22	0
23	23	0
