0	0	0.8886894
1	1	0.0185492
2	2	0.0331831
3	3	0.048234
4	4	0.0007154
5	5	0.0009135
6	6	0.0018856
7	7	0.0027056
8	8	0.0042461
9	9	1.86e-05
10	10	1.2e-05
11	11	5.78e-05
12	12	7.18e-05
13	13	0.0001199
14	14	0.000231
15	15	0.0003092
16	16	5.7e-06
17	17	4e-06
18	18	1.55e-05
19	19	1.26e-05
20	20	1.84e-05
21	21	1.2e-06
22	22	2e-07
23	23	2e-07
