0	0	0.8893518
1	1	0.018577
2	2	0.0333473
3	3	0.0481947
4	4	0.0007253
5	5	0.0009204
6	6	0.001908
7	7	0.0026909
8	8	0.0042055
9	9	2.04e-05
10	10	8.8e-06
11	11	3.68e-05
12	12	5e-06
13	13	4.9e-06
14	14	0
15	15	6e-07
16	16	0
17	17	5e-07
18	18	7e-07
19	19	3e-07
20	20	1e-06
21	21	0
22	22	0
23	23	1e-07
