0	0	0.8888303
1	1	0.0185026
2	2	0.0332541
3	3	0.0483069
4	4	0.000713
5	5	0.0009305
6	6	0.0019353
7	7	0.0027062
8	8	0.0041979
9	9	1.93e-05
10	10	1.12e-05
11	11	4.15e-05
12	12	3.28e-05
13	13	5.72e-05
14	14	0.0001897
15	15	0.000237
16	16	3.5e-06
17	17	4.2e-06
18	18	9.4e-06
19	19	6.7e-06
20	20	1.02e-05
21	21	3e-07
22	22	0
23	23	2e-07
