0	0	0.8894897
1	1	0.0185342
2	2	0.0332912
3	3	0.0481465
4	4	0.0007256
5	5	0.0009153
6	6	0.0018968
7	7	0.002695
8	8	0.0042283
9	9	2.1e-05
10	10	1.08e-05
11	11	3.16e-05
12	12	5.6e-06
13	13	5.4e-06
14	14	3e-07
15	15	3e-07
16	16	2e-07
17	17	7e-07
18	18	4e-07
19	19	5e-07
20	20	6e-07
21	21	0
22	22	0
23	23	0
