0	0	0.8885402
1	1	0.0185581
2	2	0.0330999
3	3	0.0482589
4	4	0.000719
5	5	0.0009033
6	6	0.0019
7	7	0.0026915
8	8	0.00419
9	9	2.27e-05
10	10	2.46e-05
11	11	8.87e-05
12	12	0.0001194
13	13	0.0001956
14	14	0.0002686
15	15	0.0003399
16	16	8e-06
17	17	6.2e-06
18	18	2.27e-05
19	19	1.64e-05
20	20	2.42e-05
21	21	1.3e-06
22	22	3e-07
23	23	5e-07
