0	0	0.8886757
1	1	0.0185704
2	2	0.0332053
3	3	0.0481374
4	4	0.0007221
5	5	0.0009096
6	6	0.0019203
7	7	0.0026829
8	8	0.0041813
9	9	2.1e-05
10	10	1.62e-05
11	11	6.84e-05
12	12	9.77e-05
13	13	0.0001489
14	14	0.0002524
15	15	0.0003256
16	16	8.1e-06
17	17	5e-06
18	18	1.66e-05
19	19	1.36e-05
20	20	2.06e-05
21	21	6e-07
22	22	1e-07
23	23	2e-07
