0	0	0.8890674
1	1	0.0186395
2	2	0.0332121
3	3	0.0483326
4	4	0.0007121
5	5	0.0009206
6	6	0.0019065
7	7	0.0027004
8	8	0.0041555
9	9	1.81e-05
10	10	1.17e-05
11	11	3.45e-05
12	12	5.5e-06
13	13	1.27e-05
14	14	0.0001062
15	15	0.0001458
16	16	2.3e-06
17	17	1.3e-06
18	18	5.5e-06
19	19	4e-06
20	20	5.1e-06
21	21	5e-07
22	22	0
23	23	1e-07
