0	0	0.8891439
1	1	0.0185311
2	2	0.0333193
3	3	0.0483639
4	4	0.0007275
5	5	0.0009144
6	6	0.0019266
7	7	0.0027458
8	8	0.0041871
9	9	2.06e-05
10	10	1.05e-05
11	11	3.32e-05
12	12	6.4e-06
13	13	4.8e-06
14	14	2.24e-05
15	15	3.71e-05
16	16	6e-07
17	17	7e-07
18	18	2.6e-06
19	19	6e-07
20	20	7e-07
21	21	0
22	22	1e-07
23	23	1e-07
