0	0	0.8894622
1	1	0.0185637
2	2	0.0331894
3	3	0.0482391
4	4	0.0007285
5	5	0.0009006
6	6	0.0019014
7	7	0.0027146
8	8	0.004219
9	9	2.06e-05
10	10	1.22e-05
11	11	3.43e-05
12	12	5e-06
13	13	5.6e-06
14	14	3e-07
15	15	2e-07
16	16	2e-07
17	17	6e-07
18	18	9e-07
19	19	1.2e-06
20	20	4e-07
21	21	0
22	22	0
23	23	0
