0	0	0.8887777
1	1	0.0184839
2	2	0.0332831
3	3	0.0482544
4	4	0.0007268
5	5	0.0008876
6	6	0.001926
7	7	0.0027039
8	8	0.0042093
9	9	1.83e-05
10	10	1.06e-05
11	11	4.16e-05
12	12	5.16e-05
13	13	8.54e-05
14	14	0.0002105
15	15	0.0002844
16	16	5.1e-06
17	17	4.3e-06
18	18	1.21e-05
19	19	7.5e-06
20	20	1.49e-05
21	21	8e-07
22	22	0
23	23	2e-07
