0	0	0.8883731
1	1	0.0185956
2	2	0.0333118
3	3	0.0481647
4	4	0.0007259
5	5	0.000927
6	6	0.0019277
7	7	0.0026909
8	8	0.0041839
9	9	2.3e-05
10	10	2.22e-05
11	11	8.34e-05
12	12	0.0001133
13	13	0.0001712
14	14	0.000267
15	15	0.000341
16	16	6.8e-06
17	17	7e-06
18	18	1.96e-05
19	19	1.67e-05
20	20	2.57e-05
21	21	1.1e-06
22	22	5e-07
23	23	9e-07
