0	0	0.8894267
1	1	0.0185739
2	2	0.0331717
3	3	0.0481707
4	4	0.0007145
5	5	0.0009114
6	6	0.0018908
7	7	0.0027484
8	8	0.0042107
9	9	1.92e-05
10	10	1.07e-05
11	11	3.71e-05
12	12	4.7e-06
13	13	6.6e-06
14	14	3.85e-05
15	15	5.66e-05
16	16	1.1e-06
17	17	7e-07
18	18	2.6e-06
19	19	1.5e-06
20	20	1.8e-06
21	21	1e-07
22	22	0
23	23	0
