0	0	0.8893856
1	1	0.0185757
2	2	0.0332649
3	3	0.0482127
4	4	0.0007255
5	5	0.0009191
6	6	0.0019121
7	7	0.0027162
8	8	0.0042088
9	9	1.82e-05
10	10	1.22e-05
11	11	3.48e-05
12	12	6.1e-06
13	13	5.3e-06
14	14	4e-07
15	15	3e-07
16	16	1e-07
17	17	1e-06
18	18	3e-07
19	19	3e-07
20	20	2e-07
21	21	1e-07
22	22	0
23	23	1e-07
