0	0	0.8893996
1	1	0.0185331
2	2	0.0333357
3	3	0.0481655
4	4	0.0007142
5	5	0.0009089
6	6	0.001925
7	7	0.0027217
8	8	0.0042157
9	9	1.88e-05
10	10	8.5e-06
11	11	3.73e-05
12	12	7.2e-06
13	13	5.3e-06
14	14	5e-07
15	15	5e-07
16	16	3e-07
17	17	3e-07
18	18	9e-07
19	19	2e-07
20	20	7e-07
21	21	0
22	22	1e-07
23	23	0
