0	0	0.8890247
1	1	0.0185857
2	2	0.0333261
3	3	0.0482837
4	4	0.0007142
5	5	0.0009026
6	6	0.001882
7	7	0.0027178
8	8	0.0041988
9	9	2.01e-05
10	10	1e-05
11	11	3.65e-05
12	12	5.2e-06
13	13	1.42e-05
14	14	0.0001109
15	15	0.0001517
16	16	2.5e-06
17	17	1.2e-06
18	18	4.1e-06
19	19	2.8e-06
20	20	4.8e-06
21	21	2e-07
22	22	0
23	23	2e-07
