0	0	0.8895427
1	1	0.0185154
2	2	0.0331666
3	3	0.0482318
4	4	0.0007296
5	5	0.0009348
6	6	0.001898
7	7	0.0027203
8	8	0.0041789
9	9	2.13e-05
10	10	1.11e-05
11	11	3.45e-05
12	12	5.2e-06
13	13	7e-06
14	14	1e-07
15	15	1e-07
16	16	0
17	17	5e-07
18	18	6e-07
19	19	9e-07
20	20	6e-07
21	21	0
22	22	0
23	23	0
