0	0	0.8895656
1	1	0.0185539
2	2	0.0331237
3	3	0.0481535
4	4	0.0007233
5	5	0.0009162
6	6	0.0019253
7	7	0.0027401
8	8	0.0042045
9	9	1.91e-05
10	10	1.15e-05
11	11	3.14e-05
12	12	5.7e-06
13	13	5.2e-06
14	14	6.4e-06
15	15	9.9e-06
16	16	3e-07
17	17	9e-07
18	18	2.4e-06
19	19	3e-07
20	20	7e-07
21	21	1e-07
22	22	0
23	23	0
