0	0	0.8895843
1	1	0.0184759
2	2	0.0332874
3	3	0.0481765
4	4	0.0007203
5	5	0.0008968
6	6	0.0019055
7	7	0.0026872
8	8	0.0041841
9	9	2.09e-05
10	10	9.9e-06
11	11	3.52e-05
12	12	4.9e-06
13	13	6.1e-06
14	14	9e-07
15	15	1.8e-06
16	16	4e-07
17	17	3e-07
18	18	6e-07
19	19	4e-07
20	20	5e-07
21	21	1e-07
22	22	0
23	23	0
