0	0	0.8892447
1	1	0.018616
2	2	0.0332404
3	3	0.048311
4	4	0.0007182
5	5	0.0009216
6	6	0.0019121
7	7	0.0027144
8	8	0.0042404
9	9	1.91e-05
10	10	1.11e-05
11	11	3.5e-05
12	12	6e-06
13	13	5.7e-06
14	14	2e-07
15	15	0
16	16	1e-07
17	17	5e-07
18	18	8e-07
19	19	5e-07
20	20	2.2e-06
21	21	0
22	22	0
23	23	0
