0	0	0.8893871
1	1	0.0184949
2	2	0.0331864
3	3	0.0482266
4	4	0.0007373
5	5	0.0009208
6	6	0.0019013
7	7	0.0027372
8	8	0.0042134
9	9	2.04e-05
10	10	1.04e-05
11	11	3.37e-05
12	12	4.6e-06
13	13	4.9e-06
14	14	4.79e-05
15	15	6.61e-05
16	16	6e-07
17	17	6e-07
18	18	2e-06
19	19	1.1e-06
20	20	2.3e-06
21	21	3e-07
22	22	0
23	23	1e-07
