0	0	0.8893554
1	1	0.0185387
2	2	0.0332371
3	3	0.0483168
4	4	0.0007247
5	5	0.0009117
6	6	0.0019149
7	7	0.0027099
8	8	0.0042151
9	9	2.07e-05
10	10	9.7e-06
11	11	3.06e-05
12	12	4.6e-06
13	13	4.8e-06
14	14	1e-07
15	15	3e-07
16	16	1e-07
17	17	7e-07
18	18	7e-07
19	19	1.1e-06
20	20	2.2e-06
21	21	1e-07
22	22	0
23	23	0
