0	0	0.8894672
1	1	0.0185813
2	2	0.0331673
3	3	0.0482621
4	4	0.0007199
5	5	0.0009134
6	6	0.0018968
7	7	0.0027042
8	8	0.0042094
9	9	1.82e-05
10	10	1.13e-05
11	11	3.33e-05
12	12	4.9e-06
13	13	6.4e-06
14	14	3e-07
15	15	0
16	16	2e-07
17	17	4e-07
18	18	1.1e-06
19	19	9e-07
20	20	1.3e-06
21	21	0
22	22	0
23	23	1e-07
