0	0	0.8889775
1	1	0.0185901
2	2	0.0331272
3	3	0.0482381
4	4	0.0007291
5	5	0.0009102
6	6	0.0019009
7	7	0.0026978
8	8	0.0042053
9	9	1.79e-05
10	10	1.15e-05
11	11	3.45e-05
12	12	3.44e-05
13	13	6.11e-05
14	14	0.0001885
15	15	0.0002365
16	16	4.9e-06
17	17	4.1e-06
18	18	1.11e-05
19	19	6.6e-06
20	20	1.17e-05
21	21	8e-07
22	22	0
23	23	2e-07
