0	0	0.8893074
1	1	0.018494
2	2	0.0331798
3	3	0.0482235
4	4	0.0007237
5	5	0.0009107
6	6	0.0019236
7	7	0.002728
8	8	0.0042191
9	9	1.85e-05
10	10	1.09e-05
11	11	3.57e-05
12	12	4.7e-06
13	13	4.7e-06
14	14	8.98e-05
15	15	0.0001108
16	16	2e-06
17	17	1.1e-06
18	18	5.6e-06
19	19	2.9e-06
20	20	3.2e-06
21	21	2e-07
22	22	0
23	23	1e-07
