0	0	0.8887736
1	1	0.0185381
2	2	0.0333019
3	3	0.048106
4	4	0.0007075
5	5	0.0009053
6	6	0.0019002
7	7	0.00269
8	8	0.0041971
9	9	1.91e-05
10	10	1.35e-05
11	11	5.7e-05
12	12	7.13e-05
13	13	0.0001174
14	14	0.0002355
15	15	0.0003075
16	16	5.9e-06
17	17	4.9e-06
18	18	1.53e-05
19	19	1.35e-05
20	20	1.8e-05
21	21	1e-06
22	22	1e-07
23	23	3e-07
