0	0	0.8889108
1	1	0.0184822
2	2	0.0332773
3	3	0.0481613
4	4	0.0007441
5	5	0.0009251
6	6	0.0018979
7	7	0.0026887
8	8	0.0041919
9	9	1.86e-05
10	10	1.06e-05
11	11	4.11e-05
12	12	4.74e-05
13	13	8.48e-05
14	14	0.0002063
15	15	0.0002693
16	16	5.3e-06
17	17	4.1e-06
18	18	1.02e-05
19	19	8.5e-06
20	20	1.36e-05
21	21	4e-07
22	22	0
23	23	5e-07
