0	0	0.8894139
1	1	0.0185792
2	2	0.0331953
3	3	0.0482512
4	4	0.0007048
5	5	0.0009353
6	6	0.0019041
7	7	0.0027224
8	8	0.0042161
9	9	1.93e-05
10	10	1e-05
11	11	3.37e-05
12	12	5.9e-06
13	13	4.7e-06
14	14	4e-07
15	15	7e-07
16	16	2e-07
17	17	3e-07
18	18	1.1e-06
19	19	8e-07
20	20	4e-07
21	21	1e-07
22	22	0
23	23	1e-07
