0	0	0.8894227
1	1	0.0185215
2	2	0.0332352
3	3	0.0482169
4	4	0.000717
5	5	0.0009249
6	6	0.0018972
7	7	0.0027163
8	8	0.0042362
9	9	2.1e-05
10	10	1.01e-05
11	11	3.6e-05
12	12	5.3e-06
13	13	3.9e-06
14	14	1.3e-05
15	15	1.9e-05
16	16	6e-07
17	17	3e-07
18	18	1.5e-06
19	19	2e-07
20	20	1e-06
21	21	1e-07
22	22	0
23	23	1e-07
