0	0	0.8891764
1	1	0.0185914
2	2	0.0333535
3	3	0.0483025
4	4	0.0007266
5	5	0.0009143
6	6	0.0019007
7	7	0.0026911
8	8	0.0042616
9	9	2.04e-05
10	10	9.9e-06
11	11	3.17e-05
12	12	4.9e-06
13	13	4.3e-06
14	14	2.5e-06
15	15	4.7e-06
16	16	4e-07
17	17	2e-07
18	18	1.5e-06
19	19	9e-07
20	20	5e-07
21	21	0
22	22	0
23	23	0
