0	0	0.8893333
1	1	0.0185768
2	2	0.0332502
3	3	0.0481468
4	4	0.0007246
5	5	0.0009202
6	6	0.0019304
7	7	0.0027382
8	8	0.004195
9	9	1.97e-05
10	10	1.01e-05
11	11	3.7e-05
12	12	4.4e-06
13	13	5.7e-06
14	14	4.28e-05
15	15	5.67e-05
16	16	7e-07
17	17	1e-06
18	18	2.5e-06
19	19	1.4e-06
20	20	2.4e-06
21	21	1e-07
22	22	0
23	23	0
