0	0	0.8890471
1	1	0.018592
2	2	0.0331394
3	3	0.0482785
4	4	0.0007164
5	5	0.0009268
6	6	0.0019221
7	7	0.0026978
8	8	0.0041772
9	9	1.73e-05
10	10	9.1e-06
11	11	3.44e-05
12	12	2.08e-05
13	13	3.52e-05
14	14	0.0001547
15	15	0.0002052
16	16	2.5e-06
17	17	2.6e-06
18	18	7.2e-06
19	19	4.8e-06
20	20	8.1e-06
21	21	6e-07
22	22	1e-07
23	23	1e-07
