0	0	0.8895282
1	1	0.0184986
2	2	0.0332316
3	3	0.0481921
4	4	0.000738
5	5	0.0008976
6	6	0.0019025
7	7	0.0027403
8	8	0.004194
9	9	1.7e-05
10	10	1.16e-05
11	11	3.37e-05
12	12	5.3e-06
13	13	5.5e-06
14	14	1e-07
15	15	6e-07
16	16	1e-07
17	17	3e-07
18	18	7e-07
19	19	1e-06
20	20	1.2e-06
21	21	0
22	22	0
23	23	0
