0	0	0.8889238
1	1	0.0185841
2	2	0.0332813
3	3	0.0481842
4	4	0.0007185
5	5	0.0009307
6	6	0.001937
7	7	0.0026958
8	8	0.0041752
9	9	2.03e-05
10	10	1.2e-05
11	11	3.84e-05
12	12	2.49e-05
13	13	4.41e-05
14	14	0.0001741
15	15	0.0002227
16	16	4.4e-06
17	17	2.1e-06
18	18	1.04e-05
19	19	6.1e-06
20	20	9e-06
21	21	8e-07
22	22	0
23	23	1e-07
