0	0	0.8894351
1	1	0.0185889
2	2	0.0331726
3	3	0.0482495
4	4	0.0007289
5	5	0.0009237
6	6	0.0018974
7	7	0.002712
8	8	0.0042134
9	9	2e-05
10	10	9.3e-06
11	11	3.42e-05
12	12	5.7e-06
13	13	5.3e-06
14	14	8e-07
15	15	1.1e-06
16	16	3e-07
17	17	7e-07
18	18	7e-07
19	19	3e-07
20	20	1e-07
21	21	0
22	22	0
23	23	0
