0	0	0.8887404
1	1	0.0185695
2	2	0.0331748
3	3	0.0482682
4	4	0.0007078
5	5	0.0009118
6	6	0.0018934
7	7	0.002709
8	8	0.0041854
9	9	2.02e-05
10	10	1.26e-05
11	11	5.55e-05
12	12	6.48e-05
13	13	0.0001091
14	14	0.0002233
15	15	0.000298
16	16	5.8e-06
17	17	2.7e-06
18	18	1.55e-05
19	19	1.23e-05
20	20	1.86e-05
21	21	1e-06
22	22	1e-07
23	23	2e-07
