0	0	0.8884016
1	1	0.0185007
2	2	0.0333223
3	3	0.0482154
4	4	0.0007098
5	5	0.0009113
6	6	0.0018866
7	7	0.0026669
8	8	0.0042153
9	9	2.53e-05
10	10	2.23e-05
11	11	8.99e-05
12	12	0.0001336
13	13	0.0001981
14	14	0.0002761
15	15	0.0003429
16	16	9.3e-06
17	17	7.3e-06
18	18	2.07e-05
19	19	1.81e-05
20	20	2.44e-05
21	21	1.4e-06
22	22	2e-07
23	23	5e-07
