0	0	0.8894835
1	1	0.0185012
2	2	0.0332529
3	3	0.0481606
4	4	0.0007232
5	5	0.0009073
6	6	0.0019392
7	7	0.0027061
8	8	0.0042187
9	9	2.1e-05
10	10	1.18e-05
11	11	3.51e-05
12	12	5.5e-06
13	13	5.6e-06
14	14	9.7e-06
15	15	1.42e-05
16	16	1e-07
17	17	4e-07
18	18	2.2e-06
19	19	5e-07
20	20	1e-06
21	21	0
22	22	1e-07
23	23	1e-07
