0	0	0.8889712
1	1	0.0185562
2	2	0.0331188
3	3	0.0482352
4	4	0.000713
5	5	0.0009277
6	6	0.001907
7	7	0.002711
8	8	0.0041682
9	9	2.06e-05
10	10	1.24e-05
11	11	3.91e-05
12	12	4.59e-05
13	13	7.38e-05
14	14	0.0002056
15	15	0.0002538
16	16	5.5e-06
17	17	1.9e-06
18	18	1.04e-05
19	19	8.3e-06
20	20	1.34e-05
21	21	6e-07
22	22	0
23	23	4e-07
