0	0	0.8887649
1	1	0.0185309
2	2	0.0332888
3	3	0.0481571
4	4	0.0007111
5	5	0.0009195
6	6	0.0019157
7	7	0.0027245
8	8	0.0041601
9	9	2.03e-05
10	10	1.12e-05
11	11	5.29e-05
12	12	6.36e-05
13	13	0.0001073
14	14	0.0002268
15	15	0.0002956
16	16	5.1e-06
17	17	3.7e-06
18	18	1.28e-05
19	19	1.11e-05
20	20	1.59e-05
21	21	5e-07
22	22	3e-07
23	23	3e-07
