0	0	0.8894147
1	1	0.0185593
2	2	0.0332199
3	3	0.0482934
4	4	0.0007238
5	5	0.0009193
6	6	0.0019006
7	7	0.0026844
8	8	0.0042012
9	9	1.94e-05
10	10	1.31e-05
11	11	3.43e-05
12	12	5.8e-06
13	13	5.6e-06
14	14	6e-07
15	15	2e-06
16	16	5e-07
17	17	5e-07
18	18	8e-07
19	19	4e-07
20	20	4e-07
21	21	0
22	22	0
23	23	0
