0	0	0.8886191
1	1	0.0185538
2	2	0.0332021
3	3	0.0481743
4	4	0.0007286
5	5	0.0009151
6	6	0.0018973
7	7	0.0027312
8	8	0.0042028
9	9	1.84e-05
10	10	1.77e-05
11	11	7.13e-05
12	12	9.57e-05
13	13	0.0001466
14	14	0.0002461
15	15	0.0003164
16	16	7.7e-06
17	17	4.8e-06
18	18	1.68e-05
19	19	1.35e-05
20	20	1.92e-05
21	21	9e-07
22	22	2e-07
23	23	4e-07
