0	0	0.8894555
1	1	0.0185476
2	2	0.033245
3	3	0.0482331
4	4	0.0007147
5	5	0.0009078
6	6	0.0019208
7	7	0.0026754
8	8	0.0042197
9	9	2.07e-05
10	10	1.02e-05
11	11	3.57e-05
12	12	5.2e-06
13	13	5.4e-06
14	14	1e-07
15	15	2e-07
16	16	1e-07
17	17	8e-07
18	18	1e-06
19	19	8e-07
20	20	2e-07
21	21	0
22	22	0
23	23	0
