0	0	0.8895987
1	1	0.0185101
2	2	0.0331999
3	3	0.0482069
4	4	0.0007168
5	5	0.0008932
6	6	0.0019006
7	7	0.002703
8	8	0.0041861
9	9	2.21e-05
10	10	1.13e-05
11	11	3.6e-05
12	12	6.4e-06
13	13	5.3e-06
14	14	1e-07
15	15	5e-07
16	16	4e-07
17	17	1.2e-06
18	18	8e-07
19	19	4e-07
20	20	1e-07
21	21	0
22	22	1e-07
23	23	0
