0	0	0.8888418
1	1	0.0185041
2	2	0.0333463
3	3	0.0482323
4	4	0.0007152
5	5	0.0009126
6	6	0.0019233
7	7	0.0027003
8	8	0.0041822
9	9	1.75e-05
10	10	1.05e-05
11	11	3.56e-05
12	12	3.96e-05
13	13	6.2e-05
14	14	0.0001892
15	15	0.0002516
16	16	3.8e-06
17	17	2.3e-06
18	18	8.7e-06
19	19	8.6e-06
20	20	1.17e-05
21	21	8e-07
22	22	0
23	23	0
