0	0	0.889573
1	1	0.0185516
2	2	0.0331322
3	3	0.0481362
4	4	0.0007088
5	5	0.0009205
6	6	0.0019261
7	7	0.0027407
8	8	0.0042318
9	9	1.92e-05
10	10	9.9e-06
11	11	3.81e-05
12	12	4.9e-06
13	13	4.4e-06
14	14	4e-07
15	15	1e-07
16	16	2e-07
17	17	3e-07
18	18	4e-07
19	19	8e-07
20	20	4e-07
21	21	0
22	22	0
23	23	0
