0	0	0.8892748
1	1	0.0185056
2	2	0.033141
3	3	0.0482335
4	4	0.0007347
5	5	0.0009068
6	6	0.0019251
7	7	0.0027155
8	8	0.0041982
9	9	2.05e-05
10	10	1.16e-05
11	11	3.38e-05
12	12	6.4e-06
13	13	1.49e-05
14	14	0.00011
15	15	0.0001511
16	16	1.5e-06
17	17	1.6e-06
18	18	5.7e-06
19	19	2.2e-06
20	20	5e-06
21	21	4e-07
22	22	0
23	23	1e-07
