0	0	0.8894276
1	1	0.0185941
2	2	0.0332378
3	3	0.0481864
4	4	0.0007243
5	5	0.0009233
6	6	0.0019048
7	7	0.0027028
8	8	0.0042125
9	9	2.14e-05
10	10	1.34e-05
11	11	3.42e-05
12	12	6.1e-06
13	13	4.2e-06
14	14	1.7e-06
15	15	2.6e-06
16	16	2e-07
17	17	6e-07
18	18	1.2e-06
19	19	1e-07
20	20	6e-07
21	21	1e-07
22	22	0
23	23	0
