0	0	0.8892834
1	1	0.0185888
2	2	0.0331616
3	3	0.0481874
4	4	0.0007347
5	5	0.000908
6	6	0.0018923
7	7	0.0027078
8	8	0.0041946
9	9	1.92e-05
10	10	1.04e-05
11	11	3.62e-05
12	12	6.9e-06
13	13	9.2e-06
14	14	0.0001089
15	15	0.0001361
16	16	2.1e-06
17	17	1e-06
18	18	5.1e-06
19	19	2.4e-06
20	20	3.8e-06
21	21	1e-07
22	22	0
23	23	0
