0	0	0.8893673
1	1	0.0185444
2	2	0.0331912
3	3	0.048339
4	4	0.0007137
5	5	0.0009131
6	6	0.0019093
7	7	0.0027112
8	8	0.0042255
9	9	2.06e-05
10	10	1.06e-05
11	11	3.64e-05
12	12	4.7e-06
13	13	5.9e-06
14	14	1.8e-06
15	15	2.5e-06
16	16	3e-07
17	17	3e-07
18	18	1.1e-06
19	19	1e-07
20	20	1e-06
21	21	0
22	22	0
23	23	0
