0	0	0.889376
1	1	0.0185569
2	2	0.0332361
3	3	0.0482704
4	4	0.000713
5	5	0.0009153
6	6	0.001914
7	7	0.0027042
8	8	0.0041981
9	9	1.8e-05
10	10	1.15e-05
11	11	3.24e-05
12	12	4.5e-06
13	13	4.9e-06
14	14	1.63e-05
15	15	2.21e-05
16	16	1.2e-06
17	17	6e-07
18	18	2.1e-06
19	19	9e-07
20	20	7e-07
21	21	6e-07
22	22	1e-07
23	23	1e-07
