0	0	0.8888165
1	1	0.018489
2	2	0.0331881
3	3	0.0481439
4	4	0.0007191
5	5	0.0009142
6	6	0.0019087
7	7	0.0027252
8	8	0.0042111
9	9	2.17e-05
10	10	1.07e-05
11	11	5.8e-05
12	12	7.21e-05
13	13	0.0001212
14	14	0.0002386
15	15	0.0003063
16	16	7.3e-06
17	17	4.2e-06
18	18	1.42e-05
19	19	1.14e-05
20	20	1.66e-05
21	21	1.3e-06
22	22	1e-07
23	23	5e-07
