0	0	0.8893747
1	1	0.0185815
2	2	0.0331573
3	3	0.0483496
4	4	0.0007102
5	5	0.0009136
6	6	0.0019074
7	7	0.0027205
8	8	0.0042053
9	9	1.9e-05
10	10	1.25e-05
11	11	3.32e-05
12	12	5.7e-06
13	13	5.5e-06
14	14	2e-07
15	15	2e-07
16	16	1e-07
17	17	9e-07
18	18	5e-07
19	19	6e-07
20	20	1.4e-06
21	21	1e-07
22	22	0
23	23	0
