0	0	0.8893045
1	1	0.0184973
2	2	0.0332697
3	3	0.048231
4	4	0.0007172
5	5	0.0009369
6	6	0.0019211
7	7	0.0027205
8	8	0.0042193
9	9	1.72e-05
10	10	9.4e-06
11	11	3.43e-05
12	12	6.6e-06
13	13	4.7e-06
14	14	4.27e-05
15	15	5.84e-05
16	16	6e-07
17	17	6e-07
18	18	4.3e-06
19	19	1.2e-06
20	20	1.9e-06
21	21	2e-07
22	22	1e-07
23	23	3e-07
