0	0	0.8894202
1	1	0.0186408
2	2	0.0332138
3	3	0.0482031
4	4	0.0007184
5	5	0.0009459
6	6	0.0018999
7	7	0.0026971
8	8	0.0041792
9	9	1.99e-05
10	10	1.32e-05
11	11	3.52e-05
12	12	4.1e-06
13	13	5.7e-06
14	14	0
15	15	1e-07
16	16	0
17	17	8e-07
18	18	7e-07
19	19	8e-07
20	20	1.1e-06
21	21	0
22	22	0
23	23	0
