0	0	0.8890176
1	1	0.0186298
2	2	0.0331837
3	3	0.0482472
4	4	0.0007289
5	5	0.0009186
6	6	0.0018873
7	7	0.0026765
8	8	0.004143
9	9	1.79e-05
10	10	9.9e-06
11	11	3.12e-05
12	12	2.76e-05
13	13	4.94e-05
14	14	0.0001708
15	15	0.0002301
16	16	3.4e-06
17	17	2.1e-06
18	18	9.5e-06
19	19	5.5e-06
20	20	9.1e-06
21	21	9e-07
22	22	0
23	23	0
