0	0	0.8894769
1	1	0.0185455
2	2	0.033244
3	3	0.0482226
4	4	0.0007277
5	5	0.0009163
6	6	0.0019022
7	7	0.0026903
8	8	0.0041922
9	9	2.15e-05
10	10	8.8e-06
11	11	3.49e-05
12	12	6.5e-06
13	13	5.3e-06
14	14	8e-07
15	15	1.9e-06
16	16	2e-07
17	17	3e-07
18	18	7e-07
19	19	6e-07
20	20	8e-07
21	21	0
22	22	0
23	23	0
