0	0	0.8889833
1	1	0.0184924
2	2	0.0332379
3	3	0.0482103
4	4	0.0007265
5	5	0.0009226
6	6	0.0018982
7	7	0.0027052
8	8	0.0041903
9	9	1.95e-05
10	10	1.2e-05
11	11	3.29e-05
12	12	3.82e-05
13	13	6.32e-05
14	14	0.0001871
15	15	0.0002408
16	16	3.9e-06
17	17	3.4e-06
18	18	9.3e-06
19	19	8.4e-06
20	20	1.38e-05
21	21	4e-07
22	22	2e-07
23	23	2e-07
