0	0	0.8894503
1	1	0.0185496
2	2	0.033232
3	3	0.048241
4	4	0.0007249
5	5	0.0009147
6	6	0.0018928
7	7	0.002726
8	8	0.0041885
9	9	1.92e-05
10	10	1.13e-05
11	11	3.5e-05
12	12	5.7e-06
13	13	5.7e-06
14	14	0
15	15	4e-07
16	16	0
17	17	5e-07
18	18	7e-07
19	19	5e-07
20	20	1.1e-06
21	21	0
22	22	0
23	23	1e-07
