0	0	0.8887462
1	1	0.0185136
2	2	0.0332748
3	3	0.04795
4	4	0.0007013
5	5	0.0009154
6	6	0.0018966
7	7	0.0027108
8	8	0.0041619
9	9	2.28e-05
10	10	2.18e-05
11	11	8.03e-05
12	12	0.0001177
13	13	0.0001908
14	14	0.0002745
15	15	0.000342
16	16	7.3e-06
17	17	7e-06
18	18	1.83e-05
19	19	1.83e-05
20	20	2.69e-05
21	21	1.3e-06
22	22	2e-07
23	23	2e-07
