0	0	0.8889769
1	1	0.0184882
2	2	0.0331574
3	3	0.0482849
4	4	0.0007157
5	5	0.0009074
6	6	0.0018915
7	7	0.002725
8	8	0.0042254
9	9	1.88e-05
10	10	1.02e-05
11	11	3.75e-05
12	12	3.51e-05
13	13	6.03e-05
14	14	0.0001881
15	15	0.0002416
16	16	3.3e-06
17	17	2.3e-06
18	18	1e-05
19	19	8e-06
20	20	1.15e-05
21	21	8e-07
22	22	0
23	23	1e-07
