0	0	0.8895461
1	1	0.0184939
2	2	0.033242
3	3	0.0481537
4	4	0.0007033
5	5	0.0009171
6	6	0.0019168
7	7	0.0027006
8	8	0.0042218
9	9	1.97e-05
10	10	1.05e-05
11	11	3.4e-05
12	12	6.2e-06
13	13	5.3e-06
14	14	9.8e-06
15	15	1.35e-05
16	16	8e-07
17	17	9e-07
18	18	2.1e-06
19	19	3e-07
20	20	1.2e-06
21	21	2e-07
22	22	0
23	23	2e-07
