0	0	0.8892977
1	1	0.0185674
2	2	0.0331853
3	3	0.0482616
4	4	0.000722
5	5	0.000916
6	6	0.0019013
7	7	0.0026973
8	8	0.0041956
9	9	1.87e-05
10	10	9.3e-06
11	11	3.22e-05
12	12	5e-06
13	13	4e-06
14	14	7.4e-05
15	15	9.96e-05
16	16	1.3e-06
17	17	1e-06
18	18	5e-06
19	19	1.9e-06
20	20	3.6e-06
21	21	1e-07
22	22	1e-07
23	23	0
