0	0	0.8894909
1	1	0.0185157
2	2	0.0331987
3	3	0.0482615
4	4	0.0007366
5	5	0.000907
6	6	0.0019084
7	7	0.0027049
8	8	0.0041985
9	9	2.18e-05
10	10	1.07e-05
11	11	3.22e-05
12	12	5e-06
13	13	4.8e-06
14	14	6e-07
15	15	5e-07
16	16	1e-07
17	17	6e-07
18	18	7e-07
19	19	4e-07
20	20	3e-07
21	21	1e-07
22	22	0
23	23	0
