0	0	0.8892847
1	1	0.0185812
2	2	0.0332185
3	3	0.0483109
4	4	0.000708
5	5	0.0009145
6	6	0.0018818
7	7	0.0026886
8	8	0.0041839
9	9	2.09e-05
10	10	1.39e-05
11	11	3.53e-05
12	12	6.4e-06
13	13	5.7e-06
14	14	5.35e-05
15	15	8.02e-05
16	16	1.3e-06
17	17	9e-07
18	18	4.9e-06
19	19	1.7e-06
20	20	3.1e-06
21	21	0
22	22	0
23	23	1e-07
