0	0	0.8893852
1	1	0.0184807
2	2	0.0332276
3	3	0.0480742
4	4	0.000711
5	5	0.0009176
6	6	0.0018915
7	7	0.0027265
8	8	0.0041953
9	9	1.94e-05
10	10	1.24e-05
11	11	3.26e-05
12	12	8.8e-06
13	13	1.81e-05
14	14	0.0001189
15	15	0.0001612
16	16	2.2e-06
17	17	1.9e-06
18	18	4.5e-06
19	19	4e-06
20	20	6e-06
21	21	3e-07
22	22	0
23	23	1e-07
