0	0	0.8889096
1	1	0.0185662
2	2	0.0331527
3	3	0.0481434
4	4	0.00072
5	5	0.0009172
6	6	0.0019091
7	7	0.0027143
8	8	0.0042206
9	9	2.02e-05
10	10	9.7e-06
11	11	4.57e-05
12	12	5.49e-05
13	13	8.84e-05
14	14	0.0002143
15	15	0.000271
16	16	3.9e-06
17	17	3.4e-06
18	18	1.04e-05
19	19	8.4e-06
20	20	1.54e-05
21	21	9e-07
22	22	1e-07
23	23	2e-07
