0	0	0.8895246
1	1	0.0185418
2	2	0.0331777
3	3	0.0481025
4	4	0.0007188
5	5	0.0009021
6	6	0.0019092
7	7	0.0027232
8	8	0.0041799
9	9	2.02e-05
10	10	9.2e-06
11	11	3.51e-05
12	12	4.8e-06
13	13	6e-06
14	14	5.93e-05
15	15	7.57e-05
16	16	1e-06
17	17	1.1e-06
18	18	3.6e-06
19	19	1.7e-06
20	20	2.2e-06
21	21	3e-07
22	22	0
23	23	0
