0	0	0.8889238
1	1	0.0184861
2	2	0.0332043
3	3	0.04824
4	4	0.0007142
5	5	0.0009287
6	6	0.0019159
7	7	0.0026796
8	8	0.00424
9	9	1.86e-05
10	10	1.02e-05
11	11	3.81e-05
12	12	4.34e-05
13	13	6.84e-05
14	14	0.0001922
15	15	0.0002553
16	16	3.7e-06
17	17	2.9e-06
18	18	9e-06
19	19	9.6e-06
20	20	1.46e-05
21	21	9e-07
22	22	3e-07
23	23	2e-07
