0	0	0.8892069
1	1	0.0185153
2	2	0.0333028
3	3	0.0482712
4	4	0.0007257
5	5	0.0009364
6	6	0.0019104
7	7	0.0027075
8	8	0.0042285
9	9	1.9e-05
10	10	1.14e-05
11	11	3.69e-05
12	12	5.2e-06
13	13	6.2e-06
14	14	4.62e-05
15	15	6.22e-05
16	16	9e-07
17	17	6e-07
18	18	2.8e-06
19	19	1.2e-06
20	20	2.1e-06
21	21	4e-07
22	22	0
23	23	2e-07
