0	0	0.8888138
1	1	0.0185293
2	2	0.033128
3	3	0.0482491
4	4	0.0007278
5	5	0.0009089
6	6	0.0018919
7	7	0.0027018
8	8	0.0042258
9	9	1.93e-05
10	10	1.26e-05
11	11	5.29e-05
12	12	6.44e-05
13	13	0.0001053
14	14	0.0002298
15	15	0.0002903
16	16	6.4e-06
17	17	4.5e-06
18	18	1.06e-05
19	19	1.03e-05
20	20	1.52e-05
21	21	1.3e-06
22	22	3e-07
23	23	4e-07
