0	0	0.8891232
1	1	0.0186616
2	2	0.0332288
3	3	0.0482495
4	4	0.0007193
5	5	0.0009266
6	6	0.0019124
7	7	0.0026917
8	8	0.0042026
9	9	2.03e-05
10	10	9.7e-06
11	11	3.58e-05
12	12	4.6e-06
13	13	4.7e-06
14	14	8.5e-05
15	15	0.0001104
16	16	2.5e-06
17	17	1.3e-06
18	18	3.5e-06
19	19	2.2e-06
20	20	3.8e-06
21	21	2e-07
22	22	0
23	23	3e-07
