0	0	0.8887391
1	1	0.0185728
2	2	0.0332348
3	3	0.0481978
4	4	0.0007068
5	5	0.0009154
6	6	0.0018927
7	7	0.0026716
8	8	0.0041865
9	9	1.87e-05
10	10	1.4e-05
11	11	6.13e-05
12	12	7.98e-05
13	13	0.0001184
14	14	0.0002307
15	15	0.000304
16	16	5.8e-06
17	17	5e-06
18	18	1.3e-05
19	19	1.24e-05
20	20	1.78e-05
21	21	1e-06
22	22	1e-07
23	23	5e-07
