0	0	0.8893411
1	1	0.0185369
2	2	0.0332367
3	3	0.0481448
4	4	0.0007136
5	5	0.0009292
6	6	0.0019243
7	7	0.0027071
8	8	0.0042373
9	9	2.15e-05
10	10	1.34e-05
11	11	3.37e-05
12	12	5.1e-06
13	13	3.7e-06
14	14	5.87e-05
15	15	8.4e-05
16	16	1.1e-06
17	17	9e-07
18	18	2.8e-06
19	19	1.5e-06
20	20	2.1e-06
21	21	3e-07
22	22	0
23	23	2e-07
