0	0	0.8890968
1	1	0.0185351
2	2	0.0332159
3	3	0.0482475
4	4	0.0007229
5	5	0.0009162
6	6	0.0019211
7	7	0.0027253
8	8	0.0042078
9	9	1.78e-05
10	10	1.13e-05
11	11	3.23e-05
12	12	1.04e-05
13	13	1.79e-05
14	14	0.0001288
15	15	0.0001689
16	16	2e-06
17	17	1.8e-06
18	18	8.4e-06
19	19	4.3e-06
20	20	7e-06
21	21	5e-07
22	22	0
23	23	0
