0	0	0.8885589
1	1	0.0185303
2	2	0.0332936
3	3	0.0481555
4	4	0.0007125
5	5	0.0009095
6	6	0.0019157
7	7	0.0026993
8	8	0.004198
9	9	1.95e-05
10	10	2e-05
11	11	7.6e-05
12	12	9.66e-05
13	13	0.0001567
14	14	0.0002642
15	15	0.0003212
16	16	7.4e-06
17	17	6.7e-06
18	18	1.91e-05
19	19	1.71e-05
20	20	2.11e-05
21	21	7e-07
22	22	1e-07
23	23	3e-07
