0	0	0.889416
1	1	0.0185497
2	2	0.0332846
3	3	0.0481932
4	4	0.0007189
5	5	0.0009107
6	6	0.0019001
7	7	0.0027294
8	8	0.0042158
9	9	1.99e-05
10	10	1.26e-05
11	11	3.48e-05
12	12	5.4e-06
13	13	3.5e-06
14	14	1.3e-06
15	15	1.6e-06
16	16	3e-07
17	17	4e-07
18	18	1e-06
19	19	3e-07
20	20	4e-07
21	21	0
22	22	0
23	23	1e-07
