0	0	0.889543
1	1	0.0185884
2	2	0.0332356
3	3	0.0481098
4	4	0.0007387
5	5	0.0009251
6	6	0.0018897
7	7	0.0027125
8	8	0.0041776
9	9	2.15e-05
10	10	1.05e-05
11	11	3.27e-05
12	12	5.3e-06
13	13	6.7e-06
14	14	1e-07
15	15	1e-07
16	16	5e-07
17	17	4e-07
18	18	6e-07
19	19	7e-07
20	20	3e-07
21	21	1e-07
22	22	0
23	23	1e-07
