0	0	0.8893835
1	1	0.0185927
2	2	0.033233
3	3	0.0482824
4	4	0.0007119
5	5	0.0009301
6	6	0.0019164
7	7	0.0026924
8	8	0.0041703
9	9	2.01e-05
10	10	1.1e-05
11	11	3.44e-05
12	12	5e-06
13	13	5.8e-06
14	14	3e-06
15	15	4.7e-06
16	16	5e-07
17	17	5e-07
18	18	6e-07
19	19	7e-07
20	20	8e-07
21	21	2e-07
22	22	0
23	23	0
