0	0	0.8885328
1	1	0.0185359
2	2	0.0332489
3	3	0.0482475
4	4	0.0007066
5	5	0.0009112
6	6	0.0019117
7	7	0.0026955
8	8	0.0041919
9	9	2.2e-05
10	10	1.96e-05
11	11	6.9e-05
12	12	0.0001026
13	13	0.0001547
14	14	0.0002568
15	15	0.0003253
16	16	7.6e-06
17	17	5e-06
18	18	1.82e-05
19	19	1.38e-05
20	20	2.09e-05
21	21	1.7e-06
22	22	2e-07
23	23	6e-07
