0	0	0.8891519
1	1	0.0186029
2	2	0.0332657
3	3	0.0482258
4	4	0.0007228
5	5	0.0009221
6	6	0.0019213
7	7	0.0027148
8	8	0.0042181
9	9	1.86e-05
10	10	1.12e-05
11	11	3.35e-05
12	12	4.3e-06
13	13	4.5e-06
14	14	7.16e-05
15	15	9.84e-05
16	16	1.7e-06
17	17	6e-07
18	18	4.7e-06
19	19	2e-06
20	20	3.4e-06
21	21	0
22	22	1e-07
23	23	0
