0	0	0.8893904
1	1	0.0186011
2	2	0.0332521
3	3	0.0482502
4	4	0.0007191
5	5	0.0009039
6	6	0.0019051
7	7	0.0026834
8	8	0.0042165
9	9	1.98e-05
10	10	1.09e-05
11	11	3.38e-05
12	12	5.1e-06
13	13	5.5e-06
14	14	4e-07
15	15	1e-07
16	16	1e-07
17	17	3e-07
18	18	8e-07
19	19	7e-07
20	20	6e-07
21	21	0
22	22	0
23	23	1e-07
