0	0	0.8893606
1	1	0.0185357
2	2	0.0332317
3	3	0.0483521
4	4	0.0007335
5	5	0.0009261
6	6	0.0019144
7	7	0.0027138
8	8	0.004147
9	9	1.85e-05
10	10	1.25e-05
11	11	3.3e-05
12	12	4.4e-06
13	13	5.4e-06
14	14	2.6e-06
15	15	6.1e-06
16	16	4e-07
17	17	3e-07
18	18	1.2e-06
19	19	4e-07
20	20	2e-07
21	21	1e-07
22	22	0
23	23	0
