0	0	0.8891991
1	1	0.0185692
2	2	0.0332777
3	3	0.0481881
4	4	0.0007262
5	5	0.0009099
6	6	0.0018973
7	7	0.0027329
8	8	0.0041732
9	9	2.13e-05
10	10	1.25e-05
11	11	3.5e-05
12	12	5.2e-06
13	13	9.4e-06
14	14	9.49e-05
15	15	0.0001322
16	16	2.1e-06
17	17	1.3e-06
18	18	3.9e-06
19	19	3.1e-06
20	20	5.1e-06
21	21	1e-07
22	22	1e-07
23	23	2e-07
