0	0	0.8895314
1	1	0.0185752
2	2	0.0333251
3	3	0.0480192
4	4	0.0007472
5	5	0.0009099
6	6	0.0019078
7	7	0.0027122
8	8	0.0041981
9	9	1.7e-05
10	10	1.05e-05
11	11	3.21e-05
12	12	5.6e-06
13	13	5.3e-06
14	14	4e-07
15	15	1e-06
16	16	1e-07
17	17	6e-07
18	18	6e-07
19	19	2e-07
20	20	5e-07
21	21	0
22	22	0
23	23	0
