0	0	0.8895396
1	1	0.0184844
2	2	0.0331926
3	3	0.0482691
4	4	0.0007194
5	5	0.00091
6	6	0.0018933
7	7	0.0027237
8	8	0.0041918
9	9	1.77e-05
10	10	1.07e-05
11	11	3.53e-05
12	12	4.7e-06
13	13	4.5e-06
14	14	7e-07
15	15	6e-07
16	16	2e-07
17	17	2e-07
18	18	3e-07
19	19	4e-07
20	20	7e-07
21	21	1e-07
22	22	0
23	23	0
