0	0	0.8895412
1	1	0.0185164
2	2	0.0332401
3	3	0.0481634
4	4	0.0007275
5	5	0.0009176
6	6	0.0019088
7	7	0.0026944
8	8	0.004209
9	9	2.11e-05
10	10	8.7e-06
11	11	3.36e-05
12	12	5.3e-06
13	13	6e-06
14	14	1.1e-06
15	15	2.8e-06
16	16	3e-07
17	17	2e-07
18	18	1.3e-06
19	19	5e-07
20	20	6e-07
21	21	0
22	22	1e-07
23	23	0
