0	0	0.8893632
1	1	0.01848
2	2	0.0331467
3	3	0.0481352
4	4	0.0007317
5	5	0.0009301
6	6	0.0018987
7	7	0.0027024
8	8	0.0041879
9	9	1.84e-05
10	10	9.3e-06
11	11	3.53e-05
12	12	1.16e-05
13	13	2.04e-05
14	14	0.0001305
15	15	0.0001749
16	16	2.4e-06
17	17	2e-06
18	18	7.7e-06
19	19	4.4e-06
20	20	6.8e-06
21	21	3e-07
22	22	0
23	23	1e-07
