0	0	0.8888231
1	1	0.0185161
2	2	0.0332287
3	3	0.0483084
4	4	0.0007098
5	5	0.000917
6	6	0.0018912
7	7	0.0027038
8	8	0.0041789
9	9	1.99e-05
10	10	1.13e-05
11	11	4.29e-05
12	12	5.04e-05
13	13	8.22e-05
14	14	0.0002093
15	15	0.0002661
16	16	4.8e-06
17	17	3.3e-06
18	18	1.05e-05
19	19	8.2e-06
20	20	1.3e-05
21	21	6e-07
22	22	3e-07
23	23	2e-07
