0	0	0.8887742
1	1	0.0185585
2	2	0.0331987
3	3	0.0482266
4	4	0.0007242
5	5	0.0009099
6	6	0.0019002
7	7	0.0027046
8	8	0.0042224
9	9	1.85e-05
10	10	1.09e-05
11	11	4.4e-05
12	12	5.53e-05
13	13	9.98e-05
14	14	0.0002168
15	15	0.0002841
16	16	5.7e-06
17	17	4.7e-06
18	18	1.37e-05
19	19	1.04e-05
20	20	1.59e-05
21	21	3e-07
22	22	4e-07
23	23	2e-07
