0	0	0.8890627
1	1	0.0185391
2	2	0.0332087
3	3	0.0481488
4	4	0.0007163
5	5	0.0009184
6	6	0.0019048
7	7	0.0027222
8	8	0.0041686
9	9	1.88e-05
10	10	1.15e-05
11	11	3.6e-05
12	12	2.97e-05
13	13	5.99e-05
14	14	0.0001814
15	15	0.0002367
16	16	3e-06
17	17	3.5e-06
18	18	9.6e-06
19	19	8.5e-06
20	20	1.12e-05
21	21	4e-07
22	22	0
23	23	2e-07
