0	0	0.8886525
1	1	0.0185592
2	2	0.0333119
3	3	0.0482179
4	4	0.0007391
5	5	0.0009256
6	6	0.0019256
7	7	0.0026977
8	8	0.0042152
9	9	1.8e-05
10	10	8.8e-06
11	11	4.33e-05
12	12	5.39e-05
13	13	7.98e-05
14	14	0.0002084
15	15	0.0002939
16	16	5.3e-06
17	17	3.8e-06
18	18	1.34e-05
19	19	1.04e-05
20	20	1.51e-05
21	21	9e-07
22	22	1e-07
23	23	2e-07
