0	0	0.8893778
1	1	0.0186244
2	2	0.0331906
3	3	0.0482475
4	4	0.000715
5	5	0.000922
6	6	0.001914
7	7	0.0027
8	8	0.0042323
9	9	1.71e-05
10	10	1.07e-05
11	11	3.33e-05
12	12	5.5e-06
13	13	5.5e-06
14	14	4e-07
15	15	7e-07
16	16	1e-07
17	17	7e-07
18	18	9e-07
19	19	6e-07
20	20	6e-07
21	21	2e-07
22	22	0
23	23	1e-07
