0	0	0.8890067
1	1	0.0185511
2	2	0.0332336
3	3	0.0482151
4	4	0.0007196
5	5	0.0009117
6	6	0.0018857
7	7	0.0027318
8	8	0.0042093
9	9	1.78e-05
10	10	1.05e-05
11	11	3.7e-05
12	12	2.26e-05
13	13	4.18e-05
14	14	0.0001578
15	15	0.0002187
16	16	3.3e-06
17	17	2.8e-06
18	18	9.9e-06
19	19	4.9e-06
20	20	7.6e-06
21	21	2e-07
22	22	1e-07
23	23	4e-07
