0	0	0.8894883
1	1	0.0185914
2	2	0.0331704
3	3	0.0481853
4	4	0.0007268
5	5	0.0009237
6	6	0.0019157
7	7	0.0027056
8	8	0.0042077
9	9	2.19e-05
10	10	9.8e-06
11	11	3.33e-05
12	12	5.1e-06
13	13	5.4e-06
14	14	2.5e-06
15	15	4.1e-06
16	16	6e-07
17	17	2e-07
18	18	8e-07
19	19	5e-07
20	20	6e-07
21	21	1e-07
22	22	1e-07
23	23	1e-07
