0	0	0.8892341
1	1	0.0185315
2	2	0.0333034
3	3	0.0482038
4	4	0.0007126
5	5	0.0009248
6	6	0.0019318
7	7	0.0027373
8	8	0.0041879
9	9	2e-05
10	10	9.2e-06
11	11	3.3e-05
12	12	5.6e-06
13	13	5e-06
14	14	6.36e-05
15	15	8.64e-05
16	16	1.4e-06
17	17	1e-06
18	18	2.7e-06
19	19	1.4e-06
20	20	3e-06
21	21	3e-07
22	22	1e-07
23	23	1e-07
