0	0	0.8894033
1	1	0.0184975
2	2	0.0332541
3	3	0.0481597
4	4	0.0007272
5	5	0.000914
6	6	0.0018949
7	7	0.0027339
8	8	0.0041902
9	9	2.02e-05
10	10	1.13e-05
11	11	3.56e-05
12	12	5.7e-06
13	13	5e-06
14	14	5.57e-05
15	15	8.12e-05
16	16	1e-06
17	17	1.1e-06
18	18	3.9e-06
19	19	1.2e-06
20	20	3e-06
21	21	2e-07
22	22	0
23	23	1e-07
