0	0	0.8887119
1	1	0.01854
2	2	0.0332953
3	3	0.0482667
4	4	0.0007164
5	5	0.0009081
6	6	0.0019157
7	7	0.0027049
8	8	0.0041892
9	9	2.14e-05
10	10	1.18e-05
11	11	4.47e-05
12	12	5.3e-05
13	13	9.14e-05
14	14	0.0002097
15	15	0.0002737
16	16	5.9e-06
17	17	2.7e-06
18	18	1.25e-05
19	19	1e-05
20	20	1.34e-05
21	21	1.3e-06
22	22	2e-07
23	23	1e-07
