0	0	0.8895167
1	1	0.0186262
2	2	0.0331826
3	3	0.0481782
4	4	0.0007251
5	5	0.0009222
6	6	0.0019053
7	7	0.0026825
8	8	0.0041798
9	9	2.05e-05
10	10	1.1e-05
11	11	3.68e-05
12	12	4.8e-06
13	13	4.3e-06
14	14	0
15	15	3e-07
16	16	1e-07
17	17	4e-07
18	18	6e-07
19	19	1.2e-06
20	20	1.3e-06
21	21	0
22	22	0
23	23	1e-07
