0	0	0.8893935
1	1	0.0185373
2	2	0.0332046
3	3	0.0483584
4	4	0.0007254
5	5	0.0009122
6	6	0.0019025
7	7	0.0026979
8	8	0.0041878
9	9	2.15e-05
10	10	9.7e-06
11	11	3.36e-05
12	12	6.2e-06
13	13	4.4e-06
14	14	1.4e-06
15	15	1.1e-06
16	16	1e-07
17	17	5e-07
18	18	8e-07
19	19	6e-07
20	20	4e-07
21	21	1e-07
22	22	0
23	23	0
