0	0	0.8894217
1	1	0.0185859
2	2	0.033211
3	3	0.0482183
4	4	0.0007316
5	5	0.0009136
6	6	0.0019179
7	7	0.0027152
8	8	0.004207
9	9	2.07e-05
10	10	1.12e-05
11	11	3.25e-05
12	12	5.4e-06
13	13	5.4e-06
14	14	2e-07
15	15	2e-07
16	16	1e-07
17	17	8e-07
18	18	2e-07
19	19	2e-07
20	20	9e-07
21	21	0
22	22	0
23	23	0
