0	0	0.8893245
1	1	0.0185903
2	2	0.0332208
3	3	0.0482949
4	4	0.0007193
5	5	0.0009222
6	6	0.0019322
7	7	0.0026882
8	8	0.0042198
9	9	2.04e-05
10	10	1.1e-05
11	11	3.33e-05
12	12	5.4e-06
13	13	5.4e-06
14	14	2.7e-06
15	15	6e-06
16	16	5e-07
17	17	5e-07
18	18	1.7e-06
19	19	5e-07
20	20	3e-07
21	21	1e-07
22	22	0
23	23	0
