0	0	0.889506
1	1	0.0185454
2	2	0.0331827
3	3	0.0481769
4	4	0.0007208
5	5	0.0009214
6	6	0.0018973
7	7	0.0027378
8	8	0.0042375
9	9	1.53e-05
10	10	1.13e-05
11	11	3.54e-05
12	12	5.4e-06
13	13	3.5e-06
14	14	1e-07
15	15	2e-07
16	16	1e-07
17	17	7e-07
18	18	5e-07
19	19	7e-07
20	20	1e-06
21	21	0
22	22	0
23	23	0
