0	0	0.8891927
1	1	0.0185526
2	2	0.0332752
3	3	0.0482077
4	4	0.0007102
5	5	0.0009292
6	6	0.0019122
7	7	0.0027334
8	8	0.0042031
9	9	2.14e-05
10	10	1.15e-05
11	11	3.24e-05
12	12	5.7e-06
13	13	5.9e-06
14	14	8.45e-05
15	15	0.00011
16	16	2e-06
17	17	1.5e-06
18	18	4.1e-06
19	19	1.3e-06
20	20	2.7e-06
21	21	6e-07
22	22	0
23	23	1e-07
