0	0	0.8894301
1	1	0.0185963
2	2	0.0331754
3	3	0.0482627
4	4	0.0007145
5	5	0.0009184
6	6	0.0019152
7	7	0.0026991
8	8	0.0042063
9	9	1.9e-05
10	10	1.33e-05
11	11	3.27e-05
12	12	6.5e-06
13	13	5.7e-06
14	14	7e-07
15	15	1.3e-06
16	16	4e-07
17	17	5e-07
18	18	9e-07
19	19	2e-07
20	20	7e-07
21	21	1e-07
22	22	0
23	23	0
