0	0	0.8894422
1	1	0.0184923
2	2	0.0332611
3	3	0.0483146
4	4	0.0007218
5	5	0.0009225
6	6	0.0019063
7	7	0.0027064
8	8	0.004154
9	9	2.01e-05
10	10	1.19e-05
11	11	3.31e-05
12	12	4.7e-06
13	13	4.9e-06
14	14	1e-07
15	15	3e-07
16	16	3e-07
17	17	5e-07
18	18	5e-07
19	19	8e-07
20	20	1.4e-06
21	21	1e-07
22	22	1e-07
23	23	0
