0	0	0.8886956
1	1	0.0185941
2	2	0.0333393
3	3	0.0481819
4	4	0.0007176
5	5	0.0009197
6	6	0.0018958
7	7	0.0027062
8	8	0.0041816
9	9	1.78e-05
10	10	1e-05
11	11	4.5e-05
12	12	5.76e-05
13	13	9.67e-05
14	14	0.0002171
15	15	0.0002798
16	16	5.7e-06
17	17	3.6e-06
18	18	1.06e-05
19	19	9.1e-06
20	20	1.39e-05
21	21	9e-07
22	22	1e-07
23	23	3e-07
