0	0	0.889443
1	1	0.0185117
2	2	0.033221
3	3	0.0482675
4	4	0.0007108
5	5	0.0009107
6	6	0.0018855
7	7	0.0027062
8	8	0.0042134
9	9	1.83e-05
10	10	1.02e-05
11	11	3.2e-05
12	12	5.1e-06
13	13	6.6e-06
14	14	2.29e-05
15	15	3.01e-05
16	16	4e-07
17	17	9e-07
18	18	2.2e-06
19	19	7e-07
20	20	6e-07
21	21	1e-07
22	22	0
23	23	1e-07
