0	0	0.8893556
1	1	0.018606
2	2	0.0332297
3	3	0.0482411
4	4	0.0007325
5	5	0.0009271
6	6	0.0019002
7	7	0.0027032
8	8	0.0042263
9	9	2e-05
10	10	1.05e-05
11	11	3.22e-05
12	12	5.1e-06
13	13	6e-06
14	14	1e-07
15	15	3e-07
16	16	1e-07
17	17	1.6e-06
18	18	9e-07
19	19	9e-07
20	20	6e-07
21	21	0
22	22	0
23	23	0
