0	0	0.8891438
1	1	0.0185627
2	2	0.0332955
3	3	0.048289
4	4	0.0007135
5	5	0.0009193
6	6	0.0019098
7	7	0.0027092
8	8	0.0042161
9	9	1.79e-05
10	10	1.12e-05
11	11	3.52e-05
12	12	5.7e-06
13	13	4.7e-06
14	14	6.69e-05
15	15	8.74e-05
16	16	1.6e-06
17	17	1.2e-06
18	18	3.7e-06
19	19	2.3e-06
20	20	2.7e-06
21	21	4e-07
22	22	1e-07
23	23	1e-07
