0	0	0.8894592
1	1	0.0185384
2	2	0.0331725
3	3	0.0481768
4	4	0.0007323
5	5	0.0009135
6	6	0.0018993
7	7	0.0026937
8	8	0.0041726
9	9	2.13e-05
10	10	1.09e-05
11	11	3.51e-05
12	12	3.8e-06
13	13	6.1e-06
14	14	6.44e-05
15	15	8.73e-05
16	16	2.3e-06
17	17	1.5e-06
18	18	4e-06
19	19	1.9e-06
20	20	2.9e-06
21	21	1e-07
22	22	0
23	23	1e-07
