0	0	0.8894264
1	1	0.0186345
2	2	0.0332178
3	3	0.0481478
4	4	0.0007216
5	5	0.0009118
6	6	0.0018781
7	7	0.0027107
8	8	0.0042156
9	9	2.16e-05
10	10	9.7e-06
11	11	3.55e-05
12	12	4.5e-06
13	13	5.7e-06
14	14	2.12e-05
15	15	3.28e-05
16	16	8e-07
17	17	1.1e-06
18	18	1.4e-06
19	19	5e-07
20	20	8e-07
21	21	1e-07
22	22	0
23	23	0
