0	0	0.8894708
1	1	0.0185111
2	2	0.0332674
3	3	0.0483004
4	4	0.0006952
5	5	0.0009097
6	6	0.0018791
7	7	0.0026905
8	8	0.0042028
9	9	1.8e-05
10	10	9.2e-06
11	11	3.32e-05
12	12	5.1e-06
13	13	5.2e-06
14	14	5e-07
15	15	0
16	16	0
17	17	3e-07
18	18	6e-07
19	19	3e-07
20	20	6e-07
21	21	0
22	22	0
23	23	0
