0	0	0.8889741
1	1	0.0185403
2	2	0.0331435
3	3	0.0484258
4	4	0.000724
5	5	0.0009213
6	6	0.0019216
7	7	0.0027304
8	8	0.0042223
9	9	1.8e-05
10	10	1.09e-05
11	11	3.42e-05
12	12	8.1e-06
13	13	1.96e-05
14	14	0.0001246
15	15	0.0001651
16	16	2.4e-06
17	17	1.9e-06
18	18	5.7e-06
19	19	2.9e-06
20	20	3e-06
21	21	2e-07
22	22	0
23	23	1e-07
