0	0	0.8895766
1	1	0.0185656
2	2	0.0332019
3	3	0.048146
4	4	0.0007082
5	5	0.0009135
6	6	0.0019049
7	7	0.0027003
8	8	0.0042
9	9	2.07e-05
10	10	1.02e-05
11	11	3.63e-05
12	12	5.5e-06
13	13	5.7e-06
14	14	7e-07
15	15	1.4e-06
16	16	2e-07
17	17	2e-07
18	18	1e-06
19	19	3e-07
20	20	7e-07
21	21	1e-07
22	22	0
23	23	0
