0	0	0.8894457
1	1	0.0185825
2	2	0.0332144
3	3	0.0481669
4	4	0.0007174
5	5	0.0009206
6	6	0.0019121
7	7	0.0027158
8	8	0.004244
9	9	2.14e-05
10	10	9.9e-06
11	11	3.27e-05
12	12	5.4e-06
13	13	6.4e-06
14	14	1e-07
15	15	3e-07
16	16	0
17	17	6e-07
18	18	1.3e-06
19	19	1.1e-06
20	20	1.4e-06
21	21	0
22	22	0
23	23	0
