0	0	0.8897278
1	1	0.01849
2	2	0.033191
3	3	0.0481027
4	4	0.0007116
5	5	0.0009274
6	6	0.0019221
7	7	0.0026868
8	8	0.004162
9	9	1.8e-05
10	10	1.12e-05
11	11	3.27e-05
12	12	6.3e-06
13	13	6.5e-06
14	14	3e-07
15	15	9e-07
16	16	4e-07
17	17	5e-07
18	18	9e-07
19	19	3e-07
20	20	3e-07
21	21	3e-07
22	22	0
23	23	0
