0	0	0.8894281
1	1	0.0184378
2	2	0.0332669
3	3	0.048226
4	4	0.0007369
5	5	0.0008946
6	6	0.0019178
7	7	0.0027135
8	8	0.0042019
9	9	1.98e-05
10	10	8.6e-06
11	11	3.26e-05
12	12	6e-06
13	13	4.1e-06
14	14	3.92e-05
15	15	5.85e-05
16	16	1.5e-06
17	17	8e-07
18	18	3.1e-06
19	19	1.1e-06
20	20	7e-07
21	21	4e-07
22	22	1e-07
23	23	0
