0	0	0.8895091
1	1	0.0185634
2	2	0.0332289
3	3	0.0480719
4	4	0.0007365
5	5	0.000921
6	6	0.0019033
7	7	0.0027351
8	8	0.0042027
9	9	2.12e-05
10	10	8.3e-06
11	11	3.47e-05
12	12	5.4e-06
13	13	5.9e-06
14	14	1.9e-05
15	15	2.82e-05
16	16	7e-07
17	17	6e-07
18	18	1.9e-06
19	19	6e-07
20	20	1.4e-06
21	21	2e-07
22	22	0
23	23	0
