0	0	0.8894403
1	1	0.0185484
2	2	0.0332102
3	3	0.0482996
4	4	0.0007203
5	5	0.0009274
6	6	0.0018737
7	7	0.0026998
8	8	0.0041976
9	9	1.88e-05
10	10	1.16e-05
11	11	3.7e-05
12	12	6.3e-06
13	13	5.5e-06
14	14	2e-07
15	15	3e-07
16	16	2e-07
17	17	3e-07
18	18	7e-07
19	19	8e-07
20	20	1e-06
21	21	0
22	22	0
23	23	0
