0	0	0.8888443
1	1	0.0186124
2	2	0.033168
3	3	0.0481868
4	4	0.0007254
5	5	0.0008964
6	6	0.0018909
7	7	0.0027194
8	8	0.0042026
9	9	1.56e-05
10	10	1.15e-05
11	11	4.12e-05
12	12	5.43e-05
13	13	9.05e-05
14	14	0.0002151
15	15	0.0002779
16	16	5.2e-06
17	17	3.6e-06
18	18	1.23e-05
19	19	9.9e-06
20	20	1.56e-05
21	21	7e-07
22	22	1e-07
23	23	3e-07
