0	0	0.8892413
1	1	0.0186236
2	2	0.0332789
3	3	0.0481339
4	4	0.0007264
5	5	0.0009257
6	6	0.0019265
7	7	0.0027422
8	8	0.0042033
9	9	2.16e-05
10	10	1.02e-05
11	11	3.48e-05
12	12	5.6e-06
13	13	5e-06
14	14	4.65e-05
15	15	6.45e-05
16	16	1.7e-06
17	17	1e-06
18	18	3.2e-06
19	19	1.5e-06
20	20	2.5e-06
21	21	1e-07
22	22	0
23	23	0
