0	0	0.8884259
1	1	0.0184888
2	2	0.0332899
3	3	0.0481627
4	4	0.0007276
5	5	0.000933
6	6	0.0019137
7	7	0.0027096
8	8	0.004191
9	9	2.63e-05
10	10	2.28e-05
11	11	9.03e-05
12	12	0.0001299
13	13	0.0001927
14	14	0.000278
15	15	0.0003392
16	16	9.2e-06
17	17	5.3e-06
18	18	1.87e-05
19	19	1.79e-05
20	20	2.53e-05
21	21	1.2e-06
22	22	3e-07
23	23	7e-07
