0	0	0.8891849
1	1	0.0185557
2	2	0.033193
3	3	0.0482035
4	4	0.0007186
5	5	0.0009243
6	6	0.0018888
7	7	0.002691
8	8	0.0041927
9	9	1.82e-05
10	10	1.19e-05
11	11	3.34e-05
12	12	1.28e-05
13	13	2.51e-05
14	14	0.0001383
15	15	0.0001855
16	16	2.6e-06
17	17	2.1e-06
18	18	7.9e-06
19	19	2.8e-06
20	20	6e-06
21	21	8e-07
22	22	0
23	23	1e-07
