0	0	0.8891587
1	1	0.018557
2	2	0.0331803
3	3	0.0482848
4	4	0.0007206
5	5	0.000919
6	6	0.0019111
7	7	0.0026677
8	8	0.0042075
9	9	1.95e-05
10	10	1.06e-05
11	11	3.25e-05
12	12	8e-06
13	13	1.64e-05
14	14	0.0001292
15	15	0.0001614
16	16	2.1e-06
17	17	1.3e-06
18	18	4.8e-06
19	19	3e-06
20	20	3.8e-06
21	21	6e-07
22	22	1e-07
23	23	0
