0	0	0.8891647
1	1	0.0185322
2	2	0.0332388
3	3	0.0482092
4	4	0.0007178
5	5	0.0009238
6	6	0.0018997
7	7	0.0027312
8	8	0.0042087
9	9	1.99e-05
10	10	1.22e-05
11	11	3.37e-05
12	12	9.3e-06
13	13	1.47e-05
14	14	0.0001159
15	15	0.0001523
16	16	2.4e-06
17	17	1.3e-06
18	18	4.7e-06
19	19	2e-06
20	20	4.9e-06
21	21	5e-07
22	22	0
23	23	1e-07
