0	0	0.8893363
1	1	0.0185211
2	2	0.0331728
3	3	0.0482179
4	4	0.0007157
5	5	0.0009255
6	6	0.0019038
7	7	0.002706
8	8	0.0042103
9	9	2.12e-05
10	10	1.02e-05
11	11	3.5e-05
12	12	4.7e-06
13	13	6.2e-06
14	14	8.37e-05
15	15	0.0001147
16	16	1.3e-06
17	17	1.4e-06
18	18	4.7e-06
19	19	3.1e-06
20	20	3.6e-06
21	21	7e-07
22	22	0
23	23	1e-07
