0	0	0.8894117
1	1	0.0185445
2	2	0.033228
3	3	0.0482298
4	4	0.0007286
5	5	0.0009225
6	6	0.0019103
7	7	0.0027329
8	8	0.004208
9	9	1.68e-05
10	10	9.5e-06
11	11	3.55e-05
12	12	5.5e-06
13	13	4.9e-06
14	14	2.8e-06
15	15	5.4e-06
16	16	3e-07
17	17	7e-07
18	18	1.5e-06
19	19	3e-07
20	20	5e-07
21	21	0
22	22	0
23	23	0
