0	0	0.8888322
1	1	0.0185445
2	2	0.0332426
3	3	0.0482897
4	4	0.0007344
5	5	0.000927
6	6	0.0018993
7	7	0.0026915
8	8	0.0042223
9	9	1.98e-05
10	10	1.05e-05
11	11	3.39e-05
12	12	3.12e-05
13	13	5.61e-05
14	14	0.0001859
15	15	0.0002434
16	16	3e-06
17	17	3.3e-06
18	18	1.02e-05
19	19	7.3e-06
20	20	1.09e-05
21	21	5e-07
22	22	3e-07
23	23	2e-07
