0	0	0.8888838
1	1	0.018548
2	2	0.033278
3	3	0.0481881
4	4	0.0007163
5	5	0.0009183
6	6	0.001901
7	7	0.0027283
8	8	0.0041893
9	9	1.69e-05
10	10	1e-05
11	11	3.35e-05
12	12	4.32e-05
13	13	6.33e-05
14	14	0.000197
15	15	0.0002466
16	16	4e-06
17	17	3.3e-06
18	18	1.07e-05
19	19	7.9e-06
20	20	1.17e-05
21	21	2e-07
22	22	4e-07
23	23	2e-07
