0	0	0.8889504
1	1	0.0185362
2	2	0.0331606
3	3	0.0481663
4	4	0.0007136
5	5	0.0009078
6	6	0.0018987
7	7	0.0027063
8	8	0.0042118
9	9	2.05e-05
10	10	1.11e-05
11	11	4.62e-05
12	12	5.63e-05
13	13	8.49e-05
14	14	0.0002103
15	15	0.0002764
16	16	4.4e-06
17	17	3.8e-06
18	18	1.11e-05
19	19	7.8e-06
20	20	1.47e-05
21	21	6e-07
22	22	1e-07
23	23	1e-07
