0	0	0.8896199
1	1	0.0185507
2	2	0.0331484
3	3	0.0481323
4	4	0.0007276
5	5	0.0009227
6	6	0.0018926
7	7	0.0027139
8	8	0.0042052
9	9	2.11e-05
10	10	1.09e-05
11	11	3.39e-05
12	12	5.7e-06
13	13	5.5e-06
14	14	2.5e-06
15	15	3.2e-06
16	16	5e-07
17	17	1e-06
18	18	1.4e-06
19	19	2e-07
20	20	4e-07
21	21	1e-07
22	22	0
23	23	3e-07
