0	0	0.8894923
1	1	0.0185349
2	2	0.0331955
3	3	0.048211
4	4	0.0007352
5	5	0.0009158
6	6	0.0019156
7	7	0.0027124
8	8	0.0042067
9	9	2e-05
10	10	1.12e-05
11	11	3.45e-05
12	12	4.6e-06
13	13	5.5e-06
14	14	5e-07
15	15	1.1e-06
16	16	2e-07
17	17	9e-07
18	18	8e-07
19	19	6e-07
20	20	6e-07
21	21	1e-07
22	22	0
23	23	0
