0	0	0.8887862
1	1	0.0185568
2	2	0.0331751
3	3	0.04827
4	4	0.0007165
5	5	0.0009171
6	6	0.0018922
7	7	0.0026748
8	8	0.0042131
9	9	1.9e-05
10	10	1.13e-05
11	11	4.96e-05
12	12	5.95e-05
13	13	0.0001019
14	14	0.0002206
15	15	0.0002862
16	16	6.3e-06
17	17	4.4e-06
18	18	1.32e-05
19	19	9.1e-06
20	20	1.59e-05
21	21	5e-07
22	22	1e-07
23	23	6e-07
