0	0	0.8893012
1	1	0.018572
2	2	0.033243
3	3	0.0483144
4	4	0.0007172
5	5	0.0009277
6	6	0.0018806
7	7	0.0027171
8	8	0.0042468
9	9	2.16e-05
10	10	1e-05
11	11	3.5e-05
12	12	6.5e-06
13	13	4.1e-06
14	14	1e-07
15	15	4e-07
16	16	1e-07
17	17	8e-07
18	18	1e-07
19	19	3e-07
20	20	1e-06
21	21	0
22	22	0
23	23	0
