0	0	0.8888698
1	1	0.0185203
2	2	0.0332648
3	3	0.0480212
4	4	0.0007259
5	5	0.0009167
6	6	0.001909
7	7	0.0026912
8	8	0.0042497
9	9	2e-05
10	10	1.45e-05
11	11	5.45e-05
12	12	7.38e-05
13	13	0.0001065
14	14	0.0002191
15	15	0.0002876
16	16	5.9e-06
17	17	4.2e-06
18	18	1.37e-05
19	19	1.08e-05
20	20	1.85e-05
21	21	1.8e-06
22	22	1e-07
23	23	4e-07
