0	0	0.8886437
1	1	0.0185317
2	2	0.0331639
3	3	0.0481044
4	4	0.0007167
5	5	0.0009218
6	6	0.0019293
7	7	0.0027198
8	8	0.0042029
9	9	2.33e-05
10	10	1.78e-05
11	11	8.1e-05
12	12	0.0001083
13	13	0.0001631
14	14	0.0002561
15	15	0.0003393
16	16	7.5e-06
17	17	7.5e-06
18	18	1.96e-05
19	19	1.73e-05
20	20	2.28e-05
21	21	1.5e-06
22	22	3e-07
23	23	4e-07
