0	0	0.8891472
1	1	0.0186139
2	2	0.0333414
3	3	0.0483345
4	4	0.0007268
5	5	0.0009341
6	6	0.0019159
7	7	0.0026832
8	8	0.004217
9	9	1.95e-05
10	10	1.22e-05
11	11	3.56e-05
12	12	4.9e-06
13	13	5.1e-06
14	14	2.3e-06
15	15	2.8e-06
16	16	4e-07
17	17	8e-07
18	18	1.4e-06
19	19	3e-07
20	20	6e-07
21	21	0
22	22	1e-07
23	23	0
