0	0	0.8887246
1	1	0.0184978
2	2	0.0332737
3	3	0.0480978
4	4	0.0007096
5	5	0.0009262
6	6	0.0019226
7	7	0.0026939
8	8	0.0042
9	9	1.97e-05
10	10	1.57e-05
11	11	6.54e-05
12	12	8.73e-05
13	13	0.000141
14	14	0.0002449
15	15	0.0003149
16	16	6.7e-06
17	17	5.5e-06
18	18	1.79e-05
19	19	1.31e-05
20	20	2.03e-05
21	21	1e-06
22	22	2e-07
23	23	2e-07
