0	0	0.8894773
1	1	0.0185883
2	2	0.0331718
3	3	0.0482185
4	4	0.0007189
5	5	0.0009207
6	6	0.0019155
7	7	0.0027032
8	8	0.0042012
9	9	2.13e-05
10	10	1.29e-05
11	11	3.67e-05
12	12	5.6e-06
13	13	5.5e-06
14	14	3e-07
15	15	3e-07
16	16	3e-07
17	17	2e-07
18	18	5e-07
19	19	4e-07
20	20	4e-07
21	21	1e-07
22	22	1e-07
23	23	0
