0	0	0.8896207
1	1	0.0185419
2	2	0.0332047
3	3	0.0480955
4	4	0.0007281
5	5	0.0009188
6	6	0.0019117
7	7	0.0027041
8	8	0.0041952
9	9	2.06e-05
10	10	1.11e-05
11	11	3.42e-05
12	12	4.3e-06
13	13	4.6e-06
14	14	7e-07
15	15	8e-07
16	16	5e-07
17	17	6e-07
18	18	7e-07
19	19	5e-07
20	20	7e-07
21	21	0
22	22	0
23	23	0
