0	0	0.8886865
1	1	0.0184679
2	2	0.0331948
3	3	0.0483808
4	4	0.0007188
5	5	0.0009116
6	6	0.0019035
7	7	0.0027231
8	8	0.0042016
9	9	1.86e-05
10	10	9.4e-06
11	11	5.04e-05
12	12	6.47e-05
13	13	0.0001048
14	14	0.00022
15	15	0.0002904
16	16	5.4e-06
17	17	5.3e-06
18	18	1.49e-05
19	19	1.09e-05
20	20	1.53e-05
21	21	9e-07
22	22	0
23	23	4e-07
