0	0	0.8890044
1	1	0.0185154
2	2	0.0332551
3	3	0.0482766
4	4	0.0007281
5	5	0.0009251
6	6	0.0018922
7	7	0.0027313
8	8	0.004204
9	9	1.78e-05
10	10	1.02e-05
11	11	3.84e-05
12	12	1.5e-05
13	13	2.76e-05
14	14	0.0001447
15	15	0.0001878
16	16	2.6e-06
17	17	1.9e-06
18	18	7.7e-06
19	19	4e-06
20	20	8.7e-06
21	21	1.2e-06
22	22	1e-07
23	23	1e-07
