0	0	0.8895081
1	1	0.018583
2	2	0.0332615
3	3	0.0480829
4	4	0.0007269
5	5	0.0009417
6	6	0.0019036
7	7	0.0027149
8	8	0.0041932
9	9	2.13e-05
10	10	9.7e-06
11	11	3.59e-05
12	12	4.3e-06
13	13	5.8e-06
14	14	1.5e-06
15	15	2e-06
16	16	4e-07
17	17	4e-07
18	18	1.4e-06
19	19	4e-07
20	20	9e-07
21	21	1e-07
22	22	0
23	23	1e-07
