0	0	0.8891969
1	1	0.0185671
2	2	0.033313
3	3	0.0481121
4	4	0.0007277
5	5	0.0009124
6	6	0.0019125
7	7	0.002719
8	8	0.0042039
9	9	1.97e-05
10	10	1.21e-05
11	11	3.58e-05
12	12	6.2e-06
13	13	9.6e-06
14	14	0.0001003
15	15	0.0001329
16	16	2.9e-06
17	17	1e-06
18	18	6e-06
19	19	2.5e-06
20	20	5.8e-06
21	21	5e-07
22	22	1e-07
23	23	0
