0	0	0.8893686
1	1	0.0185915
2	2	0.0332294
3	3	0.0482082
4	4	0.0007234
5	5	0.0009385
6	6	0.0019288
7	7	0.0027096
8	8	0.0042191
9	9	1.86e-05
10	10	9e-06
11	11	3.14e-05
12	12	4.7e-06
13	13	5.9e-06
14	14	3.7e-06
15	15	6e-06
16	16	2e-07
17	17	5e-07
18	18	1.9e-06
19	19	1e-07
20	20	8e-07
21	21	1e-07
22	22	0
23	23	0
