0	0	0.8892686
1	1	0.0185791
2	2	0.0332475
3	3	0.0482179
4	4	0.0007214
5	5	0.0009164
6	6	0.0019336
7	7	0.002728
8	8	0.0041959
9	9	2e-05
10	10	1.28e-05
11	11	3.61e-05
12	12	4.4e-06
13	13	5.8e-06
14	14	4.67e-05
15	15	5.87e-05
16	16	1.1e-06
17	17	8e-07
18	18	2.8e-06
19	19	7e-07
20	20	1.3e-06
21	21	2e-07
22	22	0
23	23	2e-07
