0	0	0.8894524
1	1	0.0185074
2	2	0.0333273
3	3	0.0481568
4	4	0.0007301
5	5	0.0009243
6	6	0.0019067
7	7	0.00273
8	8	0.0041847
9	9	2.34e-05
10	10	1.05e-05
11	11	3.22e-05
12	12	5.3e-06
13	13	5.2e-06
14	14	0
15	15	3e-07
16	16	1e-07
17	17	4e-07
18	18	8e-07
19	19	1e-06
20	20	1e-06
21	21	1e-07
22	22	0
23	23	0
