0	0	0.8888589
1	1	0.0185842
2	2	0.033284
3	3	0.0482697
4	4	0.0007316
5	5	0.0009216
6	6	0.0019083
7	7	0.0026916
8	8	0.0042065
9	9	2.21e-05
10	10	9.9e-06
11	11	3.5e-05
12	12	2.41e-05
13	13	4.32e-05
14	14	0.0001649
15	15	0.0002174
16	16	2.1e-06
17	17	2.3e-06
18	18	6.7e-06
19	19	6e-06
20	20	9e-06
21	21	7e-07
22	22	0
23	23	2e-07
