0	0	0.8891283
1	1	0.0185239
2	2	0.0332878
3	3	0.0483193
4	4	0.0007255
5	5	0.0009269
6	6	0.0019235
7	7	0.0026985
8	8	0.004202
9	9	1.93e-05
10	10	1.01e-05
11	11	3.59e-05
12	12	5.6e-06
13	13	3.9e-06
14	14	7.56e-05
15	15	0.0001013
16	16	2.4e-06
17	17	9e-07
18	18	3.3e-06
19	19	2.8e-06
20	20	2.8e-06
21	21	4e-07
22	22	0
23	23	0
