0	0	0.8886649
1	1	0.0185252
2	2	0.0332171
3	3	0.0483041
4	4	0.0007269
5	5	0.0009101
6	6	0.0018912
7	7	0.0027035
8	8	0.004216
9	9	2.09e-05
10	10	1.2e-05
11	11	5.12e-05
12	12	6.64e-05
13	13	0.0001112
14	14	0.0002355
15	15	0.0002924
16	16	5.7e-06
17	17	3.8e-06
18	18	1.4e-05
19	19	1.2e-05
20	20	1.42e-05
21	21	1e-06
22	22	2e-07
23	23	5e-07
