0	0	0.8893232
1	1	0.0186196
2	2	0.0332322
3	3	0.0483245
4	4	0.0007287
5	5	0.0009194
6	6	0.0019176
7	7	0.002694
8	8	0.0041616
9	9	1.75e-05
10	10	1.17e-05
11	11	3.56e-05
12	12	6.4e-06
13	13	3.9e-06
14	14	2e-07
15	15	3e-07
16	16	2e-07
17	17	6e-07
18	18	5e-07
19	19	1.1e-06
20	20	1.2e-06
21	21	0
22	22	0
23	23	0
