0	0	0.8893108
1	1	0.0185623
2	2	0.0331579
3	3	0.0481748
4	4	0.0007193
5	5	0.0009256
6	6	0.0019089
7	7	0.0027321
8	8	0.0041983
9	9	2.07e-05
10	10	9.9e-06
11	11	3.48e-05
12	12	4.9e-06
13	13	7.1e-06
14	14	9.54e-05
15	15	0.0001218
16	16	2.7e-06
17	17	1.1e-06
18	18	5.2e-06
19	19	2.4e-06
20	20	3.7e-06
21	21	2e-07
22	22	0
23	23	1e-07
