0	0	0.889353
1	1	0.0185863
2	2	0.0332444
3	3	0.0482385
4	4	0.0007073
5	5	0.0009289
6	6	0.0019032
7	7	0.0027433
8	8	0.0042135
9	9	1.91e-05
10	10	1.09e-05
11	11	3.8e-05
12	12	5.3e-06
13	13	5.8e-06
14	14	4e-07
15	15	4e-07
16	16	0
17	17	2e-07
18	18	1e-06
19	19	2e-07
20	20	2e-07
21	21	1e-07
22	22	0
23	23	0
