0	0	0.888868
1	1	0.0186225
2	2	0.0332908
3	3	0.0482424
4	4	0.0007315
5	5	0.0009183
6	6	0.0019159
7	7	0.0027274
8	8	0.0041978
9	9	1.94e-05
10	10	1.19e-05
11	11	3.45e-05
12	12	1.47e-05
13	13	3.05e-05
14	14	0.0001508
15	15	0.0001987
16	16	2.6e-06
17	17	1.8e-06
18	18	7.8e-06
19	19	4.7e-06
20	20	6.8e-06
21	21	7e-07
22	22	2e-07
23	23	3e-07
