0	0	0.8888108
1	1	0.018604
2	2	0.0332168
3	3	0.0481667
4	4	0.0007166
5	5	0.0009395
6	6	0.0019067
7	7	0.002685
8	8	0.0042129
9	9	1.81e-05
10	10	1.1e-05
11	11	4.25e-05
12	12	4.99e-05
13	13	9.06e-05
14	14	0.000214
15	15	0.0002699
16	16	4.3e-06
17	17	3.4e-06
18	18	1.09e-05
19	19	1.12e-05
20	20	1.39e-05
21	21	1e-06
22	22	0
23	23	3e-07
