0	0	0.8894764
1	1	0.0185863
2	2	0.0332037
3	3	0.0481657
4	4	0.0007232
5	5	0.0009148
6	6	0.001893
7	7	0.0026983
8	8	0.0042187
9	9	2.16e-05
10	10	1.03e-05
11	11	3.39e-05
12	12	6.6e-06
13	13	5.4e-06
14	14	1.39e-05
15	15	2.18e-05
16	16	8e-07
17	17	3e-07
18	18	2.1e-06
19	19	1.3e-06
20	20	1.7e-06
21	21	2e-07
22	22	0
23	23	0
