0	0	0.8895826
1	1	0.0185516
2	2	0.0331517
3	3	0.0482292
4	4	0.0007313
5	5	0.0009234
6	6	0.0018778
7	7	0.0026971
8	8	0.0041792
9	9	1.82e-05
10	10	9.2e-06
11	11	3.44e-05
12	12	5.9e-06
13	13	4.3e-06
14	14	1e-07
15	15	3e-07
16	16	2e-07
17	17	6e-07
18	18	7e-07
19	19	1e-06
20	20	1.1e-06
21	21	0
22	22	0
23	23	1e-07
