0	0	0.8890602
1	1	0.0185267
2	2	0.0332066
3	3	0.0482882
4	4	0.0007327
5	5	0.0009243
6	6	0.0019062
7	7	0.0026849
8	8	0.0042071
9	9	1.93e-05
10	10	1.1e-05
11	11	3.53e-05
12	12	1.46e-05
13	13	2.75e-05
14	14	0.0001395
15	15	0.0001932
16	16	2.7e-06
17	17	2.2e-06
18	18	6.5e-06
19	19	4.8e-06
20	20	6.1e-06
21	21	2e-07
22	22	0
23	23	2e-07
