0	0	0.8893085
1	1	0.0185207
2	2	0.033224
3	3	0.0483121
4	4	0.0007264
5	5	0.0009062
6	6	0.0018987
7	7	0.0027155
8	8	0.0042187
9	9	1.89e-05
10	10	1.28e-05
11	11	3.4e-05
12	12	4.6e-06
13	13	4.8e-06
14	14	3.43e-05
15	15	5.12e-05
16	16	1.4e-06
17	17	3e-07
18	18	3.7e-06
19	19	1.1e-06
20	20	1.6e-06
21	21	5e-07
22	22	0
23	23	0
