0	0	0.8887346
1	1	0.0185011
2	2	0.0331676
3	3	0.04822
4	4	0.000721
5	5	0.0009204
6	6	0.0019086
7	7	0.0027115
8	8	0.0041917
9	9	1.93e-05
10	10	1.42e-05
11	11	6.55e-05
12	12	8.86e-05
13	13	0.0001323
14	14	0.000237
15	15	0.0003072
16	16	7.2e-06
17	17	4.8e-06
18	18	1.61e-05
19	19	1.17e-05
20	20	1.81e-05
21	21	9e-07
22	22	2e-07
23	23	4e-07
