0	0	0.8891609
1	1	0.0185311
2	2	0.0332526
3	3	0.0481409
4	4	0.0007233
5	5	0.0009084
6	6	0.0019147
7	7	0.002686
8	8	0.0041999
9	9	2.05e-05
10	10	1.09e-05
11	11	3.37e-05
12	12	1.67e-05
13	13	3.1e-05
14	14	0.000149
15	15	0.0001946
16	16	4.1e-06
17	17	2.2e-06
18	18	6.4e-06
19	19	5.1e-06
20	20	6.9e-06
21	21	8e-07
22	22	2e-07
23	23	1e-07
