0	0	0.8895442
1	1	0.0184614
2	2	0.0332806
3	3	0.0482174
4	4	0.0007199
5	5	0.0009027
6	6	0.0019097
7	7	0.0026914
8	8	0.0041929
9	9	2.01e-05
10	10	1.13e-05
11	11	3.45e-05
12	12	5.7e-06
13	13	5.1e-06
14	14	5e-07
15	15	2e-07
16	16	1e-07
17	17	5e-07
18	18	5e-07
19	19	5e-07
20	20	7e-07
21	21	0
22	22	1e-07
23	23	0
