0	0	0.889136
1	1	0.0185788
2	2	0.0331606
3	3	0.0483476
4	4	0.0007012
5	5	0.0009206
6	6	0.0019247
7	7	0.0027113
8	8	0.0041684
9	9	1.9e-05
10	10	1.1e-05
11	11	3.65e-05
12	12	6.5e-06
13	13	1.3e-05
14	14	0.0001076
15	15	0.0001402
16	16	2.2e-06
17	17	1.8e-06
18	18	5.7e-06
19	19	2.1e-06
20	20	4.7e-06
21	21	3e-07
22	22	0
23	23	2e-07
