0	0	0.8895798
1	1	0.0184932
2	2	0.0332082
3	3	0.0482045
4	4	0.000723
5	5	0.0009313
6	6	0.0018958
7	7	0.0026964
8	8	0.0041863
9	9	2.18e-05
10	10	1.11e-05
11	11	3.41e-05
12	12	6.2e-06
13	13	3.6e-06
14	14	0
15	15	3e-07
16	16	3e-07
17	17	4e-07
18	18	9e-07
19	19	1e-06
20	20	1.7e-06
21	21	1e-07
22	22	0
23	23	0
