0	0	0.8885471
1	1	0.0184927
2	2	0.0332762
3	3	0.0483259
4	4	0.0007185
5	5	0.0009149
6	6	0.0019378
7	7	0.0027009
8	8	0.0042219
9	9	2.15e-05
10	10	1.26e-05
11	11	5.64e-05
12	12	6.86e-05
13	13	0.000113
14	14	0.0002368
15	15	0.0003027
16	16	5.2e-06
17	17	3.9e-06
18	18	1.43e-05
19	19	1.09e-05
20	20	1.69e-05
21	21	9e-07
22	22	1e-07
23	23	3e-07
