0	0	0.8895211
1	1	0.0185711
2	2	0.0331658
3	3	0.0482114
4	4	0.0007204
5	5	0.0009196
6	6	0.0019008
7	7	0.0026877
8	8	0.0042048
9	9	2.21e-05
10	10	1e-05
11	11	3.39e-05
12	12	4.1e-06
13	13	4.5e-06
14	14	6.6e-06
15	15	1.15e-05
16	16	8e-07
17	17	4e-07
18	18	1.8e-06
19	19	4e-07
20	20	1e-06
21	21	2e-07
22	22	0
23	23	0
