0	0	0.8894173
1	1	0.018516
2	2	0.0332765
3	3	0.0482488
4	4	0.0007202
5	5	0.0009053
6	6	0.0019208
7	7	0.0026863
8	8	0.0042321
9	9	1.77e-05
10	10	9.8e-06
11	11	3.36e-05
12	12	5.8e-06
13	13	5.4e-06
14	14	4e-07
15	15	5e-07
16	16	2e-07
17	17	1e-06
18	18	7e-07
19	19	9e-07
20	20	7e-07
21	21	0
22	22	0
23	23	0
