0	0	0.8893926
1	1	0.0186203
2	2	0.0332094
3	3	0.0482877
4	4	0.0007155
5	5	0.0009067
6	6	0.0019024
7	7	0.0027072
8	8	0.00418
9	9	1.97e-05
10	10	1.03e-05
11	11	3.4e-05
12	12	5.7e-06
13	13	5.3e-06
14	14	2e-07
15	15	4e-07
16	16	1e-07
17	17	3e-07
18	18	2e-07
19	19	1e-06
20	20	9e-07
21	21	1e-07
22	22	0
23	23	0
