0	0	0.8894867
1	1	0.0185199
2	2	0.0332403
3	3	0.0481055
4	4	0.0007258
5	5	0.0009201
6	6	0.0019021
7	7	0.0027193
8	8	0.0042136
9	9	1.85e-05
10	10	1.07e-05
11	11	3.41e-05
12	12	6.7e-06
13	13	5.2e-06
14	14	3.52e-05
15	15	4.92e-05
16	16	3e-07
17	17	6e-07
18	18	3.2e-06
19	19	1e-06
20	20	1.9e-06
21	21	1e-07
22	22	0
23	23	0
