0	0	0.8894097
1	1	0.0185367
2	2	0.0332108
3	3	0.048308
4	4	0.0007098
5	5	0.0009238
6	6	0.0019053
7	7	0.0027064
8	8	0.0042093
9	9	1.8e-05
10	10	1.01e-05
11	11	3.55e-05
12	12	4.1e-06
13	13	4.8e-06
14	14	2.1e-06
15	15	3.8e-06
16	16	3e-07
17	17	5e-07
18	18	9e-07
19	19	1e-07
20	20	0
21	21	0
22	22	0
23	23	0
