0	0	0.88935
1	1	0.0185288
2	2	0.033296
3	3	0.0482896
4	4	0.00072
5	5	0.0009228
6	6	0.0018976
7	7	0.0027274
8	8	0.0041916
9	9	1.74e-05
10	10	1.01e-05
11	11	3.45e-05
12	12	5.5e-06
13	13	5.2e-06
14	14	2e-07
15	15	3e-07
16	16	1e-07
17	17	3e-07
18	18	5e-07
19	19	1.4e-06
20	20	7e-07
21	21	0
22	22	0
23	23	0
