0	0	0.8894022
1	1	0.0185071
2	2	0.0332159
3	3	0.0483654
4	4	0.0007252
5	5	0.0008993
6	6	0.0019175
7	7	0.0027049
8	8	0.0041787
9	9	1.95e-05
10	10	1.28e-05
11	11	3.58e-05
12	12	5.5e-06
13	13	5.7e-06
14	14	4e-07
15	15	4e-07
16	16	4e-07
17	17	9e-07
18	18	1e-07
19	19	1.1e-06
20	20	1.2e-06
21	21	0
22	22	0
23	23	0
