0	0	0.8891476
1	1	0.0186063
2	2	0.0332603
3	3	0.0482995
4	4	0.0007151
5	5	0.0009268
6	6	0.0019142
7	7	0.0027198
8	8	0.0041985
9	9	1.91e-05
10	10	1.01e-05
11	11	3.13e-05
12	12	4.9e-06
13	13	5.9e-06
14	14	5.5e-05
15	15	7.72e-05
16	16	8e-07
17	17	7e-07
18	18	2.4e-06
19	19	1.8e-06
20	20	2.4e-06
21	21	3e-07
22	22	0
23	23	0
