0	0	0.8892006
1	1	0.0185486
2	2	0.0331435
3	3	0.0481728
4	4	0.0007106
5	5	0.0009124
6	6	0.0019004
7	7	0.0027023
8	8	0.0041845
9	9	1.74e-05
10	10	1.11e-05
11	11	3.2e-05
12	12	2.53e-05
13	13	3.95e-05
14	14	0.000159
15	15	0.0002122
16	16	3e-06
17	17	3.1e-06
18	18	8.3e-06
19	19	5.4e-06
20	20	7.6e-06
21	21	1e-07
22	22	0
23	23	3e-07
