0	0	0.8886463
1	1	0.0185486
2	2	0.0332313
3	3	0.0481537
4	4	0.0007051
5	5	0.0009166
6	6	0.0019072
7	7	0.0027029
8	8	0.004233
9	9	2e-05
10	10	1.53e-05
11	11	6.44e-05
12	12	8.72e-05
13	13	0.0001437
14	14	0.000244
15	15	0.000315
16	16	6.8e-06
17	17	4.7e-06
18	18	1.73e-05
19	19	1.56e-05
20	20	1.96e-05
21	21	9e-07
22	22	3e-07
23	23	5e-07
