0	0	0.8894542
1	1	0.0185559
2	2	0.0332097
3	3	0.0482245
4	4	0.0006971
5	5	0.0009196
6	6	0.0018899
7	7	0.0027272
8	8	0.0042106
9	9	2.08e-05
10	10	8.2e-06
11	11	3.71e-05
12	12	4.5e-06
13	13	6.2e-06
14	14	1.11e-05
15	15	1.89e-05
16	16	9e-07
17	17	7e-07
18	18	1.7e-06
19	19	3e-07
20	20	6e-07
21	21	2e-07
22	22	0
23	23	1e-07
