0	0	0.8892153
1	1	0.0185805
2	2	0.0332795
3	3	0.0482168
4	4	0.0007151
5	5	0.0009018
6	6	0.0018961
7	7	0.0027208
8	8	0.0042229
9	9	1.96e-05
10	10	1.09e-05
11	11	3.57e-05
12	12	5.9e-06
13	13	6e-06
14	14	6.87e-05
15	15	9.43e-05
16	16	1e-06
17	17	1.3e-06
18	18	3.5e-06
19	19	1.8e-06
20	20	2.2e-06
21	21	2e-07
22	22	0
23	23	1e-07
