0	0	0.8893011
1	1	0.0185085
2	2	0.0332634
3	3	0.0481661
4	4	0.0007199
5	5	0.000921
6	6	0.0019274
7	7	0.0026974
8	8	0.0042214
9	9	1.78e-05
10	10	1.03e-05
11	11	3.58e-05
12	12	5.1e-06
13	13	5.2e-06
14	14	8.03e-05
15	15	0.0001072
16	16	1.7e-06
17	17	1.2e-06
18	18	3.7e-06
19	19	2.3e-06
20	20	2.8e-06
21	21	3e-07
22	22	1e-07
23	23	0
