0	0	0.8888681
1	1	0.0185556
2	2	0.0332196
3	3	0.0481654
4	4	0.0007071
5	5	0.0008979
6	6	0.0018961
7	7	0.0026927
8	8	0.0042175
9	9	2.3e-05
10	10	1.1e-05
11	11	4.84e-05
12	12	5.74e-05
13	13	9.23e-05
14	14	0.000219
15	15	0.0002815
16	16	5.6e-06
17	17	3.8e-06
18	18	1.38e-05
19	19	9.6e-06
20	20	1.34e-05
21	21	1e-06
22	22	0
23	23	2e-07
