0	0	0.8895139
1	1	0.0185751
2	2	0.0333387
3	3	0.0480386
4	4	0.0007166
5	5	0.0009185
6	6	0.0019019
7	7	0.0027214
8	8	0.0041975
9	9	1.89e-05
10	10	1.06e-05
11	11	3.41e-05
12	12	5.8e-06
13	13	5.4e-06
14	14	4e-07
15	15	1e-07
16	16	1e-07
17	17	9e-07
18	18	5e-07
19	19	4e-07
20	20	6e-07
21	21	0
22	22	0
23	23	0
