0	0	0.8893427
1	1	0.0185654
2	2	0.0332132
3	3	0.0483464
4	4	0.0007183
5	5	0.0009057
6	6	0.0019297
7	7	0.002704
8	8	0.0041967
9	9	1.85e-05
10	10	1.1e-05
11	11	3.34e-05
12	12	5.5e-06
13	13	5.9e-06
14	14	1e-07
15	15	4e-07
16	16	1e-07
17	17	9e-07
18	18	7e-07
19	19	6e-07
20	20	8e-07
21	21	0
22	22	0
23	23	0
