0	0	0.8892817
1	1	0.0185509
2	2	0.0332369
3	3	0.048355
4	4	0.0007266
5	5	0.0009163
6	6	0.0019142
7	7	0.0027315
8	8	0.0042059
9	9	2.21e-05
10	10	9.9e-06
11	11	3.31e-05
12	12	6.1e-06
13	13	5.6e-06
14	14	2e-07
15	15	2e-07
16	16	1e-07
17	17	2e-07
18	18	1e-06
19	19	1.2e-06
20	20	1.3e-06
21	21	0
22	22	0
23	23	0
