0	0	0.889065
1	1	0.0185143
2	2	0.0332249
3	3	0.0481937
4	4	0.0007182
5	5	0.0009131
6	6	0.001906
7	7	0.0027109
8	8	0.0042096
9	9	1.97e-05
10	10	1.17e-05
11	11	3.47e-05
12	12	2.18e-05
13	13	4.1e-05
14	14	0.0001693
15	15	0.0002146
16	16	3.1e-06
17	17	2.8e-06
18	18	9.7e-06
19	19	6.3e-06
20	20	8.5e-06
21	21	7e-07
22	22	2e-07
23	23	2e-07
