0	0	0.8895111
1	1	0.0185524
2	2	0.0331745
3	3	0.0482
4	4	0.0007335
5	5	0.0009251
6	6	0.001895
7	7	0.0026972
8	8	0.0042103
9	9	2.1e-05
10	10	1.17e-05
11	11	3.4e-05
12	12	5.2e-06
13	13	5.2e-06
14	14	8.1e-06
15	15	1.12e-05
16	16	5e-07
17	17	8e-07
18	18	1.6e-06
19	19	8e-07
20	20	7e-07
21	21	0
22	22	1e-07
23	23	0
