0	0	0.8893747
1	1	0.0185953
2	2	0.033266
3	3	0.0482305
4	4	0.0007243
5	5	0.0009216
6	6	0.0018961
7	7	0.0027006
8	8	0.0042135
9	9	1.86e-05
10	10	1.12e-05
11	11	3.39e-05
12	12	5e-06
13	13	4.4e-06
14	14	7e-07
15	15	6e-07
16	16	3e-07
17	17	1e-06
18	18	6e-07
19	19	6e-07
20	20	2e-07
21	21	2e-07
22	22	0
23	23	1e-07
