0	0	0.8895272
1	1	0.0184738
2	2	0.0331839
3	3	0.0481964
4	4	0.0007218
5	5	0.0009131
6	6	0.0019127
7	7	0.0027286
8	8	0.0041666
9	9	1.92e-05
10	10	1.37e-05
11	11	3.82e-05
12	12	5.4e-06
13	13	4.3e-06
14	14	3.63e-05
15	15	5.19e-05
16	16	1.3e-06
17	17	4e-07
18	18	2.8e-06
19	19	9e-07
20	20	1.2e-06
21	21	2e-07
22	22	1e-07
23	23	0
