0	0	0.889009
1	1	0.0184566
2	2	0.0332189
3	3	0.0481898
4	4	0.00074
5	5	0.0009089
6	6	0.0019131
7	7	0.0027289
8	8	0.0042022
9	9	1.84e-05
10	10	1.25e-05
11	11	3.59e-05
12	12	3.57e-05
13	13	5.82e-05
14	14	0.0001824
15	15	0.0002545
16	16	3.1e-06
17	17	2.4e-06
18	18	1.02e-05
19	19	6.6e-06
20	20	1.21e-05
21	21	3e-07
22	22	1e-07
23	23	2e-07
