0	0	0.8894494
1	1	0.0185983
2	2	0.0331903
3	3	0.0482049
4	4	0.0007208
5	5	0.0009202
6	6	0.0019106
7	7	0.0026888
8	8	0.0041984
9	9	1.91e-05
10	10	1.14e-05
11	11	3.3e-05
12	12	5.2e-06
13	13	6.2e-06
14	14	1.37e-05
15	15	2.4e-05
16	16	1.1e-06
17	17	7e-07
18	18	1.7e-06
19	19	6e-07
20	20	1.6e-06
21	21	0
22	22	0
23	23	0
