0	0	0.8895502
1	1	0.0185296
2	2	0.0332761
3	3	0.0480976
4	4	0.0007223
5	5	0.0009372
6	6	0.00189
7	7	0.0027408
8	8	0.0041749
9	9	2.08e-05
10	10	1.18e-05
11	11	3.57e-05
12	12	4.1e-06
13	13	4.5e-06
14	14	4e-07
15	15	2e-07
16	16	2e-07
17	17	9e-07
18	18	6e-07
19	19	1.2e-06
20	20	9e-07
21	21	0
22	22	0
23	23	0
