0	0	0.8895007
1	1	0.0185959
2	2	0.0332218
3	3	0.0481238
4	4	0.0007097
5	5	0.0009151
6	6	0.0018989
7	7	0.0027166
8	8	0.0042334
9	9	2e-05
10	10	1.24e-05
11	11	3.44e-05
12	12	6.7e-06
13	13	5.3e-06
14	14	8e-07
15	15	2.2e-06
16	16	1e-07
17	17	4e-07
18	18	7e-07
19	19	3e-07
20	20	6e-07
21	21	1e-07
22	22	0
23	23	1e-07
