0	0	0.8893594
1	1	0.0185633
2	2	0.0332426
3	3	0.0482822
4	4	0.0007099
5	5	0.0009211
6	6	0.0019103
7	7	0.0026994
8	8	0.0042302
9	9	2.2e-05
10	10	1.13e-05
11	11	3.39e-05
12	12	3.9e-06
13	13	6.2e-06
14	14	4e-07
15	15	8e-07
16	16	2e-07
17	17	5e-07
18	18	9e-07
19	19	8e-07
20	20	5e-07
21	21	1e-07
22	22	1e-07
23	23	0
