0	0	0.8892512
1	1	0.0185953
2	2	0.0332883
3	3	0.0482681
4	4	0.0007134
5	5	0.0009109
6	6	0.0019208
7	7	0.0027022
8	8	0.0042213
9	9	1.99e-05
10	10	1.3e-05
11	11	3.55e-05
12	12	4.8e-06
13	13	5e-06
14	14	1.73e-05
15	15	2.78e-05
16	16	7e-07
17	17	7e-07
18	18	2e-06
19	19	5e-07
20	20	1e-06
21	21	1e-07
22	22	0
23	23	2e-07
