0	0	0.8885824
1	1	0.0186083
2	2	0.0332078
3	3	0.0481919
4	4	0.0007141
5	5	0.0008997
6	6	0.0019033
7	7	0.0027254
8	8	0.0041955
9	9	2.1e-05
10	10	1.7e-05
11	11	7.08e-05
12	12	9.37e-05
13	13	0.0001401
14	14	0.0002513
15	15	0.0003168
16	16	6.7e-06
17	17	4.9e-06
18	18	1.66e-05
19	19	1.24e-05
20	20	1.87e-05
21	21	1e-06
22	22	2e-07
23	23	4e-07
