0	0	0.8892018
1	1	0.0184924
2	2	0.0331218
3	3	0.04832
4	4	0.0007235
5	5	0.0009238
6	6	0.0019174
7	7	0.0027238
8	8	0.0041895
9	9	1.84e-05
10	10	1.18e-05
11	11	3.49e-05
12	12	9.1e-06
13	13	1.91e-05
14	14	0.0001184
15	15	0.0001553
16	16	2.6e-06
17	17	1.1e-06
18	18	6.4e-06
19	19	3.6e-06
20	20	4.7e-06
21	21	4e-07
22	22	0
23	23	2e-07
