0	0	0.8886857
1	1	0.0184896
2	2	0.033227
3	3	0.0482511
4	4	0.0007119
5	5	0.0009217
6	6	0.0019212
7	7	0.002706
8	8	0.0041759
9	9	2.12e-05
10	10	1.32e-05
11	11	6.29e-05
12	12	8.12e-05
13	13	0.0001275
14	14	0.0002399
15	15	0.0003052
16	16	6.7e-06
17	17	4.8e-06
18	18	1.52e-05
19	19	1.38e-05
20	20	1.73e-05
21	21	8e-07
22	22	0
23	23	2e-07
