0	0	0.88949
1	1	0.0185561
2	2	0.0332842
3	3	0.0481167
4	4	0.0007177
5	5	0.0009175
6	6	0.0019085
7	7	0.0027592
8	8	0.0041731
9	9	1.66e-05
10	10	1.11e-05
11	11	3.28e-05
12	12	7.7e-06
13	13	5.5e-06
14	14	3e-07
15	15	5e-07
16	16	3e-07
17	17	8e-07
18	18	2e-07
19	19	6e-07
20	20	5e-07
21	21	0
22	22	0
23	23	1e-07
