0	0	0.8892696
1	1	0.0185162
2	2	0.0331973
3	3	0.0482793
4	4	0.0007292
5	5	0.0009302
6	6	0.0019122
7	7	0.0027046
8	8	0.004236
9	9	1.96e-05
10	10	1.07e-05
11	11	3.5e-05
12	12	5.4e-06
13	13	4.6e-06
14	14	5.89e-05
15	15	8.08e-05
16	16	1.9e-06
17	17	6e-07
18	18	3.6e-06
19	19	1.5e-06
20	20	2.3e-06
21	21	5e-07
22	22	0
23	23	0
