0	0	0.8895035
1	1	0.0185202
2	2	0.0332194
3	3	0.0481997
4	4	0.000718
5	5	0.0009251
6	6	0.0018888
7	7	0.0027246
8	8	0.0042163
9	9	2.17e-05
10	10	1.05e-05
11	11	3.69e-05
12	12	5.2e-06
13	13	4.7e-06
14	14	6e-07
15	15	1.1e-06
16	16	4e-07
17	17	1.3e-06
18	18	8e-07
19	19	5e-07
20	20	6e-07
21	21	0
22	22	0
23	23	1e-07
