0	0	0.8886035
1	1	0.0185851
2	2	0.0331862
3	3	0.0482515
4	4	0.0007231
5	5	0.000925
6	6	0.0019103
7	7	0.002699
8	8	0.0041724
9	9	2.09e-05
10	10	1.33e-05
11	11	6.22e-05
12	12	8.12e-05
13	13	0.0001322
14	14	0.0002481
15	15	0.0003232
16	16	7.2e-06
17	17	4.9e-06
18	18	1.7e-05
19	19	1.33e-05
20	20	1.95e-05
21	21	6e-07
22	22	0
23	23	3e-07
