0	0	0.8896294
1	1	0.0185206
2	2	0.0331872
3	3	0.0481793
4	4	0.0007234
5	5	0.0009122
6	6	0.0019226
7	7	0.0026949
8	8	0.004151
9	9	1.88e-05
10	10	1.19e-05
11	11	3.66e-05
12	12	4.8e-06
13	13	4.9e-06
14	14	2e-07
15	15	3e-07
16	16	1e-07
17	17	4e-07
18	18	6e-07
19	19	2e-07
20	20	5e-07
21	21	0
22	22	0
23	23	1e-07
