0	0	0.8888733
1	1	0.0184542
2	2	0.0331917
3	3	0.0482129
4	4	0.0007312
5	5	0.0009068
6	6	0.0019182
7	7	0.0027192
8	8	0.0042031
9	9	2.09e-05
10	10	1.31e-05
11	11	4.77e-05
12	12	6.33e-05
13	13	9.66e-05
14	14	0.0002201
15	15	0.0002814
16	16	3.9e-06
17	17	4.4e-06
18	18	1.27e-05
19	19	1e-05
20	20	1.39e-05
21	21	8e-07
22	22	3e-07
23	23	3e-07
