0	0	0.8890666
1	1	0.018537
2	2	0.033174
3	3	0.0482636
4	4	0.0007211
5	5	0.0009148
6	6	0.0019228
7	7	0.0027119
8	8	0.0041944
9	9	1.86e-05
10	10	1.24e-05
11	11	3.39e-05
12	12	1.83e-05
13	13	3.4e-05
14	14	0.0001528
15	15	0.0002002
16	16	2.3e-06
17	17	1.7e-06
18	18	6.4e-06
19	19	4.7e-06
20	20	7.6e-06
21	21	4e-07
22	22	0
23	23	5e-07
