0	0	0.8892936
1	1	0.0185181
2	2	0.0332376
3	3	0.0482424
4	4	0.0007258
5	5	0.0009297
6	6	0.0019321
7	7	0.0026958
8	8	0.0042108
9	9	1.96e-05
10	10	1.03e-05
11	11	3.46e-05
12	12	5.2e-06
13	13	6.2e-06
14	14	5.51e-05
15	15	7.36e-05
16	16	1.3e-06
17	17	6e-07
18	18	3.4e-06
19	19	2.1e-06
20	20	2e-06
21	21	0
22	22	0
23	23	1e-07
