0	0	0.8893831
1	1	0.0185417
2	2	0.0331735
3	3	0.0482727
4	4	0.0007176
5	5	0.0009264
6	6	0.0019245
7	7	0.0027178
8	8	0.004213
9	9	1.91e-05
10	10	1.14e-05
11	11	3.5e-05
12	12	5.7e-06
13	13	5.3e-06
14	14	2.13e-05
15	15	2.7e-05
16	16	6e-07
17	17	8e-07
18	18	1.7e-06
19	19	6e-07
20	20	9e-07
21	21	3e-07
22	22	0
23	23	0
