0	0	0.8891323
1	1	0.0185144
2	2	0.0332377
3	3	0.0481524
4	4	0.0007222
5	5	0.000937
6	6	0.0019152
7	7	0.0026998
8	8	0.0041698
9	9	2.07e-05
10	10	1.11e-05
11	11	3.48e-05
12	12	2.27e-05
13	13	3.73e-05
14	14	0.0001489
15	15	0.000215
16	16	4.1e-06
17	17	2e-06
18	18	7.8e-06
19	19	4.7e-06
20	20	9.2e-06
21	21	7e-07
22	22	0
23	23	2e-07
