0	0	0.8894781
1	1	0.0186186
2	2	0.0332422
3	3	0.0481545
4	4	0.000722
5	5	0.0009117
6	6	0.0019127
7	7	0.0026973
8	8	0.004185
9	9	1.87e-05
10	10	1.2e-05
11	11	3.55e-05
12	12	4.3e-06
13	13	4.6e-06
14	14	1e-07
15	15	5e-07
16	16	0
17	17	4e-07
18	18	5e-07
19	19	5e-07
20	20	8e-07
21	21	0
22	22	0
23	23	0
