0	0	0.8893915
1	1	0.0186054
2	2	0.0333012
3	3	0.048141
4	4	0.0007017
5	5	0.0009148
6	6	0.0019078
7	7	0.0026901
8	8	0.0042112
9	9	1.99e-05
10	10	9.9e-06
11	11	3.35e-05
12	12	5.2e-06
13	13	6.5e-06
14	14	2.25e-05
15	15	3.15e-05
16	16	9e-07
17	17	8e-07
18	18	2.5e-06
19	19	5e-07
20	20	1.4e-06
21	21	1e-07
22	22	0
23	23	1e-07
