0	0	0.8894883
1	1	0.0186038
2	2	0.0331644
3	3	0.0482271
4	4	0.0007319
5	5	0.0009244
6	6	0.0019155
7	7	0.0026777
8	8	0.0041901
9	9	1.9e-05
10	10	1.18e-05
11	11	3.16e-05
12	12	6.7e-06
13	13	5.4e-06
14	14	1e-07
15	15	3e-07
16	16	1e-07
17	17	4e-07
18	18	3e-07
19	19	4e-07
20	20	7e-07
21	21	0
22	22	0
23	23	0
