0	0	0.8889894
1	1	0.0185804
2	2	0.0332661
3	3	0.0483224
4	4	0.0007292
5	5	0.000917
6	6	0.0019145
7	7	0.0027195
8	8	0.0042006
9	9	1.98e-05
10	10	9.5e-06
11	11	3.35e-05
12	12	7.4e-06
13	13	1.26e-05
14	14	0.0001115
15	15	0.0001491
16	16	2.6e-06
17	17	1.4e-06
18	18	4.2e-06
19	19	3e-06
20	20	5.4e-06
21	21	3e-07
22	22	0
23	23	6e-07
