0	0	0.8887845
1	1	0.0185654
2	2	0.03312
3	3	0.0482255
4	4	0.0007228
5	5	0.0009232
6	6	0.0019208
7	7	0.0026772
8	8	0.0041915
9	9	2.04e-05
10	10	1.27e-05
11	11	5.14e-05
12	12	7.4e-05
13	13	0.0001177
14	14	0.0002373
15	15	0.0003022
16	16	5.7e-06
17	17	3.8e-06
18	18	1.62e-05
19	19	1.24e-05
20	20	1.42e-05
21	21	6e-07
22	22	2e-07
23	23	3e-07
