0	0	0.88889
1	1	0.0185303
2	2	0.0331671
3	3	0.0482273
4	4	0.0007411
5	5	0.0009102
6	6	0.0018921
7	7	0.0027155
8	8	0.0041896
9	9	2.12e-05
10	10	1.27e-05
11	11	4.28e-05
12	12	5.09e-05
13	13	8.2e-05
14	14	0.0002075
15	15	0.000275
16	16	4.9e-06
17	17	2.7e-06
18	18	1.24e-05
19	19	8.3e-06
20	20	1.52e-05
21	21	6e-07
22	22	0
23	23	6e-07
