0	0	0.8893915
1	1	0.0185165
2	2	0.0332507
3	3	0.0483045
4	4	0.0007112
5	5	0.0009226
6	6	0.0018954
7	7	0.0027194
8	8	0.0042029
9	9	2.07e-05
10	10	1.08e-05
11	11	3.53e-05
12	12	5.5e-06
13	13	6.4e-06
14	14	1.3e-06
15	15	2.2e-06
16	16	7e-07
17	17	9e-07
18	18	7e-07
19	19	5e-07
20	20	3e-07
21	21	0
22	22	0
23	23	0
