0	0	0.8895393
1	1	0.0185245
2	2	0.033205
3	3	0.048178
4	4	0.0007151
5	5	0.0009349
6	6	0.0019069
7	7	0.0027239
8	8	0.0041926
9	9	1.83e-05
10	10	1.1e-05
11	11	3.47e-05
12	12	4.1e-06
13	13	4.9e-06
14	14	1.5e-06
15	15	3.2e-06
16	16	4e-07
17	17	5e-07
18	18	7e-07
19	19	1e-07
20	20	2e-07
21	21	2e-07
22	22	0
23	23	0
