0	0	0.8892976
1	1	0.0185473
2	2	0.0332098
3	3	0.0481845
4	4	0.0007126
5	5	0.0009218
6	6	0.0019084
7	7	0.0027021
8	8	0.0042091
9	9	2.01e-05
10	10	1.09e-05
11	11	3.62e-05
12	12	4.8e-06
13	13	5.8e-06
14	14	9.5e-05
15	15	0.0001193
16	16	1.4e-06
17	17	1.7e-06
18	18	4.5e-06
19	19	2.2e-06
20	20	4.3e-06
21	21	5e-07
22	22	1e-07
23	23	0
