0	0	0.8891886
1	1	0.0186029
2	2	0.0332348
3	3	0.048173
4	4	0.0007224
5	5	0.0009087
6	6	0.0019068
7	7	0.0026915
8	8	0.0042118
9	9	1.94e-05
10	10	9.5e-06
11	11	3.35e-05
12	12	5.3e-06
13	13	1.41e-05
14	14	0.0001073
15	15	0.0001521
16	16	1.9e-06
17	17	1.7e-06
18	18	5.7e-06
19	19	3.6e-06
20	20	5e-06
21	21	3e-07
22	22	0
23	23	1e-07
