0	0	0.88939
1	1	0.0185155
2	2	0.0332633
3	3	0.0483119
4	4	0.0007199
5	5	0.000915
6	6	0.0019188
7	7	0.0027111
8	8	0.0041646
9	9	1.93e-05
10	10	1.28e-05
11	11	3.3e-05
12	12	4.8e-06
13	13	5.2e-06
14	14	4.4e-06
15	15	6.9e-06
16	16	1e-07
17	17	6e-07
18	18	1.3e-06
19	19	5e-07
20	20	1e-06
21	21	0
22	22	0
23	23	0
