0	0	0.8892451
1	1	0.0184607
2	2	0.0333351
3	3	0.0482684
4	4	0.0007271
5	5	0.0009112
6	6	0.0018751
7	7	0.0027156
8	8	0.0042129
9	9	2.17e-05
10	10	1.25e-05
11	11	3.58e-05
12	12	4.9e-06
13	13	5.1e-06
14	14	6.93e-05
15	15	8.88e-05
16	16	1.6e-06
17	17	9e-07
18	18	2.9e-06
19	19	2.4e-06
20	20	2.7e-06
21	21	1e-07
22	22	0
23	23	1e-07
