0	0	0.88933
1	1	0.0184909
2	2	0.0333115
3	3	0.048321
4	4	0.0007109
5	5	0.0009188
6	6	0.001915
7	7	0.0027367
8	8	0.0041857
9	9	2.03e-05
10	10	1.15e-05
11	11	3.31e-05
12	12	5.3e-06
13	13	5.8e-06
14	14	2e-07
15	15	5e-07
16	16	1e-07
17	17	6e-07
18	18	5e-07
19	19	1e-06
20	20	4e-07
21	21	1e-07
22	22	1e-07
23	23	0
