0	0	0.8890736
1	1	0.0185353
2	2	0.0332471
3	3	0.0482548
4	4	0.0007326
5	5	0.000921
6	6	0.0019014
7	7	0.0027145
8	8	0.0041965
9	9	1.71e-05
10	10	1.18e-05
11	11	3.64e-05
12	12	9.9e-06
13	13	2.21e-05
14	14	0.0001299
15	15	0.0001727
16	16	2.5e-06
17	17	1.6e-06
18	18	6.5e-06
19	19	5.5e-06
20	20	6.7e-06
21	21	4e-07
22	22	1e-07
23	23	0
