0	0	0.8886384
1	1	0.0185316
2	2	0.0332339
3	3	0.0482008
4	4	0.0007272
5	5	0.0009121
6	6	0.0019238
7	7	0.0027215
8	8	0.0041845
9	9	2.01e-05
10	10	1.41e-05
11	11	6.02e-05
12	12	8.16e-05
13	13	0.0001278
14	14	0.000241
15	15	0.0003191
16	16	6.4e-06
17	17	5.6e-06
18	18	1.59e-05
19	19	1.5e-05
20	20	1.76e-05
21	21	1.2e-06
22	22	0
23	23	6e-07
