0	0	0.8895507
1	1	0.0185528
2	2	0.0332061
3	3	0.048158
4	4	0.000709
5	5	0.0009268
6	6	0.0019084
7	7	0.0026905
8	8	0.0042217
9	9	1.71e-05
10	10	1.14e-05
11	11	3.37e-05
12	12	5.2e-06
13	13	4.5e-06
14	14	1e-07
15	15	3e-07
16	16	0
17	17	2e-07
18	18	9e-07
19	19	1.1e-06
20	20	1.5e-06
21	21	0
22	22	0
23	23	0
