0	0	0.8893484
1	1	0.0186082
2	2	0.0332039
3	3	0.0483148
4	4	0.0007229
5	5	0.0009219
6	6	0.0018988
7	7	0.0027034
8	8	0.0041951
9	9	1.95e-05
10	10	9.7e-06
11	11	3.64e-05
12	12	5.8e-06
13	13	6.7e-06
14	14	2e-07
15	15	2e-07
16	16	4e-07
17	17	6e-07
18	18	5e-07
19	19	8e-07
20	20	1.8e-06
21	21	0
22	22	0
23	23	0
