0	0	0.888642
1	1	0.0185864
2	2	0.0331881
3	3	0.0483136
4	4	0.000722
5	5	0.0009281
6	6	0.0018952
7	7	0.002676
8	8	0.0041838
9	9	1.88e-05
10	10	1.31e-05
11	11	5.75e-05
12	12	6.7e-05
13	13	0.0001158
14	14	0.0002303
15	15	0.0003077
16	16	6.2e-06
17	17	5.8e-06
18	18	1.4e-05
19	19	1.17e-05
20	20	1.55e-05
21	21	1.1e-06
22	22	2e-07
23	23	1e-07
