0	0	0.8895966
1	1	0.0185912
2	2	0.0332208
3	3	0.0481128
4	4	0.0007258
5	5	0.0009051
6	6	0.001906
7	7	0.0026948
8	8	0.0041737
9	9	1.79e-05
10	10	9.8e-06
11	11	3.09e-05
12	12	5.4e-06
13	13	4.9e-06
14	14	4e-07
15	15	2e-07
16	16	2e-07
17	17	5e-07
18	18	1.1e-06
19	19	1.2e-06
20	20	7e-07
21	21	0
22	22	0
23	23	0
