0	0	0.8891684
1	1	0.0185325
2	2	0.0333234
3	3	0.0482907
4	4	0.0007256
5	5	0.0009315
6	6	0.001905
7	7	0.0027189
8	8	0.0042362
9	9	1.76e-05
10	10	1.3e-05
11	11	3.32e-05
12	12	5.8e-06
13	13	5.3e-06
14	14	3.59e-05
15	15	5.01e-05
16	16	3e-07
17	17	1.3e-06
18	18	2.3e-06
19	19	1.2e-06
20	20	1.6e-06
21	21	2e-07
22	22	0
23	23	0
