0	0	0.8894252
1	1	0.0185273
2	2	0.0332667
3	3	0.0482538
4	4	0.0007255
5	5	0.0009146
6	6	0.001903
7	7	0.0026963
8	8	0.0042068
9	9	2.15e-05
10	10	9.3e-06
11	11	3.29e-05
12	12	5.4e-06
13	13	5.6e-06
14	14	9e-07
15	15	2.5e-06
16	16	6e-07
17	17	3e-07
18	18	1e-06
19	19	3e-07
20	20	4e-07
21	21	1e-07
22	22	0
23	23	0
