0	0	0.8894069
1	1	0.0185554
2	2	0.0332058
3	3	0.0481954
4	4	0.0007177
5	5	0.0009125
6	6	0.0019
7	7	0.0026931
8	8	0.0042104
9	9	1.85e-05
10	10	1.09e-05
11	11	3.84e-05
12	12	6.1e-06
13	13	4.8e-06
14	14	4.65e-05
15	15	6.91e-05
16	16	1.5e-06
17	17	6e-07
18	18	2.8e-06
19	19	1.4e-06
20	20	2e-06
21	21	2e-07
22	22	0
23	23	0
