0	0	0.8890495
1	1	0.018591
2	2	0.0331952
3	3	0.0481445
4	4	0.000712
5	5	0.0009192
6	6	0.0019165
7	7	0.0027239
8	8	0.0041983
9	9	2.02e-05
10	10	1.16e-05
11	11	3.31e-05
12	12	2.43e-05
13	13	4.24e-05
14	14	0.0001691
15	15	0.0002198
16	16	3e-06
17	17	1.6e-06
18	18	8.6e-06
19	19	6e-06
20	20	9.5e-06
21	21	5e-07
22	22	1e-07
23	23	1e-07
