0	0	0.8896564
1	1	0.0185175
2	2	0.0331567
3	3	0.0481033
4	4	0.0007182
5	5	0.0009291
6	6	0.0019085
7	7	0.0027092
8	8	0.0042172
9	9	1.87e-05
10	10	1.23e-05
11	11	3.55e-05
12	12	5.3e-06
13	13	4.7e-06
14	14	8e-07
15	15	2.4e-06
16	16	2e-07
17	17	9e-07
18	18	1.3e-06
19	19	6e-07
20	20	9e-07
21	21	1e-07
22	22	1e-07
23	23	1e-07
