0	0	0.8885783
1	1	0.0185603
2	2	0.03326
3	3	0.0481607
4	4	0.0007056
5	5	0.0009206
6	6	0.0019087
7	7	0.0027065
8	8	0.0042213
9	9	2.08e-05
10	10	1.52e-05
11	11	6.99e-05
12	12	8.76e-05
13	13	0.0001501
14	14	0.0002466
15	15	0.0003185
16	16	6.1e-06
17	17	6.3e-06
18	18	1.74e-05
19	19	1.67e-05
20	20	2.1e-05
21	21	1.1e-06
22	22	0
23	23	7e-07
