0	0	0.8894499
1	1	0.0185389
2	2	0.0332937
3	3	0.0482003
4	4	0.0007069
5	5	0.0009195
6	6	0.0019138
7	7	0.0026914
8	8	0.0042026
9	9	2.03e-05
10	10	1.17e-05
11	11	3.5e-05
12	12	3.8e-06
13	13	3e-06
14	14	2.4e-06
15	15	4.4e-06
16	16	1e-07
17	17	4e-07
18	18	6e-07
19	19	1e-07
20	20	8e-07
21	21	3e-07
22	22	0
23	23	1e-07
