0	0	0.8895429
1	1	0.0185653
2	2	0.0332591
3	3	0.0481181
4	4	0.0007403
5	5	0.0009285
6	6	0.0018916
7	7	0.0026914
8	8	0.0041842
9	9	1.96e-05
10	10	1.1e-05
11	11	3.39e-05
12	12	4.8e-06
13	13	4.6e-06
14	14	1e-07
15	15	3e-07
16	16	2e-07
17	17	5e-07
18	18	6e-07
19	19	1.3e-06
20	20	1.6e-06
21	21	1e-07
22	22	0
23	23	0
