0	0	0.8893193
1	1	0.0185835
2	2	0.0332534
3	3	0.0482539
4	4	0.0007225
5	5	0.0009222
6	6	0.0019132
7	7	0.0027259
8	8	0.0042278
9	9	1.82e-05
10	10	1.03e-05
11	11	3.57e-05
12	12	5.1e-06
13	13	4.5e-06
14	14	1e-06
15	15	7e-07
16	16	3e-07
17	17	8e-07
18	18	6e-07
19	19	5e-07
20	20	5e-07
21	21	1e-07
22	22	0
23	23	0
