0	0	0.8891178
1	1	0.0186467
2	2	0.0332817
3	3	0.0481256
4	4	0.000735
5	5	0.0009205
6	6	0.001894
7	7	0.0027252
8	8	0.004218
9	9	1.97e-05
10	10	1.09e-05
11	11	3.58e-05
12	12	5.5e-06
13	13	9.7e-06
14	14	9.59e-05
15	15	0.0001405
16	16	2.4e-06
17	17	1.4e-06
18	18	5.3e-06
19	19	3.4e-06
20	20	4.1e-06
21	21	4e-07
22	22	2e-07
23	23	3e-07
