0	0	0.8893002
1	1	0.0185295
2	2	0.0331871
3	3	0.0483326
4	4	0.0007155
5	5	0.0009106
6	6	0.0018955
7	7	0.0026958
8	8	0.0041789
9	9	2.1e-05
10	10	1.01e-05
11	11	3.23e-05
12	12	5.5e-06
13	13	5.5e-06
14	14	7.18e-05
15	15	9.54e-05
16	16	1.4e-06
17	17	1.5e-06
18	18	4.3e-06
19	19	1.8e-06
20	20	3.3e-06
21	21	2e-07
22	22	1e-07
23	23	1e-07
