0	0	0.8893719
1	1	0.0185617
2	2	0.0332445
3	3	0.0481703
4	4	0.0007125
5	5	0.000912
6	6	0.0018885
7	7	0.0026759
8	8	0.0041922
9	9	1.93e-05
10	10	1.12e-05
11	11	3.43e-05
12	12	4.7e-06
13	13	3.6e-06
14	14	7.54e-05
15	15	0.0001093
16	16	1.7e-06
17	17	1.4e-06
18	18	3.4e-06
19	19	2.4e-06
20	20	3.5e-06
21	21	2e-07
22	22	1e-07
23	23	0
