0	0	0.8887588
1	1	0.0185691
2	2	0.0332344
3	3	0.0482946
4	4	0.0007192
5	5	0.0009058
6	6	0.0019094
7	7	0.0027026
8	8	0.004218
9	9	1.62e-05
10	10	1.09e-05
11	11	4.06e-05
12	12	4.18e-05
13	13	7.41e-05
14	14	0.0001988
15	15	0.0002654
16	16	4e-06
17	17	2.7e-06
18	18	1.04e-05
19	19	9.2e-06
20	20	1.29e-05
21	21	9e-07
22	22	1e-07
23	23	1e-07
