0	0	0.8894691
1	1	0.0185783
2	2	0.0332208
3	3	0.0481639
4	4	0.0007216
5	5	0.0009181
6	6	0.0019308
7	7	0.0027233
8	8	0.0041963
9	9	2.14e-05
10	10	1.01e-05
11	11	3.16e-05
12	12	6.2e-06
13	13	4.9e-06
14	14	1e-07
15	15	1e-07
16	16	3e-07
17	17	1e-06
18	18	6e-07
19	19	7e-07
20	20	8e-07
21	21	0
22	22	0
23	23	0
