0	0	0.8888609
1	1	0.0185034
2	2	0.0332641
3	3	0.0481642
4	4	0.0007198
5	5	0.0009194
6	6	0.0019045
7	7	0.0027052
8	8	0.0041945
9	9	1.78e-05
10	10	1.04e-05
11	11	4.6e-05
12	12	5.59e-05
13	13	8.57e-05
14	14	0.0002184
15	15	0.0002836
16	16	4.5e-06
17	17	3.8e-06
18	18	1.33e-05
19	19	1.1e-05
20	20	1.31e-05
21	21	2e-07
22	22	0
23	23	3e-07
