0	0	0.8893039
1	1	0.0185607
2	2	0.0333313
3	3	0.0482855
4	4	0.0007165
5	5	0.000927
6	6	0.0019137
7	7	0.0026965
8	8	0.0041862
9	9	1.98e-05
10	10	1.13e-05
11	11	3.4e-05
12	12	5.4e-06
13	13	4.3e-06
14	14	0
15	15	1.2e-06
16	16	4e-07
17	17	8e-07
18	18	3e-07
19	19	7e-07
20	20	5e-07
21	21	0
22	22	0
23	23	0
