0	0	0.8894121
1	1	0.0185839
2	2	0.0332087
3	3	0.0482342
4	4	0.0007161
5	5	0.0009112
6	6	0.001918
7	7	0.0027261
8	8	0.0041769
9	9	1.94e-05
10	10	1.11e-05
11	11	3.61e-05
12	12	4.7e-06
13	13	6.3e-06
14	14	1.22e-05
15	15	1.91e-05
16	16	3e-07
17	17	8e-07
18	18	1.3e-06
19	19	3e-07
20	20	6e-07
21	21	3e-07
22	22	2e-07
23	23	1e-07
