0	0	0.8886734
1	1	0.0185453
2	2	0.0332004
3	3	0.0481177
4	4	0.0007258
5	5	0.0008991
6	6	0.0019462
7	7	0.0026857
8	8	0.0041949
9	9	2.03e-05
10	10	1.56e-05
11	11	7.43e-05
12	12	9.87e-05
13	13	0.0001602
14	14	0.0002468
15	15	0.0003274
16	16	6.7e-06
17	17	7e-06
18	18	1.78e-05
19	19	1.43e-05
20	20	2.14e-05
21	21	8e-07
22	22	0
23	23	2e-07
