0	0	0.8896386
1	1	0.0185107
2	2	0.0332004
3	3	0.0481025
4	4	0.0007178
5	5	0.0009228
6	6	0.0019113
7	7	0.0026952
8	8	0.0042199
9	9	2.05e-05
10	10	1.13e-05
11	11	3.49e-05
12	12	4.7e-06
13	13	6.3e-06
14	14	1e-07
15	15	4e-07
16	16	2e-07
17	17	5e-07
18	18	7e-07
19	19	8e-07
20	20	4e-07
21	21	0
22	22	0
23	23	0
