0	0	0.8889757
1	1	0.0185257
2	2	0.0332459
3	3	0.0482082
4	4	0.0007367
5	5	0.0009044
6	6	0.0019123
7	7	0.0026797
8	8	0.0042586
9	9	2e-05
10	10	1.19e-05
11	11	3.59e-05
12	12	2.63e-05
13	13	4.19e-05
14	14	0.0001705
15	15	0.0002136
16	16	2.7e-06
17	17	2.8e-06
18	18	1.03e-05
19	19	5.9e-06
20	20	1.02e-05
21	21	6e-07
22	22	1e-07
23	23	1e-07
