0	0	0.8893911
1	1	0.0185244
2	2	0.0332197
3	3	0.0483316
4	4	0.0007141
5	5	0.0009023
6	6	0.0019341
7	7	0.0026873
8	8	0.004208
9	9	2.07e-05
10	10	1.17e-05
11	11	3.42e-05
12	12	5.3e-06
13	13	4.5e-06
14	14	3.4e-06
15	15	4.6e-06
16	16	3e-07
17	17	7e-07
18	18	1e-06
19	19	2e-07
20	20	8e-07
21	21	0
22	22	0
23	23	0
