0	0	0.8892035
1	1	0.0185476
2	2	0.0333133
3	3	0.0483004
4	4	0.0007236
5	5	0.0009123
6	6	0.0019335
7	7	0.002728
8	8	0.0042145
9	9	1.76e-05
10	10	1.09e-05
11	11	3.57e-05
12	12	4.8e-06
13	13	6e-06
14	14	1.86e-05
15	15	2.55e-05
16	16	6e-07
17	17	7e-07
18	18	1.8e-06
19	19	4e-07
20	20	7e-07
21	21	0
22	22	0
23	23	0
