0	0	0.8886357
1	1	0.0185787
2	2	0.0331782
3	3	0.0483165
4	4	0.0007196
5	5	0.000919
6	6	0.0019204
7	7	0.0027242
8	8	0.004191
9	9	2.11e-05
10	10	1.3e-05
11	11	4.94e-05
12	12	5.87e-05
13	13	0.0001019
14	14	0.0002262
15	15	0.0002961
16	16	5.3e-06
17	17	4.5e-06
18	18	1.2e-05
19	19	1.01e-05
20	20	1.72e-05
21	21	8e-07
22	22	2e-07
23	23	2e-07
