0	0	0.8892584
1	1	0.018585
2	2	0.0333165
3	3	0.0483476
4	4	0.0007134
5	5	0.0009123
6	6	0.0019018
7	7	0.0026835
8	8	0.0042
9	9	2e-05
10	10	1.01e-05
11	11	3.42e-05
12	12	6.7e-06
13	13	5.8e-06
14	14	4e-07
15	15	6e-07
16	16	1e-07
17	17	1.6e-06
18	18	6e-07
19	19	5e-07
20	20	8e-07
21	21	1e-07
22	22	0
23	23	0
