0	0	0.8893461
1	1	0.0185352
2	2	0.0331199
3	3	0.0483356
4	4	0.0007217
5	5	0.0009205
6	6	0.0019358
7	7	0.0027233
8	8	0.0041922
9	9	2.06e-05
10	10	1.02e-05
11	11	3.48e-05
12	12	6e-06
13	13	5.3e-06
14	14	3.49e-05
15	15	5.02e-05
16	16	1e-06
17	17	7e-07
18	18	2.9e-06
19	19	6e-07
20	20	2.1e-06
21	21	3e-07
22	22	0
23	23	1e-07
