0	0	0.889272
1	1	0.0185639
2	2	0.0332878
3	3	0.0480998
4	4	0.0007087
5	5	0.0009032
6	6	0.0019196
7	7	0.002694
8	8	0.0042318
9	9	2.06e-05
10	10	1.14e-05
11	11	3.32e-05
12	12	6e-06
13	13	7.7e-06
14	14	9.81e-05
15	15	0.0001259
16	16	2.2e-06
17	17	2e-06
18	18	4.6e-06
19	19	3.1e-06
20	20	4e-06
21	21	4e-07
22	22	0
23	23	0
