0	0	0.8891845
1	1	0.0186425
2	2	0.0332332
3	3	0.0482218
4	4	0.0006978
5	5	0.0009209
6	6	0.0019148
7	7	0.0026806
8	8	0.0042065
9	9	2.04e-05
10	10	8.5e-06
11	11	3.13e-05
12	12	6.7e-06
13	13	6.3e-06
14	14	8.94e-05
15	15	0.0001198
16	16	1.9e-06
17	17	1.1e-06
18	18	4.6e-06
19	19	3e-06
20	20	4.2e-06
21	21	2e-07
22	22	0
23	23	0
