0	0	0.889393
1	1	0.0185663
2	2	0.0332069
3	3	0.0483092
4	4	0.0007078
5	5	0.0009264
6	6	0.0019147
7	7	0.0026967
8	8	0.0041936
9	9	2.22e-05
10	10	1.09e-05
11	11	3.7e-05
12	12	4.9e-06
13	13	5.8e-06
14	14	1e-07
15	15	6e-07
16	16	2e-07
17	17	6e-07
18	18	8e-07
19	19	1e-06
20	20	1.3e-06
21	21	0
22	22	0
23	23	0
