0	0	0.8887907
1	1	0.0186015
2	2	0.033231
3	3	0.0482502
4	4	0.0007222
5	5	0.0009067
6	6	0.0019402
7	7	0.0027252
8	8	0.0041897
9	9	1.93e-05
10	10	1.14e-05
11	11	3.63e-05
12	12	4.08e-05
13	13	6.35e-05
14	14	0.0001872
15	15	0.0002481
16	16	3.5e-06
17	17	2.8e-06
18	18	1.17e-05
19	19	7e-06
20	20	9.9e-06
21	21	7e-07
22	22	1e-07
23	23	3e-07
