0	0	0.8893099
1	1	0.0185769
2	2	0.0332669
3	3	0.0482948
4	4	0.0007169
5	5	0.0009144
6	6	0.0019036
7	7	0.0027046
8	8	0.0042066
9	9	2.11e-05
10	10	1.14e-05
11	11	3.77e-05
12	12	5.6e-06
13	13	4e-06
14	14	8.3e-06
15	15	1.32e-05
16	16	4e-07
17	17	6e-07
18	18	1.7e-06
19	19	4e-07
20	20	8e-07
21	21	2e-07
22	22	0
23	23	0
