0	0	0.889282
1	1	0.0185089
2	2	0.0331304
3	3	0.048328
4	4	0.0007243
5	5	0.0009234
6	6	0.0019196
7	7	0.0027308
8	8	0.0041993
9	9	1.85e-05
10	10	1.23e-05
11	11	3.42e-05
12	12	5.5e-06
13	13	5.4e-06
14	14	6.82e-05
15	15	9.75e-05
16	16	1.4e-06
17	17	1.2e-06
18	18	3.4e-06
19	19	1.8e-06
20	20	3.4e-06
21	21	2e-07
22	22	1e-07
23	23	2e-07
