0	0	0.8895335
1	1	0.0185298
2	2	0.0331394
3	3	0.0482707
4	4	0.0007212
5	5	0.0009186
6	6	0.0019131
7	7	0.0027049
8	8	0.004181
9	9	2.03e-05
10	10	9.8e-06
11	11	3.18e-05
12	12	5.3e-06
13	13	5e-06
14	14	4.8e-06
15	15	6.6e-06
16	16	3e-07
17	17	8e-07
18	18	2.3e-06
19	19	2e-07
20	20	3e-07
21	21	2e-07
22	22	1e-07
23	23	0
