1.362000e-05 0.000000e+00
1.362000e-05  8.501448e+06
1.415000e-05  8.963022e+06
1.419000e-05  8.998128e+06
1.450000e-05  9.271368e+06
1.496236e-05  9.606256e+06
1.500000e-05  9.632158e+06
1.531087e-05  9.818210e+06
1.550000e-05  9.924095e+06
1.590000e-05  1.011394e+07
1.610000e-05  1.020024e+07
1.650000e-05  1.033951e+07
1.678804e-05  1.043018e+07
1.717908e-05  1.052415e+07
1.757924e-05  1.060641e+07
1.800000e-05  1.066596e+07
1.840772e-05  1.071108e+07
1.883649e-05  1.073563e+07
1.927525e-05  1.074963e+07
1.995262e-05  1.073929e+07
2.041738e-05  1.072183e+07
2.113489e-05  1.066634e+07
2.162719e-05  1.061992e+07
2.238721e-05  1.052517e+07
2.300000e-05  1.044092e+07
2.371374e-05  1.032573e+07
2.471000e-05  1.015506e+07
2.540973e-05  1.002330e+07
2.660725e-05  9.789866e+06
2.730000e-05  9.648132e+06
2.848000e-05  9.401513e+06
2.848000e-05  9.831420e+06
2.851018e-05  9.826682e+06
2.917427e-05  9.719394e+06
2.923000e-05  9.710311e+06
2.980000e-05  9.619017e+06
3.054921e-05  9.496526e+06
3.126079e-05  9.376434e+06
3.150000e-05  9.335269e+06
3.198895e-05  9.249940e+06
3.267046e-05  9.128532e+06
3.273407e-05  9.117504e+06
3.350000e-05  8.983382e+06
3.388442e-05  8.914598e+06
3.450000e-05  8.801984e+06
3.507519e-05  8.694444e+06
3.507519e-05  8.694444e+06
3.548134e-05  8.619917e+06
3.630781e-05  8.464898e+06
3.633738e-05  8.459274e+06
3.672823e-05  8.388791e+06
3.762984e-05  8.222465e+06
3.764500e-05  8.219744e+06
3.801894e-05  8.150736e+06
3.893621e-05  7.977790e+06
3.900000e-05  7.966373e+06
3.950000e-05  7.875960e+06
4.027170e-05  7.733332e+06
4.032109e-05  7.724050e+06
4.120975e-05  7.561228e+06
4.161350e-05  7.485746e+06
4.168694e-05  7.472700e+06
4.290422e-05  7.254690e+06
4.300000e-05  7.237926e+06
4.415704e-05  7.029300e+06
4.433373e-05  6.997299e+06
4.500000e-05  6.882372e+06
4.553648e-05  6.788180e+06
4.570882e-05  6.758664e+06
4.695900e-05  6.543542e+06
4.704354e-05  6.528978e+06
4.731513e-05  6.484356e+06
4.841724e-05  6.300196e+06
4.851314e-05  6.284140e+06
4.993484e-05  6.052442e+06
5.000000e-05  6.042366e+06
5.011872e-05  6.023724e+06
5.150000e-05  5.807056e+06
5.158221e-05  5.794226e+06
5.300000e-05  5.578342e+06
5.308844e-05  5.564703e+06
5.322124e-05  5.544284e+06
5.476766e-05  5.319648e+06
5.500000e-05  5.286810e+06
5.623413e-05  5.114433e+06
5.650000e-05  5.076907e+06
5.658240e-05  5.065356e+06
5.821032e-05  4.848396e+06
5.834777e-05  4.830332e+06
5.956621e-05  4.674821e+06
5.991009e-05  4.630572e+06
6.025596e-05  4.588338e+06
6.165950e-05  4.418682e+06
6.209977e-05  4.366618e+06
6.309573e-05  4.252095e+06
6.382634e-05  4.167546e+06
6.400000e-05  4.148701e+06
6.606934e-05  3.926972e+06
6.615915e-05  3.917646e+06
6.683439e-05  3.849742e+06
6.839116e-05  3.692382e+06
6.839116e-05  3.692382e+06
6.958249e-05  3.580571e+06
7.079458e-05  3.469190e+06
7.140851e-05  3.413877e+06
7.161434e-05  3.395783e+06
7.202777e-05  3.359333e+06
7.328245e-05  3.253304e+06
7.391797e-05  3.200009e+06
7.455899e-05  3.148860e+06
7.585776e-05  3.047428e+06
7.651560e-05  2.997034e+06
7.673615e-05  2.980554e+06
7.740162e-05  2.930659e+06
7.852356e-05  2.850605e+06
7.943282e-05  2.786402e+06
7.977650e-05  2.762309e+06
8.012167e-05  2.739485e+06
8.222426e-05  2.603963e+06
8.258002e-05  2.581516e+06
8.389768e-05  2.500790e+06
8.511380e-05  2.429883e+06
8.511380e-05  2.429883e+06
8.647190e-05  2.352647e+06
8.709636e-05  2.319154e+06
8.810489e-05  2.266160e+06
8.861352e-05  2.239340e+06
8.912509e-05  2.212920e+06
9.093896e-05  2.122554e+06
9.120109e-05  2.109810e+06
9.146396e-05  2.097168e+06
9.325830e-05  2.014702e+06
9.332543e-05  2.011757e+06
9.440609e-05  1.965164e+06
9.588669e-05  1.901218e+06
9.601603e-05  1.895758e+06
9.772370e-05  1.827599e+06
9.785366e-05  1.822479e+06
9.885531e-05  1.783698e+06
9.935533e-05  1.765082e+06
1.011579e-04  1.699196e+06
1.016511e-04  1.681183e+06
1.017419e-04  1.677936e+06
1.039621e-04  1.602369e+06
1.040000e-04  1.601124e+06
1.047128e-04  1.578109e+06
1.056590e-04  1.548032e+06
1.069117e-04  1.509701e+06
1.082563e-04  1.469508e+06
1.083927e-04  1.465612e+06
1.091488e-04  1.444094e+06
1.108573e-04  1.396312e+06
1.109175e-04  1.394656e+06
1.128496e-04  1.343525e+06
1.134703e-04  1.327436e+06
1.141564e-04  1.310027e+06
1.161449e-04  1.261935e+06
1.166474e-04  1.250004e+06
1.174898e-04  1.230696e+06
1.185513e-04  1.206564e+06
1.195364e-04  1.184977e+06
1.214656e-04  1.143692e+06
1.221448e-04  1.129774e+06
1.223207e-04  1.126232e+06
1.241385e-04  1.090527e+06
1.244515e-04  1.084488e+06
1.262965e-04  1.049793e+06
1.271901e-04  1.033591e+06
1.273503e-04  1.030749e+06
1.295911e-04  9.912553e+05
1.303167e-04  9.789732e+05
1.304013e-04  9.775589e+05
1.321185e-04  9.494304e+05
1.323961e-04  9.450181e+05
1.340462e-04  9.193009e+05
1.351154e-04  9.031589e+05
1.361151e-04  8.884364e+05
1.369908e-04  8.758184e+05
1.389728e-04  8.483384e+05
1.400000e-04  8.343229e+05
1.411553e-04  8.190278e+05
1.421877e-04  8.055878e+05
1.435807e-04  7.881188e+05
1.444936e-04  7.769459e+05
1.460988e-04  7.576932e+05
1.479108e-04  7.368480e+05
1.491025e-04  7.232874e+05
1.491242e-04  7.230478e+05
1.500548e-04  7.130822e+05
1.513957e-04  6.989716e+05
1.538819e-04  6.736545e+05
1.548817e-04  6.636642e+05
1.549019e-04  6.634650e+05
1.568161e-04  6.453248e+05
1.584893e-04  6.296912e+05
1.589945e-04  6.250649e+05
1.590534e-04  6.245409e+05
1.607866e-04  6.093440e+05
1.624694e-04  5.950824e+05
1.648874e-04  5.749508e+05
1.653695e-04  5.710826e+05
1.659587e-04  5.665186e+05
1.680314e-04  5.506179e+05
1.683643e-04  5.481344e+05
1.704288e-04  5.329908e+05
1.720000e-04  5.217964e+05
1.726583e-04  5.172000e+05
1.740890e-04  5.073959e+05
1.759506e-04  4.950775e+05
1.774823e-04  4.850796e+05
1.778279e-04  4.828828e+05
1.784608e-04  4.789343e+05
1.804590e-04  4.666493e+05
1.817084e-04  4.592200e+05
1.822936e-04  4.558388e+05
1.851576e-04  4.395813e+05
1.862087e-04  4.338321e+05
1.882369e-04  4.228410e+05
1.887616e-04  4.200953e+05
1.889078e-04  4.193511e+05
1.915106e-04  4.063250e+05
1.937258e-04  3.955565e+05
1.950000e-04  3.894732e+05
1.957092e-04  3.861542e+05
1.974198e-04  3.784233e+05
2.000000e-04  3.669172e+05
2.002364e-04  3.658832e+05
2.006901e-04  3.639255e+05
2.031310e-04  3.536835e+05
2.045368e-04  3.479215e+05
2.050664e-04  3.457865e+05
2.059108e-04  3.424816e+05
2.089296e-04  3.310191e+05
2.108674e-04  3.237340e+05
2.118104e-04  3.203023e+05
2.122633e-04  3.187130e+05
2.146629e-04  3.103948e+05
2.152240e-04  3.084971e+05
2.175543e-04  3.007331e+05
2.187762e-04  2.967654e+05
2.205048e-04  2.912668e+05
2.219647e-04  2.866993e+05
2.245174e-04  2.789533e+05
2.245502e-04  2.788565e+05
2.264644e-04  2.732748e+05
2.276330e-04  2.699367e+05
2.289220e-04  2.663016e+05
2.304093e-04  2.622293e+05
2.323366e-04  2.570835e+05
2.339174e-04  2.529273e+05
2.356914e-04  2.483626e+05
2.370307e-04  2.450384e+05
2.371374e-04  2.447809e+05
2.419636e-04  2.332673e+05
2.425792e-04  2.318192e+05
2.426610e-04  2.316324e+05
2.462670e-04  2.235717e+05
2.468256e-04  2.223383e+05
2.490290e-04  2.175796e+05
2.500591e-04  2.154211e+05
2.500953e-04  2.153470e+05
2.534938e-04  2.084669e+05
2.539145e-04  2.076264e+05
2.549890e-04  2.055487e+05
2.595526e-04  1.969727e+05
2.600160e-04  1.961147e+05
2.614230e-04  1.935566e+05
2.634113e-04  1.900828e+05
2.641917e-04  1.887556e+05
2.677252e-04  1.828135e+05
2.691535e-04  1.804392e+05
2.698975e-04  1.792318e+05
2.731144e-04  1.741794e+05
2.757038e-04  1.701682e+05
2.770129e-04  1.681951e+05
2.786121e-04  1.658729e+05
2.808867e-04  1.626009e+05
2.822442e-04  1.606944e+05
2.830577e-04  1.595661e+05
2.855016e-04  1.563101e+05
2.891824e-04  1.515084e+05
2.896018e-04  1.509697e+05
2.923732e-04  1.475017e+05
2.953931e-04  1.439033e+05
2.969193e-04  1.421093e+05
3.009368e-04  1.375235e+05
3.019952e-04  1.363292e+05
3.025285e-04  1.357461e+05
3.058728e-04  1.321685e+05
3.068048e-04  1.311814e+05
3.102582e-04  1.276054e+05
3.108136e-04  1.270374e+05
3.133330e-04  1.245637e+05
3.175960e-04  1.204898e+05
3.180845e-04  1.200427e+05
3.200000e-04  1.183145e+05
3.240835e-04  1.147146e+05
3.264985e-04  1.126073e+05
3.280481e-04  1.112867e+05
3.286568e-04  1.107949e+05
3.322929e-04  1.078900e+05
3.356382e-04  1.052728e+05
3.374473e-04  1.038756e+05
3.388442e-04  1.028157e+05
3.420229e-04  1.004744e+05
3.427678e-04  9.993782e+04
3.452431e-04  9.817345e+04
3.494480e-04  9.530655e+04
3.501801e-04  9.481290e+04
3.553998e-04  9.138077e+04
3.564253e-04  9.071276e+04
3.567334e-04  9.051566e+04
3.606908e-04  8.810969e+04
3.611823e-04  8.781337e+04
3.653850e-04  8.532862e+04
3.656014e-04  8.520197e+04
3.684370e-04  8.360505e+04
3.723968e-04  8.142670e+04
3.737473e-04  8.071343e+04
3.758374e-04  7.962256e+04
3.801443e-04  7.741216e+04
3.818343e-04  7.655219e+04
3.828274e-04  7.605550e+04
3.850139e-04  7.501509e+04
3.871601e-04  7.400326e+04
3.924354e-04  7.157085e+04
3.935501e-04  7.106234e+04
3.966596e-04  6.968598e+04
4.000000e-04  6.824293e+04
4.009821e-04  6.782166e+04
4.039368e-04  6.661359e+04
4.061416e-04  6.572841e+04
4.094823e-04  6.439822e+04
4.115928e-04  6.357340e+04
4.143275e-04  6.251548e+04
4.179435e-04  6.119089e+04
4.213091e-04  5.998561e+04
4.246272e-04  5.881085e+04
4.265795e-04  5.814741e+04
4.287465e-04  5.742201e+04
4.325197e-04  5.616966e+04
4.333861e-04  5.589437e+04
4.344106e-04  5.557427e+04
4.394309e-04  5.402001e+04
4.430474e-04  5.292325e+04
4.446343e-04  5.244703e+04
4.502129e-04  5.086048e+04
4.518559e-04  5.040390e+04
4.570882e-04  4.896021e+04
4.584727e-04  4.859452e+04
4.590658e-04  4.844053e+04
4.647668e-04  4.697255e+04
4.654688e-04  4.679494e+04
4.717914e-04  4.521141e+04
4.743704e-04  4.460068e+04
4.768897e-04  4.401668e+04
4.831283e-04  4.258677e+04
4.841724e-04  4.235734e+04
4.856389e-04  4.203969e+04
4.918094e-04  4.071426e+04
4.918980e-04  4.069608e+04
4.923060e-04  4.061361e+04
4.987589e-04  3.932089e+04
5.024786e-04  3.858561e+04
5.048406e-04  3.812341e+04
5.051245e-04  3.806879e+04
5.128614e-04  3.666071e+04
5.156627e-04  3.615449e+04
5.188000e-04  3.559795e+04
5.210447e-04  3.521583e+04
5.239313e-04  3.472817e+04
5.283122e-04  3.400233e+04
5.339492e-04  3.307435e+04
5.347543e-04  3.294881e+04
5.365833e-04  3.266594e+04
5.380000e-04  3.245189e+04
5.380000e-04  5.088508e+05
5.390000e-04  5.106268e+05
5.410000e-04  5.112046e+05
5.440000e-04  5.091894e+05
5.456008e-04  5.071684e+05
5.462177e-04  5.063949e+05
5.495409e-04  5.022321e+05
5.549761e-04  4.954361e+05
5.587987e-04  4.906614e+05
5.591136e-04  4.902892e+05
5.635565e-04  4.850452e+05
5.676263e-04  4.802796e+05
5.683778e-04  4.794009e+05
5.740000e-04  4.728351e+05
5.751812e-04  4.712662e+05
5.821032e-04  4.620865e+05
5.850000e-04  4.582658e+05
5.886451e-04  4.528559e+05
5.922430e-04  4.475234e+05
5.970000e-04  4.404773e+05
5.989494e-04  4.373581e+05
6.008277e-04  4.343552e+05
6.012602e-04  4.336668e+05
6.067958e-04  4.248586e+05
6.092628e-04  4.209367e+05
6.100000e-04  4.197654e+05
6.152654e-04  4.110511e+05
6.187587e-04  4.052861e+05
6.203902e-04  4.025962e+05
6.235245e-04  3.977058e+05
6.263208e-04  3.933450e+05
6.309573e-04  3.861363e+05
6.344393e-04  3.808854e+05
6.419482e-04  3.695665e+05
6.419482e-04  3.695665e+05
6.427508e-04  3.684414e+05
6.432776e-04  3.677032e+05
6.517221e-04  3.559133e+05
6.554224e-04  3.507508e+05
6.587945e-04  3.460482e+05
6.603964e-04  3.439991e+05
6.606934e-04  3.436194e+05
6.683439e-04  3.338625e+05
6.722023e-04  3.289436e+05
6.758550e-04  3.243017e+05
6.760830e-04  3.240122e+05
6.799860e-04  3.196428e+05
6.876859e-04  3.110265e+05
6.882747e-04  3.103681e+05
6.903391e-04  3.082332e+05
6.928273e-04  3.056610e+05
6.966949e-04  3.016789e+05
6.995273e-04  2.987650e+05
7.087103e-04  2.893219e+05
7.101417e-04  2.878541e+05
7.104300e-04  2.875832e+05
7.159019e-04  2.824472e+05
7.208611e-04  2.777949e+05
7.244360e-04  2.744513e+05
7.269967e-04  2.720578e+05
7.284339e-04  2.707998e+05
7.333521e-04  2.664963e+05
7.379766e-04  2.624531e+05
7.394789e-04  2.611402e+05
7.398999e-04  2.607736e+05
7.503665e-04  2.522780e+05
7.525256e-04  2.505272e+05
7.585776e-04  2.456221e+05
7.596854e-04  2.447263e+05
7.655777e-04  2.403468e+05
7.673615e-04  2.390221e+05
7.724363e-04  2.352550e+05
7.791402e-04  2.302911e+05
7.800000e-04  2.296549e+05
7.801669e-04  2.295354e+05
7.847701e-04  2.262393e+05
7.912043e-04  2.216467e+05
7.923659e-04  2.208181e+05
7.949155e-04  2.190000e+05
8.019136e-04  2.143844e+05
8.039757e-04  2.130251e+05
8.068301e-04  2.111441e+05
8.114030e-04  2.081413e+05
8.150144e-04  2.057716e+05
8.178251e-04  2.039276e+05
8.237811e-04  2.003703e+05
8.255006e-04  1.993461e+05
8.282806e-04  1.976907e+05
8.354541e-04  1.934222e+05
8.367277e-04  1.926646e+05
8.411687e-04  1.900302e+05
8.413951e-04  1.898960e+05
8.509663e-04  1.845788e+05
8.544414e-04  1.826493e+05
8.565300e-04  1.814901e+05
8.622337e-04  1.783350e+05
8.658770e-04  1.764696e+05
8.714088e-04  1.736392e+05
8.768010e-04  1.708813e+05
8.808904e-04  1.687945e+05
8.810489e-04  1.687189e+05
8.865316e-04  1.661058e+05
8.951863e-04  1.619824e+05
8.975458e-04  1.608613e+05
8.999791e-04  1.597717e+05
9.002747e-04  1.596394e+05
9.115893e-04  1.545781e+05
9.119130e-04  1.544336e+05
9.123775e-04  1.542264e+05
9.174411e-04  1.521323e+05
9.224848e-04  1.500479e+05
9.261883e-04  1.485178e+05
9.327300e-04  1.458238e+05
9.389250e-04  1.432739e+05
9.412813e-04  1.423828e+05
9.463166e-04  1.404791e+05
9.523015e-04  1.382175e+05
9.556295e-04  1.369644e+05
9.583672e-04  1.359340e+05
9.593414e-04  1.355675e+05
9.723684e-04  1.309688e+05
9.749445e-04  1.300618e+05
9.775631e-04  1.292004e+05
9.798261e-04  1.284563e+05
9.876955e-04  1.258704e+05
9.962349e-04  1.230725e+05
9.988262e-04  1.222239e+05
1.000000e-03  1.218696e+05
1.008722e-03  1.192379e+05
1.011141e-03  1.185084e+05
1.018885e-03  1.161812e+05
1.023293e-03  1.148568e+05
1.027746e-03  1.135959e+05
1.035142e-03  1.115031e+05
1.035701e-03  1.113453e+05
1.047129e-03  1.081210e+05
1.050147e-03  1.072699e+05
1.050643e-03  1.071405e+05
1.057730e-03  1.052923e+05
1.063894e-03  1.036900e+05
1.066904e-03  1.029078e+05
1.070749e-03  1.019090e+05
1.077899e-03  1.001573e+05
1.084512e-03  9.854152e+04
1.086465e-03  9.806473e+04
1.087486e-03  9.783045e+04
1.095862e-03  9.590978e+04
1.100158e-03  9.492792e+04
1.105523e-03  9.370245e+04
1.110473e-03  9.257207e+04
1.114034e-03  9.181776e+04
1.119247e-03  9.071404e+04
1.128020e-03  8.885708e+04
1.135011e-03  8.738304e+04
1.138738e-03  8.664284e+04
1.140153e-03  8.636198e+04
1.152757e-03  8.386085e+04
1.157625e-03  8.289758e+04
1.161449e-03  8.214120e+04
1.161449e-03  8.214116e+04
1.171665e-03  8.026784e+04
1.171995e-03  8.020739e+04
1.181681e-03  7.843750e+04
1.185087e-03  7.781526e+04
1.193886e-03  7.631033e+04
1.199672e-03  7.532135e+04
1.200609e-03  7.516120e+04
1.206164e-03  7.421541e+04
1.215639e-03  7.269262e+04
1.216186e-03  7.260479e+04
1.224914e-03  7.120304e+04
1.229785e-03  7.047639e+04
1.230269e-03  7.040419e+04
1.237371e-03  6.934785e+04
1.254937e-03  6.673652e+04
1.255307e-03  6.668143e+04
1.256211e-03  6.654755e+04
1.258430e-03  6.621874e+04
1.272930e-03  6.424103e+04
1.274138e-03  6.407644e+04
1.277634e-03  6.359986e+04
1.284168e-03  6.271138e+04
1.287743e-03  6.225451e+04
1.288731e-03  6.212827e+04
1.297495e-03  6.100893e+04
1.303816e-03  6.020413e+04
1.310935e-03  5.935598e+04
1.314080e-03  5.898133e+04
1.332997e-03  5.672908e+04
1.333521e-03  5.666692e+04
1.333854e-03  5.662747e+04
1.334186e-03  5.659109e+04
1.349467e-03  5.491800e+04
1.356750e-03  5.412087e+04
1.360260e-03  5.373682e+04
1.364583e-03  5.326506e+04
1.372717e-03  5.242117e+04
1.377407e-03  5.193480e+04
1.381072e-03  5.155480e+04
1.388353e-03  5.080208e+04
1.395740e-03  5.008111e+04
1.396368e-03  5.001983e+04
1.409492e-03  4.873964e+04
1.411981e-03  4.851397e+04
1.412890e-03  4.843166e+04
1.420692e-03  4.772723e+04
1.440860e-03  4.590712e+04
1.442323e-03  4.577514e+04
1.445440e-03  4.549395e+04
1.447261e-03  4.533007e+04
1.461519e-03  4.414822e+04
1.462905e-03  4.403337e+04
1.470619e-03  4.339434e+04
1.476251e-03  4.292893e+04
1.478526e-03  4.275214e+04
1.479661e-03  4.266402e+04
1.493010e-03  4.162748e+04
1.498374e-03  4.121231e+04
1.505154e-03  4.072100e+04
1.508765e-03  4.045940e+04
1.531087e-03  3.884311e+04
1.531850e-03  3.878787e+04
1.532181e-03  3.876393e+04
1.533017e-03  3.870802e+04
1.549395e-03  3.761697e+04
1.557758e-03  3.706008e+04
1.563724e-03  3.666282e+04
1.566751e-03  3.646186e+04
1.576090e-03  3.588034e+04
1.581475e-03  3.554515e+04
1.587158e-03  3.519152e+04
1.600940e-03  3.433637e+04
1.602524e-03  3.424494e+04
1.603245e-03  3.420336e+04
1.621172e-03  3.316952e+04
1.622968e-03  3.306593e+04
1.631173e-03  3.259455e+04
1.631466e-03  3.257768e+04
1.654329e-03  3.134556e+04
1.656008e-03  3.125509e+04
1.658654e-03  3.111255e+04
1.659587e-03  3.106502e+04
1.678049e-03  3.012690e+04
1.679641e-03  3.004604e+04
1.682815e-03  2.988481e+04
1.693363e-03  2.938585e+04
1.697575e-03  2.918722e+04
1.698878e-03  2.912579e+04
1.723480e-03  2.796637e+04
1.725946e-03  2.785045e+04
1.728149e-03  2.775483e+04
1.732295e-03  2.757491e+04
1.750272e-03  2.679504e+04
1.757924e-03  2.646422e+04
1.758800e-03  2.642637e+04
1.759019e-03  2.641690e+04
1.778944e-03  2.560579e+04
1.784238e-03  2.539033e+04
1.791122e-03  2.512749e+04
1.798163e-03  2.485865e+04
1.809594e-03  2.442401e+04
1.820683e-03  2.400249e+04
1.822747e-03  2.392406e+04
1.834940e-03  2.349483e+04
1.840772e-03  2.329014e+04
1.846950e-03  2.307338e+04
1.862087e-03  2.254235e+04
1.863015e-03  2.251177e+04
1.870244e-03  2.227447e+04
1.872837e-03  2.218935e+04
1.890867e-03  2.159772e+04
1.901352e-03  2.125373e+04
1.905461e-03  2.111897e+04
1.905936e-03  2.110456e+04
1.926658e-03  2.047860e+04
1.927506e-03  2.045300e+04
1.944240e-03  1.994772e+04
1.949077e-03  1.981136e+04
1.949845e-03  1.978973e+04
1.955451e-03  1.963225e+04
1.976674e-03  1.903604e+04
1.978820e-03  1.897578e+04
1.988941e-03  1.870808e+04
1.992393e-03  1.861679e+04
2.008943e-03  1.818072e+04
2.009581e-03  1.816391e+04
2.019372e-03  1.792506e+04
2.030384e-03  1.765651e+04
2.041738e-03  1.738046e+04
2.042501e-03  1.736192e+04
2.064220e-03  1.683409e+04
2.064568e-03  1.682566e+04
2.077692e-03  1.653375e+04
2.080295e-03  1.647586e+04
2.094288e-03  1.616479e+04
2.106793e-03  1.588773e+04
2.113489e-03  1.574863e+04
2.114630e-03  1.572494e+04
2.139027e-03  1.521838e+04
2.145137e-03  1.509995e+04
2.147966e-03  1.504514e+04
2.153401e-03  1.494021e+04
2.172192e-03  1.457759e+04
2.188307e-03  1.426665e+04
2.188943e-03  1.425535e+04
2.189125e-03  1.425212e+04
2.196145e-03  1.412782e+04
2.220511e-03  1.369645e+04
2.220522e-03  1.369625e+04
2.238699e-03  1.337549e+04
2.238721e-03  1.337511e+04
2.248527e-03  1.321320e+04
2.268436e-03  1.288459e+04
2.271155e-03  1.283986e+04
2.273322e-03  1.280423e+04
2.287573e-03  1.256993e+04
2.295806e-03  1.244430e+04
2.317372e-03  1.211525e+04
2.317395e-03  1.211490e+04
2.331192e-03  1.190503e+04
2.333284e-03  1.187522e+04
2.350968e-03  1.162325e+04
2.364558e-03  1.142966e+04
2.370041e-03  1.135181e+04
2.371374e-03  1.133393e+04
2.376485e-03  1.126540e+04
2.404564e-03  1.088896e+04
2.406613e-03  1.086342e+04
2.415280e-03  1.075571e+04
2.416156e-03  1.074483e+04
2.444024e-03  1.039869e+04
2.454709e-03  1.026645e+04
2.456034e-03  1.025005e+04
2.466194e-03  1.012436e+04
2.491467e-03  9.836208e+03
2.501065e-03  9.726784e+03
2.510898e-03  9.614717e+03
2.513451e-03  9.585738e+03
2.522890e-03  9.484969e+03
2.542344e-03  9.277280e+03
2.549487e-03  9.201046e+03
2.550709e-03  9.188827e+03
2.562252e-03  9.073438e+03
2.579022e-03  8.906325e+03
2.600134e-03  8.695995e+03
2.601455e-03  8.682835e+03
2.604512e-03  8.652479e+03
2.611549e-03  8.587896e+03
2.637830e-03  8.346735e+03
2.640347e-03  8.323646e+03
2.660725e-03  8.136711e+03
2.661388e-03  8.131021e+03
2.666460e-03  8.087657e+03
2.691508e-03  7.873553e+03
2.709989e-03  7.715618e+03
2.718786e-03  7.640456e+03
2.722701e-03  7.609424e+03
2.730529e-03  7.547578e+03
2.754229e-03  7.360362e+03
2.760165e-03  7.313475e+03
2.770627e-03  7.230852e+03
2.778113e-03  7.175497e+03
2.784117e-03  7.131253e+03
2.805224e-03  6.975741e+03
2.816799e-03  6.890474e+03
2.827524e-03  6.815894e+03
2.841035e-03  6.722213e+03
2.851018e-03  6.653009e+03
2.857830e-03  6.605796e+03
2.871478e-03  6.517928e+03
2.891792e-03  6.387646e+03
2.909042e-03  6.277030e+03
2.931077e-03  6.135763e+03
2.936947e-03  6.101105e+03
2.950048e-03  6.023762e+03
2.960780e-03  5.960675e+03
2.977036e-03  5.865144e+03
2.987243e-03  5.805170e+03
3.006806e-03  5.697095e+03
3.010383e-03  5.677338e+03
3.012563e-03  5.665338e+03
3.030072e-03  5.568958e+03
3.047665e-03  5.478297e+03
3.056443e-03  5.433071e+03
3.075758e-03  5.333906e+03
3.083872e-03  5.292249e+03
3.095469e-03  5.232726e+03
3.124022e-03  5.097352e+03
3.126858e-03  5.083907e+03
3.148272e-03  4.982811e+03
3.160717e-03  4.924074e+03
3.162278e-03  4.916705e+03
3.197453e-03  4.761958e+03
3.198895e-03  4.755615e+03
3.216568e-03  4.678135e+03
3.234842e-03  4.598031e+03
3.235937e-03  4.593234e+03
3.268699e-03  4.460824e+03
3.273407e-03  4.441870e+03
3.291748e-03  4.368032e+03
3.301794e-03  4.327592e+03
3.325638e-03  4.238190e+03
3.331027e-03  4.217987e+03
3.349654e-03  4.148381e+03
3.360518e-03  4.107790e+03
3.372024e-03  4.067391e+03
3.386537e-03  4.016433e+03
3.408003e-03  3.941282e+03
3.412758e-03  3.924638e+03
3.413141e-03  3.923367e+03
3.435867e-03  3.848030e+03
3.449531e-03  3.802901e+03
3.459133e-03  3.771186e+03
3.459891e-03  3.768851e+03
3.505941e-03  3.627010e+03
3.514148e-03  3.601738e+03
3.523930e-03  3.571614e+03
3.541812e-03  3.516772e+03
3.546738e-03  3.502794e+03
3.563403e-03  3.455513e+03
3.591455e-03  3.375935e+03
3.600798e-03  3.349512e+03
3.605115e-03  3.337303e+03
3.619277e-03  3.299520e+03
3.642947e-03  3.236385e+03
3.653334e-03  3.208770e+03
3.657626e-03  3.198046e+03
3.674653e-03  3.155516e+03
3.715352e-03  3.053875e+03
3.716741e-03  3.050406e+03
3.721572e-03  3.038344e+03
3.726874e-03  3.025157e+03
3.755670e-03  2.958704e+03
3.780778e-03  2.900769e+03
3.801894e-03  2.852054e+03
3.832450e-03  2.786633e+03
3.845918e-03  2.757802e+03
3.879270e-03  2.686413e+03
3.887653e-03  2.668531e+03
3.896054e-03  2.650615e+03
3.900919e-03  2.641104e+03
3.948265e-03  2.548558e+03
3.961832e-03  2.522120e+03
3.967131e-03  2.511795e+03
3.980356e-03  2.486033e+03
4.009641e-03  2.433162e+03
4.015911e-03  2.421874e+03
4.038007e-03  2.382097e+03
4.055614e-03  2.350405e+03
4.063835e-03  2.336561e+03
4.064127e-03  2.336068e+03
4.101060e-03  2.274096e+03
4.106237e-03  2.265410e+03
4.122632e-03  2.237907e+03
4.157039e-03  2.183449e+03
4.161266e-03  2.176760e+03
4.181509e-03  2.144852e+03
4.182180e-03  2.143794e+03
4.206647e-03  2.108001e+03
4.235641e-03  2.065592e+03
4.238867e-03  2.060887e+03
4.250540e-03  2.043865e+03
4.282401e-03  1.997410e+03
4.288467e-03  1.988566e+03
4.292293e-03  1.983433e+03
4.328457e-03  1.935075e+03
4.348542e-03  1.908222e+03
4.369951e-03  1.879601e+03
4.378695e-03  1.868618e+03
4.387830e-03  1.857188e+03
4.415704e-03  1.822318e+03
4.432078e-03  1.801835e+03
4.432894e-03  1.800880e+03
4.466836e-03  1.761166e+03
4.470051e-03  1.757418e+03
4.501360e-03  1.720915e+03
4.521608e-03  1.697310e+03
4.526929e-03  1.691107e+03
4.570483e-03  1.644246e+03
4.570882e-03  1.643818e+03
4.570882e-03  1.643818e+03
4.623810e-03  1.587126e+03
4.627139e-03  1.583819e+03
4.663552e-03  1.547657e+03
4.663908e-03  1.547303e+03
4.680508e-03  1.530881e+03
4.731101e-03  1.480835e+03
4.738327e-03  1.473688e+03
4.746541e-03  1.466244e+03
4.746858e-03  1.465957e+03
4.779028e-03  1.436906e+03
4.820367e-03  1.399579e+03
4.820649e-03  1.399325e+03
4.840853e-03  1.381133e+03
4.870203e-03  1.356659e+03
4.885906e-03  1.343568e+03
4.886155e-03  1.343360e+03
4.932381e-03  1.304962e+03
4.943983e-03  1.295951e+03
4.951408e-03  1.290184e+03
4.995366e-03  1.256048e+03
5.002942e-03  1.250165e+03
5.013887e-03  1.241700e+03
5.023572e-03  1.234637e+03
5.086309e-03  1.188892e+03
5.086576e-03  1.188712e+03
5.087578e-03  1.188034e+03
5.092360e-03  1.184800e+03
5.144252e-03  1.149817e+03
5.156074e-03  1.141848e+03
5.160471e-03  1.138884e+03
5.208820e-03  1.106400e+03
5.215573e-03  1.101863e+03
5.244954e-03  1.083715e+03
5.264349e-03  1.071736e+03
5.288952e-03  1.056601e+03
5.314673e-03  1.040779e+03
5.321772e-03  1.036679e+03
5.370318e-03  1.008642e+03
5.380123e-03  1.003000e+03
5.390231e-03  9.971837e+02
5.426643e-03  9.775980e+02
5.468851e-03  9.548954e+02
5.481771e-03  9.479471e+02
5.495409e-03  9.406132e+02
5.505588e-03  9.351624e+02
5.559043e-03  9.087641e+02
5.590181e-03  8.933890e+02
5.607251e-03  8.849608e+02
5.623413e-03  8.770106e+02
5.655878e-03  8.618951e+02
5.693761e-03  8.442594e+02
5.696721e-03  8.428813e+02
5.706978e-03  8.384359e+02
5.748192e-03  8.206355e+02
5.792610e-03  8.014537e+02
5.795694e-03  8.001218e+02
5.836105e-03  7.827211e+02
5.836760e-03  7.824388e+02
5.874451e-03  7.675748e+02
5.886839e-03  7.627077e+02
5.919743e-03  7.497803e+02
5.962116e-03  7.331351e+02
5.976570e-03  7.278764e+02
5.999243e-03  7.196282e+02
6.014859e-03  7.139478e+02
6.061935e-03  6.968953e+02
6.074008e-03  6.925222e+02
6.074743e-03  6.922731e+02
6.122363e-03  6.761465e+02
6.143071e-03  6.691556e+02
6.146387e-03  6.680361e+02
6.173634e-03  6.588388e+02
6.204250e-03  6.490944e+02
6.214321e-03  6.458997e+02
6.220123e-03  6.440594e+02
6.262148e-03  6.307297e+02
6.278690e-03  6.258630e+02
6.293236e-03  6.215842e+02
6.329139e-03  6.110234e+02
6.362560e-03  6.012322e+02
6.401186e-03  5.899166e+02
6.420110e-03  5.843733e+02
6.428245e-03  5.821826e+02
6.456542e-03  5.745623e+02
6.510328e-03  5.601186e+02
6.541192e-03  5.518315e+02
6.543620e-03  5.512191e+02
6.553237e-03  5.488043e+02
6.607353e-03  5.352151e+02
6.633499e-03  5.286504e+02
6.664596e-03  5.213506e+02
6.693435e-03  5.145814e+02
6.710071e-03  5.106771e+02
6.763588e-03  4.981771e+02
6.769677e-03  4.967549e+02
6.774408e-03  4.956501e+02
6.851410e-03  4.790658e+02
6.859184e-03  4.773917e+02
6.905195e-03  4.675243e+02
6.918310e-03  4.647120e+02
6.929190e-03  4.625078e+02
6.992374e-03  4.497086e+02
7.008611e-03  4.464313e+02
7.013544e-03  4.454357e+02
7.067436e-03  4.351052e+02
7.087188e-03  4.313191e+02
7.104016e-03  4.280939e+02
7.111035e-03  4.268412e+02
7.172927e-03  4.158321e+02
7.206709e-03  4.098234e+02
7.216514e-03  4.080795e+02
7.253077e-03  4.015948e+02
7.276808e-03  3.973862e+02
7.310091e-03  3.919783e+02
7.328245e-03  3.890394e+02
7.374985e-03  3.814734e+02
7.431446e-03  3.723343e+02
7.439821e-03  3.710786e+02
7.476780e-03  3.655375e+02
7.498942e-03  3.622285e+02
7.545966e-03  3.552076e+02
7.569447e-03  3.517021e+02
7.604286e-03  3.468380e+02
7.618597e-03  3.448485e+02
7.646851e-03  3.409209e+02
7.692299e-03  3.346039e+02
7.732507e-03  3.293336e+02
7.742656e-03  3.280033e+02
7.799634e-03  3.205357e+02
7.801428e-03  3.203017e+02
7.833564e-03  3.164150e+02
7.840844e-03  3.155345e+02
7.919758e-03  3.059911e+02
7.943788e-03  3.030852e+02
7.996144e-03  2.967541e+02
8.000000e-03  2.963253e+02
8.001426e-03  2.961672e+02
8.041524e-03  2.917238e+02
8.106519e-03  2.845218e+02
8.134245e-03  2.814612e+02
8.145363e-03  2.802340e+02
8.156831e-03  2.790454e+02
8.222141e-03  2.722771e+02
8.259103e-03  2.684468e+02
8.295285e-03  2.649405e+02
8.305406e-03  2.639598e+02
8.310078e-03  2.635071e+02
8.418358e-03  2.530675e+02
8.432696e-03  2.516853e+02
8.463807e-03  2.489185e+02
8.492380e-03  2.463775e+02
8.527544e-03  2.432640e+02
8.604884e-03  2.364164e+02
8.609938e-03  2.359690e+02
8.624243e-03  2.347741e+02
8.655173e-03  2.321908e+02
8.730255e-03  2.259433e+02
8.734741e-03  2.255701e+02
8.796112e-03  2.207350e+02
8.800175e-03  2.204149e+02
8.841451e-03  2.171737e+02
8.853386e-03  2.162366e+02
8.927257e-03  2.107257e+02
8.929042e-03  2.105926e+02
8.939909e-03  2.097842e+02
8.966079e-03  2.078376e+02
9.026898e-03  2.036240e+02
9.043349e-03  2.024844e+02
9.114857e-03  1.975486e+02
9.178448e-03  1.931595e+02
9.181259e-03  1.929655e+02
9.246917e-03  1.888119e+02
9.248310e-03  1.887241e+02
9.332543e-03  1.834176e+02
9.349681e-03  1.823380e+02
9.373774e-03  1.808204e+02
9.402595e-03  1.791380e+02
9.481455e-03  1.745550e+02
9.503825e-03  1.732551e+02
9.545533e-03  1.708315e+02
9.623217e-03  1.666084e+02
9.641039e-03  1.656396e+02
9.660509e-03  1.645867e+02
9.698401e-03  1.625377e+02
9.758044e-03  1.594956e+02
9.814654e-03  1.566083e+02
9.834168e-03  1.556131e+02
9.885531e-03  1.531818e+02
9.886159e-03  1.531522e+02
9.961399e-03  1.496037e+02
1.000779e-02  1.474156e+02
1.002161e-02  1.467641e+02
1.007635e-02  1.441897e+02
1.010096e-02  1.431248e+02
1.012319e-02  1.421635e+02
1.015089e-02  1.409652e+02
1.023257e-02  1.374451e+02
1.023358e-02  1.374017e+02
1.026189e-02  1.361818e+02
1.033620e-02  1.331743e+02
1.035949e-02  1.322316e+02
1.039779e-02  1.306817e+02
1.040329e-02  1.304601e+02
1.047894e-02  1.276102e+02
1.053333e-02  1.255612e+02
1.059217e-02  1.233448e+02
1.061875e-02  1.223438e+02
1.061904e-02  1.223328e+02
1.069944e-02  1.195500e+02
1.070890e-02  1.192224e+02
1.081594e-02  1.155179e+02
1.083927e-02  1.147133e+02
1.086493e-02  1.138799e+02
1.090350e-02  1.126272e+02
1.099148e-02  1.097698e+02
1.100331e-02  1.093867e+02
1.100430e-02  1.093546e+02
1.108524e-02  1.068816e+02
1.112584e-02  1.056410e+02
1.114742e-02  1.049820e+02
1.116130e-02  1.045594e+02
1.124675e-02  1.020967e+02
1.131052e-02  1.002587e+02
1.134357e-02  9.935342e+01
1.139000e-02  9.808164e+01
1.142564e-02  9.710529e+01
1.145223e-02  9.638035e+01
1.150965e-02  9.492123e+01
1.151684e-02  9.473872e+01
1.163581e-02  9.171593e+01
1.163886e-02  9.163842e+01
1.172273e-02  8.951489e+01
1.174221e-02  8.906244e+01
1.180138e-02  8.768840e+01
1.182764e-02  8.708081e+01
1.191413e-02  8.507988e+01
1.196465e-02  8.391115e+01
1.202264e-02  8.266737e+01
1.204473e-02  8.219366e+01
1.204943e-02  8.209276e+01
1.218043e-02  7.929552e+01
1.221448e-02  7.861509e+01
1.224330e-02  7.803905e+01
1.230269e-02  7.685223e+01
1.237242e-02  7.546313e+01
1.239710e-02  7.499919e+01
1.244515e-02  7.409597e+01
1.248102e-02  7.342169e+01
1.254290e-02  7.226197e+01
1.257079e-02  7.177652e+01
1.265055e-02  7.038853e+01
1.267105e-02  7.003282e+01
1.273584e-02  6.890864e+01
1.281158e-02  6.759446e+01
1.284690e-02  6.698383e+01
1.288656e-02  6.635295e+01
1.289253e-02  6.625781e+01
1.304119e-02  6.389288e+01
1.307973e-02  6.327974e+01
1.309192e-02  6.309750e+01
1.311905e-02  6.269186e+01
1.318211e-02  6.175357e+01
1.325712e-02  6.063755e+01
1.328742e-02  6.021564e+01
1.331560e-02  5.982322e+01
1.339413e-02  5.872990e+01
1.347335e-02  5.763163e+01
1.352772e-02  5.687789e+01
1.356956e-02  5.634225e+01
1.363956e-02  5.544624e+01
1.365002e-02  5.531277e+01
1.379574e-02  5.345445e+01
1.380384e-02  5.335118e+01
1.381776e-02  5.318390e+01
1.385799e-02  5.270028e+01
1.397688e-02  5.127583e+01
1.399386e-02  5.107240e+01
1.399674e-02  5.103961e+01
1.405199e-02  5.041165e+01
1.412772e-02  4.955434e+01
1.417437e-02  4.902622e+01
1.417502e-02  4.901944e+01
1.427061e-02  4.801358e+01
1.433287e-02  4.735850e+01
1.439804e-02  4.667284e+01
1.451914e-02  4.540448e+01
1.454244e-02  4.518135e+01
1.461335e-02  4.450228e+01
1.466316e-02  4.402538e+01
1.478453e-02  4.286721e+01
1.482731e-02  4.245900e+01
1.482768e-02  4.245548e+01
1.486520e-02  4.212447e+01
1.498984e-02  4.102890e+01
1.499967e-02  4.094248e+01
1.510303e-02  4.003399e+01
1.517349e-02  3.945570e+01
1.519048e-02  3.931686e+01
1.523697e-02  3.893702e+01
1.534815e-02  3.802860e+01
1.535943e-02  3.794183e+01
1.548817e-02  3.695120e+01
1.556589e-02  3.635516e+01
1.564498e-02  3.577965e+01
1.565962e-02  3.567313e+01
1.572398e-02  3.520482e+01
1.575895e-02  3.495121e+01
1.579841e-02  3.468360e+01
1.588861e-02  3.407190e+01
1.594832e-02  3.366701e+01
1.606255e-02  3.289471e+01
1.609997e-02  3.264173e+01
1.610258e-02  3.262409e+01
1.616154e-02  3.225427e+01
1.632703e-02  3.121929e+01
1.636402e-02  3.098795e+01
1.636521e-02  3.098057e+01
1.638791e-02  3.085007e+01
1.659587e-02  2.965447e+01
1.666252e-02  2.927128e+01
1.675054e-02  2.876529e+01
1.676721e-02  2.866992e+01
1.682432e-02  2.837318e+01
1.692415e-02  2.785449e+01
1.704863e-02  2.720780e+01
1.709623e-02  2.696053e+01
1.717316e-02  2.656247e+01
1.717908e-02  2.653185e+01
1.726878e-02  2.610019e+01
1.740455e-02  2.544687e+01
1.740994e-02  2.542103e+01
1.746576e-02  2.515339e+01
1.748476e-02  2.506792e+01
1.763487e-02  2.439298e+01
1.767889e-02  2.419509e+01
1.769657e-02  2.411582e+01
1.773886e-02  2.392629e+01
1.784839e-02  2.346406e+01
1.790421e-02  2.322851e+01
1.792248e-02  2.315141e+01
1.799877e-02  2.283075e+01
1.805091e-02  2.262364e+01
1.810768e-02  2.239816e+01
1.824286e-02  2.186121e+01
1.824589e-02  2.184916e+01
1.830699e-02  2.161895e+01
1.835687e-02  2.143106e+01
1.842467e-02  2.117680e+01
1.848065e-02  2.096684e+01
1.850218e-02  2.089184e+01
1.868955e-02  2.023887e+01
1.869324e-02  2.022607e+01
1.877045e-02  1.995795e+01
1.888021e-02  1.957679e+01
1.892900e-02  1.940738e+01
1.894302e-02  1.936288e+01
1.907833e-02  1.893504e+01
1.924782e-02  1.839914e+01
1.932968e-02  1.814031e+01
1.933022e-02  1.813862e+01
1.935186e-02  1.807563e+01
1.959442e-02  1.736992e+01
1.959894e-02  1.735676e+01
1.968825e-02  1.709694e+01
1.972423e-02  1.699921e+01
1.980915e-02  1.676939e+01
1.993394e-02  1.643168e+01
2.000697e-02  1.623406e+01
2.003895e-02  1.615254e+01
2.019061e-02  1.576744e+01
2.025320e-02  1.560852e+01
2.029007e-02  1.551489e+01
2.033857e-02  1.539806e+01
2.048151e-02  1.505482e+01
2.054107e-02  1.491182e+01
2.055714e-02  1.487575e+01
2.062352e-02  1.472675e+01
2.070244e-02  1.455017e+01
2.084623e-02  1.422843e+01
2.089429e-02  1.412089e+01
2.098782e-02  1.391219e+01
2.103831e-02  1.380772e+01
2.112094e-02  1.363672e+01
2.115137e-02  1.357377e+01
2.132925e-02  1.320713e+01
2.137962e-02  1.311134e+01
2.138177e-02  1.310724e+01
2.161243e-02  1.266863e+01
2.162923e-02  1.263669e+01
2.164194e-02  1.261252e+01
2.184408e-02  1.222998e+01
2.185183e-02  1.221531e+01
2.186382e-02  1.219471e+01
2.207453e-02  1.183275e+01
2.208051e-02  1.182247e+01
2.208605e-02  1.181299e+01
2.230375e-02  1.144061e+01
2.238721e-02  1.129787e+01
2.247155e-02  1.116404e+01
2.250885e-02  1.110507e+01
2.253172e-02  1.106891e+01
2.275841e-02  1.071057e+01
2.277718e-02  1.068089e+01
2.281938e-02  1.061852e+01
2.288544e-02  1.052122e+01
2.298377e-02  1.037636e+01
2.312815e-02  1.016369e+01
2.314895e-02  1.013318e+01
2.320780e-02  1.005213e+01
2.322011e-02  1.003517e+01
2.350299e-02  9.645615e+00
2.351696e-02  9.627469e+00
2.365525e-02  9.447968e+00
2.367858e-02  9.417688e+00
2.377982e-02  9.286883e+00
2.383981e-02  9.209375e+00
2.409695e-02  8.895104e+00
2.409999e-02  8.891394e+00
2.415997e-02  8.818330e+00
2.424691e-02  8.717807e+00
2.442095e-02  8.516587e+00
2.446402e-02  8.466968e+00
2.453271e-02  8.393363e+00
2.460324e-02  8.317773e+00
2.487392e-02  8.027708e+00
2.491044e-02  7.988581e+00
2.496236e-02  7.933181e+00
2.504447e-02  7.845564e+00
2.528554e-02  7.610181e+00
2.538576e-02  7.512323e+00
2.540973e-02  7.488915e+00
2.556365e-02  7.339180e+00
2.570396e-02  7.212869e+00
2.580277e-02  7.123917e+00
2.587096e-02  7.062533e+00
2.602676e-02  6.922831e+00
2.612350e-02  6.841772e+00
2.621329e-02  6.766536e+00
2.631097e-02  6.684694e+00
2.643885e-02  6.577933e+00
2.653645e-02  6.501148e+00
2.661720e-02  6.437621e+00
2.673026e-02  6.348674e+00
2.680478e-02  6.290253e+00
2.694272e-02  6.187575e+00
2.701443e-02  6.134205e+00
2.712912e-02  6.048837e+00
2.712942e-02  6.048626e+00
2.734223e-02  5.900891e+00
2.740489e-02  5.857394e+00
2.750904e-02  5.785090e+00
2.770619e-02  5.648646e+00
2.773490e-02  5.630194e+00
2.778853e-02  5.595731e+00
2.786976e-02  5.543533e+00
2.812068e-02  5.382762e+00
2.814703e-02  5.365878e+00
2.816531e-02  5.355059e+00
2.821223e-02  5.327281e+00
2.849952e-02  5.157918e+00
2.853518e-02  5.136894e+00
2.882148e-02  4.968117e+00
2.886575e-02  4.944387e+00
2.887138e-02  4.941382e+00
2.889812e-02  4.927120e+00
2.923625e-02  4.746789e+00
2.925413e-02  4.737257e+00
2.944998e-02  4.632811e+00
2.951209e-02  4.599821e+00
2.959412e-02  4.559778e+00
2.960319e-02  4.555351e+00
2.994498e-02  4.388512e+00
2.994531e-02  4.388349e+00
2.997087e-02  4.375874e+00
3.015609e-02  4.285793e+00
3.028052e-02  4.230193e+00
3.028884e-02  4.226474e+00
3.043420e-02  4.161522e+00
3.060882e-02  4.083751e+00
3.062572e-02  4.076225e+00
3.077259e-02  4.010814e+00
3.084549e-02  3.980822e+00
3.093026e-02  3.946095e+00
3.095564e-02  3.935696e+00
3.124487e-02  3.817210e+00
3.127865e-02  3.803375e+00
3.136200e-02  3.769228e+00
3.155271e-02  3.696706e+00
3.157867e-02  3.686834e+00
3.159477e-02  3.680738e+00
3.190406e-02  3.563671e+00
3.192483e-02  3.555812e+00
3.213996e-02  3.479871e+00
3.215779e-02  3.473599e+00
3.246164e-02  3.366719e+00
3.251196e-02  3.350142e+00
3.256747e-02  3.331851e+00
3.273559e-02  3.276665e+00
3.297311e-02  3.198704e+00
3.309238e-02  3.161883e+00
3.321942e-02  3.122662e+00
3.328671e-02  3.101982e+00
3.345992e-02  3.048747e+00
3.364592e-02  2.994777e+00
3.381180e-02  2.946648e+00
3.388442e-02  2.925577e+00
3.392283e-02  2.914479e+00
3.417328e-02  2.845919e+00
3.431159e-02  2.808057e+00
3.436263e-02  2.794088e+00
3.462382e-02  2.726107e+00
3.467518e-02  2.712804e+00
3.478011e-02  2.685625e+00
3.478686e-02  2.683995e+00
3.515241e-02  2.595726e+00
3.523840e-02  2.574962e+00
3.533167e-02  2.552441e+00
3.557661e-02  2.493555e+00
3.560577e-02  2.487122e+00
3.566703e-02  2.473608e+00
3.600840e-02  2.398308e+00
3.603611e-02  2.392223e+00
3.607362e-02  2.383983e+00
3.628850e-02  2.336782e+00
3.644427e-02  2.305044e+00
3.645900e-02  2.302044e+00
3.665461e-02  2.262190e+00
3.682403e-02  2.227809e+00
3.683112e-02  2.226369e+00
3.692308e-02  2.207708e+00
3.719752e-02  2.155562e+00
3.727096e-02  2.141608e+00
3.748743e-02  2.100628e+00
3.751834e-02  2.095104e+00
3.785820e-02  2.034369e+00
3.789438e-02  2.027926e+00
3.798831e-02  2.011197e+00
3.813659e-02  1.986665e+00
3.841713e-02  1.940255e+00
3.851482e-02  1.924146e+00
3.868592e-02  1.895933e+00
3.888100e-02  1.863766e+00
3.894863e-02  1.853496e+00
3.906604e-02  1.835720e+00
3.917307e-02  1.819518e+00
3.945358e-02  1.777052e+00
3.955483e-02  1.761765e+00
3.956427e-02  1.760341e+00
3.960435e-02  1.754652e+00
3.993291e-02  1.708024e+00
3.998753e-02  1.700302e+00
4.008458e-02  1.686582e+00
4.037055e-02  1.648742e+00
4.075618e-02  1.597715e+00
4.084742e-02  1.585642e+00
4.087791e-02  1.581626e+00
4.095491e-02  1.572260e+00
4.134234e-02  1.525133e+00
4.139873e-02  1.518275e+00
4.166478e-02  1.485915e+00
4.168694e-02  1.483230e+00
4.178749e-02  1.471961e+00
4.207348e-02  1.439911e+00
4.239337e-02  1.404063e+00
4.246422e-02  1.396151e+00
4.259661e-02  1.381369e+00
4.275924e-02  1.364692e+00
4.304133e-02  1.335765e+00
4.315191e-02  1.324463e+00
4.342864e-02  1.296177e+00
4.346744e-02  1.292211e+00
4.361641e-02  1.278152e+00
4.384045e-02  1.257096e+00
4.402296e-02  1.239943e+00
4.430001e-02  1.213906e+00
4.449594e-02  1.196818e+00
4.454965e-02  1.192133e+00
4.464136e-02  1.184135e+00
4.501568e-02  1.151642e+00
4.509502e-02  1.144754e+00
4.511935e-02  1.142786e+00
4.542585e-02  1.117981e+00
4.571173e-02  1.094926e+00
4.584298e-02  1.084341e+00
4.585329e-02  1.083509e+00
4.602325e-02  1.070674e+00
4.627415e-02  1.051798e+00
4.647342e-02  1.036806e+00
4.657575e-02  1.029107e+00
4.680770e-02  1.012699e+00
4.693412e-02  1.003756e+00
4.695193e-02  1.002502e+00
4.726340e-02  9.805672e-01
4.731349e-02  9.772376e-01
4.767896e-02  9.529451e-01
4.779262e-02  9.453899e-01
4.786301e-02  9.407116e-01
4.791727e-02  9.371201e-01
4.841724e-02  9.057775e-01
4.853850e-02  8.981758e-01
4.870413e-02  8.883062e-01
4.890745e-02  8.761908e-01
4.912821e-02  8.630997e-01
4.926064e-02  8.557816e-01
4.951594e-02  8.416728e-01
4.994098e-02  8.181850e-01
5.006466e-02  8.113818e-01
5.023738e-02  8.018817e-01
5.025330e-02  8.010057e-01
5.083035e-02  7.718945e-01
5.087724e-02  7.695286e-01
5.096303e-02  7.652009e-01
5.125887e-02  7.503437e-01
5.144381e-02  7.417325e-01
5.155881e-02  7.363780e-01
5.197309e-02  7.170888e-01
5.215523e-02  7.086448e-01
5.225122e-02  7.044801e-01
5.245053e-02  6.958326e-01
5.290880e-02  6.759492e-01
5.295240e-02  6.740575e-01
5.297067e-02  6.733095e-01
5.321847e-02  6.632059e-01
5.353280e-02  6.503900e-01
5.365991e-02  6.452072e-01
5.380180e-02  6.398346e-01
5.395533e-02  6.340213e-01
5.412447e-02  6.276439e-01
5.468511e-02  6.065063e-01
5.468880e-02  6.063670e-01
5.492088e-02  5.976173e-01
5.492667e-02  5.974162e-01
5.559043e-02  5.744711e-01
5.575200e-02  5.688859e-01
5.588433e-02  5.643116e-01
5.588601e-02  5.642536e-01
5.635566e-02  5.490551e-01
5.662097e-02  5.404691e-01
5.670259e-02  5.379972e-01
5.682798e-02  5.341995e-01
5.708263e-02  5.265170e-01
5.754764e-02  5.124877e-01
5.774158e-02  5.066367e-01
5.775734e-02  5.061978e-01
5.777267e-02  5.057722e-01
5.829739e-02  4.912083e-01
5.842716e-02  4.876063e-01
5.867214e-02  4.808068e-01
5.888437e-02  4.749368e-01
5.896142e-02  4.729715e-01
5.904748e-02  4.707767e-01
5.954866e-02  4.579947e-01
5.957218e-02  4.573949e-01
5.963501e-02  4.557979e-01
6.012603e-02  4.433178e-01
6.045724e-02  4.355747e-01
6.059042e-02  4.324718e-01
6.075243e-02  4.286974e-01
6.132719e-02  4.153063e-01
6.135385e-02  4.146871e-01
6.138369e-02  4.140481e-01
6.174733e-02  4.062605e-01
6.198545e-02  4.011611e-01
6.218189e-02  3.969542e-01
6.256721e-02  3.887279e-01
6.263123e-02  3.874644e-01
6.289916e-02  3.821759e-01
6.302124e-02  3.797666e-01
6.341501e-02  3.720184e-01
6.376553e-02  3.651212e-01
6.382635e-02  3.640119e-01
6.384516e-02  3.636689e-01
6.410886e-02  3.588742e-01
6.461190e-02  3.497278e-01
6.465360e-02  3.489696e-01
6.494828e-02  3.436267e-01
6.534141e-02  3.370049e-01
6.535713e-02  3.367402e-01
6.544654e-02  3.352343e-01
6.606359e-02  3.248835e-01
6.611498e-02  3.240213e-01
6.628136e-02  3.214228e-01
6.673283e-02  3.143714e-01
6.699518e-02  3.102738e-01
6.701064e-02  3.100324e-01
6.726522e-02  3.060768e-01
6.800598e-02  2.953368e-01
6.808035e-02  2.942584e-01
6.839858e-02  2.896447e-01
6.851092e-02  2.881213e-01
6.913989e-02  2.796347e-01
6.918310e-02  2.790517e-01
6.951474e-02  2.745771e-01
6.994792e-02  2.690992e-01
6.998421e-02  2.686425e-01
7.014757e-02  2.665863e-01
7.061338e-02  2.607233e-01
7.074366e-02  2.591833e-01
7.104132e-02  2.556649e-01
7.132247e-02  2.523418e-01
7.146313e-02  2.506863e-01
7.169424e-02  2.479664e-01
7.183269e-02  2.464332e-01
7.263564e-02  2.375421e-01
7.275710e-02  2.362023e-01
7.283193e-02  2.354244e-01
7.323886e-02  2.311936e-01
7.380177e-02  2.253413e-01
7.388867e-02  2.244879e-01
7.405111e-02  2.228990e-01
7.431153e-02  2.203516e-01
7.482810e-02  2.152987e-01
7.508302e-02  2.129392e-01
7.512633e-02  2.125399e-01
7.513463e-02  2.124633e-01
7.583596e-02  2.059956e-01
7.609570e-02  2.037253e-01
7.622025e-02  2.026366e-01
7.636530e-02  2.013730e-01
7.682527e-02  1.973661e-01
7.694672e-02  1.963617e-01
7.730205e-02  1.934230e-01
7.762471e-02  1.907628e-01
7.779597e-02  1.893509e-01
7.833017e-02  1.851630e-01
7.845896e-02  1.841562e-01
7.846708e-02  1.840928e-01
7.874803e-02  1.818967e-01
7.926510e-02  1.781377e-01
7.930645e-02  1.778372e-01
7.961263e-02  1.756205e-01
8.048899e-02  1.692759e-01
8.062593e-02  1.682845e-01
8.078333e-02  1.672460e-01
8.116989e-02  1.646957e-01
8.182165e-02  1.604175e-01
8.213562e-02  1.583567e-01
8.242711e-02  1.564434e-01
8.283628e-02  1.539816e-01
8.317638e-02  1.519445e-01
8.333743e-02  1.509799e-01
8.407900e-02  1.465383e-01
8.415224e-02  1.460996e-01
8.432241e-02  1.451602e-01
8.440343e-02  1.447147e-01
8.493409e-02  1.417969e-01
8.534735e-02  1.395246e-01
8.564463e-02  1.378901e-01
8.580233e-02  1.370259e-01
8.656090e-02  1.331754e-01
8.681857e-02  1.318676e-01
8.702470e-02  1.308243e-01
8.737867e-02  1.290329e-01
8.785895e-02  1.267706e-01
8.800991e-02  1.260622e-01
8.830431e-02  1.246807e-01
8.888277e-02  1.219663e-01
8.927635e-02  1.202396e-01
8.929767e-02  1.201460e-01
8.970973e-02  1.183383e-01
9.031638e-02  1.156881e-01
9.043991e-02  1.151814e-01
9.075451e-02  1.138911e-01
9.112334e-02  1.123784e-01
9.145135e-02  1.110391e-01
9.168137e-02  1.100998e-01
9.225714e-02  1.078841e-01
9.297979e-02  1.051032e-01
9.324865e-02  1.041242e-01
9.325830e-02  1.040891e-01
9.328565e-02  1.039895e-01
9.420675e-02  1.006541e-01
9.421375e-02  1.006287e-01
9.461978e-02  9.923298e-02
9.538545e-02  9.660097e-02
9.549926e-02  9.623691e-02
9.566133e-02  9.572118e-02
9.601117e-02  9.460802e-02
9.724521e-02  9.068135e-02
9.737277e-02  9.027548e-02
9.761836e-02  8.949725e-02
9.762181e-02  8.948632e-02
9.885531e-02  8.590933e-02
9.904671e-02  8.535428e-02
9.916255e-02  8.501839e-02
9.962161e-02  8.369245e-02
1.003137e-01  8.184264e-02
1.007222e-01  8.075075e-02
1.008703e-01  8.035468e-02
1.014050e-01  7.893091e-02
1.014355e-01  7.885497e-02
1.023845e-01  7.649345e-02
1.024981e-01  7.621094e-02
1.029916e-01  7.498712e-02
1.034290e-01  7.396499e-02
1.038616e-01  7.295415e-02
1.040479e-01  7.251877e-02
1.044003e-01  7.169811e-02
1.049499e-01  7.048290e-02
1.051715e-01  6.999271e-02
1.055222e-01  6.921728e-02
1.056487e-01  6.893853e-02
1.061051e-01  6.799700e-02
1.063313e-01  6.753056e-02
1.069233e-01  6.630936e-02
1.078619e-01  6.437899e-02
1.078694e-01  6.436371e-02
1.082537e-01  6.362966e-02
1.083916e-01  6.336740e-02
1.095654e-01  6.113504e-02
1.096478e-01  6.099034e-02
1.099631e-01  6.043641e-02
1.107931e-01  5.897817e-02
1.111566e-01  5.834268e-02
1.115578e-01  5.764131e-02
1.121597e-01  5.658909e-02
1.129712e-01  5.529937e-02
1.130638e-01  5.515220e-02
1.132563e-01  5.484756e-02
1.147637e-01  5.246243e-02
1.148154e-01  5.238065e-02
1.150888e-01  5.198261e-02
1.160991e-01  5.051751e-02
1.164797e-01  4.996570e-02
1.168154e-01  4.950554e-02
1.168904e-01  4.940272e-02
1.172804e-01  4.887008e-02
1.180618e-01  4.780270e-02
1.184900e-01  4.724802e-02
1.185940e-01  4.711385e-02
1.193765e-01  4.610438e-02
1.195646e-01  4.586177e-02
1.201724e-01  4.513324e-02
1.209732e-01  4.417342e-02
1.213420e-01  4.373137e-02
1.215708e-01  4.345848e-02
1.224341e-01  4.242868e-02
1.234083e-01  4.136663e-02
1.235260e-01  4.123835e-02
1.240572e-01  4.066142e-02
1.250013e-01  3.963599e-02
1.251898e-01  3.944679e-02
1.258925e-01  3.874409e-02
1.259553e-01  3.868128e-02
1.272918e-01  3.734491e-02
1.273979e-01  3.724580e-02
1.277275e-01  3.693816e-02
1.280855e-01  3.660561e-02
1.293303e-01  3.544916e-02
1.295929e-01  3.521946e-02
1.300356e-01  3.483222e-02
1.303167e-01  3.458639e-02
1.311408e-01  3.386874e-02
1.317664e-01  3.335195e-02
1.318257e-01  3.330295e-02
1.320155e-01  3.314613e-02
1.327457e-01  3.254468e-02
1.332997e-01  3.211822e-02
1.336283e-01  3.186520e-02
1.341220e-01  3.148663e-02
1.356018e-01  3.035196e-02
1.360260e-01  3.005035e-02
1.361641e-01  2.995214e-02
1.367056e-01  2.956713e-02
1.377841e-01  2.880397e-02
1.379764e-01  2.867541e-02
1.381072e-01  2.858793e-02
1.394438e-01  2.769427e-02
1.394562e-01  2.768647e-02
1.395819e-01  2.760771e-02
1.396890e-01  2.754058e-02
1.419084e-01  2.614984e-02
1.419710e-01  2.611075e-02
1.420958e-01  2.603832e-02
1.424367e-01  2.584043e-02
1.440894e-01  2.488100e-02
1.445440e-01  2.461796e-02
1.446160e-01  2.458001e-02
1.460253e-01  2.383719e-02
1.462724e-01  2.370751e-02
1.468504e-01  2.340412e-02
1.479109e-01  2.284750e-02
1.487925e-01  2.242315e-02
1.488986e-01  2.237208e-02
1.494759e-01  2.209426e-02
1.507143e-01  2.150101e-02
1.509211e-01  2.140192e-02
1.513561e-01  2.120877e-02
1.521172e-01  2.087081e-02
1.523211e-01  2.078057e-02
1.536053e-01  2.021233e-02
1.537712e-01  2.014366e-02
1.541288e-01  1.999559e-02
1.551744e-01  1.956425e-02
1.559159e-01  1.925835e-02
1.559931e-01  1.922651e-02
1.571961e-01  1.875825e-02
1.573494e-01  1.869885e-02
1.578172e-01  1.851759e-02
1.581129e-01  1.840299e-02
1.590006e-01  1.808365e-02
1.594997e-01  1.790411e-02
1.603245e-01  1.760741e-02
1.615100e-01  1.718327e-02
1.618921e-01  1.704659e-02
1.624875e-01  1.685055e-02
1.640589e-01  1.633319e-02
1.640590e-01  1.633317e-02
1.647650e-01  1.610185e-02
1.647856e-01  1.609511e-02
1.664371e-01  1.558672e-02
1.669896e-01  1.541664e-02
1.673979e-01  1.529903e-02
1.682412e-01  1.505718e-02
1.685461e-01  1.496974e-02
1.703510e-01  1.445215e-02
1.703751e-01  1.444576e-02
1.704135e-01  1.443564e-02
1.717908e-01  1.407239e-02
1.730236e-01  1.374725e-02
1.737313e-01  1.356122e-02
1.737801e-01  1.354838e-02
1.745320e-01  1.336870e-02
1.753748e-01  1.316726e-02
1.762619e-01  1.295614e-02
1.769663e-01  1.278851e-02
1.775722e-01  1.264431e-02
1.781841e-01  1.250995e-02
1.791242e-01  1.230350e-02
1.795665e-01  1.220637e-02
1.809582e-01  1.190222e-02
1.811067e-01  1.187197e-02
1.827760e-01  1.153193e-02
1.829640e-01  1.149375e-02
1.839738e-01  1.128880e-02
1.840772e-01  1.126905e-02
1.852206e-01  1.105082e-02
1.858978e-01  1.092206e-02
1.864769e-01  1.081195e-02
1.866536e-01  1.077835e-02
1.881290e-01  1.051254e-02
1.886023e-01  1.042728e-02
1.889490e-01  1.036480e-02
1.890305e-01  1.035019e-02
1.915261e-01  9.932467e-03
1.923801e-01  9.789515e-03
1.927525e-01  9.727183e-03
1.932631e-01  9.642147e-03
1.949845e-01  9.376756e-03
1.952631e-01  9.333808e-03
1.964996e-01  9.143177e-03
1.966754e-01  9.117595e-03
1.974536e-01  9.004832e-03
1.978108e-01  8.953072e-03
1.989625e-01  8.786202e-03
2.001733e-01  8.621263e-03
2.003175e-01  8.601704e-03
2.007856e-01  8.538176e-03
2.025368e-01  8.300524e-03
2.027149e-01  8.276362e-03
2.032851e-01  8.204516e-03
2.041738e-01  8.092903e-03
2.060475e-01  7.857600e-03
2.064800e-01  7.803496e-03
2.065380e-01  7.796243e-03
2.068355e-01  7.762149e-03
2.091929e-01  7.491954e-03
2.094877e-01  7.458162e-03
2.104384e-01  7.349199e-03
2.109723e-01  7.292074e-03
2.117722e-01  7.206904e-03
2.133832e-01  7.035371e-03
2.139116e-01  6.979104e-03
2.147430e-01  6.895753e-03
2.152457e-01  6.845539e-03
2.165809e-01  6.712166e-03
2.169977e-01  6.670532e-03
2.176152e-01  6.612011e-03
2.187762e-01  6.502414e-03
2.190106e-01  6.480290e-03
2.197345e-01  6.411952e-03
2.219474e-01  6.216698e-03
2.219957e-01  6.212434e-03
2.227063e-01  6.150022e-03
2.246072e-01  5.983060e-03
2.247599e-01  5.970622e-03
2.264644e-01  5.831794e-03
2.272500e-01  5.768128e-03
2.283325e-01  5.680408e-03
2.294167e-01  5.599365e-03
2.304093e-01  5.525164e-03
2.316744e-01  5.430937e-03
2.320314e-01  5.404342e-03
2.339174e-01  5.263873e-03
2.340367e-01  5.255015e-03
2.350490e-01  5.186797e-03
2.366792e-01  5.076952e-03
2.370307e-01  5.053264e-03
2.398833e-01  4.861810e-03
2.402035e-01  4.842283e-03
2.402260e-01  4.840906e-03
2.425792e-01  4.697381e-03
2.429210e-01  4.676627e-03
2.437109e-01  4.628663e-03
2.454709e-01  4.527785e-03
2.468256e-01  4.450138e-03
2.470202e-01  4.439020e-03
2.471102e-01  4.433880e-03
2.486709e-01  4.351062e-03
2.500591e-01  4.277402e-03
2.511886e-01  4.217683e-03
2.515051e-01  4.200947e-03
2.531733e-01  4.112749e-03
2.540972e-01  4.067762e-03
2.549889e-01  4.024342e-03
2.565430e-01  3.949005e-03
2.578181e-01  3.887188e-03
2.592686e-01  3.821081e-03
2.600160e-01  3.787019e-03
2.603875e-01  3.770172e-03
2.613576e-01  3.726175e-03
2.632161e-01  3.647276e-03
2.641649e-01  3.607000e-03
2.662161e-01  3.520200e-03
2.662625e-01  3.518238e-03
2.667581e-01  3.497270e-03
2.678494e-01  3.454612e-03
2.707804e-01  3.340527e-03
2.722701e-01  3.282543e-03
2.744214e-01  3.205815e-03
2.754229e-01  3.170264e-03
2.758195e-01  3.156186e-03
2.766145e-01  3.127965e-03
2.786121e-01  3.060969e-03
2.794560e-01  3.032667e-03
2.804727e-01  2.998690e-03
2.821426e-01  2.946794e-03
2.832925e-01  2.911061e-03
2.842824e-01  2.880413e-03
2.869799e-01  2.796900e-03
2.873544e-01  2.785307e-03
2.886108e-01  2.749443e-03
2.891462e-01  2.734158e-03
2.906623e-01  2.691079e-03
2.926264e-01  2.635269e-03
2.951209e-01  2.568572e-03
2.952271e-01  2.565745e-03
2.962746e-01  2.537876e-03
2.966436e-01  2.528056e-03
2.993988e-01  2.459375e-03
3.019952e-01  2.394919e-03
3.027732e-01  2.375604e-03
3.059321e-01  2.303097e-03
3.070347e-01  2.277787e-03
3.090295e-01  2.232212e-03
3.090295e-01  2.232211e-03
3.128892e-01  2.151250e-03
3.129455e-01  2.150073e-03
3.135090e-01  2.138296e-03
3.144127e-01  2.120763e-03
3.173532e-01  2.063709e-03
3.183109e-01  2.045199e-03
3.185114e-01  2.041324e-03
3.215048e-01  1.983468e-03
3.223953e-01  1.967630e-03
3.241690e-01  1.936082e-03
3.247600e-01  1.925619e-03
3.276353e-01  1.874714e-03
3.286202e-01  1.858330e-03
3.311311e-01  1.816563e-03
3.323097e-01  1.797077e-03
3.349654e-01  1.756007e-03
3.378703e-01  1.711084e-03
3.393321e-01  1.688477e-03
3.394467e-01  1.686705e-03
3.398208e-01  1.681364e-03
3.430145e-01  1.635995e-03
3.464874e-01  1.586660e-03
3.467369e-01  1.583129e-03
3.471113e-01  1.578379e-03
3.508781e-01  1.530587e-03
3.515731e-01  1.521769e-03
3.530625e-01  1.502945e-03
3.558361e-01  1.467890e-03
3.575927e-01  1.447479e-03
3.589219e-01  1.432035e-03
3.593419e-01  1.427155e-03
3.628169e-01  1.386965e-03
3.644973e-01  1.368719e-03
3.662267e-01  1.349940e-03
3.672823e-01  1.338478e-03
3.681422e-01  1.329197e-03
3.715352e-01  1.294973e-03
3.718026e-01  1.292276e-03
3.762771e-01  1.247143e-03
3.763786e-01  1.246198e-03
3.769207e-01  1.241155e-03
3.803262e-01  1.209628e-03
3.843152e-01  1.172699e-03
3.845918e-01  1.170147e-03
3.850071e-01  1.166719e-03
3.890451e-01  1.133388e-03
3.899560e-01  1.125869e-03
3.916080e-01  1.112285e-03
3.946844e-01  1.086988e-03
3.966328e-01  1.072235e-03
3.972576e-01  1.067505e-03
3.985730e-01  1.057545e-03
4.024274e-01  1.028496e-03
4.035306e-01  1.020680e-03
4.042912e-01  1.015291e-03
4.073803e-01  9.934061e-04
4.083341e-01  9.866890e-04
4.120975e-01  9.618840e-04
4.131262e-01  9.551040e-04
4.168694e-01  9.304330e-04
4.173571e-01  9.272310e-04
4.216965e-01  9.009250e-04
4.229500e-01  8.933260e-04
4.241310e-01  8.861670e-04
4.265795e-01  8.713870e-04
4.290422e-01  8.580140e-04
4.312378e-01  8.460920e-04
4.346353e-01  8.276430e-04
4.352612e-01  8.242440e-04
4.365158e-01  8.174670e-04
4.375600e-01  8.122190e-04
4.431619e-01  7.840620e-04
4.441196e-01  7.792480e-04
4.466836e-01  7.673130e-04
4.472175e-01  7.648440e-04
4.518559e-01  7.433930e-04
4.557745e-01  7.252720e-04
4.570882e-01  7.197320e-04
4.570882e-01  7.197320e-04
4.623810e-01  6.975070e-04
4.650504e-01  6.862980e-04
4.663908e-01  6.806930e-04
4.677351e-01  6.750720e-04
4.704354e-01  6.649810e-04
4.734918e-01  6.535590e-04
4.765681e-01  6.420630e-04
4.772545e-01  6.394980e-04
4.786301e-01  6.343840e-04
4.843466e-01  6.145800e-04
4.859174e-01  6.091380e-04
4.869675e-01  6.055010e-04
4.897788e-01  5.964670e-04
4.954502e-01  5.783640e-04
4.997468e-01  5.646490e-04
5.011872e-01  5.604490e-04
5.055336e-01  5.478280e-04
5.069907e-01  5.435960e-04
5.099176e-01  5.350970e-04
5.128614e-01  5.265830e-04
5.132306e-01  5.256300e-04
5.158222e-01  5.189370e-04
5.225465e-01  5.015710e-04
5.232991e-01  4.996270e-04
5.248075e-01  4.957520e-04
5.249963e-01  4.952990e-04
5.327979e-01  4.765920e-04
5.339493e-01  4.738310e-04
5.370318e-01  4.669640e-04
5.432503e-01  4.532020e-04
5.479614e-01  4.427760e-04
5.479614e-01  4.427760e-04
5.495409e-01  4.395770e-04
5.559042e-01  4.267400e-04
5.563044e-01  4.259320e-04
5.591136e-01  4.202650e-04
5.623413e-01  4.137800e-04
5.655877e-01  4.079560e-04
5.690576e-01  4.017320e-04
5.737861e-01  3.932510e-04
5.754399e-01  3.902990e-04
5.804302e-01  3.819740e-04
5.821032e-01  3.791820e-04
5.854637e-01  3.735760e-04
5.888437e-01  3.683280e-04
5.939502e-01  3.604520e-04
5.956621e-01  3.578110e-04
6.008278e-01  3.498440e-04
6.023462e-01  3.476960e-04
6.029933e-01  3.467840e-04
6.095369e-01  3.375640e-04
6.126759e-01  3.331410e-04
6.165950e-01  3.276390e-04
6.168168e-01  3.273600e-04
6.201546e-01  3.231550e-04
6.285035e-01  3.126370e-04
6.291439e-01  3.118340e-04
6.309573e-01  3.097400e-04
6.364291e-01  3.034200e-04
6.437985e-01  2.949080e-04
6.447400e-01  2.938210e-04
6.484478e-01  2.895640e-04
6.531306e-01  2.846940e-04
6.536007e-01  2.842050e-04
6.580948e-01  2.795320e-04
6.683439e-01  2.689220e-04
6.683440e-01  2.689220e-04
6.685845e-01  2.687000e-04
6.786475e-01  2.593950e-04
6.799861e-01  2.581650e-04
6.819460e-01  2.563630e-04
6.839117e-01  2.546950e-04
6.978306e-01  2.428850e-04
6.978306e-01  2.428850e-04
6.998420e-01  2.411790e-04
7.028700e-01  2.386260e-04
7.140852e-01  2.300400e-04
7.161434e-01  2.284710e-04
7.192419e-01  2.261100e-04
7.244360e-01  2.221510e-04
7.328245e-01  2.164290e-04
7.359952e-01  2.142670e-04
7.391797e-01  2.121060e-04
7.413102e-01  2.107700e-04
7.455899e-01  2.080860e-04
7.563973e-01  2.013080e-04
7.585776e-01  1.999400e-04
7.618597e-01  1.978940e-04
7.651560e-01  1.960250e-04
7.740161e-01  1.909990e-04
7.796057e-01  1.878430e-04
7.852356e-01  1.846630e-04
7.977651e-01  1.783410e-04
7.989139e-01  1.777640e-04
8.012167e-01  1.766090e-04
8.035261e-01  1.755350e-04
8.110777e-01  1.720240e-04
8.198794e-01  1.679320e-04
8.222427e-01  1.668330e-04
8.258002e-01  1.651890e-04
8.328118e-01  1.622350e-04
8.413952e-01  1.586180e-04
8.450356e-01  1.570900e-04
8.494937e-01  1.552170e-04
8.511380e-01  1.545270e-04
8.560517e-01  1.526870e-04
8.622240e-01  1.503840e-04
8.709636e-01  1.471230e-04
8.709636e-01  1.471230e-04
8.785167e-01  1.445350e-04
8.816781e-01  1.434560e-04
8.886894e-01  1.410650e-04
9.015711e-01  1.366700e-04
9.015711e-01  1.366700e-04
9.159569e-01  1.322670e-04
9.225714e-01  1.302430e-04
9.278975e-01  1.286200e-04
9.332543e-01  1.269880e-04
9.440609e-01  1.240770e-04
9.549926e-01  1.211340e-04
9.549926e-01  1.211340e-04
9.577452e-01  1.203970e-04
9.632744e-01  1.190100e-04
9.765342e-01  1.156850e-04
9.772372e-01  1.155200e-04
9.885531e-01  1.128740e-04
9.928303e-01  1.118810e-04
1.000000e+00  1.102160e-04
1.005411e+00  1.089600e-04
1.018197e+00  1.062320e-04
1.020352e+00  1.057720e-04
1.023293e+00  1.051470e-04
1.035142e+00  1.026300e-04
1.044870e+00  1.007700e-04
1.046116e+00  1.005330e-04
1.050147e+00  9.976630e-05
1.064830e+00  9.697270e-05
1.070749e+00  9.592300e-05
1.074800e+00  9.520460e-05
1.082757e+00  9.379350e-05
1.087653e+00  9.293030e-05
1.102412e+00  9.051700e-05
1.104495e+00  9.017640e-05
1.122018e+00  8.731120e-05
1.122808e+00  8.718280e-05
1.135011e+00  8.537260e-05
1.154782e+00  8.243980e-05
1.159100e+00  8.180170e-05
1.164796e+00  8.104580e-05
1.168154e+00  8.060030e-05
1.179981e+00  7.903090e-05
1.186699e+00  7.814310e-05
1.187647e+00  7.802760e-05
1.202264e+00  7.624810e-05
1.218814e+00  7.423320e-05
1.222767e+00  7.375440e-05
1.226733e+00  7.327400e-05
1.229335e+00  7.295880e-05
1.258925e+00  6.971040e-05
1.264372e+00  6.911640e-05
1.273503e+00  6.812080e-05
1.284547e+00  6.705710e-05
1.288249e+00  6.670040e-05
1.303167e+00  6.526990e-05
1.303167e+00  6.526990e-05
1.323960e+00  6.342500e-05
1.333521e+00  6.257680e-05
1.348963e+00  6.121400e-05
1.356751e+00  6.058790e-05
1.364583e+00  5.995830e-05
1.380384e+00  5.868810e-05
1.396368e+00  5.741160e-05
1.396368e+00  5.741160e-05
1.409363e+00  5.651220e-05
1.412538e+00  5.629330e-05
1.445440e+00  5.402510e-05
1.453784e+00  5.344980e-05
1.453975e+00  5.343800e-05
1.462178e+00  5.293160e-05
1.496236e+00  5.082910e-05
1.500000e+00  5.059680e-05
1.500549e+00  5.056310e-05
1.513561e+00  4.976540e-05
1.531088e+00  4.882880e-05
1.533976e+00  4.867450e-05
1.548816e+00  4.788460e-05
1.560001e+00  4.733100e-05
1.584893e+00  4.609920e-05
1.586387e+00  4.602530e-05
1.603245e+00  4.519500e-05
1.621810e+00  4.435720e-05
1.640590e+00  4.350960e-05
1.659587e+00  4.265790e-05
1.669168e+00  4.227660e-05
1.683643e+00  4.170060e-05
1.703139e+00  4.092820e-05
1.742810e+00  3.947670e-05
1.750351e+00  3.920080e-05
1.770619e+00  3.846330e-05
1.819701e+00  3.683990e-05
1.840772e+00  3.614780e-05
1.873356e+00  3.520510e-05
1.883649e+00  3.490720e-05
1.905461e+00  3.427870e-05
1.933081e+00  3.353850e-05
1.955465e+00  3.294130e-05
1.956819e+00  3.290780e-05
2.009671e+00  3.160310e-05
2.032942e+00  3.103160e-05
2.044000e+00  3.078430e-05
2.089296e+00  2.977100e-05
2.109166e+00  2.932950e-05
2.113489e+00  2.923340e-05
2.150305e+00  2.851080e-05
2.159400e+00  2.833310e-05
2.181474e+00  2.790190e-05
2.233894e+00  2.694220e-05
2.237003e+00  2.688910e-05
2.245174e+00  2.674950e-05
2.314895e+00  2.556550e-05
2.317395e+00  2.552640e-05
2.344229e+00  2.510710e-05
2.391939e+00  2.436690e-05
2.398833e+00  2.425990e-05
2.419636e+00  2.397260e-05
2.475996e+00  2.319820e-05
2.508274e+00  2.279300e-05
2.537319e+00  2.242840e-05
2.596420e+00  2.169110e-05
2.630268e+00  2.131220e-05
2.660725e+00  2.097130e-05
2.722701e+00  2.028280e-05
2.722701e+00  2.028280e-05
2.762167e+00  1.989880e-05
2.794152e+00  1.958890e-05
2.826506e+00  1.927540e-05
2.840779e+00  1.914680e-05
2.904859e+00  1.857230e-05
2.906950e+00  1.855350e-05
2.962912e+00  1.808960e-05
3.019952e+00  1.761920e-05
3.031927e+00  1.752050e-05
3.090295e+00  1.708230e-05
3.135090e+00  1.674840e-05
3.162278e+00  1.654570e-05
3.208115e+00  1.624330e-05
3.224316e+00  1.613680e-05
3.282842e+00  1.575230e-05
3.299419e+00  1.565090e-05
3.362937e+00  1.526410e-05
3.376273e+00  1.518290e-05
3.441270e+00  1.481630e-05
3.507519e+00  1.444460e-05
3.521428e+00  1.436660e-05
3.589219e+00  1.401970e-05
3.662267e+00  1.364860e-05
3.672823e+00  1.359500e-05
3.747572e+00  1.326010e-05
3.782793e+00  1.310300e-05
3.834864e+00  1.287080e-05
3.870905e+00  1.272250e-05
3.961070e+00  1.235360e-05
3.971058e+00  1.231610e-05
4.063556e+00  1.196900e-05
4.158208e+00  1.161600e-05
4.168694e+00  1.158070e-05
4.265795e+00  1.125440e-05
4.365158e+00  1.092290e-05
4.365159e+00  1.092290e-05
4.466836e+00  1.062590e-05
4.518559e+00  1.047550e-05
4.570882e+00  1.032340e-05
4.623810e+00  1.018210e-05
4.731513e+00  9.895990e-06
4.758828e+00  9.829730e-06
4.869675e+00  9.560830e-06
4.983105e+00  9.287370e-06
5.011872e+00  9.225190e-06
5.128614e+00  8.972820e-06
5.248075e+00  8.716550e-06
5.263201e+00  8.688310e-06
5.385798e+00  8.459490e-06
5.459935e+00  8.321810e-06
5.527134e+00  8.197020e-06
5.587113e+00  8.095600e-06
5.746124e+00  7.828190e-06
5.768910e+00  7.792480e-06
5.903285e+00  7.581840e-06
5.916042e+00  7.561960e-06
6.095369e+00  7.302960e-06
6.180386e+00  7.180170e-06
6.237348e+00  7.104990e-06
6.282392e+00  7.045930e-06
6.419482e+00  6.866210e-06
6.456542e+00  6.817840e-06
6.623595e+00  6.621100e-06
6.645076e+00  6.595810e-06
6.751107e+00  6.480580e-06
6.891604e+00  6.328700e-06
6.988356e+00  6.224110e-06
7.011020e+00  6.201710e-06
7.099704e+00  6.114400e-06
7.212502e+00  6.003360e-06
7.257403e+00  5.959330e-06
7.419773e+00  5.814720e-06
7.423695e+00  5.811220e-06
7.525631e+00  5.720430e-06
7.680520e+00  5.583150e-06
7.762471e+00  5.518430e-06
7.852356e+00  5.447440e-06
8.012167e+00  5.321960e-06
8.104943e+00  5.249110e-06
8.128305e+00  5.230850e-06
8.389770e+00  5.048990e-06
8.468617e+00  4.998720e-06
8.566677e+00  4.936200e-06
8.827940e+00  4.770580e-06
8.867732e+00  4.745350e-06
8.930161e+00  4.709440e-06
9.107403e+00  4.607910e-06
9.212858e+00  4.547500e-06
9.243990e+00  4.529750e-06
9.536624e+00  4.374590e-06
9.543271e+00  4.371330e-06
9.653773e+00  4.317140e-06
9.993035e+00  4.151660e-06
1.000000e+01  4.148570e-06
1.011579e+01  4.097130e-06
1.038126e+01  3.979960e-06
1.047129e+01  3.940220e-06
1.050146e+01  3.928250e-06
1.072676e+01  3.839220e-06
1.085097e+01  3.790140e-06
1.087052e+01  3.782450e-06
1.123231e+01  3.649760e-06
1.135930e+01  3.607140e-06
1.149083e+01  3.563000e-06
1.185806e+01  3.440480e-06
1.189465e+01  3.428270e-06
1.199537e+01  3.397840e-06
1.224645e+01  3.322310e-06
1.238826e+01  3.279650e-06
1.241692e+01  3.271070e-06
1.282361e+01  3.158010e-06
1.285302e+01  3.150460e-06
1.300185e+01  3.112250e-06
1.345877e+01  2.995610e-06
1.348963e+01  2.988450e-06
1.364583e+01  2.952210e-06
1.408478e+01  2.851040e-06
1.412538e+01  2.841680e-06
1.428894e+01  2.808160e-06
1.462704e+01  2.739220e-06
1.481239e+01  2.701420e-06
1.487647e+01  2.689430e-06
1.511861e+01  2.644360e-06
1.541035e+01  2.590050e-06
1.544088e+01  2.584390e-06
1.589319e+01  2.506660e-06
1.601264e+01  2.486220e-06
1.601894e+01  2.485210e-06
1.653028e+01  2.403380e-06
1.672921e+01  2.374150e-06
1.677483e+01  2.367440e-06
1.728250e+01  2.293250e-06
1.746802e+01  2.266140e-06
1.747673e+01  2.264870e-06
1.800664e+01  2.194730e-06
1.814694e+01  2.176240e-06
1.822196e+01  2.166350e-06
1.880166e+01  2.095210e-06
1.884588e+01  2.090180e-06
1.905461e+01  2.066570e-06
1.970598e+01  1.992900e-06
1.972423e+01  1.991020e-06
2.009671e+01  1.952840e-06
2.065380e+01  1.895740e-06
2.078573e+01  1.883650e-06
2.080296e+01  1.882080e-06
2.105520e+01  1.859110e-06
2.172076e+01  1.798510e-06
2.176129e+01  1.795140e-06
2.179513e+01  1.792330e-06
2.193131e+01  1.781070e-06
2.265240e+01  1.721430e-06
2.269946e+01  1.717540e-06
2.270202e+01  1.717350e-06
2.272775e+01  1.715390e-06
2.344833e+01  1.660610e-06
2.346201e+01  1.659570e-06
2.352645e+01  1.654670e-06
2.359194e+01  1.649710e-06
2.419411e+01  1.607180e-06
2.427235e+01  1.601650e-06
2.440159e+01  1.592560e-06
2.476475e+01  1.569230e-06
2.553069e+01  1.520010e-06
2.563504e+01  1.513300e-06
2.580034e+01  1.502740e-06
2.588592e+01  1.497260e-06
2.658136e+01  1.457040e-06
2.660536e+01  1.455650e-06
2.670702e+01  1.449770e-06
2.705812e+01  1.429540e-06
2.754033e+01  1.403770e-06
2.786022e+01  1.386740e-06
2.797198e+01  1.380790e-06
2.823900e+01  1.367680e-06
2.883929e+01  1.338190e-06
2.917427e+01  1.321820e-06
2.940097e+01  1.310740e-06
3.000000e+01  1.284150e-06
3.017780e+01  1.276260e-06
3.019952e+01  1.275300e-06
3.090295e+01  1.244240e-06
3.100014e+01  1.240330e-06
3.114993e+01  1.234310e-06
3.119339e+01  1.232570e-06
3.191997e+01  1.203500e-06
3.296615e+01  1.165240e-06
3.305787e+01  1.161880e-06
3.314589e+01  1.158660e-06
3.391795e+01  1.130590e-06
3.478842e+01  1.102230e-06
3.482295e+01  1.101100e-06
3.495433e+01  1.096820e-06
3.576852e+01  1.070440e-06
3.644453e+01  1.050520e-06
3.646535e+01  1.049910e-06
3.661747e+01  1.045430e-06
3.747040e+01  1.020430e-06
3.792524e+01  1.008160e-06
3.799884e+01  1.006180e-06
3.813751e+01  1.002440e-06
3.902584e+01  9.785880e-07
3.927012e+01  9.724920e-07
3.939345e+01  9.694151e-07
3.951921e+01  9.662760e-07
4.043973e+01  9.433900e-07
4.065566e+01  9.383540e-07
4.076921e+01  9.357060e-07
4.171884e+01  9.136630e-07
4.173944e+01  9.132230e-07
4.296262e+01  8.870700e-07
4.305258e+01  8.851470e-07
4.369281e+01  8.715290e-07
4.405540e+01  8.638170e-07
4.477835e+01  8.497850e-07
4.484865e+01  8.484210e-07
4.521760e+01  8.412990e-07
4.589331e+01  8.282570e-07
4.619033e+01  8.230600e-07
4.760513e+01  7.983040e-07
4.768422e+01  7.969200e-07
4.839222e+01  7.846130e-07
4.879493e+01  7.776130e-07
5.011872e+01  7.571590e-07
5.069907e+01  7.481920e-07
5.188000e+01  7.300610e-07
5.232991e+01  7.238860e-07
5.293586e+01  7.155690e-07
5.416889e+01  6.987220e-07
5.449142e+01  6.946540e-07
5.512240e+01  6.866940e-07
5.640636e+01  6.705660e-07
5.659885e+01  6.683230e-07
5.725423e+01  6.606830e-07
5.858785e+01  6.452000e-07
5.864853e+01  6.445430e-07
5.932764e+01  6.371930e-07
6.063747e+01  6.230690e-07
6.070956e+01  6.222920e-07
6.133961e+01  6.159300e-07
6.256331e+01  6.036180e-07
6.276839e+01  6.015550e-07
6.328775e+01  5.966420e-07
6.476192e+01  5.827640e-07
6.634066e+01  5.691220e-07
6.710883e+01  5.624840e-07
6.867200e+01  5.490570e-07
6.983245e+01  5.400810e-07
7.064106e+01  5.338270e-07
7.228651e+01  5.211660e-07
7.303822e+01  5.158890e-07
7.388394e+01  5.099520e-07
7.560493e+01  4.979270e-07
7.596375e+01  4.956130e-07
7.684335e+01  4.899410e-07
7.861955e+01  4.785320e-07
7.863327e+01  4.784440e-07
7.952991e+01  4.730750e-07
8.138241e+01  4.620400e-07
8.349259e+01  4.505540e-07
8.445936e+01  4.452910e-07
8.642669e+01  4.346430e-07
8.734457e+01  4.301490e-07
8.835595e+01  4.251980e-07
9.034975e+01  4.154790e-07
9.041405e+01  4.151660e-07
9.139592e+01  4.107270e-07
9.352483e+01  4.011460e-07
9.505248e+01  3.948040e-07
9.615310e+01  3.902340e-07
9.839282e+01  3.809870e-07
1.000000e+02  3.749630e-07
1.011579e+02  3.706240e-07
1.035142e+02  3.618410e-07
1.044119e+02  3.588050e-07
1.056209e+02  3.547160e-07
1.080811e+02  3.464340e-07
1.087247e+02  3.444320e-07
1.099836e+02  3.405180e-07
1.125455e+02  3.325850e-07
1.129296e+02  3.314810e-07
1.142372e+02  3.277220e-07
1.168981e+02  3.201050e-07
1.170192e+02  3.197810e-07
1.183742e+02  3.161640e-07
1.209877e+02  3.092130e-07
1.211315e+02  3.088300e-07
1.223886e+02  3.056990e-07
1.252394e+02  2.986330e-07
1.287948e+02  2.905880e-07
1.302862e+02  2.872140e-07
1.333210e+02  2.803900e-07
1.360383e+02  2.749250e-07
1.376135e+02  2.717570e-07
1.408190e+02  2.653450e-07
1.427097e+02  2.619140e-07
1.443622e+02  2.589160e-07
1.477248e+02  2.528430e-07
1.488150e+02  2.510360e-07
1.505382e+02  2.481780e-07
1.540447e+02  2.423890e-07
1.543711e+02  2.418880e-07
1.561586e+02  2.391490e-07
1.594025e+02  2.341960e-07
1.597960e+02  2.335960e-07
1.612483e+02  2.315190e-07
1.650043e+02  2.261730e-07
1.686054e+02  2.214580e-07
1.705577e+02  2.189030e-07
1.745305e+02  2.137290e-07
1.758545e+02  2.121590e-07
1.778908e+02  2.097430e-07
1.814952e+02  2.054850e-07
1.820344e+02  2.048480e-07
1.835968e+02  2.031270e-07
1.878733e+02  1.984370e-07
1.902973e+02  1.959700e-07
1.925008e+02  1.937280e-07
1.969847e+02  1.891880e-07
1.995262e+02  1.868360e-07
2.018366e+02  1.846980e-07
2.065380e+02  1.803700e-07
2.083600e+02  1.788380e-07
2.107727e+02  1.768090e-07
2.156822e+02  1.726990e-07
2.169965e+02  1.716830e-07
2.195092e+02  1.697410e-07
2.246223e+02  1.658050e-07
2.254181e+02  1.652360e-07
2.280284e+02  1.633710e-07
2.333398e+02  1.595910e-07
2.336100e+02  1.594120e-07
2.363151e+02  1.576170e-07
2.415600e+02  1.541490e-07
2.418196e+02  1.539780e-07
2.443572e+02  1.524060e-07
2.500490e+02  1.489000e-07
2.572028e+02  1.448770e-07
2.601811e+02  1.432020e-07
2.662415e+02  1.398160e-07
2.717190e+02  1.370780e-07
2.748653e+02  1.355060e-07
2.812678e+02  1.323230e-07
2.850911e+02  1.305990e-07
2.883923e+02  1.291110e-07
2.951099e+02  1.260960e-07
2.973305e+02  1.251820e-07
3.007734e+02  1.237630e-07
3.077794e+02  1.208900e-07
3.084703e+02  1.206270e-07
3.120422e+02  1.192670e-07
3.185594e+02  1.167950e-07
3.193106e+02  1.165110e-07
3.222481e+02  1.154670e-07
3.297543e+02  1.128120e-07
3.370158e+02  1.104510e-07
3.409182e+02  1.091820e-07
3.488593e+02  1.066140e-07
3.515565e+02  1.058190e-07
3.556274e+02  1.046200e-07
3.628723e+02  1.024940e-07
3.639110e+02  1.021900e-07
3.670742e+02  1.013240e-07
3.756245e+02  9.899530e-08
3.805326e+02  9.775490e-08
3.849390e+02  9.664140e-08
3.939054e+02  9.438710e-08
3.990524e+02  9.320450e-08
4.036732e+02  9.214290e-08
4.130760e+02  8.999310e-08
4.165964e+02  8.925430e-08
4.214204e+02  8.824210e-08
4.312366e+02  8.619150e-08
4.337439e+02  8.570750e-08
4.387664e+02  8.473800e-08
4.489866e+02  8.277350e-08
4.504600e+02  8.251050e-08
4.556761e+02  8.157940e-08
4.662902e+02  7.969230e-08
4.667160e+02  7.962170e-08
4.721204e+02  7.872530e-08
4.824885e+02  7.701200e-08
4.831175e+02  7.690800e-08
4.880754e+02  7.614030e-08
4.994442e+02  7.438890e-08
5.135126e+02  7.240940e-08
5.194587e+02  7.157270e-08
5.315585e+02  6.988070e-08
5.422907e+02  6.853730e-08
5.485702e+02  6.775120e-08
5.613481e+02  6.616050e-08
5.687916e+02  6.531950e-08
5.753779e+02  6.457530e-08
5.887802e+02  6.306840e-08
5.930400e+02  6.262830e-08
5.999071e+02  6.191890e-08
6.138808e+02  6.048140e-08
6.151039e+02  6.036460e-08
6.222265e+02  5.968420e-08
6.350822e+02  5.846090e-08
6.367201e+02  5.830500e-08
6.424361e+02  5.779530e-08
6.574005e+02  5.646700e-08
6.716182e+02  5.530590e-08
6.793951e+02  5.467070e-08
6.952204e+02  5.338510e-08
7.003931e+02  5.300210e-08
7.085032e+02  5.240160e-08
7.250065e+02  5.118660e-08
7.458834e+02  4.979490e-08
7.545203e+02  4.921920e-08
7.720954e+02  4.805540e-08
7.943282e+02  4.674890e-08
8.035261e+02  4.620840e-08
8.222427e+02  4.511500e-08
8.294966e+02  4.473280e-08
8.391017e+02  4.422670e-08
8.586470e+02  4.320150e-08
8.638798e+02  4.294790e-08
8.738830e+02  4.246330e-08
8.942395e+02  4.148130e-08
8.974084e+02  4.133940e-08
9.077999e+02  4.087410e-08
9.289464e+02  3.993090e-08
9.300223e+02  3.988620e-08
9.407914e+02  3.943820e-08
9.616735e+02  3.857290e-08
9.627063e+02  3.853010e-08
9.728115e+02  3.813790e-08
9.954721e+02  3.726290e-08
1.023960e+03  3.625860e-08
1.035820e+03  3.584040e-08
1.059940e+03  3.499540e-08
1.081750e+03  3.431190e-08
1.094280e+03  3.391920e-08
1.119770e+03  3.312470e-08
1.135000e+03  3.269410e-08
1.148140e+03  3.232260e-08
1.174880e+03  3.157020e-08
1.183730e+03  3.134160e-08
1.197440e+03  3.098740e-08
1.225330e+03  3.026990e-08
1.228080e+03  3.020430e-08
1.242300e+03  2.986470e-08
1.268250e+03  2.924740e-08
1.271240e+03  2.917630e-08
1.282940e+03  2.891550e-08
1.312820e+03  2.825270e-08
1.341730e+03  2.766300e-08
1.357260e+03  2.734620e-08
1.388880e+03  2.670460e-08
1.399610e+03  2.650630e-08
1.415820e+03  2.620660e-08
1.444660e+03  2.567570e-08
1.448800e+03  2.559950e-08
1.461390e+03  2.538330e-08
1.495430e+03  2.480150e-08
1.514950e+03  2.449190e-08
1.532500e+03  2.421350e-08
1.568190e+03  2.365030e-08
1.588660e+03  2.335510e-08
1.607050e+03  2.308990e-08
1.644490e+03  2.255270e-08
1.659000e+03  2.236160e-08
1.678210e+03  2.210860e-08
1.717300e+03  2.159610e-08
1.727780e+03  2.146920e-08
1.747780e+03  2.122700e-08
1.788490e+03  2.073610e-08
1.794840e+03  2.066500e-08
1.815620e+03  2.043250e-08
1.857910e+03  1.996100e-08
1.860070e+03  1.993860e-08
1.881610e+03  1.971470e-08
1.923380e+03  1.928210e-08
1.925440e+03  1.926080e-08
1.945650e+03  1.906470e-08
1.990970e+03  1.862720e-08
2.047930e+03  1.812540e-08
2.071650e+03  1.791640e-08
2.119900e+03  1.749390e-08
2.163520e+03  1.715220e-08
2.188570e+03  1.695600e-08
2.239550e+03  1.655890e-08
2.269990e+03  1.634370e-08
2.296280e+03  1.615790e-08
2.349760e+03  1.578180e-08
2.367450e+03  1.566760e-08
2.394860e+03  1.549060e-08
2.450640e+03  1.513190e-08
2.456150e+03  1.509900e-08
2.484590e+03  1.492920e-08
2.536480e+03  1.462070e-08
2.542460e+03  1.458520e-08
2.565850e+03  1.445490e-08
2.625620e+03  1.412350e-08
2.683430e+03  1.382870e-08
2.714500e+03  1.367030e-08
2.777730e+03  1.334970e-08
2.799200e+03  1.325050e-08
2.831610e+03  1.310070e-08
2.889290e+03  1.283530e-08
2.897570e+03  1.279720e-08
2.922750e+03  1.268920e-08
2.990830e+03  1.239830e-08
3.029890e+03  1.224340e-08
3.064970e+03  1.210430e-08
3.136360e+03  1.182270e-08
3.177310e+03  1.167510e-08
3.214100e+03  1.154250e-08
3.288970e+03  1.127400e-08
3.317990e+03  1.117840e-08
3.356410e+03  1.105200e-08
3.434590e+03  1.079580e-08
3.455530e+03  1.073240e-08
3.495550e+03  1.061130e-08
3.576970e+03  1.036590e-08
3.589650e+03  1.033040e-08
3.631220e+03  1.021420e-08
3.715800e+03  9.978480e-09
3.720110e+03  9.967280e-09
3.763180e+03  9.855360e-09
3.846710e+03  9.639120e-09
3.850840e+03  9.628430e-09
3.891260e+03  9.530410e-09
3.981890e+03  9.311770e-09
4.095820e+03  9.060840e-09
4.143250e+03  8.956380e-09
4.239750e+03  8.745170e-09
4.326980e+03  8.574390e-09
4.377090e+03  8.476280e-09
4.479040e+03  8.277770e-09
4.539930e+03  8.170210e-09
4.592500e+03  8.077350e-09
4.699470e+03  7.889320e-09
4.734840e+03  7.832230e-09
4.789660e+03  7.743740e-09
4.901230e+03  7.564410e-09
4.912230e+03  7.548000e-09
4.969110e+03  7.463140e-09
5.072900e+03  7.308890e-09
5.084860e+03  7.291120e-09
5.131640e+03  7.225980e-09
5.251170e+03  7.060340e-09
5.366800e+03  6.912970e-09
5.428940e+03  6.833780e-09
5.555400e+03  6.673470e-09
5.598340e+03  6.623880e-09
5.663170e+03  6.549010e-09
5.778530e+03  6.416320e-09
5.795080e+03  6.397280e-09
5.845440e+03  6.343270e-09
5.981600e+03  6.197870e-09
6.059740e+03  6.120450e-09
6.129910e+03  6.050920e-09
6.272690e+03  5.910160e-09
6.354630e+03  5.836330e-09
6.428210e+03  5.770040e-09
6.577940e+03  5.635790e-09
6.635980e+03  5.588040e-09
6.712820e+03  5.524820e-09
6.869180e+03  5.396750e-09
6.911050e+03  5.365080e-09
6.991070e+03  5.304540e-09
7.153920e+03  5.181870e-09
7.179270e+03  5.164150e-09
7.262410e+03  5.106020e-09
7.431570e+03  4.988200e-09
7.440180e+03  4.982610e-09
7.526330e+03  4.926650e-09
7.693390e+03  4.818550e-09
7.701640e+03  4.813210e-09
7.782470e+03  4.764220e-09
7.963800e+03  4.654890e-09
8.191590e+03  4.529490e-09
8.286550e+03  4.477220e-09
8.479610e+03  4.371610e-09
8.654020e+03  4.286260e-09
8.754320e+03  4.237170e-09
8.958270e+03  4.137910e-09
9.080010e+03  4.084170e-09
9.185230e+03  4.037720e-09
9.399220e+03  3.943710e-09
9.469910e+03  3.915200e-09
9.579640e+03  3.870930e-09
9.803040e+03  3.781180e-09
9.825020e+03  3.772980e-09
9.938850e+03  3.730540e-09
1.014700e+04  3.653220e-09
1.017100e+04  3.644300e-09
1.026500e+04  3.611570e-09
1.050400e+04  3.528740e-09
1.073500e+04  3.455210e-09
1.086000e+04  3.415430e-09
1.111300e+04  3.335310e-09
1.119900e+04  3.310520e-09
1.132800e+04  3.273320e-09
1.155900e+04  3.207000e-09
1.159300e+04  3.197240e-09
1.169300e+04  3.170430e-09
1.196600e+04  3.097570e-09
1.212100e+04  3.059170e-09
1.226200e+04  3.024250e-09
1.254700e+04  2.954000e-09
1.270900e+04  2.917550e-09
1.285600e+04  2.884470e-09
1.315600e+04  2.817300e-09
1.327300e+04  2.793230e-09
1.342700e+04  2.761550e-09
1.373900e+04  2.697640e-09
1.382400e+04  2.681590e-09
1.398400e+04  2.651370e-09
1.431000e+04  2.590060e-09
1.436100e+04  2.581150e-09
1.452700e+04  2.552140e-09
1.486600e+04  2.493140e-09
1.488400e+04  2.490220e-09
1.505600e+04  2.462310e-09
1.539100e+04  2.408150e-09
1.540700e+04  2.405570e-09
1.556900e+04  2.381030e-09
1.593200e+04  2.326350e-09
1.638800e+04  2.263650e-09
1.657800e+04  2.237520e-09
1.696400e+04  2.184770e-09
1.731300e+04  2.142080e-09
1.751300e+04  2.117610e-09
1.792100e+04  2.067980e-09
1.816500e+04  2.041060e-09
1.837500e+04  2.017900e-09
1.880300e+04  1.970910e-09
1.894500e+04  1.956610e-09
1.916400e+04  1.934560e-09
1.961100e+04  1.889740e-09
1.965500e+04  1.885650e-09
1.988300e+04  1.864420e-09
2.029800e+04  1.825910e-09
2.034600e+04  1.821460e-09
2.053300e+04  1.805190e-09
2.101100e+04  1.763810e-09
2.147300e+04  1.727030e-09
2.172100e+04  1.707290e-09
2.222700e+04  1.667230e-09
2.239900e+04  1.654840e-09
2.265800e+04  1.636180e-09
2.311900e+04  1.603090e-09
2.318600e+04  1.598290e-09
2.338700e+04  1.584810e-09
2.393100e+04  1.548500e-09
2.424200e+04  1.529260e-09
2.452300e+04  1.511880e-09
2.509400e+04  1.476740e-09
2.541900e+04  1.458440e-09
2.571300e+04  1.441900e-09
2.631200e+04  1.408350e-09
2.654500e+04  1.396370e-09
2.685200e+04  1.380600e-09
2.747800e+04  1.348580e-09
2.764600e+04  1.340630e-09
2.796600e+04  1.325500e-09
2.861700e+04  1.294840e-09
2.872000e+04  1.290350e-09
2.905200e+04  1.275850e-09
2.972900e+04  1.246420e-09
2.976400e+04  1.245000e-09
3.010900e+04  1.231000e-09
3.077800e+04  1.203960e-09
3.081000e+04  1.202660e-09
3.113400e+04  1.190400e-09
3.185900e+04  1.163090e-09
3.277100e+04  1.131720e-09
3.315000e+04  1.118690e-09
3.392200e+04  1.092310e-09
3.462100e+04  1.070950e-09
3.502200e+04  1.058690e-09
3.583700e+04  1.033930e-09
3.632500e+04  1.020470e-09
3.674500e+04  1.008890e-09
3.760100e+04  9.854000e-10
3.788400e+04  9.782700e-10
3.832300e+04  9.672000e-10
3.921500e+04  9.448100e-10
3.930400e+04  9.427400e-10
3.975900e+04  9.321500e-10
4.058900e+04  9.129000e-10
4.068500e+04  9.106800e-10
4.105900e+04  9.025400e-10
4.201500e+04  8.818600e-10
4.294000e+04  8.634600e-10
4.343700e+04  8.535800e-10
4.444900e+04  8.335500e-10
4.479200e+04  8.273700e-10
4.531000e+04  8.180300e-10
4.623300e+04  8.014500e-10
4.636600e+04  7.990600e-10
4.676800e+04  7.923300e-10
4.785700e+04  7.741700e-10
4.848100e+04  7.645100e-10
4.904200e+04  7.558300e-10
5.018400e+04  7.382600e-10
5.083700e+04  7.290700e-10
5.142600e+04  7.207900e-10
5.262400e+04  7.040200e-10
5.303400e+04  6.987400e-10
5.360900e+04  6.913300e-10
5.477900e+04  6.763200e-10
5.517900e+04  6.715500e-10
5.574000e+04  6.648600e-10
5.688000e+04  6.513300e-10
5.726900e+04  6.470100e-10
5.781500e+04  6.409600e-10
5.892200e+04  6.287400e-10
5.930000e+04  6.248300e-10
5.983000e+04  6.193500e-10
6.090400e+04  6.082800e-10
6.127000e+04  6.048300e-10
6.178300e+04  6.000000e-10
6.479900e+04  5.717100e-10
6.514000e+04  5.688400e-10
6.561700e+04  5.648400e-10
6.841100e+04  5.415100e-10
6.872600e+04  5.391300e-10
6.916600e+04  5.357900e-10
7.173700e+04  5.164000e-10
7.202500e+04  5.144000e-10
7.242900e+04  5.116000e-10
7.477900e+04  4.953800e-10
7.504200e+04  4.936900e-10
7.541000e+04  4.913300e-10
7.754600e+04  4.776900e-10
7.778500e+04  4.762600e-10
7.811800e+04  4.742700e-10
8.005200e+04  4.627500e-10
8.282800e+04  4.475400e-10
8.309400e+04  4.460800e-10
8.463100e+04  4.377000e-10
8.682300e+04  4.268100e-10
8.703200e+04  4.257700e-10
8.823700e+04  4.198000e-10
8.994600e+04  4.121400e-10
9.010800e+04  4.114100e-10
9.393500e+04  3.943300e-10
9.484000e+04  3.907400e-10
9.492600e+04  3.904000e-10
1.000000e+05  3.704000e-10
-1  -1
-2  -2
