0.013041 32915.830000
0.013270 31265.310000
0.013650 29000.840000
0.013887 27671.760000
0.014250 25791.470000
0.014622 24038.950000
0.015005 22362.420000
0.015349 20991.660000
0.015657 19861.340000
0.015931 18922.360000
0.016175 18137.240000
0.016610 16840.850000
0.016945 15929.730000
0.017200 15278.890000
0.017590 14352.150000
0.017989 13481.620000
0.018461 12515.240000
0.018823 11836.190000
0.019099 11351.190000
0.019521 10660.710000
0.019953 10012.220000
0.020227 9621.235000
0.020752 8928.824000
0.021223 8363.966000
0.021644 7899.106000
0.022019 7513.598000
0.022352 7191.744000
0.022948 6661.318000
0.023405 6289.334000
0.023754 6024.042000
0.024286 5646.938000
0.024831 5293.441000
0.025191 5070.403000
0.025533 4869.847000
0.026188 4514.940000
0.026774 4225.680000
0.027297 3987.820000
0.027764 3790.702000
0.028179 3626.234000
0.028547 3488.188000
0.029202 3259.133000
0.029704 3097.267000
0.030472 2869.417000
0.031261 2658.328000
0.031691 2549.584000
0.032100 2451.681000
0.032881 2278.131000
0.033579 2136.383000
0.034203 2019.608000
0.034758 1922.677000
0.035251 1841.687000
0.036131 1708.077000
0.036805 1614.270000
0.037319 1547.311000
0.038104 1452.044000
0.038905 1362.643000
0.039412 1308.897000
0.040381 1213.771000
0.041248 1136.225000
0.042022 1072.447000
0.042711 1019.585000
0.043323 975.473000
0.044416 902.818900
0.045254 851.902100
0.045893 815.608000
0.046867 764.045400
0.047863 715.742600
0.049048 662.653900
0.050110 619.441800
0.051057 583.949000
0.051901 554.565200
0.052651 530.069800
0.053315 509.525600
0.054499 475.470500
0.055404 451.431400
0.056790 417.632300
0.058210 386.363700
0.059012 369.899700
0.059773 355.102500
0.061227 328.934600
0.062528 307.624400
0.063689 290.113700
0.064723 275.611400
0.065641 263.517800
0.066455 253.372100
0.067904 236.547800
0.069012 224.666900
0.070707 207.955100
0.072444 192.486300
0.073759 181.669300
0.075013 172.081100
0.076208 163.552300
0.077346 155.940800
0.078429 149.127100
0.079457 143.009900
0.080434 137.503100
0.082297 127.743000
0.083962 119.772800
0.085447 113.208000
0.086768 107.759600
0.087941 103.207800
0.090031 95.699880
0.091632 90.429600
0.092850 86.668240
0.094709 81.317500
0.096605 76.297120
0.097943 72.987790
0.099256 69.918820
0.100545 67.068860
0.101810 64.418790
0.104306 59.578590
0.106701 55.371710
0.108997 51.697950
0.111194 48.475480
0.113294 45.637080
0.115299 43.127210
0.117211 40.899720
0.119032 38.916040
0.120764 37.143810
0.122412 35.555720
0.123977 34.128600
0.126965 31.605340
0.129639 29.551000
0.132025 27.863290
0.134148 26.465810
0.136034 25.300630
0.137706 24.323250
0.140682 22.702820
0.142956 21.558740
0.146435 19.949810
0.150000 18.460960
0.151932 17.721100
0.155621 16.412850
0.158922 15.347600
0.161868 14.472380
0.164490 13.747600
0.166820 13.143260
0.168885 12.636300
0.172562 11.795710
0.175371 11.202170
0.179671 10.367390
0.184077 9.594813
0.188365 8.922607
0.192198 8.373175
0.195617 7.920247
0.198658 7.544078
0.201357 7.229616
0.206170 6.710519
0.209855 6.345805
0.212662 6.085338
0.216943 5.714545
0.221309 5.366346
0.225489 5.063380
0.229211 4.812350
0.232517 4.602929
0.235450 4.427175
0.240671 4.135599
0.244663 3.929590
0.250775 3.639657
0.257040 3.371116
0.261517 3.198044
0.265499 3.053911
0.269033 2.933133
0.275330 2.733152
0.280150 2.592165
0.283820 2.491219
0.289415 2.347123
0.295121 2.211361
0.299830 2.109036
0.304012 2.023393
0.311471 1.881801
0.317186 1.782148
0.321540 1.710887
0.328184 1.609303
0.334965 1.513750
0.339821 1.451209
0.348488 1.347916
0.355133 1.275300
0.360199 1.223416
0.367935 1.149523
0.375837 1.080092
0.385700 1.002700
0.393267 0.948318
0.399039 0.909475
0.407857 0.854174
0.416869 0.802236
0.427809 0.745981
0.436202 0.706395
0.442604 0.678090
0.452385 0.637744
0.462381 0.599799
0.474515 0.558703
0.483824 0.529740
0.490926 0.509007
0.501774 0.479419
0.512861 0.451552
0.524807 0.424606
0.533949 0.405457
0.547961 0.378341
0.562341 0.353038
0.577098 0.330044
0.588420 0.313787
0.605820 0.290891
0.623735 0.269666
0.640103 0.252583
0.652661 0.240486
0.671960 0.223417
0.691831 0.207559
0.704896 0.198205
0.716530 0.190367
0.737354 0.177389
0.753367 0.168239
0.765606 0.161687
0.784337 0.152336
0.803526 0.143525
0.819879 0.136808
0.845036 0.127319
0.870964 0.118487
0.886135 0.113913
0.909390 0.107381
0.933254 0.101223
0.960506 0.095067
0.988553 0.089286
1.008672 0.085635
1.039621 0.080437
1.071519 0.075554
1.096478 0.072176
1.135011 0.067390
1.174898 0.062922
1.202265 0.060224
1.244515 0.056392
1.288250 0.052805
1.322057 0.050364
1.374438 0.046913
1.428894 0.043698
1.462177 0.041943
1.491935 0.040465
1.545477 0.038004
1.586890 0.036256
1.651100 0.033784
1.717908 0.031481
1.773168 0.029808
1.815777 0.028611
1.881617 0.026906
1.949845 0.025303
2.012566 0.024003
2.060927 0.023073
2.135656 0.021744
2.213095 0.020492
2.290868 0.019383
2.350986 0.018590
2.444134 0.017462
2.540973 0.016402
2.630268 0.015542
2.699293 0.014927
2.806241 0.014050
2.917427 0.013224
3.028656 0.012500
3.114853 0.011982
3.248769 0.011246
3.388442 0.010556
3.517629 0.009996
3.617742 0.009596
3.773278 0.009026
3.935501 0.008490
4.097321 0.008022
4.223038 0.007689
4.418883 0.007214
4.623810 0.006768
4.827808 0.006383
4.986691 0.006108
5.234874 0.005718
5.495409 0.005352
5.737861 0.005057
5.926694 0.004846
6.221660 0.004547
6.531306 0.004266
6.858829 0.004008
7.115207 0.003825
7.313759 0.003694
7.622024 0.003505
7.943282 0.003325
8.341612 0.003131
8.653414 0.002992
8.894891 0.002892
9.269799 0.002749
9.660509 0.002612
9.971260 0.002515
10.251360 0.002434
10.760590 0.002297
11.159050 0.002199
11.784570 0.002061
12.445150 0.001931
12.827000 0.001865
13.523650 0.001754
14.070850 0.001675
14.495740 0.001619
15.157240 0.001537
15.848930 0.001460
16.382300 0.001407
16.863710 0.001362
17.740460 0.001286
18.427800 0.001232
19.509080 0.001156
20.653800 0.001084
21.441240 0.001041
22.154850 0.001004
23.461270 0.000943
24.491400 0.000899
25.293580 0.000868
26.546370 0.000823
27.861210 0.000781
29.048580 0.000747
30.128970 0.000718
31.107230 0.000694
32.896220 0.000653
34.305160 0.000625
35.401330 0.000604
37.111610 0.000574
38.904510 0.000546
40.855450 0.000518
42.642600 0.000496
44.270380 0.000477
45.745570 0.000460
48.446430 0.000433
50.576220 0.000414
52.234780 0.000400
54.825150 0.000381
57.543990 0.000362
59.566210 0.000349
61.526540 0.000338
65.377700 0.000317
68.944710 0.000300
72.225130 0.000286
75.223280 0.000274
77.948590 0.000264
80.414100 0.000256
84.917880 0.000242
88.460490 0.000232
94.053440 0.000218
100.000000 0.000204
104.261700 0.000196
108.422000 0.000188
112.472800 0.000181
116.407800 0.000175
120.221800 0.000169
127.713000 0.000159
134.649800 0.000151
141.027900 0.000144
146.856100 0.000138
152.153000 0.000133
161.886400 0.000125
169.593000 0.000119
175.612700 0.000115
185.045300 0.000109
194.984500 0.000104
203.587000 0.000099
211.996300 0.000095
220.195100 0.000092
228.169300 0.000088
235.907200 0.000085
251.129900 0.000080
265.253500 0.000076
278.261700 0.000072
290.166200 0.000069
300.999600 0.000067
310.810200 0.000065
328.754300 0.000061
342.889000 0.000059
353.887400 0.000057
371.050100 0.000054
389.045100 0.000052
406.269600 0.000049
423.109500 0.000047
439.530400 0.000046
455.503200 0.000044
471.004500 0.000043
501.505500 0.000040
529.809800 0.000038
555.883400 0.000036
579.748400 0.000035
601.469100 0.000033
621.141300 0.000032
657.128500 0.000030
685.480700 0.000029
707.544700 0.000028
741.979500 0.000027
778.090200 0.000026
812.298800 0.000025
845.734100 0.000024
878.328500 0.000023
910.026800 0.000022
940.782100 0.000021
1001.280000 0.000020
1057.400000 0.000019
1109.080000 0.000018
1156.370000 0.000017
1199.400000 0.000017
1238.360000 0.000016
1309.590000 0.000015
1365.700000 0.000015
1454.380000 0.000014
1548.820000 0.000013
1617.400000 0.000012
1684.450000 0.000012
1749.830000 0.000011
1813.430000 0.000011
1875.150000 0.000011
1996.580000 0.000010
2109.260000 0.000009
2213.070000 0.000009
2308.080000 0.000009
2394.560000 0.000008
2472.870000 0.000008
2616.140000 0.000008
2729.000000 0.000007
2816.840000 0.000007
2953.910000 0.000007
3097.630000 0.000006
3234.790000 0.000006
3368.880000 0.000006
3499.630000 0.000006
3626.820000 0.000006
3750.250000 0.000005
3993.110000 0.000005
4218.480000 0.000005
4426.080000 0.000005
4616.100000 0.000004
4789.050000 0.000004
4945.680000 0.000004
5232.210000 0.000004
5457.950000 0.000004
5633.620000 0.000004
5907.780000 0.000003
6195.270000 0.000003
6469.560000 0.000003
6737.740000 0.000003
6999.240000 0.000003
7253.600000 0.000003
7500.460000 0.000003
7986.170000 0.000002
8436.900000 0.000002
8852.210000 0.000002
9232.350000 0.000002
9578.330000 0.000002
9891.920000 0.000002
10466.000000 0.000002
10918.000000 0.000002
11269.000000 0.000002
11817.000000 0.000002
12391.000000 0.000002
12940.000000 0.000002
13477.000000 0.000001
14001.000000 0.000001
14511.000000 0.000001
15005.000000 0.000001
15977.000000 0.000001
16879.000000 0.000001
17710.000000 0.000001
18470.000000 0.000001
19162.000000 0.000001
19789.000000 0.000001
20935.000000 0.000001
21837.000000 0.000001
22539.000000 0.000001
23634.000000 0.000001
24781.000000 0.000001
25879.000000 0.000001
26953.000000 0.000001
27999.000000 0.000001
29018.000000 0.000001
30006.000000 0.000001
31949.000000 0.000001
33753.000000 0.000001
35414.000000 0.000001
36934.000000 0.000001
38318.000000 0.000001
39572.000000 0.000001
41863.000000 0.000000
43669.000000 0.000000
45074.000000 0.000000
47265.000000 0.000000
49562.000000 0.000000
51757.000000 0.000000
53904.000000 0.000000
55996.000000 0.000000
58032.000000 0.000000
60008.000000 0.000000
63894.000000 0.000000
67500.000000 0.000000
70822.000000 0.000000
73863.000000 0.000000
76630.000000 0.000000
79136.000000 0.000000
83720.000000 0.000000
87332.000000 0.000000
90142.000000 0.000000
94527.000000 0.000000
99124.000000 0.000000
100000.000000 0.000000
